<?xml version="1.0" standalone="no"?>
<!DOCTYPE svg PUBLIC "-//W3C//DTD SVG 20010904//EN"
 "http://www.w3.org/TR/2001/REC-SVG-20010904/DTD/svg10.dtd">
<svg version="1.0" xmlns="http://www.w3.org/2000/svg"
 width="1280.000000pt" height="1049.000000pt" viewBox="0 0 1280.000000 1049.000000"
 preserveAspectRatio="xMidYMid meet">
<metadata>
Created by potrace 1.15, written by Peter Selinger 2001-2017
</metadata>
<g transform="translate(0.000000,1049.000000) scale(0.100000,-0.100000)"
fill="#03a9f4" stroke="none">
<path d="M5318 10483 c-16 -2 -28 -8 -28 -13 0 -9 54 -5 135 10 37 7 35 8 -20
7 -33 0 -72 -2 -87 -4z"/>
<path d="M5135 10448 c-70 -11 -96 -28 -44 -28 50 0 149 21 149 31 0 11 -24
10 -105 -3z"/>
<path d="M4630 10441 c-40 -11 -8 -22 44 -15 25 4 46 11 46 15 0 10 -54 10
-90 0z"/>
<path d="M4825 10393 c-36 -9 -41 -23 -8 -23 44 0 93 11 93 21 0 9 -50 10 -85
2z"/>
<path d="M4260 10357 c-34 -11 -34 -11 -8 -15 15 -2 35 1 44 6 26 15 3 20 -36
9z"/>
<path d="M5350 10339 c-87 -10 -220 -38 -220 -46 0 -3 37 -3 83 -1 80 6 193
31 212 49 5 5 7 8 5 8 -3 -1 -39 -5 -80 -10z"/>
<path d="M3895 10300 c-13 -6 6 -9 60 -9 44 0 87 4 95 9 19 12 -126 12 -155 0z"/>
<path d="M4893 10258 c-24 -5 -43 -13 -43 -19 0 -5 4 -9 8 -9 24 0 128 24 137
31 12 12 -47 10 -102 -3z"/>
<path d="M5685 10260 c-44 -4 -103 -12 -130 -19 -28 -6 -129 -15 -225 -21
-165 -8 -301 -32 -350 -60 -40 -24 330 -2 512 30 62 11 163 27 223 36 61 9
125 18 143 20 18 3 30 9 27 15 -7 10 -78 10 -200 -1z"/>
<path d="M3872 10209 c-35 -4 -70 -13 -78 -20 -16 -13 -19 -39 -4 -39 12 0
280 59 295 65 18 7 -149 3 -213 -6z"/>
<path d="M3435 10145 c-71 -18 -141 -38 -155 -44 l-25 -10 30 0 c17 -1 68 6
115 14 47 8 137 19 200 25 149 14 164 18 121 36 -54 23 -145 16 -286 -21z"/>
<path d="M4305 10150 c-3 -6 1 -13 9 -16 21 -8 66 3 66 16 0 13 -67 13 -75 0z"/>
<path d="M4023 10120 c-121 -10 -327 -44 -368 -61 -48 -20 -7 -22 91 -5 48 9
90 14 92 12 7 -8 -53 -34 -158 -67 -94 -30 -101 -34 -68 -37 51 -4 205 23 303
54 44 14 118 34 165 45 139 32 163 40 154 49 -15 14 -103 19 -211 10z"/>
<path d="M5410 10124 c-274 -29 -314 -42 -132 -43 81 -1 132 -5 132 -11 0 -13
446 -14 454 -1 3 5 -26 11 -65 13 -56 3 -74 8 -85 23 -13 18 -28 20 -142 21
-70 1 -143 0 -162 -2z"/>
<path d="M5003 10066 c-59 -12 -93 -26 -62 -26 35 0 145 22 154 31 12 12 -13
10 -92 -5z"/>
<path d="M5213 10028 c-45 -12 -41 -18 12 -18 25 0 45 4 45 9 0 15 -23 18 -57
9z"/>
<path d="M5835 10020 c-15 -7 -10 -9 23 -9 23 -1 42 4 42 9 0 12 -37 12 -65 0z"/>
<path d="M5024 9985 c-19 -14 -19 -14 1 -14 11 0 31 6 45 14 l25 14 -26 1
c-14 0 -34 -7 -45 -15z"/>
<path d="M5445 9989 c-27 -4 -133 -17 -235 -29 -257 -29 -361 -47 -378 -64
-13 -12 -12 -15 7 -25 16 -9 35 -8 82 4 34 9 150 27 258 41 265 33 391 57 391
75 0 11 -56 10 -125 -2z"/>
<path d="M5890 9954 c-162 -19 -301 -36 -309 -39 -8 -3 -11 -14 -8 -26 4 -16
-2 -24 -29 -35 -19 -8 -55 -17 -79 -21 -25 -3 -45 -10 -45 -15 0 -19 36 -20
104 -4 39 9 145 21 236 27 91 5 192 14 225 19 33 6 64 10 68 10 5 0 5 5 2 10
-5 7 -48 9 -131 4 -86 -5 -124 -4 -124 4 0 20 72 34 223 41 134 6 159 10 207
33 l55 26 -50 0 c-27 0 -183 -15 -345 -34z"/>
<path d="M4055 9945 c-58 -13 -171 -28 -462 -60 -137 -15 -454 -92 -477 -115
-5 -5 -2 -16 8 -25 24 -24 20 -44 -11 -51 -56 -12 -120 -35 -139 -49 -27 -21
-9 -18 86 10 110 33 201 49 460 80 221 27 320 47 320 66 0 7 -7 8 -17 4 -49
-21 -307 -27 -363 -9 -30 10 14 24 78 24 34 0 104 9 155 21 50 11 168 33 261
49 166 28 195 38 182 59 -8 13 -3 13 -81 -4z"/>
<path d="M6378 9923 c-16 -2 -28 -9 -28 -14 0 -10 161 -12 276 -2 116 9 64 22
-91 21 -71 -1 -142 -3 -157 -5z"/>
<path d="M4160 9820 c0 -12 37 -12 65 0 15 7 10 9 -22 9 -24 1 -43 -3 -43 -9z"/>
<path d="M5045 9823 c-174 -12 -258 -24 -315 -43 -36 -12 -71 -26 -77 -32 -20
-17 -5 -28 25 -18 35 12 311 50 361 50 22 0 43 -5 47 -11 9 -15 170 -7 186 9
9 9 10 17 2 30 -9 14 -27 17 -95 18 -46 0 -106 -1 -134 -3z"/>
<path d="M6271 9820 c-72 -11 -140 -30 -148 -43 -4 -6 3 -8 18 -3 13 4 90 9
170 13 123 5 154 3 202 -12 47 -15 63 -16 106 -5 27 6 58 18 68 25 16 13 9 14
-59 15 -42 0 -80 5 -83 10 -7 12 -193 11 -274 0z"/>
<path d="M4535 9785 l-30 -15 40 6 c22 3 44 10 50 15 14 14 -26 10 -60 -6z"/>
<path d="M5501 9739 c-99 -7 -342 -38 -554 -69 -38 -6 -85 -17 -105 -26 -32
-13 -35 -17 -19 -25 27 -16 20 -28 -28 -49 -47 -20 -65 -44 -47 -62 8 -8 27
-4 67 12 48 20 60 21 80 10 20 -11 41 -9 127 8 108 23 200 34 408 52 68 6 129
15 133 19 31 31 -169 23 -421 -15 -168 -26 -223 -28 -229 -7 -5 14 43 29 117
38 30 4 168 22 305 41 138 18 340 41 450 49 110 9 204 20 209 25 12 12 -325
11 -493 -1z"/>
<path d="M4150 9728 c-22 -10 -23 -12 -6 -15 26 -7 104 6 111 18 8 13 -74 10
-105 -3z"/>
<path d="M3950 9723 c-144 -15 -319 -37 -456 -59 -233 -35 -554 -108 -554
-125 0 -13 95 1 305 46 228 49 277 57 540 86 237 25 272 32 244 50 -8 5 -21 8
-29 7 -8 -1 -31 -3 -50 -5z"/>
<path d="M6303 9699 c-59 -11 -124 -41 -156 -73 -21 -21 -36 -26 -74 -26 -26
-1 -84 -7 -128 -15 -44 -8 -210 -24 -370 -35 -333 -23 -420 -33 -527 -60 -42
-11 -132 -29 -200 -40 -143 -23 -198 -37 -198 -50 0 -6 1 -10 3 -10 16 0 458
57 637 82 173 24 265 32 400 33 96 1 186 5 200 9 14 3 120 17 235 31 226 27
267 35 273 53 2 8 -12 12 -46 12 -92 0 -107 19 -37 45 42 17 46 17 71 0 31
-20 40 -15 22 14 -17 28 -55 39 -105 30z"/>
<path d="M6020 9678 c-19 -4 -84 -12 -144 -18 -59 -6 -116 -15 -125 -20 -20
-12 -23 -12 143 0 146 11 186 17 186 30 0 14 -24 17 -60 8z"/>
<path d="M3866 9599 c-66 -10 -71 -12 -61 -30 6 -9 46 -10 159 -4 83 3 153 9
156 12 3 2 -4 11 -14 19 -22 16 -141 17 -240 3z"/>
<path d="M6821 9564 c-24 -7 -47 -16 -50 -20 -10 -11 91 7 124 21 l30 13 -30
0 c-16 0 -50 -6 -74 -14z"/>
<path d="M3318 9545 c-202 -28 -542 -104 -563 -127 -16 -16 127 -1 330 37 274
51 296 55 433 70 70 8 133 15 140 15 6 0 12 5 12 10 0 14 -234 11 -352 -5z"/>
<path d="M3935 9503 l-50 -15 24 -19 23 -19 -36 -15 c-20 -9 -69 -20 -109 -25
-127 -16 -200 -50 -107 -50 91 1 326 60 363 91 l22 19 -28 25 c-32 29 -35 29
-102 8z"/>
<path d="M6238 9498 c-41 -15 -34 -28 16 -28 48 0 106 17 106 31 0 12 -88 10
-122 -3z"/>
<path d="M3100 9395 c-146 -34 -281 -70 -300 -78 l-35 -15 40 -1 c22 -1 87 11
145 25 77 20 129 26 197 26 73 -1 91 2 87 13 -6 15 69 46 158 65 32 6 60 16
63 21 14 22 -107 3 -355 -56z"/>
<path d="M3675 9443 c-49 -11 -85 -25 -85 -34 0 -16 44 -9 95 15 46 22 41 31
-10 19z"/>
<path d="M5396 9395 c-21 -13 -67 -28 -101 -34 -82 -15 -212 -14 -221 0 -15
26 -410 -13 -534 -52 -105 -34 -6 -35 202 -4 110 17 248 20 248 5 0 -19 -42
-30 -250 -65 -113 -20 -241 -46 -285 -58 -76 -21 -78 -22 -40 -25 87 -8 472
39 560 68 17 5 85 14 152 20 67 5 182 23 255 39 186 42 226 45 316 31 73 -12
83 -12 148 9 100 32 174 38 208 16 20 -14 38 -16 77 -12 53 6 111 35 106 51
-7 22 -86 26 -426 20 -264 -5 -352 -4 -347 5 12 19 -27 12 -68 -14z"/>
<path d="M6735 9403 c-42 -6 -157 -44 -151 -50 8 -8 186 38 186 48 0 5 -1 8
-2 8 -2 -1 -16 -4 -33 -6z"/>
<path d="M6720 9249 c-184 -36 -231 -47 -248 -61 -33 -28 12 -28 129 1 68 16
151 35 184 41 96 18 135 30 135 40 0 15 -41 11 -200 -21z"/>
<path d="M3915 9263 c-11 -3 -46 -14 -79 -24 -67 -22 -236 -26 -283 -8 -26 10
-27 12 -8 19 19 8 19 9 -3 9 -13 1 -32 -4 -43 -10 -11 -5 -70 -16 -132 -24
-111 -14 -161 -27 -225 -60 -30 -16 -45 -16 -140 -6 -76 8 -130 9 -185 1 -137
-17 -139 -35 -6 -50 46 -5 87 -14 93 -20 24 -24 196 2 286 44 78 36 141 35
228 -5 62 -29 74 -31 157 -28 184 6 189 6 231 -22 21 -14 54 -31 73 -37 19 -7
52 -27 75 -46 80 -65 105 -76 181 -76 79 0 115 17 115 54 0 50 50 65 275 81
84 6 137 14 433 65 185 32 399 58 626 75 216 16 256 22 256 35 0 27 -281 18
-635 -20 -206 -23 -238 -28 -468 -75 -129 -27 -192 -35 -275 -35 -120 -1 -180
-18 -265 -80 -54 -39 -119 -47 -125 -17 -5 26 19 49 88 82 57 27 76 45 47 45
-32 0 -107 -29 -139 -54 -36 -27 -63 -32 -86 -17 -27 17 -7 46 50 76 32 17 58
34 58 38 0 12 -55 -1 -113 -25 -50 -22 -115 -20 -158 2 -28 15 -18 25 72 70
43 22 79 42 79 45 0 6 -27 5 -55 -2z m-227 -90 c3 -10 -20 -13 -92 -13 -53 0
-96 4 -96 9 0 22 180 25 188 4z"/>
<path d="M4221 9235 c-68 -22 -111 -45 -84 -45 21 0 188 51 198 61 16 16 -37
9 -114 -16z"/>
<path d="M10310 9173 c-55 -19 -90 -25 -130 -23 -30 2 -95 4 -145 4 l-90 0
-120 -63 c-66 -35 -127 -69 -136 -77 -22 -19 -66 -17 -160 7 -67 17 -88 19
-130 10 -64 -14 -118 -42 -198 -102 -71 -54 -65 -53 -171 -50 -87 3 -144 -14
-204 -61 -53 -40 -123 -124 -161 -192 -61 -109 -108 -147 -224 -182 -132 -40
-221 -93 -221 -131 0 -8 -13 -40 -30 -73 -18 -37 -30 -75 -30 -100 0 -36 -4
-43 -47 -75 -27 -19 -82 -51 -123 -70 -41 -20 -86 -41 -99 -48 -13 -7 -50 -50
-82 -97 -45 -65 -64 -103 -78 -160 -29 -112 -59 -185 -89 -215 -14 -15 -57
-45 -94 -66 -45 -26 -81 -58 -107 -92 -61 -80 -65 -81 -233 -82 l-148 0 -29
-33 c-31 -34 -68 -52 -104 -52 -20 0 -19 2 7 29 19 20 26 36 22 47 -13 33
-289 4 -338 -35 l-22 -18 32 5 c19 2 32 0 32 -7 0 -14 -70 -61 -92 -61 -21 0
-25 39 -6 58 19 19 -5 15 -94 -15 -70 -24 -80 -25 -94 -12 -52 53 107 111 394
144 70 8 152 15 183 15 61 0 122 17 113 31 -3 5 -51 9 -107 10 -56 0 -111 4
-122 9 -34 14 45 40 154 52 53 6 107 17 120 25 l24 16 -24 13 c-23 13 -23 13
17 14 23 0 55 -7 70 -15 27 -14 53 -14 107 1 32 10 8 22 -55 29 -42 5 -69 14
-81 26 -24 26 -110 25 -177 -1 -39 -15 -74 -20 -151 -20 -55 0 -166 -10 -246
-21 -112 -17 -151 -19 -165 -10 -42 26 -107 -1 -71 -30 12 -11 47 -14 140 -12
67 0 123 -3 123 -8 0 -13 -35 -28 -87 -39 -27 -5 -68 -18 -93 -29 l-45 -20 67
0 c111 -1 126 -17 47 -50 -62 -27 -135 -36 -171 -22 -33 13 -37 42 -11 96 16
34 16 35 -7 60 l-25 26 25 47 25 47 65 -2 c36 -1 90 -4 120 -5 54 -2 375 49
475 76 48 13 43 14 -115 15 -91 1 -199 2 -240 2 -41 0 -143 -11 -227 -26 -83
-15 -159 -25 -167 -22 -9 4 -20 17 -26 31 -9 26 -20 31 -87 41 -61 10 -80 26
-66 58 17 37 85 57 111 33 12 -10 29 -14 48 -11 55 9 287 24 296 19 5 -3 4
-12 -3 -20 -6 -8 -9 -18 -5 -21 4 -4 87 1 184 10 213 21 285 22 280 5 -4 -12
-28 -19 -173 -50 l-60 -13 53 -3 c83 -5 209 23 267 59 30 19 71 34 102 39 99
13 66 20 -95 20 -144 0 -162 2 -162 16 0 15 -18 16 -192 11 -106 -3 -241 -11
-301 -18 -102 -12 -138 -8 -107 11 20 12 143 39 212 47 60 6 87 17 74 30 -4 4
-63 8 -131 7 -115 -1 -126 -3 -171 -29 -95 -55 -127 -68 -173 -73 -83 -8 -96
47 -14 63 20 3 95 24 167 46 150 45 281 69 381 69 39 0 105 7 148 15 48 9 137
15 228 15 90 0 149 4 149 10 0 5 -17 18 -37 29 l-38 19 30 8 c17 5 75 8 130 7
55 -1 136 -2 179 -2 53 -1 97 4 130 16 l51 18 -85 6 c-47 3 -106 4 -132 1 -25
-2 -58 -2 -73 2 -25 6 -26 8 -11 25 9 10 16 21 16 24 0 19 -335 1 -538 -28
-56 -8 -120 -15 -142 -15 -44 0 -130 20 -130 31 0 14 171 39 462 69 198 20
288 35 321 52 22 11 11 32 -12 23 -9 -4 -58 -11 -110 -16 -93 -10 -93 -10
-152 21 -32 16 -63 30 -69 30 -6 0 -27 7 -47 15 -33 14 -35 17 -21 31 17 17
167 59 177 49 3 -4 6 -14 6 -23 0 -25 31 -26 76 -2 23 11 62 23 87 26 43 6
152 50 152 61 0 7 -165 -6 -310 -24 -136 -17 -403 -23 -417 -9 -9 10 -12 8
135 90 62 35 139 71 170 81 31 9 64 19 72 21 12 4 10 9 -9 23 -46 35 -20 41
157 39 161 -3 168 -2 205 21 26 16 35 27 28 34 -16 16 -194 10 -269 -10 -76
-19 -360 -26 -364 -8 -4 16 64 34 277 71 291 52 308 53 563 54 210 0 272 7
210 24 -38 10 -379 7 -643 -6 -245 -11 -331 -7 -256 14 24 6 31 12 23 20 -7 7
-27 2 -65 -16 -56 -26 -218 -60 -263 -54 -49 6 -28 23 51 41 44 10 114 29 156
43 88 28 153 31 176 9 11 -11 25 -14 51 -9 51 9 75 23 42 24 -14 0 -31 4 -38
9 -21 13 46 26 303 61 126 17 234 35 239 40 19 19 -45 20 -222 5 -254 -21
-268 -21 -297 11 -24 26 -51 24 -41 -2 10 -25 -40 -45 -221 -90 -191 -48 -365
-69 -330 -41 22 18 115 44 333 93 87 20 161 38 163 40 2 2 -23 4 -57 4 -65 0
-73 4 -44 26 15 12 10 13 -35 14 -28 0 -55 -4 -58 -10 -3 -5 -22 -10 -41 -10
-19 0 -51 -7 -71 -15 -19 -8 -59 -15 -87 -15 -29 0 -58 -6 -65 -12 -11 -11
-13 -10 -9 2 6 23 64 48 153 66 89 18 119 30 110 45 -16 24 -163 -4 -244 -47
-25 -13 -57 -24 -71 -24 -25 -1 -77 -18 -180 -60 -53 -22 -73 -23 -455 -31
-407 -8 -552 -19 -608 -43 -31 -14 -30 -14 41 -15 39 -1 72 -5 72 -11 0 -34
-118 -42 -150 -10 -26 26 -74 26 -171 1 -112 -30 -394 -58 -414 -41 -20 17
-19 47 3 59 25 13 147 28 342 41 91 6 228 20 305 30 189 26 342 39 526 45 181
7 239 13 239 25 0 5 -17 12 -37 15 -21 3 -72 14 -113 25 -41 10 -98 21 -125
24 -66 8 -292 -8 -655 -44 -402 -41 -609 -77 -664 -116 -12 -8 -45 -14 -79
-14 -70 0 -127 -24 -106 -45 8 -8 77 -24 154 -37 l139 -23 58 -54 c45 -41 58
-60 58 -82 0 -53 63 -63 195 -29 126 32 133 30 222 -51 114 -104 136 -116 245
-138 97 -19 148 -42 148 -66 0 -7 19 -37 43 -67 58 -73 71 -95 87 -151 17 -62
51 -95 136 -131 147 -63 159 -78 199 -232 28 -104 68 -193 109 -237 14 -16 50
-39 79 -51 91 -41 92 -44 92 -227 l0 -158 46 -48 c111 -115 135 -179 79 -211
-16 -9 -30 -20 -30 -23 0 -12 79 -41 94 -36 9 4 16 19 16 34 l1 28 16 -30 c8
-16 32 -46 52 -65 20 -19 45 -48 56 -63 27 -39 59 -41 63 -4 4 34 25 35 46 2
19 -28 71 -45 142 -45 40 0 55 5 71 23 25 27 47 92 39 114 -6 14 -9 13 -29 -6
-13 -11 -26 -21 -29 -21 -5 0 -28 88 -43 168 -8 39 16 82 45 82 23 0 24 -3 8
-30 -17 -28 5 -42 52 -33 86 15 97 33 36 58 l-31 13 28 11 c16 6 36 11 45 11
28 -1 103 -39 157 -79 28 -21 64 -45 82 -54 36 -19 89 -22 99 -6 3 6 26 19 50
30 56 23 64 45 64 162 0 127 13 146 117 181 43 14 83 26 90 26 6 0 13 -13 15
-30 l3 -30 48 32 c42 27 50 29 63 16 13 -13 12 -17 -6 -40 -31 -40 -26 -48 35
-48 42 0 55 4 55 15 0 8 15 31 33 52 19 22 25 34 15 30 -9 -3 -32 -9 -50 -12
l-33 -6 -2 81 c-3 95 -10 114 -31 74 -20 -40 -43 -65 -53 -58 -12 7 -11 129 2
184 15 64 62 158 103 207 25 28 68 57 138 93 57 29 115 61 130 72 35 24 98
150 98 195 0 49 26 98 74 140 35 30 58 40 143 59 56 12 121 31 145 42 37 16
45 26 61 70 31 91 179 257 266 298 54 26 105 14 160 -39 25 -24 58 -47 72 -51
58 -13 180 28 163 55 -3 5 -48 9 -100 9 -55 0 -94 4 -94 10 0 16 74 65 180
119 113 59 159 64 255 31 81 -28 99 -26 130 14 16 20 42 40 63 46 20 7 81 32
135 57 134 62 170 61 309 -3 117 -54 179 -64 226 -40 59 31 29 64 -45 50 -21
-4 -50 -13 -64 -20 -22 -11 -29 -11 -45 1 -18 14 -18 15 5 34 60 47 139 52
243 15 174 -61 192 -65 340 -73 138 -8 150 -10 212 -42 53 -27 68 -31 78 -21
20 20 -9 61 -66 96 -46 29 -55 31 -195 37 -169 8 -214 18 -332 70 -103 46
-137 48 -239 12z m-5190 -137 c0 -19 -28 -25 -142 -33 -68 -4 -98 -3 -98 5 0
13 27 22 95 32 88 13 145 12 145 -4z m885 -106 c3 -5 -7 -17 -22 -27 -24 -16
-53 -18 -268 -18 -179 0 -246 3 -263 13 -12 7 -20 17 -17 23 9 13 318 11 386
-3 49 -10 60 -9 81 5 25 18 93 23 103 7z m360 -19 c-13 -11 -204 -79 -275 -97
-61 -15 -184 -19 -176 -5 3 5 18 12 33 15 16 4 66 18 113 33 149 45 330 78
305 54z m180 -70 c18 -7 18 -9 -6 -24 -14 -9 -76 -26 -139 -36 -63 -11 -155
-32 -205 -46 -185 -54 -292 -68 -314 -41 -22 26 24 46 109 46 83 0 148 15 230
53 96 45 268 70 325 48z m-1340 -13 c-84 -30 -73 -53 23 -44 127 12 127 12
127 -4 0 -39 -235 -51 -303 -15 -38 20 -81 15 -191 -21 -85 -28 -114 -30 -131
-9 -18 21 26 61 79 70 59 10 317 33 376 33 47 0 48 0 20 -10z m594 -27 c22
-14 -2 -22 -97 -31 -48 -5 -122 -16 -165 -24 -43 -9 -97 -16 -120 -15 l-42 0
40 15 c43 16 291 62 340 63 17 0 36 -3 44 -8z m941 -71 c0 -17 -46 -40 -101
-50 -30 -5 -110 -14 -179 -19 -142 -11 -453 -88 -649 -160 -168 -62 -198 -63
-258 -8 -28 25 -29 34 -2 42 14 5 28 0 43 -14 l23 -21 94 29 c94 30 190 57
389 113 58 16 125 38 150 50 38 17 78 22 244 29 110 5 202 12 205 14 8 9 41 5
41 -5z m224 -60 c75 -28 -10 -52 -349 -96 -148 -19 -328 -44 -400 -55 -182
-29 -225 -33 -225 -22 0 16 106 42 215 54 55 6 145 21 200 34 55 13 150 31
210 39 61 9 155 25 210 35 55 10 103 19 107 20 4 1 18 -3 32 -9z m-1099 -20
c-3 -5 -31 -18 -63 -30 -45 -18 -78 -22 -159 -21 -77 0 -116 -5 -159 -19 -100
-35 -234 -23 -273 23 -11 14 -11 20 -1 32 19 23 65 18 98 -10 36 -30 91 -33
185 -9 71 17 346 52 364 46 7 -2 11 -8 8 -12z m805 -140 c0 -6 -8 -13 -17 -16
-10 -3 -43 -17 -73 -31 -45 -22 -73 -27 -155 -30 l-100 -4 28 26 c18 15 40 25
60 25 18 0 64 9 102 19 78 21 155 26 155 11z m-37 -95 c1 -5 -13 -11 -30 -13
-31 -3 -42 6 -26 22 10 10 53 3 56 -9z m-423 -11 c0 -19 -218 -95 -271 -94
-21 1 -20 3 11 19 19 10 73 31 120 46 47 15 90 28 95 30 17 6 45 5 45 -1z
m-472 -21 c5 -16 -22 -27 -44 -19 -13 5 -14 9 -4 22 15 17 41 15 48 -3z m702
-12 c0 -5 -15 -14 -32 -20 -43 -14 -175 -41 -196 -41 -30 1 35 30 111 50 81
21 117 24 117 11z m389 -17 c17 -4 31 -12 31 -19 0 -10 -33 -15 -121 -20 -114
-7 -121 -9 -130 -31 -5 -15 -17 -24 -30 -24 -18 0 -19 2 -9 15 19 23 -16 20
-47 -5 -26 -20 -58 -25 -87 -14 -93 36 261 124 393 98z m-716 -91 c12 -11 -15
-33 -40 -33 -31 0 -65 18 -58 31 7 10 88 13 98 2z m904 -9 c42 -11 12 -24 -57
-24 -102 0 -102 25 0 29 19 0 45 -2 57 -5z m-452 -44 c0 -11 -35 -24 -120 -48
-153 -42 -209 -50 -203 -31 2 8 36 25 74 37 180 61 249 73 249 42z m-555 -123
c0 -21 -37 -50 -55 -44 -18 8 -20 43 -2 50 25 11 57 7 57 -6z m1051 -15 c-30
-56 -58 -62 -393 -81 -271 -16 -332 -28 -535 -109 l-51 -21 -26 20 c-14 11
-26 24 -26 29 0 29 275 85 655 135 398 51 389 51 376 27z m-851 -32 c0 -12
-65 -30 -108 -30 -36 0 -35 15 2 30 29 12 106 12 106 0z m760 -599 c0 -12 -80
-37 -142 -46 -71 -9 -176 10 -157 30 21 20 299 35 299 16z m390 -258 c0 -3
-21 -25 -46 -48 l-46 -43 -56 15 c-72 18 -93 36 -63 53 43 22 211 41 211 23z
m-599 -77 c-13 -15 -93 -46 -120 -46 -32 0 13 28 69 43 30 8 57 15 59 16 2 0
-2 -5 -8 -13z m-217 -25 c3 -4 -1 -17 -9 -27 -11 -15 -17 -17 -32 -8 -10 6
-19 19 -21 28 -3 12 4 16 27 16 16 0 32 -4 35 -9z m236 -141 c7 -13 5 -22 -6
-31 -14 -11 -19 -10 -35 10 -14 18 -17 27 -8 37 13 16 36 8 49 -16z m31 -147
c15 -9 31 -23 33 -30 8 -20 -19 -15 -39 7 -10 11 -26 20 -36 20 -10 0 -21 5
-24 10 -10 16 34 11 66 -7z"/>
<path d="M6183 9100 c-30 -12 -29 -30 1 -30 34 0 87 20 80 31 -7 11 -52 11
-81 -1z"/>
<path d="M3263 9073 c-7 -2 -13 -13 -13 -24 0 -27 -17 -29 -270 -31 -218 -3
-227 -4 -280 -29 -66 -31 -55 -42 20 -21 30 9 75 15 100 14 25 -1 93 -2 153
-2 59 -1 119 -5 134 -11 15 -6 72 -14 126 -19 111 -9 137 -22 166 -78 19 -38
31 -45 134 -86 57 -23 42 -39 -49 -54 -43 -7 -99 -16 -124 -20 -84 -13 -43
-27 90 -30 l130 -3 11 45 c6 25 17 47 25 50 20 8 125 -13 152 -30 12 -8 22
-23 22 -34 0 -13 10 -24 26 -30 32 -13 291 -13 299 -1 9 16 -11 22 -98 31 -45
4 -116 21 -157 35 -41 15 -111 38 -156 50 -45 13 -90 28 -102 34 -11 6 -34 11
-51 11 -28 0 -71 29 -71 48 0 20 33 51 60 57 53 12 107 -5 168 -50 121 -91
221 -120 452 -136 100 -6 163 -15 176 -24 26 -17 69 -83 60 -93 -4 -3 -32 0
-64 7 -31 8 -76 16 -99 18 -38 4 -43 3 -43 -14 0 -28 25 -46 102 -77 81 -32
82 -32 152 -1 68 30 79 31 122 5 45 -28 168 -70 224 -77 48 -6 96 10 85 28 -4
5 -18 9 -33 9 -42 0 -122 42 -183 96 -31 27 -85 65 -120 84 -59 33 -64 38 -69
75 -4 35 -9 40 -32 43 -32 4 -33 -1 -14 -56 8 -22 12 -43 9 -46 -14 -14 -32
-4 -52 29 -31 53 -74 67 -231 75 -128 6 -138 8 -185 38 -119 74 -256 122 -345
122 -25 0 -76 -11 -115 -25 -94 -33 -132 -33 -145 1 -6 14 -10 27 -10 30 0 2
25 4 55 4 41 0 55 4 55 14 0 24 -161 64 -197 49z m542 -127 c40 -17 45 -33 12
-41 -43 -11 -106 27 -76 46 19 12 24 11 64 -5z"/>
<path d="M2533 9040 c-29 -10 -100 -26 -157 -34 -114 -17 -211 -49 -274 -91
-44 -29 -61 -55 -36 -55 19 0 100 42 143 74 33 24 42 26 148 26 73 0 125 5
146 13 36 16 97 64 97 78 0 12 -5 11 -67 -11z"/>
<path d="M11207 8953 c-4 -3 -2 -12 4 -19 11 -13 61 -25 182 -42 107 -16 181
-57 290 -161 93 -88 211 -173 313 -224 69 -35 147 -98 174 -141 17 -28 25 -66
36 -173 16 -149 28 -185 95 -285 48 -72 78 -108 91 -108 15 0 1 37 -63 170
-58 121 -60 129 -73 252 -11 112 -16 133 -41 168 -40 58 -133 141 -207 186
-132 79 -212 138 -297 219 -100 94 -140 118 -248 146 -74 18 -242 27 -256 12z"/>
<path d="M10760 8933 c-67 -11 -128 -35 -150 -58 -13 -14 -20 -28 -16 -32 15
-15 180 -7 237 11 52 17 60 17 155 1 54 -10 122 -26 150 -36 60 -23 131 -81
136 -110 2 -15 18 -27 54 -40 60 -23 81 -43 90 -88 l7 -33 -54 8 c-74 12 -159
11 -157 -1 1 -5 24 -16 52 -23 97 -25 165 -62 197 -109 32 -46 54 -48 46 -4
-10 50 -79 216 -100 239 -11 12 -40 34 -64 48 -26 15 -49 38 -57 57 -25 59
-74 94 -169 122 -48 14 -104 25 -125 25 -20 1 -48 7 -62 15 -24 14 -112 18
-170 8z"/>
<path d="M10153 8889 c-30 -9 -44 -35 -28 -51 5 -5 142 47 154 58 9 8 -95 2
-126 -7z"/>
<path d="M10380 8883 c48 -21 100 -28 100 -15 0 19 -37 32 -87 31 l-48 -1 35
-15z"/>
<path d="M10247 8840 c-21 -4 -45 -13 -52 -21 -12 -12 1 -14 88 -16 l102 -1
-24 19 c-13 10 -29 19 -36 19 -7 0 -19 2 -27 4 -7 2 -30 0 -51 -4z"/>
<path d="M2753 8804 c-22 -10 -14 -33 13 -40 33 -8 107 13 101 29 -4 12 -92
20 -114 11z"/>
<path d="M1930 8775 c-36 -13 -125 -35 -198 -48 -72 -13 -135 -26 -138 -30 -3
-3 -3 -11 1 -18 6 -8 31 -10 89 -6 136 10 317 72 324 110 4 21 3 21 -78 -8z"/>
<path d="M11475 8791 c-7 -13 32 -34 46 -26 7 5 6 11 -2 21 -13 16 -35 18 -44
5z"/>
<path d="M10055 8783 c-31 -8 -65 -34 -65 -49 0 -21 50 -17 88 6 48 29 33 57
-23 43z"/>
<path d="M10174 8756 c-8 -20 12 -53 39 -67 33 -18 212 -14 266 5 52 19 149
20 249 2 39 -7 72 -9 72 -5 0 4 -16 18 -36 30 -49 30 -158 36 -286 15 -141
-23 -187 -21 -228 9 -38 28 -68 32 -76 11z"/>
<path d="M7535 8680 c6 -26 3 -31 -20 -40 -14 -5 -38 -10 -53 -10 -15 0 -34
-4 -42 -10 -24 -15 34 -31 135 -37 76 -5 93 -3 104 11 11 13 11 17 -3 22 -9 3
-16 15 -16 26 0 30 -45 68 -80 68 -30 0 -31 -2 -25 -30z"/>
<path d="M9692 8698 c-19 -19 -14 -27 20 -36 37 -9 52 -42 19 -42 -11 0 -46
-9 -77 -21 -38 -14 -59 -18 -66 -11 -14 14 -3 29 36 53 28 17 29 19 9 19 -31
0 -94 -59 -143 -132 -48 -72 -52 -94 -9 -50 17 18 40 32 50 32 11 0 46 14 79
30 65 33 95 37 107 16 4 -7 23 -21 41 -30 26 -13 31 -20 22 -31 -12 -15 -47
-29 -108 -45 -25 -7 -62 -29 -92 -55 -28 -25 -61 -45 -73 -45 -33 -1 -97 -33
-145 -74 -24 -20 -51 -36 -61 -36 -9 0 -41 -16 -70 -35 -61 -39 -102 -51 -128
-37 -14 9 -8 15 42 39 33 15 59 33 58 38 -1 6 -24 12 -49 15 -26 3 -49 10 -51
17 -7 21 40 37 127 43 77 4 85 7 85 25 0 17 -8 21 -45 23 -107 8 -144 -17
-238 -163 -36 -55 -80 -120 -98 -144 -55 -72 -25 -83 57 -21 30 22 61 40 70
40 25 0 34 -68 16 -111 -17 -40 -122 -143 -137 -134 -20 12 -9 34 35 70 25 21
43 40 40 44 -4 7 -68 1 -210 -20 -74 -10 -133 -39 -177 -86 -36 -39 -103 -166
-123 -235 -20 -69 -53 -101 -125 -118 -54 -13 -58 -17 -79 -95 -18 -66 -82
-164 -154 -234 -84 -82 -134 -175 -145 -274 -9 -76 -11 -79 -72 -110 -57 -29
-60 -44 -14 -63 31 -13 41 -14 63 -3 14 8 29 15 34 17 4 2 7 -5 7 -15 0 -40
22 -92 56 -131 46 -54 40 -72 -24 -72 -55 0 -72 12 -72 52 0 30 -69 117 -70
88 0 -9 4 -20 10 -26 5 -5 13 -32 16 -59 4 -28 12 -60 20 -72 15 -23 86 -43
157 -43 32 0 54 -8 91 -35 27 -19 55 -35 61 -35 14 0 45 -32 45 -48 0 -35 -98
-13 -120 28 -11 21 -18 22 -79 18 -77 -6 -128 -29 -141 -63 -5 -14 -14 -25
-20 -25 -14 0 -37 40 -45 80 -11 59 -16 70 -29 70 -14 0 -166 -194 -166 -211
0 -17 20 -9 35 15 9 13 29 29 45 36 26 11 39 9 100 -14 l70 -26 80 26 c44 14
85 22 90 19 22 -14 0 -85 -26 -85 -3 0 -38 -5 -77 -11 -122 -19 -146 -46 -44
-51 l62 -3 -52 -28 c-56 -29 -65 -42 -34 -52 33 -10 70 6 101 45 38 48 80 66
128 54 21 -5 38 -16 40 -26 2 -9 -22 -44 -52 -78 -83 -93 -84 -123 -3 -135 23
-3 65 -11 93 -17 38 -8 56 -7 73 2 l23 12 -21 22 c-35 37 -21 76 27 76 17 0
27 -9 37 -33 7 -18 23 -41 34 -51 15 -13 21 -32 21 -60 1 -83 39 -99 208 -86
64 5 129 10 143 10 20 0 37 14 72 59 25 33 99 104 164 158 75 63 112 99 101
101 -8 2 -69 -22 -133 -52 -108 -50 -145 -59 -145 -35 0 14 -47 11 -85 -5 -50
-21 -43 -27 20 -20 36 4 55 3 55 -4 0 -5 -50 -42 -112 -81 -123 -78 -156 -86
-226 -54 l-37 17 77 6 c42 3 80 8 83 12 14 14 -4 37 -44 57 -40 21 -57 38 -48
47 3 3 64 22 136 43 194 56 198 79 6 35 -73 -17 -119 -17 -165 0 l-35 13 45
13 c25 7 63 22 85 35 22 13 65 26 95 30 65 9 207 51 215 65 9 15 -8 12 -150
-20 -136 -32 -158 -31 -176 2 -14 27 8 51 64 68 l42 14 -52 7 c-81 11 -103 18
-103 35 0 8 17 22 37 30 89 38 157 119 193 229 26 84 83 188 116 214 13 10 70
38 126 62 147 61 143 57 177 168 17 54 39 105 50 115 27 24 104 46 165 46 28
0 68 4 88 9 38 9 172 91 275 169 31 23 64 42 72 42 9 0 39 14 66 30 68 40 109
40 153 -2 l33 -33 127 0 c118 1 131 3 182 28 62 30 91 33 123 13 12 -8 54 -24
92 -36 129 -39 152 -51 200 -95 26 -25 84 -64 129 -87 159 -83 263 -210 315
-385 16 -54 35 -89 76 -140 62 -77 92 -133 101 -192 6 -36 4 -41 -12 -41 -11
0 -26 -4 -34 -10 -12 -7 -12 -12 4 -29 11 -12 25 -21 33 -21 8 0 27 -7 43 -15
31 -16 41 -45 16 -45 -15 0 -46 -36 -46 -53 0 -5 25 -33 56 -63 l57 -54 -6
-52 c-6 -47 -3 -57 24 -100 56 -87 73 -178 43 -237 -10 -19 -13 -42 -9 -58 6
-24 7 -25 25 -8 17 15 22 16 36 4 12 -10 15 -23 10 -57 -4 -33 -1 -53 15 -84
17 -33 22 -71 30 -200 5 -88 20 -250 35 -360 24 -190 24 -205 10 -262 -10 -38
-20 -154 -27 -304 -6 -133 -14 -266 -19 -295 -21 -138 -62 -351 -76 -389 -8
-24 -20 -84 -25 -134 -9 -85 -160 -650 -188 -702 -6 -11 -16 -44 -22 -72 -7
-35 -26 -71 -58 -113 -26 -34 -90 -123 -141 -197 -173 -249 -237 -297 -385
-287 -44 3 -118 17 -165 31 -191 58 -192 58 -251 39 -29 -10 -57 -25 -62 -34
-14 -22 -2 -62 29 -98 29 -35 177 -135 214 -145 14 -4 56 -21 94 -38 62 -28
75 -30 140 -25 235 20 508 164 713 376 208 217 303 340 428 558 32 56 85 137
117 180 63 84 230 396 298 558 35 84 97 243 167 430 48 128 85 393 69 498 -9
62 -35 94 -63 79 -23 -13 -43 -60 -43 -104 0 -21 6 -31 25 -38 23 -9 25 -15
25 -69 0 -125 -38 -253 -172 -591 -156 -390 -310 -696 -398 -790 -25 -27 -34
-30 -88 -30 -73 0 -90 -16 -27 -25 25 -4 45 -12 45 -19 0 -29 -116 -246 -132
-246 -4 0 -8 11 -8 24 0 28 -24 56 -48 56 -33 0 -43 -16 -40 -61 3 -40 6 -44
31 -47 15 -2 27 -7 27 -12 0 -13 -59 -98 -74 -107 -7 -5 -21 -22 -30 -40 -45
-89 -285 -307 -400 -365 -45 -22 -92 -48 -106 -58 -40 -28 -189 -77 -274 -90
-115 -17 -158 -7 -363 91 -86 40 -117 71 -111 111 3 22 7 23 74 22 64 0 80 -5
170 -50 l99 -49 140 0 c134 0 142 1 194 28 40 21 169 57 205 57 2 0 19 15 38
33 19 17 49 40 66 49 52 28 41 42 -25 34 -165 -19 -172 -19 -179 -3 -10 27 75
164 139 223 32 30 65 54 72 54 11 0 13 10 9 43 -5 35 -1 49 22 82 15 22 35 59
45 83 10 24 39 68 64 99 43 53 45 57 29 74 -21 24 -14 83 17 154 13 28 37 100
55 160 29 101 33 110 57 113 19 2 30 -4 43 -22 21 -34 63 -34 101 -2 35 31 24
45 -43 54 -51 8 -51 7 -89 96 -16 39 -16 40 9 63 14 13 36 42 47 65 l21 42
-22 52 c-19 48 -20 55 -7 81 8 15 22 76 30 135 17 110 38 178 57 178 11 0 7
-25 -12 -88 -22 -72 24 -52 59 25 15 32 31 61 36 64 5 4 31 9 57 12 27 3 63
13 80 22 17 9 72 20 123 24 112 10 156 27 193 77 16 22 33 41 39 43 5 2 23 17
39 33 40 40 23 57 -34 34 -22 -9 -49 -16 -60 -16 -27 0 -52 -42 -48 -82 2 -27
-1 -35 -25 -46 -23 -11 -39 -11 -97 1 -65 13 -73 13 -105 -4 -19 -11 -48 -19
-65 -19 -34 0 -137 36 -146 52 -20 33 17 215 62 305 27 53 28 81 1 117 -22 30
-50 14 -42 -23 6 -30 -12 -111 -25 -111 -4 0 -10 71 -14 157 -4 87 -10 177
-13 200 -5 41 -5 43 20 43 16 0 28 7 31 18 14 52 15 85 1 167 -8 50 -15 113
-15 140 0 30 -8 65 -19 86 -43 80 -36 146 19 174 37 19 37 26 0 47 -39 22 -44
75 -7 80 20 3 19 5 -14 24 l-36 22 -5 91 c-4 59 -11 99 -22 115 -20 32 -38
154 -30 207 5 30 16 47 45 70 52 41 51 59 -4 59 -30 0 -53 7 -76 24 l-32 24
36 12 c45 15 41 30 -13 48 -36 12 -42 18 -48 50 -4 20 -11 43 -17 50 -12 15
-57 16 -57 0 0 -21 -38 23 -69 81 -17 33 -31 62 -31 65 0 12 41 6 73 -10 61
-32 207 -18 207 20 0 19 -40 52 -90 75 -64 29 -79 27 -47 -7 34 -35 34 -52 2
-52 -42 0 -84 28 -99 65 -9 20 -26 39 -41 45 -35 13 -66 67 -63 110 3 33 5 35
36 32 17 -1 32 2 32 6 0 12 -34 42 -48 42 -6 0 -18 7 -26 16 -51 51 32 62 107
14 26 -16 47 -26 47 -21 0 5 -38 51 -85 102 -47 51 -85 97 -85 101 0 4 -4 8
-9 8 -6 0 -11 -17 -13 -37 -3 -42 -17 -49 -74 -39 -36 7 -143 106 -169 157
-14 26 -13 29 7 43 28 20 77 20 114 1 16 -8 49 -15 74 -15 25 0 63 -9 86 -19
43 -20 63 -43 109 -128 16 -29 32 -53 37 -53 4 0 8 15 8 34 0 19 5 38 10 41
13 8 13 45 0 45 -5 0 -32 20 -60 45 -35 31 -67 49 -108 60 -31 9 -74 20 -95
26 -28 7 -47 23 -74 60 -19 27 -48 56 -62 64 -33 16 -206 21 -424 10 -105 -5
-152 -4 -160 4 -20 20 -109 12 -200 -19 -105 -36 -159 -38 -270 -9 -79 20 -90
20 -302 9 -243 -13 -362 -34 -400 -70 -16 -15 -30 -20 -42 -16 -17 7 -16 9 5
26 12 10 28 20 35 23 8 2 13 37 15 110 l4 106 -50 -6 c-35 -4 -52 -2 -57 8
-12 18 56 74 119 98 46 17 51 22 59 56 10 53 42 100 83 125 38 24 64 21 64 -9
0 -29 19 -31 110 -9 113 27 122 15 42 -58 -90 -81 -113 -131 -37 -79 47 31
103 34 128 5 15 -18 77 -29 77 -14 0 21 -33 114 -41 114 -5 0 -9 15 -9 33 0
52 -13 62 -72 61 -29 -1 -67 -5 -84 -9 -22 -5 -46 -1 -84 16 -52 22 -53 22
-99 4 -60 -23 -97 -29 -105 -17 -9 16 33 62 91 99 30 19 52 40 50 46 -2 6 -30
16 -62 22 -32 5 -60 15 -62 21 -6 18 36 62 73 76 33 12 35 15 29 46 -6 30 -3
34 30 48 20 8 80 26 133 40 54 14 104 32 112 40 16 16 13 20 -36 50 -17 10
-17 12 5 23 42 23 137 31 194 16 29 -7 54 -11 56 -9 10 10 -21 55 -45 64 -38
15 -152 12 -218 -5 -33 -9 -61 -13 -64 -10 -3 3 4 15 16 28 30 31 28 44 -10
67 -37 22 -98 26 -116 8z m-182 -409 c0 -24 -51 -79 -74 -79 -26 0 -18 30 18
66 39 39 56 43 56 13z m-237 -165 c10 -10 -14 -64 -33 -74 -24 -13 -70 -13
-70 -1 0 10 79 81 90 81 4 0 9 -3 13 -6z m181 -153 c17 -18 26 -36 23 -45 -8
-20 -21 -20 -37 -1 -7 8 -28 15 -46 15 -40 0 -42 6 -12 37 28 30 38 29 72 -6z
m-624 -120 c0 -14 -17 -23 -99 -51 l-75 -25 -23 -90 c-30 -120 -29 -137 12
-190 19 -25 37 -62 41 -82 6 -31 3 -39 -16 -55 -47 -38 -68 -9 -30 40 24 30
18 36 -50 47 -58 9 -71 20 -60 49 4 12 16 62 25 111 9 48 25 106 36 127 20 39
93 94 154 116 38 13 85 15 85 3z m331 -21 c10 -14 21 -41 25 -60 l6 -35 -27
33 c-35 42 -68 42 -134 -3 -28 -20 -51 -31 -51 -26 0 16 62 82 95 103 38 23
63 20 86 -12z m131 -72 c-9 -9 -15 -9 -24 0 -10 10 -10 15 2 22 9 6 19 5 24 0
7 -7 6 -14 -2 -22z m-425 -34 c2 -6 -14 -19 -36 -29 -43 -19 -67 -41 -85 -77
-15 -30 -36 -35 -36 -8 0 24 32 91 52 107 28 23 98 27 105 7z m217 -36 c-19
-63 -69 -138 -91 -138 -22 0 -10 40 32 106 36 55 73 75 59 32z m262 -65 c25
-28 29 -63 7 -71 -7 -2 -13 4 -13 13 0 9 -13 24 -30 33 -35 20 -41 52 -10 52
12 0 32 -12 46 -27z m-116 -25 c16 -22 30 -44 30 -49 0 -4 -20 -19 -44 -33
-51 -30 -77 -62 -102 -127 -22 -56 -39 -76 -89 -101 -22 -11 -50 -29 -62 -41
-20 -18 -23 -18 -29 -3 -7 19 13 52 69 113 30 32 41 53 43 83 2 22 14 56 28
77 31 50 100 123 114 123 7 0 25 -19 42 -42z m-322 -9 c4 -21 -32 -31 -67 -18
-25 10 -26 11 -6 25 25 19 69 14 73 -7z m2126 -94 c26 -14 55 -25 66 -25 78 0
59 -65 -29 -100 -32 -13 -35 -12 -52 9 -10 13 -23 40 -29 62 -6 21 -20 43 -30
49 -11 6 -20 15 -20 20 0 18 46 10 94 -15z m-2051 -21 c11 -11 -5 -34 -23 -34
-20 0 -43 23 -33 33 8 9 48 9 56 1z m777 -16 c0 -19 -31 -48 -52 -48 -25 0
-23 26 4 44 27 19 48 21 48 4z m-412 -59 l45 -42 81 6 c44 2 90 2 101 -2 18
-7 18 -9 -7 -25 -43 -28 -88 -36 -205 -36 l-112 0 -16 -29 c-8 -16 -41 -53
-74 -81 -57 -51 -58 -53 -53 -96 9 -80 -33 -97 -98 -38 -47 43 -54 86 -17 105
12 6 50 36 85 65 35 30 69 54 76 54 28 0 49 38 42 78 l-6 39 45 13 c25 7 48
17 51 21 8 14 14 11 62 -32z m-468 -23 c0 -14 -5 -28 -10 -31 -13 -8 -24 20
-16 40 9 24 26 17 26 -9z m-530 -81 c15 -18 6 -45 -13 -45 -8 0 -20 7 -27 15
-10 12 -10 18 0 30 16 19 24 19 40 0z m440 -5 c13 -25 7 -36 -29 -54 -15 -8
-40 -38 -55 -68 -40 -74 -75 -120 -88 -112 -15 10 -2 70 21 101 12 14 21 32
21 40 0 23 38 91 57 102 29 17 61 13 73 -9z m112 -85 c6 -13 8 -31 5 -39 -7
-16 -123 -106 -138 -106 -5 0 -9 10 -9 23 0 46 23 102 56 135 28 28 36 32 54
22 12 -6 26 -22 32 -35z m2418 -110 c15 -18 6 -45 -14 -45 -16 0 -31 34 -21
50 9 14 21 12 35 -5z m-3125 -5 c9 -15 -43 -36 -56 -23 -6 6 -8 16 -5 22 9 14
53 14 61 1z m733 -22 c29 -29 2 -66 -39 -53 -31 10 -17 65 16 65 6 0 16 -5 23
-12z m-618 -22 c0 -25 -12 -46 -25 -46 -23 0 -28 20 -9 41 20 23 34 25 34 5z
m324 -132 c10 -26 -23 -74 -72 -105 -25 -16 -52 -29 -60 -29 -16 0 -17 0 58
93 46 59 64 68 74 41z m164 -37 c5 -37 -55 -100 -70 -74 -14 25 26 110 49 105
11 -2 19 -14 21 -31z m-360 -3 c1 -10 -2 -26 -8 -34 -15 -23 -34 3 -26 35 8
29 30 29 34 -1z m-288 -69 c14 -8 35 -14 48 -15 12 0 22 -4 22 -10 0 -19 -41
-30 -117 -30 l-78 1 37 34 c42 39 51 41 88 20z m490 -68 c0 -41 -21 -73 -44
-64 -20 8 -21 46 0 75 23 33 44 28 44 -11z m-251 -36 l25 -19 -35 -21 c-36
-22 -109 -29 -109 -10 0 6 9 13 19 16 11 3 22 16 25 29 8 30 40 32 75 5z m196
-155 c19 -1 35 -4 35 -8 0 -5 0 -12 0 -16 0 -19 -82 -54 -126 -54 -49 0 -143
40 -134 57 3 6 28 9 55 7 47 -3 51 -1 68 29 l18 32 24 -23 c15 -14 38 -23 60
-24z m-268 -58 c90 -55 104 -68 101 -92 -5 -32 -28 -30 -39 3 -6 17 -18 31
-27 31 -23 0 -100 48 -112 70 -23 42 -8 40 77 -12z m21 -300 c17 -17 15 -38
-3 -38 -19 0 -65 29 -65 41 0 13 54 11 68 -3z"/>
<path d="M2710 8650 c-13 -9 -12 -12 4 -25 26 -20 55 -19 89 4 l28 18 -23 7
c-35 9 -81 7 -98 -4z"/>
<path d="M1495 8613 c-21 -21 -54 -63 -75 -93 -50 -73 -69 -90 -175 -150 -49
-29 -102 -63 -118 -76 -58 -49 -118 -130 -173 -236 -45 -87 -68 -118 -112
-156 -162 -138 -194 -178 -268 -332 -39 -80 -81 -171 -94 -203 -17 -40 -38
-69 -67 -93 -68 -55 -111 -159 -172 -411 -21 -86 -46 -156 -87 -240 -44 -91
-59 -134 -65 -188 -14 -113 -29 -338 -24 -343 18 -19 61 174 73 329 8 102 11
111 70 235 33 71 75 179 91 239 64 230 66 234 146 329 41 49 80 105 86 125 7
20 36 86 64 147 29 61 58 127 64 147 15 46 80 119 152 171 76 55 122 112 212
265 42 69 91 140 109 157 18 17 74 52 123 78 50 25 105 60 124 78 51 48 171
241 158 255 -3 2 -22 -13 -42 -34z"/>
<path d="M11512 8618 c2 -15 11 -24 26 -26 25 -4 27 1 12 29 -15 27 -42 25
-38 -3z"/>
<path d="M9154 8620 c-18 -4 -40 -11 -50 -15 -16 -7 -15 -9 11 -15 17 -4 53
-8 82 -9 42 -1 57 4 80 24 l28 24 -60 0 c-33 -1 -74 -4 -91 -9z"/>
<path d="M7218 8604 c-39 -20 -35 -31 10 -26 40 5 65 19 56 33 -8 13 -35 10
-66 -7z"/>
<path d="M10383 8595 c-18 -7 -53 -17 -78 -20 -25 -4 -56 -16 -68 -26 -13 -10
-36 -21 -51 -25 -18 -4 -26 -12 -24 -23 3 -14 16 -15 88 -13 73 3 89 1 110
-16 23 -19 24 -20 7 -46 -10 -14 -26 -32 -37 -38 -18 -11 -16 -15 22 -57 39
-41 40 -45 23 -57 -26 -19 -56 -17 -115 6 -79 31 -225 21 -237 -17 -3 -9 18
-12 84 -11 70 2 95 -2 123 -17 22 -12 56 -19 92 -19 54 -1 60 1 95 38 25 25
34 40 25 43 -22 8 -42 34 -42 53 0 10 11 32 25 48 14 17 25 35 25 42 0 7 -11
25 -25 42 -34 40 -32 54 15 78 50 25 53 50 8 50 -18 -1 -47 -7 -65 -15z"/>
<path d="M10580 8604 c-8 -3 -21 -8 -29 -10 -28 -9 -1 -16 94 -24 80 -7 101
-12 121 -31 52 -49 22 -79 -80 -79 -67 0 -96 -6 -96 -20 0 -11 22 -18 120 -35
73 -13 89 -20 120 -50 20 -19 39 -35 43 -35 16 0 6 59 -14 84 -19 24 -20 32
-11 69 13 49 2 79 -41 111 -22 16 -45 21 -120 23 -50 1 -99 0 -107 -3z"/>
<path d="M11000 8550 c27 -21 70 -27 70 -10 0 12 -10 16 -60 24 l-35 6 25 -20z"/>
<path d="M4032 8553 c-30 -6 -40 -32 -18 -48 27 -21 141 14 119 36 -12 12 -70
19 -101 12z"/>
<path d="M3263 8534 c-8 -22 14 -34 65 -34 56 0 88 16 71 36 -17 21 -128 19
-136 -2z"/>
<path d="M7536 8501 c-14 -5 -16 -10 -7 -15 15 -10 61 1 61 14 0 12 -26 12
-54 1z"/>
<path d="M4176 8482 c-7 -12 41 -22 102 -22 28 0 42 4 37 9 -15 13 -132 24
-139 13z"/>
<path d="M5056 8452 c-3 -6 2 -20 12 -32 13 -16 31 -23 77 -26 56 -5 98 6 83
22 -4 3 -35 12 -70 19 -35 8 -70 17 -79 20 -10 4 -20 2 -23 -3z"/>
<path d="M9955 8451 c-24 -10 -51 -40 -39 -42 5 -1 54 -2 109 -3 55 -1 108 -5
118 -10 25 -12 22 16 -4 40 -16 14 -39 19 -92 21 -40 2 -81 -1 -92 -6z"/>
<path d="M4719 8430 c-14 -11 -18 -19 -11 -20 19 0 52 19 52 30 0 16 -16 12
-41 -10z"/>
<path d="M3954 8428 c-22 -10 -44 -47 -44 -73 0 -36 94 -61 119 -32 14 17 -5
37 -35 37 -12 0 -27 7 -34 15 -32 38 58 27 203 -26 93 -34 108 -35 132 -8 16
16 29 20 76 17 58 -3 84 6 61 21 -8 4 -64 11 -125 14 -62 4 -146 15 -187 26
-82 22 -134 25 -166 9z"/>
<path d="M2615 8421 c-3 -5 2 -16 10 -25 26 -25 54 -29 82 -10 25 16 26 17 8
30 -21 16 -91 19 -100 5z"/>
<path d="M4800 8425 c0 -3 33 -39 74 -80 76 -76 96 -109 78 -127 -6 -6 -21 1
-43 20 -42 36 -94 63 -180 91 -36 12 -75 28 -85 36 -10 8 -32 14 -49 14 l-30
0 35 -32 c20 -19 72 -48 115 -66 117 -48 160 -76 196 -127 36 -49 71 -57 77
-17 5 34 24 44 62 33 77 -22 114 -85 113 -193 l0 -78 50 -45 c28 -25 70 -57
94 -71 46 -26 56 -56 26 -71 -25 -13 -42 -5 -88 39 -47 45 -115 77 -182 85
l-48 7 90 -86 c50 -48 109 -96 133 -108 63 -31 102 -74 102 -113 0 -44 24 -74
65 -82 67 -12 30 -34 -58 -34 -62 0 -70 -18 -34 -81 l26 -47 -37 10 c-32 9
-38 7 -53 -11 -10 -12 -22 -21 -27 -21 -5 0 -15 -6 -21 -14 -13 -15 15 -61 85
-140 50 -55 57 -77 17 -50 -108 70 -149 88 -195 85 -21 -1 -23 -28 -7 -84 13
-47 62 -81 168 -117 l76 -26 3 -42 c3 -37 0 -43 -22 -52 -30 -11 -32 -20 -12
-58 8 -15 18 -45 22 -67 4 -22 16 -59 26 -83 22 -50 17 -92 -10 -92 -21 0 -49
28 -80 81 -12 19 -33 41 -47 47 -27 13 -30 23 -15 52 8 15 4 23 -23 41 -59 42
-192 181 -212 223 -24 49 -85 93 -185 131 -64 24 -90 46 -90 74 0 5 19 11 42
13 23 2 43 8 45 15 2 6 -29 27 -69 46 -40 19 -89 42 -108 51 -19 9 -57 32 -84
51 -26 19 -52 35 -57 35 -35 0 33 -86 105 -134 51 -34 96 -88 96 -116 0 -18
-79 -6 -128 19 -58 30 -93 73 -103 128 -9 51 -45 93 -79 93 -22 0 -169 62
-228 97 -56 32 -42 47 26 27 53 -16 89 -13 77 6 -3 5 -42 28 -86 51 -47 25
-91 56 -106 75 -16 22 -37 36 -60 40 -42 8 -52 28 -27 56 l19 21 -58 -5 c-35
-3 -64 -11 -75 -21 -15 -16 -14 -19 12 -46 16 -16 42 -35 60 -41 87 -32 95
-38 107 -82 7 -24 25 -61 41 -83 16 -22 24 -41 19 -43 -5 -2 -36 15 -68 36
-75 51 -117 72 -228 112 -49 18 -103 43 -118 56 -35 29 -89 31 -184 8 -60 -16
-69 -16 -117 0 -29 9 -60 16 -68 16 -9 0 -38 11 -65 25 -68 36 -140 36 -218 0
-74 -34 -208 -46 -239 -22 -31 23 -14 47 34 47 34 0 41 3 38 18 -4 20 -55 29
-71 13 -6 -6 -33 -11 -59 -11 -44 0 -48 -2 -48 -24 0 -31 -15 -36 -69 -19 -24
7 -75 13 -113 13 l-68 0 -16 -40 c-16 -41 -21 -44 -63 -40 -15 1 -22 -3 -19
-12 3 -7 20 -14 38 -16 28 -3 39 3 70 37 34 37 43 41 84 41 25 0 46 -5 46 -10
0 -6 -21 -23 -48 -39 -26 -16 -68 -54 -94 -85 -59 -68 -94 -80 -199 -73 -61 4
-84 1 -108 -11 -17 -10 -97 -80 -178 -156 -81 -77 -182 -164 -223 -194 -41
-31 -93 -70 -114 -89 -44 -37 -56 -35 -56 8 0 32 -15 39 -25 10 -4 -13 -18
-20 -48 -24 -30 -4 -50 -15 -70 -37 -40 -45 -31 -56 39 -52 l59 4 -32 -34
c-27 -27 -34 -46 -42 -101 -10 -72 -14 -79 -70 -140 -51 -55 -74 -62 -124 -37
-23 11 -57 31 -76 45 -37 27 -51 31 -51 14 0 -24 45 -72 96 -100 30 -17 54
-33 54 -35 0 -2 -17 -27 -37 -55 -50 -70 -65 -133 -50 -204 9 -46 8 -63 -7
-109 -19 -63 -30 -71 -104 -79 -29 -3 -78 -14 -110 -24 l-57 -18 84 -5 c55 -3
86 -9 89 -18 6 -20 -112 -69 -214 -87 -52 -10 -97 -21 -99 -26 -7 -10 59 -29
102 -29 48 0 187 47 208 70 20 22 55 27 55 9 0 -22 -43 -134 -59 -153 -35 -40
-113 -66 -321 -104 -70 -13 -95 -21 -95 -32 0 -17 66 -19 227 -5 l97 8 23 -49
c21 -48 22 -48 25 -19 8 79 14 95 32 95 23 0 31 -19 31 -73 1 -68 16 -25 40
113 13 76 38 166 62 230 65 173 88 241 109 330 22 89 138 350 192 430 79 117
259 290 345 331 47 23 77 58 115 134 31 62 41 70 149 129 61 32 116 53 179 67
104 22 97 19 164 72 82 65 235 130 235 100 0 -3 -7 -15 -17 -25 -9 -10 -14
-21 -10 -24 3 -3 43 4 89 15 176 44 615 77 691 52 33 -11 47 -10 107 10 l70
23 22 -21 c13 -12 40 -28 61 -37 44 -18 45 -25 12 -56 -25 -23 -26 -23 -105
-11 -65 11 -83 11 -95 1 -13 -11 -20 -10 -41 1 -22 11 -27 11 -34 -1 -6 -8
-10 -20 -10 -27 0 -14 -57 -27 -230 -53 -193 -29 -363 -60 -380 -70 -27 -15
38 -23 139 -17 124 8 277 32 416 63 246 56 246 56 375 51 128 -4 190 -18 190
-43 0 -15 -48 -29 -132 -39 -126 -14 -58 -24 188 -27 l256 -3 20 -27 c12 -17
36 -32 61 -39 45 -11 87 -35 87 -47 0 -5 -9 -18 -20 -29 -27 -30 -120 -49
-411 -83 -138 -17 -294 -37 -347 -46 -198 -33 -363 -18 -392 37 -14 25 -40 24
-40 -1 0 -32 37 -98 65 -116 17 -11 25 -26 25 -44 0 -31 -12 -43 -55 -57 -16
-5 -31 -17 -33 -26 -3 -14 5 -17 42 -17 34 0 48 -5 56 -19 17 -32 2 -48 -47
-54 -36 -4 -56 0 -92 20 -41 22 -54 24 -116 18 -94 -8 -239 -33 -273 -47 -15
-6 -42 -14 -61 -17 -19 -3 -36 -11 -38 -17 -10 -31 314 -21 363 11 17 11 30
12 49 5 38 -14 90 -12 167 6 71 17 98 14 98 -10 0 -32 -83 -53 -332 -86 -155
-20 -368 -68 -368 -83 0 -19 43 -16 267 22 131 22 275 45 320 50 46 6 94 18
107 26 20 13 32 14 64 6 22 -6 45 -18 52 -26 7 -8 18 -15 25 -15 6 0 20 -9 30
-20 9 -10 41 -24 71 -30 29 -6 68 -22 86 -35 18 -13 57 -40 87 -61 30 -20 99
-77 155 -126 55 -48 104 -88 108 -88 40 0 -118 172 -240 262 -31 23 -82 68
-112 100 -38 40 -63 58 -80 58 -14 0 -47 11 -75 25 -27 13 -62 25 -77 25 -18
0 -28 5 -28 15 0 9 9 15 25 15 33 0 32 17 -6 68 -46 62 -36 76 49 69 146 -14
229 -63 281 -166 20 -39 71 -80 331 -270 46 -33 59 -51 60 -79 0 -13 9 -35 20
-49 11 -14 20 -31 20 -38 0 -7 18 -20 40 -30 44 -20 100 -76 100 -100 0 -20
-101 -19 -155 1 -70 27 -73 27 -80 5 -9 -31 -34 -26 -77 16 -21 20 -41 34 -44
30 -11 -11 5 -54 31 -85 30 -36 31 -42 6 -42 -59 0 -68 -37 -16 -66 41 -22 42
-27 13 -46 -29 -20 -15 -38 30 -38 49 0 112 -11 112 -19 0 -4 -16 -13 -35 -20
-40 -14 -38 -26 4 -36 16 -3 35 -13 42 -21 10 -12 8 -19 -10 -36 -21 -19 -21
-22 -7 -36 27 -27 143 -29 201 -3 44 20 57 44 24 48 -103 13 -112 27 -34 52
56 18 67 36 29 45 -15 4 -40 21 -56 38 -17 18 -45 34 -70 39 -71 16 -139 50
-136 67 5 25 71 34 208 29 122 -4 127 -5 205 -45 44 -22 117 -70 163 -106 73
-58 129 -86 170 -86 7 0 32 -18 56 -40 l43 -40 90 0 c120 0 191 -21 206 -61 6
-16 16 -28 22 -26 5 1 39 59 73 127 l64 125 -22 65 c-12 36 -29 82 -37 103
-23 53 -8 65 45 38 48 -24 112 -28 112 -7 0 8 -11 38 -24 66 -26 55 -25 77 2
82 10 2 80 -5 157 -15 169 -21 278 -20 283 4 2 10 -7 20 -25 26 -133 47 -162
53 -243 53 -95 0 -131 7 -129 24 5 44 -30 48 -109 11 -60 -28 -82 -31 -100
-13 -16 16 -15 53 2 67 7 6 35 15 61 20 36 7 54 17 72 40 14 18 47 43 74 56
35 18 54 37 69 65 11 22 25 40 31 40 6 0 27 -13 46 -30 47 -41 67 -41 49 1
-17 41 -10 66 25 84 58 30 121 17 197 -40 43 -34 81 -42 89 -20 1 6 -17 24
-42 40 -24 17 -43 35 -41 40 2 6 29 9 60 7 45 -2 63 2 82 17 25 19 58 32 118
46 l29 6 -39 40 c-52 54 -83 69 -144 69 l-50 0 -25 56 c-71 161 -69 207 5 124
l49 -55 1 36 c0 25 -9 49 -30 77 -29 40 -83 78 -98 68 -13 -8 -26 6 -54 54
-15 27 -42 54 -65 67 -50 28 -77 58 -70 78 5 12 24 15 84 15 83 0 109 9 100
33 -6 16 -98 40 -140 37 -77 -7 -95 11 -131 124 -15 45 -42 104 -62 131 -20
28 -45 68 -56 89 -26 50 -106 136 -127 136 -23 0 -119 69 -126 89 -3 10 -23
42 -45 71 -22 30 -40 64 -40 77 0 63 -60 151 -123 182 -40 19 -77 20 -77 2 0
-4 23 -33 50 -66 47 -55 61 -85 42 -85 -5 0 -47 31 -94 69 -79 64 -148 109
-148 96z m648 -622 c5 -33 -19 -45 -63 -30 -40 14 -39 16 13 43 33 17 46 14
50 -13z m-54 -139 c23 -9 20 -34 -3 -34 -22 0 -35 15 -26 30 7 12 8 12 29 4z
m96 -312 c19 -9 45 -32 57 -51 42 -62 27 -67 -57 -16 -32 19 -72 38 -89 41
-29 6 -40 22 -24 37 12 13 78 7 113 -11z m-152 -141 c61 -32 151 -109 156
-133 3 -13 8 -40 11 -60 5 -33 12 -41 68 -70 70 -37 83 -62 41 -79 -45 -16
-67 -4 -139 77 -64 71 -68 78 -58 104 13 35 7 45 -39 64 -34 15 -60 42 -87 94
-15 28 -3 29 47 3z m275 -40 c7 -7 6 -15 -3 -26 -10 -12 -10 -21 -2 -39 16
-36 73 -97 99 -107 32 -12 29 -29 -5 -29 -36 0 -141 67 -171 108 -28 40 -38
91 -20 103 17 12 87 5 102 -10z m112 -11 c19 -21 14 -50 -9 -50 -17 0 -36 29
-36 54 0 22 23 20 45 -4z m-1635 -115 c7 -8 23 -15 36 -15 39 0 27 -18 -18
-30 -24 -6 -49 -13 -56 -15 -7 -3 -63 -9 -125 -15 -61 -7 -152 -20 -200 -31
-91 -20 -98 -20 -209 12 -65 19 -80 30 -58 44 6 4 75 11 153 16 354 23 404 28
427 37 34 14 36 14 50 -3z m1758 3 c12 -12 -1 -38 -19 -38 -13 0 -39 31 -34
41 8 13 39 11 53 -3z m-969 -58 c26 -13 39 -53 46 -143 7 -76 8 -80 40 -98 35
-21 50 -45 35 -54 -28 -17 -114 81 -166 190 -44 90 -45 115 -3 115 17 0 38 -4
48 -10z m-255 -8 c6 -10 -49 -64 -82 -81 -18 -9 -58 -10 -167 -2 -79 6 -149
11 -156 11 -8 0 -9 3 -3 9 5 5 61 16 124 25 63 8 133 22 155 30 44 17 121 21
129 8z m799 -30 c47 -42 79 -153 46 -159 -23 -5 -69 35 -69 61 0 13 -13 43
-30 67 -16 24 -30 48 -30 53 0 14 62 -2 83 -22z m-679 -65 c7 -12 7 -20 -1
-28 -8 -8 -23 -5 -59 10 -47 21 -50 35 -9 43 27 6 57 -5 69 -25z m-849 13 c4
-6 -13 -10 -45 -10 -32 0 -49 4 -45 10 3 6 24 10 45 10 21 0 42 -4 45 -10z
m2042 -46 c7 -20 -12 -33 -38 -27 -21 6 -25 29 -6 36 23 10 38 7 44 -9z m-119
-22 c3 -19 -1 -23 -15 -20 -10 2 -19 14 -21 26 -3 19 1 23 15 20 10 -2 19 -14
21 -26z m-1459 -1 c19 -12 5 -17 -66 -25 -52 -6 -63 -4 -63 8 0 8 8 17 18 19
30 8 97 7 111 -2z m-417 -30 c9 -11 35 -25 56 -31 48 -13 73 -37 51 -51 -8 -5
-22 -9 -31 -9 -10 0 -22 -9 -28 -20 -16 -29 -27 -25 -86 30 -56 53 -84 63 -84
31 0 -26 -17 -36 -35 -21 -19 15 -19 40 -2 40 8 0 24 11 37 25 30 32 97 35
122 6z m1703 -21 c3 -6 -1 -13 -9 -16 -22 -8 -68 4 -61 16 8 13 62 13 70 0z
m-850 -35 c0 -18 -96 -35 -240 -45 -77 -4 -208 -18 -292 -30 -86 -13 -164 -19
-180 -15 l-28 7 22 18 c27 22 118 36 378 60 214 19 340 21 340 5z m90 -68 c33
-25 8 -37 -80 -37 -75 0 -109 10 -92 27 22 21 146 28 172 10z m-307 -44 c5
-18 -40 -33 -97 -33 -27 0 -64 -7 -83 -15 -20 -8 -69 -21 -109 -30 -41 -9 -85
-20 -98 -26 -34 -14 -13 -33 67 -60 53 -18 63 -24 47 -30 -32 -12 -83 -10
-118 5 -18 7 -62 45 -99 85 -91 96 -91 108 4 70 49 -19 60 -20 133 -10 44 6
114 16 155 21 41 5 93 16 115 24 46 17 77 17 83 -1z m412 -53 c19 -12 10 -20
-37 -31 -56 -13 -93 -11 -93 4 0 29 95 49 130 27z m207 -58 c14 -35 2 -79 -19
-66 -16 10 -38 70 -38 105 0 32 0 32 21 13 12 -10 28 -34 36 -52z m-481 33
c-22 -16 -62 -20 -70 -6 -9 14 6 21 48 21 38 -1 40 -2 22 -15z m345 -76 c9
-17 8 -25 -5 -37 -13 -14 -20 -14 -36 -4 -11 6 -39 12 -62 12 -51 0 -88 9 -88
21 0 13 60 27 122 28 49 1 59 -2 69 -20z m-256 -75 c30 -12 -6 -24 -72 -24
-72 0 -275 -33 -351 -57 l-53 -17 -25 26 -25 25 93 7 c51 4 134 15 183 25 91
19 220 26 250 15z m243 -22 c15 -16 33 -31 41 -33 8 -3 11 -10 7 -17 -4 -8
-35 -12 -82 -12 -41 0 -141 -7 -221 -15 -223 -24 -288 -41 -304 -82 -4 -12
-16 -23 -24 -23 -33 0 -129 62 -114 74 2 1 56 10 119 19 424 60 480 71 487 98
8 30 59 25 91 -9z m215 -73 c48 -25 109 -99 82 -99 -16 0 -74 36 -102 63 -43
40 -31 62 20 36z m-42 -145 c19 -53 -45 -102 -181 -139 -87 -24 -100 -32 -100
-60 0 -60 -30 -74 -55 -25 -11 20 -23 30 -39 30 -23 0 -87 31 -207 99 -53 29
-98 76 -85 88 3 3 32 0 65 -7 32 -7 65 -9 72 -4 13 8 347 26 441 24 25 0 49 4
53 10 11 17 25 11 36 -16z m49 -153 c0 -15 -28 -33 -46 -29 -17 3 -17 4 0 21
18 18 46 23 46 8z m-130 -115 c0 -21 -26 -37 -70 -43 -66 -9 -45 25 29 48 38
11 41 10 41 -5z"/>
<path d="M11861 8418 c0 -7 21 -26 47 -43 75 -48 121 -135 71 -135 -11 0 -37
11 -57 25 -40 27 -62 32 -62 13 0 -20 129 -138 150 -138 20 0 25 11 35 81 10
76 -19 125 -104 180 -47 31 -81 37 -80 17z"/>
<path d="M11206 8367 c-22 -16 -17 -21 43 -37 58 -15 96 -54 104 -108 11 -68
57 -50 57 23 0 32 -6 47 -27 67 -57 53 -143 80 -177 55z"/>
<path d="M8563 8348 c1 -18 -3 -23 -19 -21 -25 3 -51 -45 -40 -73 7 -19 28
-14 106 24 62 31 73 48 36 58 -14 3 -30 12 -37 20 -19 23 -49 18 -46 -8z"/>
<path d="M10970 8326 c0 -14 34 -28 44 -18 9 8 -14 32 -30 32 -8 0 -14 -6 -14
-14z"/>
<path d="M9697 8323 c-9 -15 16 -57 43 -70 45 -23 185 -14 177 11 -9 29 -206
82 -220 59z"/>
<path d="M10635 8310 c-10 -16 13 -38 53 -50 84 -26 92 -31 92 -60 0 -44 -19
-52 -104 -44 -64 6 -76 4 -76 -8 0 -22 19 -35 65 -43 30 -6 51 -20 83 -54 49
-53 62 -47 62 29 0 28 8 56 20 75 11 17 20 45 20 63 0 41 -36 65 -132 87 -80
18 -75 18 -83 5z"/>
<path d="M3140 8301 c0 -20 38 -50 73 -56 73 -14 99 11 42 38 -47 22 -115 33
-115 18z"/>
<path d="M5411 8237 c-14 -17 -5 -27 24 -27 24 0 49 22 38 33 -11 12 -50 8
-62 -6z"/>
<path d="M7558 8233 c-31 -8 -19 -23 18 -23 24 0 34 4 32 13 -5 13 -24 17 -50
10z"/>
<path d="M8630 8217 c-30 -15 -38 -37 -12 -37 21 0 58 35 45 43 -5 3 -20 0
-33 -6z"/>
<path d="M3883 8211 c-116 -10 -125 -43 -16 -57 78 -9 143 14 143 53 0 14 -4
14 -127 4z"/>
<path d="M11177 8193 c-14 -14 -6 -22 41 -39 69 -26 74 -31 67 -76 -6 -35 -5
-38 17 -38 34 0 48 18 48 60 0 43 -29 75 -81 90 -39 12 -83 13 -92 3z"/>
<path d="M7920 8177 c-25 -11 -25 -11 9 -15 42 -4 84 5 76 18 -8 13 -54 12
-85 -3z"/>
<path d="M9776 8179 c-39 -9 -76 -34 -76 -50 0 -4 30 -9 68 -11 59 -3 67 -5
67 -23 0 -16 8 -21 44 -23 50 -4 63 9 54 48 -12 53 -31 70 -76 69 -23 -1 -60
-5 -81 -10z"/>
<path d="M4646 8152 c-8 -14 25 -32 58 -32 13 0 37 -11 53 -24 16 -13 67 -42
113 -64 47 -21 96 -51 109 -66 27 -29 51 -34 51 -11 0 26 -71 84 -129 105 -31
12 -81 37 -111 57 -55 37 -131 55 -144 35z"/>
<path d="M10073 8150 c-41 -17 -24 -27 60 -36 80 -9 82 -10 98 -43 20 -43 35
-51 111 -57 69 -6 139 5 145 23 5 15 -28 25 -106 32 -59 5 -66 9 -81 36 -9 17
-27 36 -41 42 -28 15 -153 16 -186 3z"/>
<path d="M10930 8145 c0 -21 27 -30 45 -15 23 19 18 30 -15 30 -20 0 -30 -5
-30 -15z"/>
<path d="M11740 8152 c0 -4 20 -25 45 -45 39 -33 45 -43 45 -77 0 -21 5 -42
11 -46 11 -7 60 24 66 43 6 18 -47 73 -101 103 -53 31 -66 35 -66 22z"/>
<path d="M3798 8075 c-3 -3 -1 -20 5 -36 15 -38 -2 -51 -47 -38 -48 14 -86 12
-80 -5 9 -23 79 -46 139 -46 49 0 55 2 61 23 3 13 4 41 2 63 -3 37 -5 39 -38
42 -20 2 -38 0 -42 -3z"/>
<path d="M4540 8071 c0 -15 70 -69 98 -76 18 -4 31 0 46 15 25 25 18 32 -58
55 -57 17 -86 19 -86 6z"/>
<path d="M3108 8033 c-26 -7 -22 -22 10 -33 15 -5 39 -16 54 -24 29 -16 48 -5
48 26 0 29 -59 45 -112 31z"/>
<path d="M5495 8027 c-9 -23 20 -67 45 -67 28 0 25 14 -9 52 -26 29 -30 31
-36 15z"/>
<path d="M11120 8007 c0 -7 14 -23 30 -35 18 -13 30 -32 30 -45 0 -12 4 -28 9
-36 11 -17 48 -6 62 20 9 17 4 27 -34 65 -44 44 -97 61 -97 31z"/>
<path d="M10085 7990 c-7 -11 35 -30 68 -30 35 0 45 -12 67 -75 28 -80 44 -96
96 -94 33 2 49 -3 74 -25 25 -20 41 -26 68 -24 48 4 51 23 7 38 -24 8 -44 24
-57 46 -18 31 -24 34 -70 34 -67 0 -88 13 -88 54 0 54 -40 86 -106 86 -29 0
-56 -5 -59 -10z"/>
<path d="M11630 7993 c0 -3 25 -32 55 -64 56 -59 70 -100 43 -127 -9 -9 -4
-12 25 -12 77 0 73 75 -9 157 -41 41 -60 53 -83 53 -17 0 -31 -3 -31 -7z"/>
<path d="M8198 7971 c-71 -20 -77 -26 -50 -51 40 -37 26 -58 -67 -105 -52 -26
-54 -28 -35 -42 25 -18 62 -9 95 25 15 15 38 35 53 45 14 10 26 27 26 38 0 11
9 38 21 60 11 23 19 42 17 44 -2 1 -29 -5 -60 -14z"/>
<path d="M10590 7976 c0 -7 30 -29 68 -47 86 -43 91 -63 25 -103 -45 -26 -46
-29 -28 -42 24 -18 47 -18 93 2 27 11 53 13 100 8 59 -6 64 -5 60 12 -2 11
-21 27 -43 38 -22 10 -66 42 -98 72 -55 51 -103 74 -154 74 -13 0 -23 -6 -23
-14z"/>
<path d="M4410 7941 c0 -18 74 -71 121 -86 50 -17 74 -13 89 16 12 22 12 22
-86 53 -83 27 -124 32 -124 17z"/>
<path d="M2628 7930 c-32 -19 -19 -28 45 -32 34 -2 70 -8 81 -13 14 -6 18 -5
14 6 -10 30 -109 57 -140 39z"/>
<path d="M4765 7910 c-10 -16 12 -30 48 -30 20 0 32 -8 45 -30 12 -21 25 -30
43 -30 37 0 54 22 31 42 -47 42 -152 72 -167 48z"/>
<path d="M7410 7903 c-8 -3 -23 -12 -32 -21 -14 -12 -43 -15 -135 -13 -65 0
-134 5 -153 11 -45 13 -158 13 -240 -1 -103 -16 -96 -29 16 -29 63 0 104 -4
112 -12 8 -8 63 -11 187 -9 142 2 186 -1 229 -14 48 -15 56 -15 82 -2 l29 15
-43 12 c-48 12 -52 32 -7 40 42 7 44 30 3 29 -18 0 -40 -3 -48 -6z"/>
<path d="M9658 7881 c-98 -63 -125 -151 -68 -229 45 -62 71 -76 133 -69 37 5
61 2 81 -8 36 -19 70 -19 132 0 27 8 82 18 123 21 74 7 74 7 52 26 -13 10 -31
18 -40 18 -35 0 -53 45 -32 78 7 11 16 11 50 1 49 -15 74 -2 55 29 -18 27
-104 35 -232 22 -89 -10 -115 -10 -127 0 -10 9 -35 11 -75 7 -38 -3 -62 -1
-67 6 -3 6 19 33 50 61 32 28 57 54 57 59 0 17 -49 5 -92 -22z m119 -165 l18
-25 77 16 c81 16 108 13 108 -11 0 -27 -61 -85 -101 -97 -34 -11 -48 -9 -121
16 -107 35 -115 43 -87 79 38 49 79 57 106 22z"/>
<path d="M3525 7860 c-9 -15 46 -49 91 -56 56 -8 108 0 142 22 24 16 25 18 6
24 -29 11 -233 19 -239 10z"/>
<path d="M11074 7825 c-8 -31 10 -55 43 -55 34 0 40 26 13 56 -30 31 -48 31
-56 -1z"/>
<path d="M4280 7802 c0 -18 51 -51 102 -67 43 -13 54 -13 84 0 33 14 43 28 26
39 -8 5 -84 19 -174 33 -24 3 -38 2 -38 -5z"/>
<path d="M4628 7793 c-22 -6 -23 -19 -2 -27 43 -17 192 4 179 25 -6 9 -144 11
-177 2z"/>
<path d="M8183 7768 c-32 -11 -43 -31 -23 -43 13 -8 70 26 70 42 0 15 -3 15
-47 1z"/>
<path d="M10562 7752 c-10 -7 -10 -11 3 -22 23 -19 18 -38 -16 -55 -39 -21
-33 -37 17 -48 81 -17 144 20 130 76 -8 35 -103 69 -134 49z"/>
<path d="M3237 7743 c-4 -3 -7 -14 -7 -23 0 -14 13 -19 68 -24 74 -7 155 1
146 15 -3 5 -15 9 -27 9 -12 0 -31 7 -41 15 -20 15 -126 21 -139 8z"/>
<path d="M4930 7741 c0 -4 24 -24 54 -44 30 -20 69 -55 87 -78 57 -72 86 -96
144 -119 62 -25 75 -22 51 12 -9 12 -16 33 -16 45 0 16 -13 30 -47 49 -27 15
-61 38 -77 52 -35 28 -160 92 -181 92 -8 0 -15 -4 -15 -9z"/>
<path d="M11565 7738 c3 -7 20 -23 39 -36 18 -12 44 -34 57 -48 33 -35 18 -53
-77 -90 -43 -16 -80 -37 -82 -45 -1 -8 12 -22 30 -32 18 -10 41 -31 50 -47 32
-55 62 -26 32 31 -16 32 -16 34 1 44 87 51 110 71 113 102 5 53 -80 133 -142
133 -16 0 -24 -5 -21 -12z"/>
<path d="M11264 7728 c-12 -19 35 -48 77 -48 51 0 49 16 -3 40 -50 23 -64 24
-74 8z"/>
<path d="M10833 7722 c-31 -9 -65 -40 -61 -55 2 -7 20 -20 39 -29 27 -14 59
-18 154 -17 66 0 129 4 140 9 17 7 14 10 -25 28 -25 11 -71 31 -104 46 -57 25
-99 31 -143 18z"/>
<path d="M3723 7708 c-13 -6 -23 -15 -23 -20 0 -16 58 -8 81 12 l24 19 -30 0
c-16 0 -40 -5 -52 -11z"/>
<path d="M10238 7708 c-50 -18 -33 -31 30 -25 74 8 99 17 80 28 -17 11 -76 10
-110 -3z"/>
<path d="M12470 7708 c0 -8 25 -51 55 -97 59 -91 70 -128 100 -329 10 -62 22
-115 27 -118 5 -3 16 0 25 7 33 28 -6 272 -59 369 -59 108 -148 209 -148 168z"/>
<path d="M4202 7678 c7 -21 70 -48 111 -48 53 0 46 15 -18 39 -63 24 -99 27
-93 9z"/>
<path d="M6312 7659 c-30 -9 -36 -29 -9 -29 26 0 87 21 87 30 0 12 -34 11 -78
-1z"/>
<path d="M11173 7655 c-7 -20 13 -42 58 -66 44 -22 93 -26 87 -6 -6 15 -74 63
-111 76 -22 8 -29 7 -34 -4z"/>
<path d="M10328 7622 c-34 -20 -35 -28 -7 -43 22 -11 93 -5 119 11 12 7 12 12
-4 29 -23 26 -71 27 -108 3z"/>
<path d="M4870 7607 c0 -17 51 -98 73 -116 33 -26 19 -34 -55 -29 -41 3 -88
12 -107 22 -67 35 -18 -4 57 -45 42 -23 89 -51 104 -61 38 -26 58 -23 112 22
26 22 54 40 62 40 24 0 16 31 -16 60 -30 28 -198 120 -219 120 -6 0 -11 -6
-11 -13z"/>
<path d="M2993 7464 c-25 -11 -12 -25 20 -22 17 2 32 8 32 13 0 11 -33 17 -52
9z"/>
<path d="M2858 7433 c-10 -2 -18 -9 -18 -14 0 -12 107 -12 114 0 11 18 -49 26
-96 14z"/>
<path d="M1801 7384 c-63 -32 -83 -64 -56 -94 28 -31 59 -24 109 25 47 45 58
78 30 89 -23 9 -25 8 -83 -20z"/>
<path d="M4790 7356 c0 -19 107 -96 132 -96 24 0 24 41 0 63 -42 38 -132 60
-132 33z"/>
<path d="M7205 7365 c-5 -2 -23 -7 -40 -11 l-30 -7 30 -7 c75 -18 162 -4 125
20 -14 9 -64 12 -85 5z"/>
<path d="M3555 7353 c-97 -11 -215 -36 -215 -45 0 -14 217 -3 275 13 37 10 38
12 20 25 -10 8 -26 13 -34 13 -9 -1 -29 -4 -46 -6z"/>
<path d="M11915 7301 c-9 -16 3 -31 26 -31 14 0 19 6 17 17 -4 20 -33 29 -43
14z"/>
<path d="M3125 7283 c-232 -51 -255 -58 -239 -73 11 -11 320 52 336 68 9 9 2
12 -32 11 -25 -1 -54 -3 -65 -6z"/>
<path d="M3860 7259 c-30 -4 -111 -13 -180 -19 -140 -12 -389 -46 -435 -59
-29 -8 -28 -9 20 -16 28 -5 154 -8 280 -8 194 -1 294 2 475 14 14 1 -2 7 -34
13 -73 14 -93 37 -56 66 29 23 24 23 -70 9z m-22 -36 c-10 -2 -26 -2 -35 0
-10 3 -2 5 17 5 19 0 27 -2 18 -5z"/>
<path d="M6062 7249 c1 -12 9 -24 16 -27 9 -3 13 3 10 19 -1 12 -9 24 -16 27
-9 3 -13 -3 -10 -19z"/>
<path d="M12256 7193 c-4 -9 1 -39 10 -67 14 -42 18 -47 25 -31 9 25 11 78 3
99 -8 21 -30 20 -38 -1z"/>
<path d="M10286 7165 c-13 -14 -30 -25 -37 -25 -8 0 -49 -20 -90 -45 -43 -25
-98 -49 -127 -55 -55 -10 -105 -32 -136 -59 -10 -9 -37 -25 -60 -36 -44 -21
-81 -76 -112 -168 -12 -38 -13 -51 -4 -62 20 -24 4 -43 -52 -69 -80 -35 -92
-54 -97 -147 -2 -43 1 -79 5 -79 12 1 69 80 90 122 8 18 39 50 68 71 30 21 73
58 97 83 l43 44 -22 23 c-29 30 -28 38 10 109 30 57 37 62 106 94 41 19 106
45 144 59 39 14 82 34 96 45 41 32 61 25 27 -10 -16 -16 -27 -31 -24 -34 2 -2
14 -9 27 -15 19 -10 22 -20 22 -69 1 -53 2 -56 16 -37 20 26 74 198 74 235 0
19 -7 33 -20 40 -17 9 -24 6 -44 -15z"/>
<path d="M2680 7150 c26 -20 42 -24 53 -13 13 12 -16 33 -47 33 l-31 0 25 -20z"/>
<path d="M1353 7143 c-18 -6 -16 -33 1 -33 19 0 31 19 20 30 -5 4 -15 5 -21 3z"/>
<path d="M6110 7072 c0 -43 4 -54 27 -72 22 -17 38 -20 92 -18 83 4 91 23 14
32 -31 4 -68 9 -82 13 l-24 6 34 28 c39 32 33 46 -24 56 l-37 6 0 -51z"/>
<path d="M11775 7110 c-4 -6 -4 -22 -1 -36 7 -28 53 -34 63 -8 13 34 -44 74
-62 44z"/>
<path d="M12670 7027 c0 -24 9 -79 21 -123 11 -43 25 -95 30 -114 15 -59 12
-269 -5 -334 -15 -55 -14 -67 4 -174 17 -98 19 -131 11 -226 -6 -61 -13 -172
-16 -247 -8 -152 0 -188 36 -169 11 6 27 26 36 45 15 32 15 43 -1 147 -15 96
-16 125 -6 193 23 157 23 166 -5 268 l-26 98 23 67 c33 96 30 219 -10 373 -35
136 -71 239 -83 239 -5 0 -9 -20 -9 -43z"/>
<path d="M5043 7005 c15 -14 38 -25 50 -25 21 1 20 2 -8 25 -16 14 -39 25 -50
25 -18 -1 -17 -3 8 -25z"/>
<path d="M2913 6994 c-27 -12 -11 -25 25 -22 20 2 36 8 35 13 -3 11 -41 17
-60 9z"/>
<path d="M7030 6982 c0 -10 107 -114 140 -136 16 -10 46 -16 85 -16 34 0 66
-5 71 -10 6 -6 43 -14 82 -18 82 -9 102 -23 139 -97 55 -110 98 -140 137 -96
10 11 40 25 67 31 l49 12 -85 91 c-47 51 -102 101 -123 113 -32 18 -37 26 -40
62 -3 37 -6 42 -27 42 -27 0 -45 -26 -45 -65 0 -14 -7 -28 -15 -31 -21 -8 -68
13 -96 42 -27 29 -34 30 -66 4 -35 -27 -58 -25 -102 10 -54 44 -171 86 -171
62z"/>
<path d="M11645 6947 c-8 -20 16 -61 45 -77 32 -17 26 23 -9 62 -26 29 -30 31
-36 15z"/>
<path d="M5150 6935 c0 -20 38 -58 79 -79 45 -24 40 -1 -11 51 -44 44 -68 54
-68 28z"/>
<path d="M12141 6933 c-12 -11 -29 -46 -40 -87 -22 -80 -39 -100 -106 -124
-27 -10 -50 -23 -53 -30 -5 -17 44 -14 97 6 41 16 46 22 86 114 52 116 59 138
47 138 -5 0 -19 -8 -31 -17z"/>
<path d="M1272 6898 c-33 -16 -35 -43 -12 -133 23 -90 32 -104 55 -85 23 19
18 46 -16 107 l-31 55 33 34 c28 29 30 34 13 33 -10 0 -29 -5 -42 -11z"/>
<path d="M3038 6883 c-10 -2 -18 -9 -18 -15 0 -6 10 -8 23 -4 12 3 30 6 40 6
9 0 17 5 17 10 0 10 -30 12 -62 3z"/>
<path d="M6250 6810 c0 -6 11 -15 24 -20 13 -5 29 -17 35 -27 9 -17 10 -17 17
0 9 23 -22 57 -53 57 -12 0 -23 -5 -23 -10z"/>
<path d="M10177 6643 c-65 -149 -146 -352 -189 -473 -39 -110 -106 -243 -152
-300 -29 -36 -32 -46 -20 -48 9 -2 28 5 43 16 31 23 153 251 180 337 27 86 70
190 141 345 45 98 64 151 67 193 4 33 2 57 -4 57 -5 0 -35 -57 -66 -127z"/>
<path d="M2170 6730 c0 -13 40 -13 60 0 11 7 5 10 -22 10 -21 0 -38 -4 -38
-10z"/>
<path d="M6326 6711 c-45 -36 -41 -35 -94 -17 -36 13 -42 13 -70 -4 -61 -37
-79 -93 -41 -131 25 -25 44 -20 45 12 2 45 4 49 23 49 27 0 30 -17 15 -68 -15
-52 -36 -78 -86 -103 -43 -22 -62 -51 -53 -79 8 -27 21 -25 64 8 32 24 47 28
136 33 121 8 214 -12 311 -66 46 -26 74 -35 109 -35 42 0 46 2 43 23 -3 20
-10 23 -70 27 -74 6 -91 16 -86 51 3 22 13 28 76 45 33 9 -5 23 -79 30 -80 7
-81 7 -95 40 -8 19 -32 46 -54 60 -28 19 -40 34 -40 50 0 31 34 32 108 4 90
-34 120 -22 60 23 -46 34 -108 64 -149 72 -29 5 -41 1 -73 -24z m21 -165 c24
-20 25 -26 14 -40 -21 -25 -60 -20 -73 8 -13 29 -5 56 16 56 8 0 27 -11 43
-24z"/>
<path d="M2375 6660 l-40 -20 35 6 c41 8 80 21 80 29 0 11 -37 4 -75 -15z"/>
<path d="M5787 6619 c-21 -11 -37 -26 -34 -32 5 -16 126 -79 138 -71 15 9 10
78 -7 102 -19 27 -47 27 -97 1z"/>
<path d="M7820 6585 c-10 -25 -12 -26 -65 -20 -62 8 -63 7 -44 -75 16 -76 19
-78 40 -38 16 30 26 38 61 45 l43 9 0 48 c0 56 -19 73 -35 31z"/>
<path d="M11927 6593 c-10 -9 -8 -35 3 -53 7 -12 13 -11 34 10 34 31 33 50 -2
50 -16 0 -32 -3 -35 -7z"/>
<path d="M3003 6525 c-172 -29 -320 -58 -328 -65 -18 -15 -11 -30 16 -30 12 0
19 -7 19 -20 0 -11 2 -20 5 -20 28 0 268 59 369 90 71 22 161 45 200 51 75 12
106 23 106 39 0 17 -66 9 -387 -45z"/>
<path d="M3470 6547 c0 -13 14 -44 30 -70 32 -51 37 -76 18 -95 -9 -9 -8 -12
4 -12 37 0 69 -43 85 -114 12 -53 29 -89 77 -160 35 -50 81 -128 103 -173 54
-108 83 -147 198 -273 150 -162 152 -180 29 -180 -188 0 -1013 -143 -1049
-182 -7 -8 -4 -9 10 -4 11 4 106 18 210 32 105 13 222 31 260 39 192 42 472
75 630 75 79 0 106 -4 157 -25 68 -28 108 -32 108 -12 0 18 -36 50 -80 72 -53
27 -152 133 -186 200 -25 50 -35 61 -60 63 -37 4 -76 42 -122 117 -20 33 -46
75 -59 93 -18 27 -21 42 -16 81 7 59 1 70 -132 266 -56 83 -110 166 -120 185
-18 37 -73 100 -87 100 -4 0 -8 -10 -8 -23z"/>
<path d="M9443 6498 c-26 -29 -85 -137 -109 -201 -10 -29 -31 -60 -51 -75 -50
-40 -40 -62 28 -62 16 0 29 -5 29 -11 0 -21 -55 -82 -129 -140 -67 -53 -141
-138 -141 -162 0 -5 -18 -40 -40 -78 -45 -76 -64 -89 -155 -109 -95 -20 -115
-34 -115 -78 0 -45 14 -62 52 -62 23 0 28 4 28 24 0 26 24 51 39 41 14 -8 -13
-72 -45 -106 -16 -17 -24 -36 -24 -62 0 -43 -7 -48 -110 -72 -139 -33 -171
-65 -66 -65 36 0 67 -4 71 -9 14 -23 -96 -75 -179 -85 -60 -7 -76 -20 -76 -60
0 -52 -11 -60 -70 -52 -57 8 -150 51 -150 70 1 31 92 106 130 106 33 0 80 19
80 32 0 4 -19 8 -43 8 -79 0 -115 76 -54 114 12 7 53 16 91 20 39 3 97 14 130
25 34 11 75 23 91 28 51 14 37 37 -25 43 -70 6 -73 20 -29 112 40 83 34 98
-33 75 -38 -12 -48 -13 -69 -1 -34 19 -70 17 -129 -6 -28 -11 -97 -27 -153
-35 -206 -31 -289 -64 -314 -122 -12 -30 -12 -40 -2 -60 11 -21 8 -32 -29
-104 -23 -44 -42 -91 -42 -105 0 -43 -29 -98 -66 -122 -48 -31 -63 -66 -40
-91 10 -11 30 -22 44 -26 15 -3 40 -18 55 -33 l29 -27 21 28 c68 87 110 127
138 127 35 0 128 -19 152 -32 16 -8 16 -11 2 -38 -12 -22 -27 -33 -60 -41 -25
-6 -45 -15 -45 -19 0 -10 53 -20 111 -20 26 0 51 -5 55 -11 3 -6 -10 -28 -31
-49 -36 -36 -36 -39 -22 -66 8 -16 24 -38 36 -48 12 -11 21 -25 21 -32 0 -15
-46 -31 -115 -39 -27 -4 -63 -9 -79 -12 l-28 -5 20 -20 c11 -11 32 -20 46 -20
39 0 42 -17 10 -43 -22 -18 -26 -26 -17 -35 9 -10 17 -9 34 4 47 32 90 6 54
-33 -15 -18 -15 -22 -1 -49 15 -30 15 -31 -10 -51 -36 -28 -50 -26 -91 9 -37
33 -45 35 -74 20 -28 -16 -23 -35 14 -51 50 -22 41 -42 -23 -54 -65 -12 -80
-20 -80 -44 0 -35 24 -44 80 -30 41 10 53 10 63 0 10 -10 5 -18 -22 -41 -19
-16 -48 -32 -65 -35 -94 -19 -109 -47 -48 -87 20 -14 46 -42 57 -61 l19 -37
-38 -39 c-22 -22 -52 -43 -67 -46 -42 -10 -44 -21 -10 -74 35 -54 33 -74 -10
-91 -43 -18 -79 -49 -79 -67 0 -16 41 -16 173 3 43 6 47 5 47 -14 0 -27 -28
-42 -80 -42 -75 0 -130 -36 -130 -86 0 -9 14 -39 31 -66 30 -46 31 -53 25
-111 -5 -52 -3 -67 14 -95 28 -45 25 -58 -12 -68 -41 -12 -46 -38 -18 -94 12
-23 20 -51 18 -63 -3 -20 -8 -22 -50 -19 -60 5 -61 -6 -8 -77 45 -59 51 -91
20 -91 -35 0 -35 -29 0 -65 42 -43 41 -71 -4 -144 -20 -33 -36 -62 -36 -65 0
-19 46 -1 76 29 39 40 59 44 74 16 16 -32 12 -52 -26 -127 -40 -78 -64 -97
-164 -129 -117 -38 -139 -65 -52 -65 123 0 122 -32 -3 -64 -52 -14 -60 -14
-122 5 -52 16 -71 18 -90 10 -13 -6 -44 -11 -68 -11 -91 0 -118 85 -83 260 15
79 31 105 127 205 148 155 164 178 169 247 3 34 0 64 -6 70 -20 20 -61 -1 -80
-39 -9 -21 -37 -52 -62 -70 -96 -72 -111 -86 -165 -153 -31 -39 -62 -70 -69
-70 -7 0 -46 36 -87 79 l-74 79 -90 12 c-123 17 -155 31 -155 68 0 59 -58 64
-80 7 -21 -55 50 -165 117 -179 16 -4 66 -28 110 -54 45 -26 96 -55 113 -64
45 -25 60 -70 53 -157 -6 -69 -5 -71 17 -71 23 0 23 0 4 -21 -11 -12 -19 -36
-20 -58 -1 -94 -79 -137 -275 -151 -142 -11 -184 -7 -241 21 -21 11 -64 25
-95 33 -86 20 -119 40 -143 89 -11 23 -36 67 -55 97 -22 33 -35 67 -35 87 0
29 4 33 41 43 22 6 42 19 45 28 3 9 17 43 30 75 25 56 25 77 0 77 -13 0 -156
-97 -168 -115 -13 -17 -9 -136 7 -207 20 -98 54 -165 89 -180 39 -16 86 -57
86 -74 0 -25 29 -73 53 -86 15 -8 86 -12 222 -14 174 -1 211 -4 285 -24 69
-19 114 -24 240 -25 186 -3 175 -2 160 -20 -7 -8 -27 -15 -45 -15 -38 0 -47
-10 -63 -67 l-12 -41 -95 -7 c-112 -9 -165 6 -219 60 -29 29 -35 31 -51 19
-17 -13 -22 -11 -50 16 -17 16 -41 30 -54 30 -13 0 -38 7 -57 16 -76 36 -58
-12 66 -177 55 -74 103 -147 107 -163 l6 -29 127 5 c129 6 152 12 202 54 15
12 57 32 94 44 57 19 70 29 98 68 17 26 43 58 59 72 74 67 186 186 187 198 0
8 -15 12 -44 12 -47 0 -64 11 -43 28 6 6 50 20 96 32 142 36 179 62 225 161
15 32 44 76 65 100 l38 44 52 -24 c51 -24 52 -24 106 -7 30 9 87 21 127 26 40
5 102 14 138 19 36 6 124 13 195 16 l130 5 -50 -24 c-70 -33 -129 -44 -311
-56 -203 -14 -198 -13 -137 -34 29 -10 55 -21 58 -25 2 -4 -62 -11 -143 -14
-156 -7 -244 -23 -207 -38 11 -4 41 -8 67 -8 26 -1 59 -6 75 -12 l28 -11 -35
-14 c-33 -13 -28 -14 60 -9 52 3 122 10 155 15 33 5 121 14 195 20 139 10 321
28 376 36 17 2 45 18 62 33 20 20 46 32 75 36 41 6 117 54 117 74 0 4 -28 4
-62 -1 -99 -14 -265 -15 -278 -1 -17 16 9 28 102 47 61 13 361 46 416 46 31 0
6 -30 -45 -54 l-58 -27 50 6 c28 3 85 17 128 32 l79 27 -54 11 c-29 6 -63 16
-75 23 -27 15 -225 31 -379 32 -61 0 -126 3 -143 6 -29 6 -30 8 -14 20 23 17
8 17 -42 0 -24 -8 -111 -16 -221 -20 -99 -3 -249 -11 -332 -17 -135 -10 -155
-9 -177 5 -26 17 -41 70 -32 108 6 22 9 23 105 20 l100 -3 22 30 c18 26 28 31
63 31 l41 0 -39 -41 c-40 -40 -77 -64 -125 -80 -37 -13 497 -2 549 11 25 6 49
17 55 25 8 10 55 20 151 31 77 9 146 20 154 24 9 5 -15 11 -63 15 -48 5 -83
13 -93 23 -27 28 9 42 106 42 87 0 129 12 103 28 -7 5 -69 19 -138 32 -144 26
-234 24 -304 -9 -91 -42 -123 -17 -37 29 26 14 56 40 67 58 11 17 25 32 32 32
7 0 58 23 114 51 121 61 172 71 203 40 27 -27 81 -27 176 -2 86 23 105 31 105
41 0 11 -29 17 -140 31 -121 15 -213 7 -370 -31 -151 -36 -230 -47 -230 -32 0
30 139 63 380 92 261 30 313 39 340 58 14 9 37 22 53 29 39 17 33 33 -12 33
-52 0 -71 -8 -71 -31 0 -33 -40 -42 -144 -34 -53 4 -96 9 -96 11 0 3 12 15 27
28 l27 24 -52 22 c-29 12 -52 26 -52 30 0 12 67 20 166 20 109 0 169 9 139 21
-56 22 -435 0 -725 -41 -286 -40 -347 -45 -365 -30 -8 7 -30 16 -48 19 -36 8
-46 31 -22 55 23 23 132 21 250 -5 l96 -21 19 20 c20 22 28 23 245 42 183 16
199 25 115 68 l-44 22 39 2 c106 4 165 -9 165 -37 0 -16 61 -31 86 -21 12 5
14 13 9 34 -11 44 -28 54 -137 72 -57 10 -116 23 -131 29 -51 20 -20 31 71 25
74 -6 113 -2 255 26 92 18 167 36 167 41 0 14 -58 11 -120 -6 -59 -16 -152
-19 -185 -6 -19 8 -19 8 3 15 24 8 29 22 10 29 -7 3 -81 2 -164 -1 -84 -3
-160 -2 -169 2 -17 6 -17 7 0 26 23 26 93 48 204 64 138 21 139 35 4 47 -146
13 -197 11 -184 -5 17 -21 5 -38 -47 -68 -26 -15 -64 -42 -85 -60 l-39 -33
-166 0 c-114 0 -179 4 -205 13 -63 23 -40 37 64 40 52 1 101 5 109 8 28 10
-12 24 -73 24 -53 0 -127 22 -127 38 0 4 12 16 26 27 24 19 25 24 14 45 -21
40 -8 130 28 186 41 64 62 149 62 249 0 85 3 98 47 214 27 72 30 75 98 117 39
23 87 46 107 49 81 14 72 54 -20 80 -73 22 -87 32 -69 54 8 9 18 33 21 54 4
21 14 41 22 44 24 9 62 -17 79 -54 19 -40 50 -62 99 -70 43 -7 73 11 55 33 -6
8 -17 14 -24 14 -7 0 -23 8 -36 19 l-23 18 30 28 c27 25 33 26 79 19 122 -19
179 0 225 76 14 22 35 47 48 56 30 20 30 54 -1 54 -30 0 -103 -52 -112 -79 -6
-20 -57 -41 -101 -41 -31 0 -50 26 -34 45 7 8 18 15 25 15 14 0 148 88 153
100 4 10 -48 -1 -164 -35 -102 -29 -143 -33 -124 -10 16 19 119 67 193 91 36
11 75 33 102 57 24 22 54 45 66 51 12 6 25 18 29 26 28 62 41 77 86 104 28 17
69 49 91 71 22 22 54 50 72 63 41 31 39 44 -7 41 -77 -6 -76 27 2 96 28 24 61
54 74 65 12 10 22 29 22 41 0 17 -4 20 -22 15 -13 -4 -41 -10 -63 -13 -38 -5
-39 -4 -19 11 12 8 44 24 71 35 42 16 176 98 324 197 73 49 77 112 6 86 -42
-15 -67 -15 -67 0 0 6 12 32 27 57 29 51 29 51 -64 -27 -29 -24 -65 -66 -80
-95 -20 -36 -40 -59 -70 -75 -23 -12 -44 -18 -47 -13 -3 5 17 32 44 59 36 36
50 58 50 79 0 15 4 35 9 43 15 22 2 32 -22 15 -12 -8 -30 -15 -40 -15 -22 0
-19 19 24 156 16 50 29 94 29 98 0 16 -58 4 -77 -16z m-938 -877 c7 -12 -33
-41 -56 -41 -9 0 -22 7 -30 16 -10 13 -10 17 2 25 18 12 76 12 84 0z m-101
-58 c11 -21 22 -54 27 -73 7 -34 7 -34 -8 -12 -9 12 -26 22 -39 22 -27 0 -40
34 -30 75 9 36 29 31 50 -12z m-168 18 c-7 -11 -76 -22 -90 -14 -6 4 0 10 14
14 36 10 82 10 76 0z m-111 -142 c11 -17 1 -19 -38 -7 -40 12 -47 24 -19 31
19 4 47 -7 57 -24z m75 -228 c0 -15 -24 -29 -62 -36 -47 -9 -48 -1 -5 25 33
21 67 26 67 11z m228 -218 c15 -21 15 -25 -1 -47 -19 -26 -114 -35 -123 -12
-4 11 3 25 20 41 14 13 26 29 26 36 0 17 62 3 78 -18z m-133 -121 c4 -15 2
-24 -9 -28 -34 -13 -61 37 -34 64 15 15 32 0 43 -36z m-70 -494 c-20 -65 -75
-122 -98 -99 -7 7 -5 19 8 38 45 71 105 111 90 61z m-82 -350 c4 -14 -3 -29
-23 -49 -47 -48 -61 -36 -39 32 17 48 29 62 44 49 7 -6 15 -20 18 -32z m197
-307 c0 -5 -9 -11 -20 -14 -11 -3 -20 -10 -20 -16 0 -15 38 -14 91 4 62 20
185 35 292 35 119 0 105 -17 -32 -38 -56 -9 -101 -19 -101 -23 0 -3 27 -12 60
-18 60 -12 75 -25 43 -35 -10 -3 -112 -7 -228 -8 -196 -3 -212 -2 -245 18 -46
27 -69 66 -51 88 11 13 34 16 112 16 55 0 99 -4 99 -9z m450 -86 c0 -3 -12
-10 -27 -16 -30 -11 -77 -4 -68 11 6 10 95 14 95 5z m-720 -25 c0 -11 -7 -23
-15 -27 -21 -8 -28 1 -20 26 8 27 35 27 35 1z m205 -51 c19 -5 59 -5 105 1 95
12 307 13 314 1 10 -16 -27 -22 -184 -31 -85 -5 -163 -12 -173 -15 -10 -4 -28
-3 -40 4 -17 8 -37 8 -87 -3 -74 -15 -103 -7 -98 27 5 35 77 42 163 16z m385
-208 c0 -5 -26 -15 -57 -21 -32 -7 -104 -23 -159 -36 -106 -25 -184 -31 -184
-14 0 5 12 12 28 15 22 5 173 49 207 60 23 8 165 4 165 -4z m-520 -36 c39 -20
39 -45 1 -45 -42 0 -61 9 -61 29 0 34 17 38 60 16z m844 -5 c-17 -17 -263 -45
-276 -32 -16 16 -5 24 39 32 61 12 249 12 237 0z m-446 -139 c49 -31 -132 -52
-283 -32 -110 15 -126 24 -55 32 87 9 324 10 338 0z m-484 -52 c32 -25 33 -39
2 -39 -27 0 -79 37 -71 51 10 15 41 10 69 -12z m657 -19 c-13 -11 -34 -20 -47
-20 -28 0 -30 -8 -6 -26 16 -11 15 -13 -10 -23 -16 -6 -89 -16 -163 -22 -212
-19 -198 13 25 57 47 9 101 25 120 35 19 10 51 18 70 18 l35 0 -24 -19z m-371
-29 c0 -17 -44 -41 -75 -41 -17 0 -40 7 -51 15 -16 13 -17 16 -4 25 19 12 130
13 130 1z m-240 -33 c30 -10 32 -12 14 -19 -24 -9 -87 -11 -108 -3 -13 5 -14
9 -5 20 14 17 55 18 99 2z m30 -98 c0 -18 -43 -32 -87 -27 -50 5 -64 14 -43
27 20 13 130 13 130 0z m175 -4 c18 -13 14 -16 -50 -46 -72 -32 -164 -60 -200
-60 -12 0 -30 6 -40 14 -19 14 -19 15 10 26 17 7 64 28 105 46 81 36 143 44
175 20z m180 -32 c-54 -26 -100 -28 -100 -4 0 18 35 28 100 28 l50 0 -50 -24z
m220 -64 c12 -19 -47 -30 -161 -30 -113 0 -152 13 -76 25 20 4 44 8 52 10 38
7 179 4 185 -5z m-317 -78 c2 -7 -7 -12 -22 -12 -27 0 -35 15 -13 23 17 7 30
3 35 -11z m92 -140 c0 -16 -48 -31 -209 -62 -154 -29 -189 -31 -175 -9 11 18
57 31 189 54 142 25 195 30 195 17z m-432 -64 c-3 -7 -13 -13 -23 -13 -10 0
-20 6 -22 13 -3 7 5 12 22 12 17 0 25 -5 23 -12z m766 -87 c21 -24 20 -24
-100 -61 -108 -33 -151 -37 -180 -15 -10 8 -28 15 -39 15 -11 0 -27 4 -35 10
-12 7 -9 11 11 19 14 5 47 12 73 16 43 7 48 5 53 -14 7 -27 26 -27 38 1 14 32
51 48 111 48 37 0 55 -5 68 -19z m-1611 -297 c14 -15 -8 -34 -38 -34 -37 0
-56 17 -34 31 16 10 63 12 72 3z"/>
<path d="M3217 6471 c-59 -10 -48 -25 20 -31 78 -6 94 -20 57 -49 -35 -27 -10
-28 48 -2 24 11 55 22 71 26 31 6 38 41 10 49 -33 9 -168 14 -206 7z"/>
<path d="M5814 6445 c34 -30 128 -75 156 -75 19 0 10 30 -13 45 -21 14 -163
66 -176 65 -3 -1 12 -16 33 -35z"/>
<path d="M2400 6421 c-45 -12 -2 -24 64 -17 89 10 107 26 26 25 -36 -1 -76 -4
-90 -8z"/>
<path d="M7601 6411 c-6 -10 -24 -24 -41 -31 -36 -15 -38 -34 -6 -55 33 -22
80 -16 84 10 2 11 8 30 14 42 6 12 8 29 5 37 -9 22 -44 20 -56 -3z"/>
<path d="M12225 6340 c4 -25 10 -65 14 -90 6 -44 7 -44 20 -21 19 34 9 108
-19 135 l-22 21 7 -45z"/>
<path d="M3045 6355 c-27 -7 -63 -19 -80 -26 l-30 -13 33 -4 c65 -7 171 26
156 49 -7 12 -18 11 -79 -6z"/>
<path d="M6348 6359 c-75 -8 -88 -13 -88 -35 0 -20 60 -44 112 -44 51 0 111
32 106 57 -4 23 -48 30 -130 22z"/>
<path d="M6165 6276 c-16 -12 -18 -17 -7 -28 19 -19 115 -48 126 -38 34 34
-78 97 -119 66z"/>
<path d="M6532 6248 c-58 -13 -49 -33 14 -32 64 0 106 12 101 27 -5 15 -60 18
-115 5z"/>
<path d="M887 6200 c-45 -8 -60 -21 -51 -43 9 -23 34 -21 101 8 44 20 54 28
43 35 -17 11 -38 11 -93 0z"/>
<path d="M3343 6201 c-67 -11 -65 -24 2 -16 63 7 112 25 65 23 -14 0 -44 -4
-67 -7z"/>
<path d="M6101 6186 c-9 -10 -8 -15 1 -19 19 -7 60 11 53 23 -9 14 -41 12 -54
-4z"/>
<path d="M5603 6183 c9 -2 23 -2 30 0 6 3 -1 5 -18 5 -16 0 -22 -2 -12 -5z"/>
<path d="M12060 6139 c0 -8 7 -23 15 -33 8 -11 15 -30 15 -43 0 -25 17 -31 26
-9 6 16 -17 66 -40 85 -13 11 -16 11 -16 0z"/>
<path d="M724 6060 c-27 -11 -69 -63 -55 -68 18 -6 143 57 136 68 -7 12 -52
12 -81 0z"/>
<path d="M5398 6063 c-29 -7 -21 -22 16 -29 45 -8 66 4 41 23 -19 13 -27 14
-57 6z"/>
<path d="M7790 6048 c-18 -13 -42 -35 -53 -50 -17 -22 -18 -30 -7 -42 11 -14
15 -14 42 2 28 16 88 87 88 104 0 15 -37 8 -70 -14z"/>
<path d="M243 6049 c-15 -15 -5 -39 17 -39 21 0 44 25 35 40 -8 13 -38 13 -52
-1z"/>
<path d="M12561 6046 c-16 -20 -26 -106 -12 -106 6 0 14 14 18 31 4 23 12 31
34 36 32 6 54 27 44 43 -9 15 -71 12 -84 -4z"/>
<path d="M2943 6008 c-29 -5 -53 -14 -53 -19 0 -12 132 -11 167 2 22 8 24 12
13 19 -18 12 -57 11 -127 -2z"/>
<path d="M5577 6002 c-21 -23 -21 -29 -2 -48 8 -9 15 -26 15 -39 0 -29 14 -39
46 -31 32 8 32 51 2 96 -28 41 -40 46 -61 22z"/>
<path d="M11995 6011 c-3 -5 6 -22 20 -38 26 -29 32 -22 15 21 -10 27 -24 33
-35 17z"/>
<path d="M19 5889 c-16 -54 -20 -84 -15 -127 4 -31 9 -106 12 -167 4 -60 11
-116 16 -122 6 -7 26 -13 44 -13 41 0 44 15 15 75 -34 71 -55 213 -47 325 4
55 5 100 2 100 -3 0 -15 -32 -27 -71z"/>
<path d="M7873 5936 c-18 -8 -33 -19 -33 -24 0 -5 -36 -28 -81 -52 -148 -80
-146 -85 30 -85 134 0 161 -8 161 -45 0 -51 87 -52 150 -1 33 27 47 31 97 31
60 0 82 9 136 58 39 37 34 43 -20 27 -56 -17 -170 -20 -209 -5 -25 10 -26 12
-10 29 32 36 18 51 -59 63 -111 18 -130 18 -162 4z m157 -106 c23 -23 19 -41
-8 -33 -28 7 -54 31 -47 42 10 17 33 13 55 -9z"/>
<path d="M3100 5913 c-68 -7 -100 -14 -100 -23 0 -6 22 -10 50 -10 60 0 150
18 150 31 0 9 -28 9 -100 2z"/>
<path d="M11850 5901 c0 -12 14 -23 43 -35 52 -20 57 -20 57 -2 0 16 -59 56
-84 56 -9 0 -16 -8 -16 -19z"/>
<path d="M5730 5880 c-34 -34 -12 -48 43 -30 51 18 56 44 10 48 -22 2 -38 -3
-53 -18z"/>
<path d="M5980 5873 l-35 -16 30 -6 c20 -4 31 -13 35 -31 5 -20 13 -26 43 -28
36 -3 37 -2 37 32 0 62 -41 81 -110 49z"/>
<path d="M2845 5873 c-162 -37 -236 -53 -267 -58 -21 -3 -38 -11 -38 -17 0
-13 126 -4 181 13 19 5 72 14 117 19 79 8 112 21 112 41 0 9 -69 10 -105 2z"/>
<path d="M7212 5813 c-29 -30 -51 -57 -49 -59 6 -6 86 66 98 88 20 37 4 27
-49 -29z"/>
<path d="M3469 5820 c-47 -5 -133 -17 -190 -29 -57 -11 -160 -30 -229 -41
-153 -26 -210 -40 -210 -51 0 -13 -2 -13 284 35 143 25 315 50 381 56 166 15
205 21 205 31 0 10 -117 10 -241 -1z"/>
<path d="M7446 5791 c-10 -10 -19 -36 -21 -56 -5 -53 -33 -86 -94 -110 -53
-22 -97 -55 -72 -55 7 0 61 25 120 55 148 76 170 103 98 124 -30 9 -31 10 -9
16 12 4 22 15 22 26 0 24 -22 24 -44 0z"/>
<path d="M7300 5750 c-40 -50 -36 -65 10 -42 28 13 36 24 38 50 4 43 -10 40
-48 -8z"/>
<path d="M5421 5749 c-34 -32 -43 -65 -27 -97 8 -15 19 -80 24 -143 6 -70 16
-128 26 -148 32 -61 99 -96 266 -138 36 -9 54 -33 65 -85 9 -44 63 -100 94
-96 16 2 27 10 30 22 2 11 28 43 58 72 31 29 53 58 51 65 -2 7 -22 18 -44 24
-33 10 -39 15 -36 36 2 13 -2 57 -9 97 -6 40 -9 75 -5 79 4 4 18 -5 32 -20 14
-15 29 -27 34 -27 17 0 40 31 51 71 14 46 7 57 -44 75 -27 9 -33 17 -38 49 -5
28 -19 50 -52 81 -51 48 -88 62 -121 45 -16 -9 -34 -9 -71 -1 -30 7 -79 8
-123 4 -73 -6 -74 -6 -106 25 l-32 31 -23 -21z m272 -101 c49 -25 47 -37 -5
-27 -73 13 -113 33 -103 50 8 11 62 0 108 -23z m191 -125 c9 -22 -3 -36 -20
-22 -19 15 -19 50 0 43 8 -3 17 -12 20 -21z m-46 -150 c-3 -17 -87 -68 -96
-59 -2 3 -1 14 3 25 12 39 100 70 93 34z"/>
<path d="M7680 5711 c0 -14 38 -24 66 -17 40 10 27 26 -21 26 -25 0 -45 -4
-45 -9z"/>
<path d="M4615 5696 c-5 -2 -36 -9 -67 -16 -57 -11 -76 -31 -42 -44 51 -20
209 13 209 44 0 11 -13 16 -45 17 -25 1 -49 0 -55 -1z"/>
<path d="M9745 5684 c-20 -20 -16 -48 7 -52 18 -3 68 39 68 58 0 16 -57 12
-75 -6z"/>
<path d="M7822 5660 c-23 -17 -42 -34 -42 -40 0 -16 61 -80 76 -80 8 0 14 8
14 18 0 10 7 27 15 38 8 10 15 36 15 57 0 47 -20 49 -78 7z"/>
<path d="M4705 5605 c-44 -12 -98 -27 -120 -31 -30 -7 -40 -14 -40 -29 0 -15
8 -21 34 -23 37 -4 167 22 219 44 35 14 44 47 16 58 -20 8 -16 8 -109 -19z"/>
<path d="M5031 5606 c-7 -8 -8 -16 -4 -19 21 -12 60 -15 73 -6 13 8 12 11 -4
24 -25 19 -50 19 -65 1z"/>
<path d="M12302 5596 c2 -16 9 -31 16 -34 17 -5 15 20 -3 44 -15 18 -15 18
-13 -10z"/>
<path d="M6167 5599 c-9 -5 -24 -24 -33 -41 -14 -27 -14 -32 -1 -46 21 -20 65
-8 78 21 7 15 7 31 0 50 -11 29 -17 32 -44 16z"/>
<path d="M3255 5579 c-22 -6 -85 -16 -140 -25 -118 -17 -210 -40 -245 -60
l-25 -15 30 6 c17 3 140 21 274 40 232 33 321 50 321 60 0 9 -174 3 -215 -6z"/>
<path d="M815 5551 c-71 -9 -80 -17 -55 -48 35 -45 22 -63 -46 -63 -21 0 -33
-4 -29 -10 3 -5 21 -10 40 -10 22 0 37 -6 44 -17 7 -14 12 -15 25 -4 8 7 18
23 22 34 17 58 52 68 143 41 56 -16 73 -37 49 -60 -12 -12 -26 -13 -87 -3 -88
13 -112 1 -54 -27 26 -13 39 -27 41 -43 2 -14 14 -39 27 -55 32 -42 39 -77 21
-101 -13 -18 -17 -19 -48 -6 -18 7 -43 15 -55 18 -27 6 -165 -55 -160 -71 2
-6 30 -18 63 -27 53 -14 59 -18 59 -43 0 -15 6 -31 14 -35 19 -12 -32 -38 -90
-47 -24 -3 -55 -13 -68 -21 -13 -8 -44 -20 -70 -27 -62 -15 -62 -38 0 -50 57
-11 76 -4 89 29 6 16 14 23 25 19 8 -4 17 1 21 10 8 20 24 11 24 -15 0 -14 -7
-19 -25 -19 -23 0 -24 -2 -15 -21 16 -29 6 -47 -30 -56 -28 -7 -18 -12 107
-52 l138 -45 -62 -12 c-34 -7 -84 -24 -110 -38 l-48 -25 90 6 c71 4 98 2 129
-11 l39 -16 -23 -25 c-28 -30 -106 -60 -180 -69 -150 -19 -194 -53 -57 -43 49
3 112 16 156 31 41 14 83 26 94 26 29 0 82 -36 95 -64 15 -34 0 -41 -40 -20
-40 21 -87 20 -129 -1 -50 -26 -31 -40 64 -45 48 -3 88 -9 88 -15 1 -5 -31
-21 -70 -33 -42 -14 -70 -29 -68 -35 2 -7 25 -19 51 -28 56 -19 51 -24 -43
-49 -36 -9 -109 -29 -161 -44 -52 -15 -120 -35 -150 -43 -80 -23 -43 -28 96
-13 95 10 126 10 144 0 12 -6 61 -18 108 -26 47 -7 90 -18 94 -22 5 -5 -21
-12 -61 -15 -38 -3 -82 -12 -96 -20 l-27 -13 46 -25 c25 -13 42 -27 38 -30 -4
-4 -46 -19 -94 -33 -49 -15 -88 -31 -88 -35 0 -5 9 -29 19 -54 22 -51 45 -62
151 -72 108 -10 176 -51 135 -81 -9 -7 -53 -24 -98 -38 -110 -35 -117 -40 -94
-63 14 -14 33 -18 90 -17 90 1 130 18 137 58 7 42 23 42 70 -1 l42 -37 -35
-32 c-30 -27 -45 -33 -103 -39 -100 -9 -120 -14 -149 -36 -34 -27 -24 -39 34
-39 27 0 69 -3 95 -6 43 -6 46 -9 46 -37 0 -44 -59 -95 -164 -142 -77 -34 -85
-40 -65 -47 13 -5 66 -10 119 -10 72 -1 103 2 127 15 56 30 68 75 32 121 -41
52 5 77 59 31 18 -15 34 -41 41 -69 6 -24 13 -51 17 -60 5 -12 -27 -32 -152
-93 l-159 -78 67 -3 c63 -3 73 0 154 43 84 44 136 56 149 34 4 -5 0 -18 -9
-28 -19 -21 -4 -41 32 -41 23 0 24 -3 19 -41 -7 -52 -24 -70 -100 -107 -107
-51 -114 -90 -10 -51 106 38 120 42 156 35 20 -4 46 -15 58 -25 l23 -18 -25
-14 c-14 -8 -53 -32 -86 -54 -34 -22 -75 -48 -92 -57 -65 -36 -13 -52 70 -22
147 54 166 48 73 -24 -41 -32 -53 -47 -45 -55 8 -8 28 -4 73 15 54 23 65 24
77 12 13 -12 12 -17 -9 -39 -13 -14 -28 -25 -34 -25 -6 0 -39 -13 -74 -30
-187 -88 -209 -162 -27 -90 42 17 84 30 94 30 10 0 39 16 65 36 26 19 62 38
80 41 29 4 40 0 72 -29 22 -21 35 -41 32 -49 -3 -8 -43 -35 -88 -59 -118 -63
-127 -73 -65 -65 28 3 78 16 112 27 60 20 64 20 115 3 64 -21 181 -80 201
-103 13 -15 14 -20 1 -36 -14 -19 -15 -19 -42 7 -33 31 -102 49 -102 26 0 -8
7 -32 15 -54 12 -36 12 -41 -3 -53 -20 -15 -47 -15 -74 -1 -20 11 -20 12 7 33
48 39 11 89 -38 52 -14 -11 -38 -13 -91 -9 -41 3 -76 2 -79 -4 -10 -16 8 -34
49 -48 l39 -14 -38 -1 c-53 0 -163 38 -303 106 -104 51 -127 67 -209 148 -51
50 -135 132 -186 181 -66 62 -124 133 -191 230 -103 148 -149 205 -168 205
-16 0 28 -75 105 -180 34 -47 78 -110 97 -140 62 -96 368 -410 400 -410 6 0
42 -31 79 -70 78 -80 167 -129 405 -224 267 -106 380 -119 554 -60 100 33 353
194 306 194 -3 0 -56 -20 -118 -45 -160 -65 -239 -79 -443 -80 -178 0 -175 -1
-295 52 l-35 16 30 8 c17 4 118 12 225 18 220 13 268 21 468 85 87 28 161 46
190 46 51 0 74 13 65 37 -10 24 -45 32 -81 17 -62 -25 -259 -74 -299 -74 -52
0 -94 18 -161 69 -30 22 -79 54 -110 71 -133 71 -241 182 -352 365 -232 380
-340 603 -340 702 0 18 -9 59 -21 91 -52 140 -88 332 -150 795 -11 83 -31 180
-44 220 -31 89 -31 104 2 139 26 27 26 28 7 49 -17 19 -19 41 -22 240 -2 120
-7 219 -11 219 -5 0 -14 -7 -21 -15 -14 -17 -46 -20 -55 -5 -3 5 19 46 50 90
51 76 55 85 55 139 l0 58 -47 -1 c-27 -1 -75 2 -108 5 -33 4 -82 4 -110 0z
m185 -456 c6 -8 9 -19 5 -25 -7 -12 -101 -12 -130 0 -19 7 -19 8 -1 15 60 25
110 29 126 10z m20 -110 c0 -41 -33 -65 -89 -65 -28 0 -53 5 -57 12 -10 15 24
38 57 38 15 0 37 9 50 20 32 26 39 25 39 -5z m-14 -146 c23 -24 1 -42 -50 -41
-63 2 -114 30 -99 55 8 14 133 1 149 -14z m94 -603 c0 -24 -18 -36 -65 -45
-27 -5 -54 -7 -62 -4 -21 8 -5 23 25 23 33 0 45 8 61 38 10 19 15 21 27 11 8
-6 14 -17 14 -23z m19 -267 c23 -25 33 -57 20 -65 -14 -8 -29 5 -29 26 0 28
-13 31 -59 15 -34 -11 -41 -12 -41 -1 0 13 54 45 77 46 7 0 21 -9 32 -21z
m867 -1670 c2 -5 -7 -11 -21 -15 -27 -7 -52 7 -41 24 6 11 54 4 62 -9z m171
-10 c22 -8 24 -12 13 -19 -17 -11 -93 -13 -103 -3 -11 11 14 33 39 33 12 0 35
-5 51 -11z"/>
<path d="M12710 5474 c-11 -36 -28 -77 -36 -89 -16 -25 -61 -45 -101 -45 -23
0 -108 -49 -99 -57 7 -8 85 8 92 18 7 12 64 12 64 0 0 -6 12 -16 27 -23 44
-21 40 -43 -21 -104 -64 -63 -77 -94 -27 -62 30 19 51 3 51 -38 0 -31 -7 -43
-50 -82 -27 -25 -50 -49 -50 -53 0 -4 19 -9 42 -11 23 -2 43 -8 45 -15 6 -16
-69 -97 -116 -125 -32 -21 -34 -23 -14 -26 12 -2 36 4 53 13 35 18 60 8 60
-26 0 -26 16 -24 35 5 30 45 83 393 92 597 9 199 -8 242 -47 123z"/>
<path d="M4799 5505 c-91 -31 -108 -41 -156 -92 -53 -56 -74 -116 -50 -140 23
-23 143 -24 178 -2 13 9 39 20 56 23 27 6 34 3 48 -18 34 -52 57 -28 45 47 -9
59 -20 73 -48 58 -26 -14 -92 -14 -129 0 -28 10 -27 11 46 49 155 82 162 129
10 75z"/>
<path d="M9550 5449 c-92 -77 -134 -107 -230 -161 -51 -29 -100 -72 -100 -88
0 -23 49 -7 139 47 126 76 342 284 294 283 -5 0 -51 -37 -103 -81z"/>
<path d="M5086 5476 c-9 -34 9 -74 39 -88 31 -14 43 -4 27 22 -7 11 -12 36
-12 55 0 30 -3 35 -24 35 -17 0 -26 -7 -30 -24z"/>
<path d="M12176 5489 c-90 -15 -134 -46 -90 -63 32 -12 201 45 189 64 -7 11
-29 11 -99 -1z"/>
<path d="M313 5483 c-38 -5 -45 -23 -9 -23 53 0 117 13 104 21 -13 9 -36 9
-95 2z"/>
<path d="M568 5483 c-10 -2 -18 -8 -18 -13 0 -15 31 -20 52 -9 17 9 18 13 7
20 -8 5 -16 8 -19 8 -3 -1 -13 -3 -22 -6z"/>
<path d="M7761 5476 c-17 -20 -10 -71 9 -71 10 0 16 12 18 34 4 40 -9 58 -27
37z"/>
<path d="M3110 5428 c-41 -5 -93 -7 -115 -4 -22 3 -47 1 -55 -4 -27 -17 40
-23 174 -16 141 6 186 13 186 27 0 11 -89 10 -190 -3z"/>
<path d="M7415 5421 c-16 -51 40 -121 97 -121 42 0 34 28 -17 57 -27 15 -42
32 -48 53 -9 34 -23 39 -32 11z"/>
<path d="M74 5345 c-5 -16 -9 -138 -9 -270 0 -237 10 -329 46 -459 18 -63 30
-24 28 89 -3 143 -3 143 31 160 35 18 32 31 -10 40 -44 10 -61 43 -67 134 -5
75 -4 80 20 105 18 18 37 26 62 26 47 0 46 24 -2 49 -55 27 -76 56 -83 109 -6
46 -7 47 -16 17z"/>
<path d="M745 5365 c-5 -2 -30 -9 -55 -16 l-45 -12 40 -8 c65 -13 125 -11 125
4 0 28 -33 44 -65 32z"/>
<path d="M4050 5353 c-135 -11 -738 -105 -782 -122 -72 -29 250 4 620 64 167
27 226 30 269 14 94 -35 341 -61 382 -39 43 23 6 35 -132 41 -107 5 -139 10
-172 28 -39 21 -68 23 -185 14z"/>
<path d="M6081 5314 c-29 -36 -26 -60 8 -92 16 -15 33 -39 36 -55 4 -15 17
-34 28 -42 29 -20 93 -20 101 1 13 33 6 44 -24 44 -36 0 -37 8 -9 61 11 23 18
43 15 46 -3 3 -23 -2 -46 -11 -44 -18 -47 -16 -52 39 -4 39 -30 44 -57 9z"/>
<path d="M5510 5231 c14 -26 90 -91 107 -91 10 0 13 9 11 28 -2 21 -14 33 -53
54 -61 33 -80 36 -65 9z"/>
<path d="M3985 5193 c-211 -19 -610 -91 -679 -122 l-41 -19 42 -1 c23 -1 93
10 155 24 127 27 398 67 582 85 112 11 166 22 166 35 0 5 -157 4 -225 -2z"/>
<path d="M4323 5179 c-18 -5 -35 -14 -38 -20 -17 -27 76 -86 206 -130 100 -33
109 -35 109 -14 0 17 -36 35 -125 62 -64 19 -87 49 -46 60 12 3 21 9 21 13 0
27 -77 44 -127 29z"/>
<path d="M12035 5110 c-31 -34 -14 -49 45 -38 29 5 64 14 79 19 25 10 25 11 7
25 -30 21 -109 18 -131 -6z"/>
<path d="M4055 5103 c-204 -18 -643 -85 -674 -103 -43 -24 38 -19 306 19 158
22 329 45 378 51 139 16 166 21 159 31 -5 9 -85 10 -169 2z"/>
<path d="M6298 5093 c-33 -5 -36 -23 -8 -48 25 -23 25 -29 -2 -65 -12 -16 -19
-32 -16 -36 12 -11 70 41 96 85 25 42 25 44 7 57 -19 14 -26 15 -77 7z"/>
<path d="M530 5040 c0 -6 38 -10 95 -10 57 0 95 4 95 10 0 6 -38 10 -95 10
-57 0 -95 -4 -95 -10z"/>
<path d="M4970 5025 c-21 -25 1 -36 65 -33 69 4 83 22 28 37 -53 15 -78 14
-93 -4z"/>
<path d="M5600 5025 c-10 -12 -9 -16 4 -21 9 -3 23 -3 32 0 13 5 14 9 4 21 -7
8 -16 15 -20 15 -4 0 -13 -7 -20 -15z"/>
<path d="M3925 4993 c-91 -11 -306 -46 -342 -55 -24 -6 -43 -14 -43 -19 0 -14
94 -11 205 6 55 9 135 20 178 25 73 9 125 29 110 43 -6 7 -54 7 -108 0z"/>
<path d="M4255 4990 c-8 -13 62 -55 153 -92 59 -23 102 -33 182 -40 58 -4 122
-11 142 -14 21 -3 45 -3 55 0 37 15 -15 36 -147 60 -74 14 -178 39 -230 55
-126 38 -148 43 -155 31z"/>
<path d="M6043 4963 c-24 -9 -13 -23 17 -23 32 0 40 14 14 24 -9 3 -16 6 -17
5 -1 0 -8 -3 -14 -6z"/>
<path d="M11903 4963 c-7 -2 -13 -8 -13 -13 0 -12 36 -19 51 -9 12 8 11 11 -1
19 -16 11 -19 11 -37 3z"/>
<path d="M5636 4934 c-37 -20 -22 -36 30 -32 31 2 39 7 39 23 0 26 -31 30 -69
9z"/>
<path d="M4972 4878 c-25 -12 -25 -31 0 -36 21 -4 88 24 88 37 0 14 -58 13
-88 -1z"/>
<path d="M5855 4856 c-16 -11 -17 -17 -7 -29 7 -8 12 -28 10 -44 l-3 -28 81 2
c87 2 134 15 134 35 0 18 -129 78 -166 78 -16 0 -39 -6 -49 -14z"/>
<path d="M5085 4841 c-40 -25 -68 -57 -60 -70 4 -8 13 -8 28 0 33 17 87 71 81
81 -8 12 -15 10 -49 -11z"/>
<path d="M420 4833 c-8 -4 -29 -17 -46 -30 -17 -12 -39 -23 -48 -23 -26 0 -56
-19 -56 -35 0 -22 71 -19 139 4 31 11 91 27 134 36 81 17 94 29 51 45 -27 11
-149 12 -174 3z"/>
<path d="M4041 4811 c-27 -18 10 -22 89 -10 44 6 80 13 80 15 0 8 -156 3 -169
-5z"/>
<path d="M3925 4804 c-64 -8 -135 -26 -135 -35 0 -22 150 1 171 27 6 8 8 13 3
13 -5 -1 -22 -4 -39 -5z"/>
<path d="M6486 4741 c-14 -26 -14 -30 3 -45 41 -37 64 -10 41 48 -12 34 -26
33 -44 -3z"/>
<path d="M7430 4760 c0 -14 50 -32 68 -25 11 4 12 8 2 20 -14 17 -70 21 -70 5z"/>
<path d="M4685 4731 c-11 -22 -23 -31 -47 -33 -29 -3 -33 -7 -36 -34 -4 -39
10 -44 134 -44 106 0 123 9 108 63 -7 24 -20 38 -54 55 -61 30 -86 29 -105 -7z"/>
<path d="M12180 4740 c-19 -5 -49 -16 -65 -24 -17 -9 -44 -16 -62 -16 -60 0
-81 -20 -42 -40 16 -9 41 -6 117 15 120 33 180 54 187 66 7 11 -86 10 -135 -1z"/>
<path d="M4108 4680 c-49 -5 -88 -14 -105 -26 l-28 -19 78 -3 c43 -2 140 6
216 18 76 11 153 20 170 20 17 0 31 5 31 10 0 12 -241 11 -362 0z"/>
<path d="M5690 4647 c0 -18 51 -31 91 -25 20 3 16 6 -19 17 -24 6 -50 15 -58
18 -8 3 -14 -1 -14 -10z"/>
<path d="M7839 4610 c23 -20 61 -27 61 -12 0 17 -25 32 -54 32 l-31 -1 24 -19z"/>
<path d="M540 4590 c-8 -5 -11 -12 -8 -15 9 -9 86 4 94 16 7 12 -67 11 -86 -1z"/>
<path d="M4480 4581 c-12 -9 -12 -11 2 -16 23 -9 83 -2 83 10 0 13 -66 18 -85
6z"/>
<path d="M4753 4563 c-22 -8 -14 -20 23 -38 33 -15 38 -16 52 -2 30 31 -26 60
-75 40z"/>
<path d="M7797 4553 c-15 -14 -5 -23 26 -23 30 1 31 1 13 15 -22 17 -29 18
-39 8z"/>
<path d="M4100 4535 c-62 -17 -100 -33 -100 -41 0 -18 192 26 205 47 9 13 -51
10 -105 -6z"/>
<path d="M125 4519 c-10 -30 3 -121 30 -209 12 -41 28 -97 34 -124 16 -68 98
-276 120 -305 20 -26 41 -21 41 8 0 10 -15 44 -34 75 -48 80 -156 408 -163
497 -6 73 -17 94 -28 58z"/>
<path d="M5756 4480 c39 -15 134 -16 134 0 0 6 -32 10 -77 9 -53 0 -71 -3 -57
-9z"/>
<path d="M7387 4466 c-18 -19 -22 -36 -8 -36 13 0 33 28 29 41 -3 8 -9 6 -21
-5z"/>
<path d="M309 4443 c-27 -4 -77 -48 -67 -58 3 -3 39 8 79 24 41 17 66 30 57
30 -9 1 -22 3 -30 4 -7 2 -25 2 -39 0z"/>
<path d="M4305 4440 c-122 -9 -197 -19 -213 -29 -14 -8 23 -91 42 -91 17 0 32
13 39 33 4 10 23 25 43 33 44 18 222 43 319 45 39 0 90 4 115 8 58 11 -203 11
-345 1z"/>
<path d="M8405 4440 c-4 -6 8 -10 29 -10 19 0 38 5 41 10 4 6 -8 10 -29 10
-19 0 -38 -4 -41 -10z"/>
<path d="M4943 4419 c-6 -8 -18 -50 -26 -94 -9 -44 -20 -92 -26 -107 -12 -31
-13 -31 -209 -47 -73 -6 -141 -15 -150 -21 -14 -8 -12 -10 13 -10 53 -2 289
-20 333 -26 23 -3 44 -10 47 -14 12 -19 -10 -41 -52 -53 l-45 -13 49 -32 c27
-18 57 -32 66 -32 22 0 88 135 73 150 -6 6 -6 27 2 61 7 28 12 60 12 72 -1 21
-2 20 -21 -5 -11 -16 -29 -28 -40 -28 -23 0 -25 27 -7 111 13 64 2 113 -19 88z"/>
<path d="M7721 4421 c-9 -6 -5 -10 16 -13 41 -6 113 2 113 13 0 11 -111 12
-129 0z"/>
<path d="M6410 4400 c0 -12 33 -30 54 -30 21 0 21 26 0 34 -24 9 -54 7 -54 -4z"/>
<path d="M4245 4335 c21 -17 45 -17 48 0 1 6 -14 11 -33 13 -33 2 -34 2 -15
-13z"/>
<path d="M4430 4340 c0 -12 102 -12 175 0 41 6 31 8 -62 9 -70 0 -113 -3 -113
-9z"/>
<path d="M4798 4296 c-27 -42 -32 -43 -243 -52 -204 -9 -268 -21 -115 -23 63
0 172 2 242 6 l127 6 10 46 c5 25 8 47 6 49 -2 2 -14 -12 -27 -32z"/>
<path d="M5385 4290 c-4 -7 -3 -16 3 -22 14 -14 57 -6 57 12 0 18 -50 26 -60
10z"/>
<path d="M6690 4240 c0 -15 59 -42 83 -38 20 3 19 6 -13 26 -37 23 -70 29 -70
12z"/>
<path d="M8600 4196 c-14 -7 -49 -16 -78 -20 -121 -15 -96 -33 50 -35 48 -1
90 -5 93 -11 8 -13 45 -13 45 0 0 14 -60 80 -74 80 -6 -1 -22 -7 -36 -14z"/>
<path d="M7430 4165 c-15 -18 -6 -45 15 -45 9 0 15 9 15 24 0 31 -14 40 -30
21z"/>
<path d="M6705 4140 c-8 -13 20 -24 41 -16 20 8 9 26 -16 26 -10 0 -22 -5 -25
-10z"/>
<path d="M7741 4141 c-25 -16 6 -41 50 -41 44 0 49 12 17 34 -25 18 -46 20
-67 7z"/>
<path d="M540 4107 c-53 -14 -59 -31 -11 -35 37 -4 121 24 121 39 0 12 -55 10
-110 -4z"/>
<path d="M8330 4072 c0 -6 21 -23 46 -38 37 -22 51 -25 72 -18 26 10 51 39 40
49 -12 12 -158 18 -158 7z"/>
<path d="M12225 4049 c-45 -15 -82 -19 -148 -17 -48 2 -87 2 -87 1 0 -11 106
-53 132 -53 47 0 184 68 168 83 -3 3 -32 -4 -65 -14z"/>
<path d="M5392 4042 c2 -11 28 -39 58 -64 30 -24 55 -51 55 -58 0 -8 -18 -24
-40 -37 -51 -28 -51 -52 -3 -78 35 -18 38 -24 38 -62 0 -46 16 -57 40 -27 20
23 16 68 -9 102 l-21 31 31 36 32 36 -24 25 c-31 33 -138 114 -151 114 -5 0
-8 -8 -6 -18z"/>
<path d="M5101 3973 c2 -68 0 -78 -20 -94 l-22 -18 35 -46 c20 -25 38 -47 42
-48 27 -8 20 237 -7 270 -23 27 -30 11 -28 -64z"/>
<path d="M7745 4041 c-11 -19 5 -31 41 -31 28 0 35 4 32 18 -4 19 -62 30 -73
13z"/>
<path d="M8725 4031 c-16 -4 -53 -20 -82 -34 -29 -15 -61 -27 -72 -27 -30 0
-36 -20 -12 -43 l21 -22 23 27 c12 15 56 40 100 58 94 39 107 61 22 41z"/>
<path d="M8320 3960 c-8 -5 -12 -12 -8 -15 8 -8 58 5 58 16 0 12 -31 11 -50
-1z"/>
<path d="M7436 3934 c-3 -9 -6 -25 -6 -36 0 -20 1 -21 20 -3 23 21 27 55 6 55
-8 0 -17 -7 -20 -16z"/>
<path d="M4706 3894 c-38 -7 -71 -16 -74 -19 -3 -3 25 -5 63 -5 51 0 76 -5
101 -21 36 -22 64 -16 83 20 23 42 -41 52 -173 25z"/>
<path d="M8465 3850 c-3 -6 1 -13 9 -16 21 -8 66 3 66 16 0 13 -67 13 -75 0z"/>
<path d="M12152 3800 c-18 -4 -43 -17 -56 -29 -12 -11 -34 -21 -48 -21 -22 0
-124 27 -174 47 -16 6 -20 -42 -6 -65 11 -17 67 -32 118 -32 51 0 231 52 251
73 32 32 -9 45 -85 27z"/>
<path d="M510 3771 c0 -12 55 -21 90 -14 55 11 42 23 -24 23 -36 0 -66 -4 -66
-9z"/>
<path d="M4815 3740 c-12 -20 7 -30 55 -30 56 0 74 15 35 30 -34 13 -82 13
-90 0z"/>
<path d="M364 3705 c5 -35 168 -480 181 -493 13 -14 13 10 0 62 -8 31 -15 70
-15 86 0 24 5 29 28 32 40 5 33 27 -18 51 -43 21 -47 27 -95 138 -28 64 -58
127 -68 140 l-18 24 5 -40z"/>
<path d="M4500 3721 l-34 -6 26 -12 c21 -9 37 -8 84 7 l59 18 -50 0 c-27 0
-66 -3 -85 -7z"/>
<path d="M5057 3714 c-12 -12 6 -34 27 -34 29 0 39 10 25 27 -12 13 -41 18
-52 7z"/>
<path d="M4804 3619 c-3 -6 1 -18 9 -27 14 -13 18 -13 32 -2 16 13 15 15 -1
27 -22 16 -31 16 -40 2z"/>
<path d="M5171 3606 l-25 -14 50 -25 c64 -33 107 -78 102 -108 -2 -18 -13 -26
-47 -36 -24 -7 -46 -15 -48 -17 -3 -2 5 -18 18 -35 22 -30 22 -32 5 -67 -15
-33 -15 -38 -1 -60 30 -46 42 -31 79 98 8 25 25 61 39 80 l26 33 -28 46 c-16
25 -44 62 -63 82 -38 40 -66 46 -107 23z"/>
<path d="M4437 3600 c-38 -24 29 -80 97 -80 23 0 42 7 56 22 l20 22 38 -37
c34 -33 43 -37 90 -37 37 0 52 4 52 13 0 19 -31 46 -66 57 -16 5 -48 16 -71
24 -55 20 -192 30 -216 16z"/>
<path d="M7527 3580 c-41 -35 -77 -50 -123 -50 -19 0 -34 -4 -34 -8 0 -9 73
-82 82 -82 3 0 29 32 58 71 74 103 80 125 17 69z"/>
<path d="M627 3544 c-20 -20 47 -33 88 -18 13 5 14 8 3 15 -15 10 -82 12 -91
3z"/>
<path d="M4495 3440 c-12 -20 59 -44 132 -44 82 -1 113 15 79 40 -23 16 -201
20 -211 4z"/>
<path d="M7535 3395 c-60 -29 -135 -91 -135 -111 0 -28 42 -13 91 33 l49 46
25 -23 c13 -13 29 -38 35 -56 9 -28 17 -34 39 -34 34 0 56 23 69 73 12 44 2
81 -23 91 -34 13 -102 4 -150 -19z"/>
<path d="M11885 3365 c-27 -9 -34 -14 -20 -16 44 -5 105 7 105 21 0 13 -36 11
-85 -5z"/>
<path d="M4497 3303 c-17 -16 -5 -42 24 -52 48 -17 109 -14 109 4 0 33 -109
72 -133 48z"/>
<path d="M4381 3270 c-8 -4 -10 -13 -7 -19 9 -14 56 -15 56 -1 0 15 -35 29
-49 20z"/>
<path d="M11886 3212 c-48 -17 -73 -42 -43 -42 22 0 103 36 111 49 10 15 -11
13 -68 -7z"/>
<path d="M4515 3183 c-16 -3 -34 -9 -39 -14 -6 -5 40 -9 120 -9 137 0 186 7
162 21 -13 9 -187 10 -243 2z"/>
<path d="M9446 3161 c-9 -13 50 -31 101 -31 49 0 56 19 12 31 -36 10 -107 10
-113 0z"/>
<path d="M6236 3127 c-16 -12 -16 -14 -2 -26 13 -11 22 -11 46 -1 36 15 38 25
8 34 -31 8 -32 8 -52 -7z"/>
<path d="M9020 3060 c-89 -8 -120 -16 -120 -31 0 -11 11 -12 125 -10 50 1 104
-2 120 -7 19 -6 77 -4 160 4 167 17 170 18 105 32 -75 15 -286 22 -390 12z"/>
<path d="M1173 3040 c-50 -22 -56 -40 -13 -40 41 0 110 29 110 46 0 20 -47 17
-97 -6z"/>
<path d="M9744 2970 c-47 -19 -36 -30 28 -30 70 0 104 13 78 30 -18 12 -77 12
-106 0z"/>
<path d="M6038 2919 c-38 -22 -68 -44 -68 -49 0 -18 85 23 135 65 47 39 9 30
-67 -16z"/>
<path d="M9300 2938 c-27 -9 -30 -12 -15 -15 11 -2 30 -6 42 -9 13 -2 30 -18
39 -35 15 -29 18 -31 57 -25 57 8 117 25 117 34 0 6 -129 45 -186 57 -10 2
-35 -1 -54 -7z"/>
<path d="M4304 2928 c-8 -13 22 -38 47 -38 10 0 25 7 34 16 13 14 14 19 3 25
-19 13 -76 11 -84 -3z"/>
<path d="M5650 2929 c0 -7 11 -27 26 -46 14 -18 30 -48 36 -66 15 -45 27 -57
73 -78 37 -17 115 -26 115 -13 0 15 -55 75 -93 100 -23 16 -62 45 -87 64 -59
48 -70 54 -70 39z"/>
<path d="M6234 2843 c-4 -16 -20 -43 -36 -61 -15 -18 -28 -37 -28 -42 0 -18
28 -10 59 16 43 36 53 57 41 88 -12 34 -28 33 -36 -1z"/>
<path d="M4105 2833 c-16 -2 -37 -7 -45 -10 -22 -9 108 -30 230 -38 l105 -6
-25 20 c-42 34 -154 49 -265 34z"/>
<path d="M9772 2824 c-24 -7 -105 -22 -180 -34 -138 -21 -170 -32 -142 -51 21
-15 224 -3 290 17 83 25 156 64 139 75 -19 12 -55 10 -107 -7z"/>
<path d="M11540 2830 c19 -5 41 -4 50 0 10 6 -1 9 -35 9 -48 -1 -49 -1 -15 -9z"/>
<path d="M9233 2812 c-7 -4 -14 -19 -15 -32 -3 -22 2 -25 30 -28 38 -4 72 20
72 50 0 14 -8 18 -37 18 -21 0 -44 -4 -50 -8z"/>
<path d="M5460 2740 c-13 -9 -13 -11 0 -20 8 -5 20 -10 25 -10 6 0 17 5 25 10
13 9 13 11 0 20 -8 5 -19 10 -25 10 -5 0 -17 -5 -25 -10z"/>
<path d="M3903 2721 c-79 -13 -59 -24 32 -17 104 9 151 26 65 24 -30 0 -74 -4
-97 -7z"/>
<path d="M3653 2698 c-29 -5 -53 -14 -53 -19 0 -6 8 -8 18 -5 9 2 37 8 62 11
54 9 89 25 50 24 -14 -1 -49 -6 -77 -11z"/>
<path d="M6077 2704 c-4 -4 -7 -16 -7 -26 0 -14 6 -19 23 -16 14 2 22 10 22
23 0 20 -25 32 -38 19z"/>
<path d="M11510 2607 l-35 -11 39 -4 c43 -4 66 2 66 18 0 13 -25 12 -70 -3z"/>
<path d="M3881 2597 c-15 -19 -4 -27 36 -27 45 0 81 18 62 31 -21 13 -85 11
-98 -4z"/>
<path d="M7811 2586 c-18 -13 -46 -30 -62 -36 -32 -14 -40 -40 -11 -40 23 0
66 29 92 63 29 37 21 42 -19 13z"/>
<path d="M3413 2553 c9 -2 25 -2 35 0 9 3 1 5 -18 5 -19 0 -27 -2 -17 -5z"/>
<path d="M6110 2527 c0 -21 37 -50 55 -44 18 8 20 28 3 45 -16 16 -58 15 -58
-1z"/>
<path d="M11430 2505 c-14 -8 -33 -14 -42 -15 -26 0 -12 -25 28 -46 30 -17 36
-17 44 -4 5 8 10 25 10 38 0 12 0 25 1 29 1 13 -16 12 -41 -2z"/>
<path d="M5932 2417 c-9 -20 -9 -40 -2 -72 12 -52 53 -150 67 -158 6 -4 13 23
17 66 l7 72 -35 30 c-22 19 -36 41 -39 60 l-3 30 -12 -28z"/>
<path d="M1680 2421 c0 -4 12 -21 26 -36 22 -24 30 -27 67 -21 48 8 52 10 42
26 -17 28 -135 55 -135 31z"/>
<path d="M3536 2422 c-7 -12 17 -22 51 -22 36 0 24 24 -14 28 -17 2 -34 -1
-37 -6z"/>
<path d="M5756 2399 c-9 -44 -6 -200 4 -224 7 -19 8 -19 18 5 5 14 11 74 13
135 3 95 2 110 -12 113 -11 2 -18 -7 -23 -29z"/>
<path d="M9290 2394 c-8 -1 -36 -6 -62 -9 -53 -7 -65 -25 -18 -25 31 0 100 24
100 34 0 4 -1 5 -2 5 -2 -1 -10 -3 -18 -5z"/>
<path d="M6067 2384 c-4 -4 -7 -20 -7 -36 0 -35 23 -34 28 1 4 25 -10 46 -21
35z"/>
<path d="M8925 2290 c-141 -46 -211 -59 -489 -85 -293 -28 -299 -29 -292 -16
8 12 156 47 285 66 131 19 151 25 151 38 0 15 -171 1 -281 -23 -94 -22 -280
-32 -295 -17 -4 4 1 14 12 22 12 9 14 14 6 15 -20 0 -65 -26 -90 -53 l-24 -25
74 -11 c90 -14 121 -23 122 -36 1 -5 -20 -12 -46 -15 -26 -3 -50 -9 -54 -13
-4 -4 7 -22 25 -41 26 -26 29 -35 19 -44 -21 -17 -102 -32 -227 -43 -110 -9
-191 -25 -191 -39 0 -3 19 -10 43 -16 59 -13 56 -36 -7 -51 -58 -14 -78 -29
-52 -39 9 -4 91 -5 181 -2 159 4 165 5 204 32 34 24 59 30 188 47 81 10 198
26 258 36 92 15 103 19 65 21 -25 2 -103 -1 -174 -7 -159 -14 -256 -14 -256
-1 0 14 68 30 131 30 30 0 92 11 136 24 133 40 267 59 426 61 93 1 152 6 159
13 20 20 -38 25 -191 19 -154 -7 -334 -27 -464 -52 -151 -29 -213 -12 -89 24
113 34 270 60 419 71 230 17 388 52 422 96 21 27 20 44 -2 44 -7 -1 -52 -14
-102 -30z m-925 -336 c0 -8 -16 -22 -35 -30 -28 -12 -44 -12 -76 -4 -48 13
-44 21 19 36 69 17 92 16 92 -2z"/>
<path d="M7815 2135 c-5 -2 -27 -6 -48 -10 -23 -4 -35 -10 -31 -17 10 -17 204
5 204 23 0 8 -103 12 -125 4z"/>
<path d="M8806 1901 c-8 -12 18 -21 64 -21 41 0 61 14 34 24 -24 9 -92 7 -98
-3z"/>
<path d="M8433 1883 c9 -2 25 -2 35 0 9 3 1 5 -18 5 -19 0 -27 -2 -17 -5z"/>
<path d="M8190 1863 c-112 -19 -140 -50 -36 -40 78 7 156 26 156 38 0 9 -73
10 -120 2z"/>
<path d="M7754 1791 c-18 -4 -46 -18 -63 -31 -73 -51 -1 -105 139 -105 47 0
99 4 115 9 27 7 28 9 10 16 -11 5 -42 9 -70 10 -142 4 -59 36 118 45 166 9
207 15 207 30 0 9 -23 15 -77 19 -151 11 -348 15 -379 7z"/>
<path d="M8761 1789 c-13 -5 -21 -12 -18 -15 9 -9 75 5 82 16 8 13 -32 12 -64
-1z"/>
<path d="M8256 1701 c-11 -4 -15 -10 -10 -13 13 -9 104 3 104 13 0 11 -67 11
-94 0z"/>
<path d="M8753 1630 c-13 -5 -23 -11 -23 -14 0 -6 64 4 100 15 21 6 19 7 -15
8 -22 0 -50 -4 -62 -9z"/>
<path d="M7985 1619 c-187 -14 -302 -35 -284 -54 11 -11 144 -35 196 -35 60 0
83 7 83 26 0 26 42 35 180 41 77 3 140 9 140 13 0 20 -125 23 -315 9z"/>
<path d="M8558 1618 c-37 -10 -52 -28 -23 -28 32 0 115 22 115 31 0 11 -43 10
-92 -3z"/>
<path d="M8395 1565 c-22 -8 -148 -33 -280 -56 -220 -37 -246 -40 -307 -30
-82 13 -118 14 -118 2 0 -5 10 -11 23 -14 21 -3 21 -4 -6 -15 -16 -7 -45 -12
-65 -12 -41 0 -71 -14 -58 -27 12 -12 201 -4 291 12 117 22 329 45 411 45 57
0 77 -4 98 -21 14 -11 24 -25 21 -30 -9 -13 -69 -11 -82 2 -7 7 -23 9 -39 5
-20 -5 -24 -10 -15 -19 6 -6 11 -21 11 -34 0 -18 -7 -23 -37 -28 -21 -3 -67
-12 -103 -20 -128 -27 -153 -28 -170 -6 -15 20 -16 20 -176 2 -88 -9 -166 -21
-172 -25 -13 -8 -16 -45 -4 -62 11 -17 48 -34 75 -34 13 0 32 -9 42 -20 20
-23 41 -25 82 -9 l28 11 -42 16 c-56 23 -61 30 -27 42 27 11 61 9 144 -5 25
-5 64 2 125 19 50 15 144 33 210 42 66 9 138 19 160 24 l40 8 -52 1 c-28 0
-54 5 -57 10 -6 9 57 38 144 66 73 23 84 35 32 35 -23 0 -59 9 -79 20 -21 11
-43 20 -49 20 -6 0 -18 7 -25 16 -11 14 -10 19 10 35 13 11 31 19 40 19 10 0
26 7 37 15 19 14 19 14 -1 14 -11 0 -38 -7 -60 -14z"/>
<path d="M7188 1399 c-10 -5 -18 -14 -18 -19 0 -16 47 -22 71 -10 22 12 22 13
4 26 -22 16 -34 17 -57 3z"/>
<path d="M8134 1398 c-66 -10 -116 -29 -92 -35 34 -8 164 27 148 40 -3 2 -28
0 -56 -5z"/>
<path d="M7153 1243 c-24 -9 -13 -32 22 -43 28 -9 39 -9 50 0 22 18 18 27 -16
39 -34 12 -37 12 -56 4z"/>
<path d="M8380 1240 c-25 -4 -67 -15 -93 -24 -26 -9 -62 -16 -80 -16 -18 0
-64 -9 -102 -21 -155 -46 -258 -71 -420 -99 -192 -34 -235 -46 -235 -65 0 -21
59 -28 153 -20 74 6 85 4 109 -14 21 -17 40 -21 105 -21 83 0 185 15 216 32
18 9 18 11 -2 32 -24 26 -27 68 -7 86 8 6 87 24 175 40 88 15 175 35 192 44
18 9 50 16 71 16 32 0 39 3 36 18 -4 20 -47 25 -118 12z"/>
<path d="M8413 1100 c-34 -14 -28 -19 16 -13 21 3 48 0 60 -6 28 -15 142 -25
159 -13 7 5 10 16 6 25 -5 15 -22 17 -113 16 -58 0 -116 -4 -128 -9z"/>
<path d="M8211 948 c-87 -12 -117 -31 -36 -23 33 4 89 12 125 20 62 12 63 13
20 13 -25 0 -74 -5 -109 -10z"/>
<path d="M7500 937 c0 -23 49 -57 82 -57 23 0 29 4 26 17 -6 31 -108 68 -108
40z"/>
<path d="M7815 885 c-125 -23 -195 -47 -195 -64 0 -15 20 -14 151 9 119 21
235 55 244 71 10 15 -73 9 -200 -16z"/>
<path d="M8160 834 c-30 -7 -86 -16 -125 -20 -38 -3 -140 -24 -225 -46 -119
-30 -177 -40 -250 -42 -52 -1 -101 -5 -107 -9 -43 -27 28 -47 162 -47 128 0
224 15 267 39 37 22 229 64 241 52 4 -4 -4 -18 -18 -31 -48 -45 -30 -50 70
-19 39 12 65 25 62 32 -2 7 36 19 107 34 150 31 156 43 23 43 -86 0 -109 3
-113 15 -7 18 -20 17 -94 -1z"/>
<path d="M7872 651 c-61 -21 -88 -41 -56 -41 26 0 135 37 148 50 16 16 -34 11
-92 -9z"/>
<path d="M7645 579 c-55 -10 -163 -23 -240 -29 -168 -13 -205 -18 -205 -30 0
-19 114 -30 325 -30 222 0 273 8 206 31 -41 14 -39 37 4 55 35 14 46 25 23 23
-7 -1 -58 -9 -113 -20z"/>
<path d="M8003 485 c-187 -31 -199 -35 -73 -30 109 5 214 25 233 44 14 14 16
14 -160 -14z"/>
<path d="M7370 281 c-22 -7 -20 -9 20 -15 64 -10 277 -12 286 -3 4 4 4 10 0
15 -10 10 -275 13 -306 3z"/>
<path d="M7770 281 c0 -10 59 -21 123 -21 53 0 63 14 16 24 -46 9 -139 7 -139
-3z"/>
<path d="M7435 55 c-22 -8 -41 -15 -42 -15 -2 0 -3 -10 -3 -21 0 -19 4 -21 38
-15 37 7 265 45 270 46 1 0 2 5 2 10 0 16 -218 12 -265 -5z"/>
</g>
</svg>
