<?xml version="1.0" standalone="no"?>
<!DOCTYPE svg PUBLIC "-//W3C//DTD SVG 20010904//EN"
 "http://www.w3.org/TR/2001/REC-SVG-20010904/DTD/svg10.dtd">
<svg version="1.0" xmlns="http://www.w3.org/2000/svg"
 width="1054.000000pt" height="1280.000000pt" viewBox="0 0 1054.000000 1280.000000"
 preserveAspectRatio="xMidYMid meet">
<metadata>
Created by potrace 1.15, written by Peter Selinger 2001-2017
</metadata>
<g transform="translate(0.000000,1280.000000) scale(0.100000,-0.100000)"
fill="#03a9f4" stroke="none">
<path d="M8176 12781 c-41 -45 -46 -149 -16 -325 23 -135 55 -236 106 -339 95
-187 204 -492 204 -567 0 -20 -5 -17 -50 20 -28 24 -54 40 -57 36 -3 -3 13
-26 36 -51 47 -51 53 -89 24 -150 -16 -34 -20 -36 -51 -30 l-34 6 18 -30 c10
-17 14 -34 10 -38 -9 -9 -34 18 -85 93 -55 79 -49 32 8 -61 43 -71 49 -87 42
-111 -8 -26 -40 -102 -49 -114 -2 -3 -16 11 -32 30 l-28 35 -1 -82 c0 -82 -25
-230 -41 -247 -5 -5 -31 11 -61 38 -46 41 -69 55 -69 41 0 -2 27 -34 60 -71
44 -49 59 -72 55 -87 -2 -12 -14 -89 -26 -172 -11 -82 -22 -151 -24 -153 -2
-2 -11 18 -20 45 -9 26 -39 94 -66 149 -51 106 -122 192 -185 225 -25 13 -32
24 -36 57 -6 43 -43 126 -65 144 -8 6 -27 11 -43 10 -19 0 -30 4 -30 13 0 20
-88 132 -126 162 -29 22 -53 28 -149 39 -63 7 -124 18 -136 24 -11 6 -35 35
-54 64 -45 71 -83 101 -147 116 -29 7 -89 26 -132 41 -101 37 -136 36 -211 -1
-51 -25 -72 -30 -136 -30 -91 0 -186 26 -250 70 -24 16 -52 30 -62 30 -9 0
-40 15 -68 34 -78 55 -195 61 -295 17 -89 -40 -264 -240 -367 -420 -65 -114
-73 -122 -93 -93 -8 12 -50 49 -92 82 -42 33 -96 76 -120 95 -57 46 -154 75
-248 75 -50 0 -90 6 -125 21 -48 18 -66 19 -198 14 -236 -11 -296 -30 -500
-164 -68 -45 -142 -86 -165 -92 -120 -31 -162 -47 -276 -105 -166 -84 -299
-171 -341 -224 -19 -23 -50 -50 -70 -61 -76 -38 -162 -165 -189 -276 -15 -68
-36 -86 -50 -47 -6 16 -18 48 -26 70 -16 42 -16 43 24 135 22 52 43 105 46
119 6 22 3 20 -28 -14 -19 -21 -38 -51 -41 -66 -8 -34 -29 -54 -50 -46 -14 5
-155 210 -155 224 0 4 29 33 65 65 36 32 65 62 65 68 0 22 -33 5 -92 -46 l-63
-55 -58 58 -58 58 21 84 c21 91 25 140 11 140 -5 0 -12 -11 -15 -25 -4 -14
-16 -51 -27 -81 -18 -48 -23 -54 -42 -48 -37 11 -123 70 -170 116 l-45 43 -7
101 c-7 107 -14 130 -37 121 -12 -4 -14 -32 -10 -164 4 -138 2 -160 -12 -172
-13 -11 -16 -11 -17 0 0 8 -6 52 -13 99 l-12 85 -8 -183 -8 -184 -24 23 c-14
13 -38 44 -54 70 -28 43 -31 55 -35 160 -2 63 -8 130 -13 149 -8 33 -9 31 -16
-35 -4 -38 -11 -81 -15 -95 -8 -24 -9 -24 -31 20 -12 24 -34 62 -48 83 l-25
37 27 123 c29 133 30 147 17 147 -5 0 -21 -44 -35 -98 -35 -125 -40 -134 -66
-104 -24 29 -37 99 -46 245 -9 166 -22 167 -44 3 -12 -90 -14 -96 -40 -96 -50
0 -220 74 -220 95 0 8 21 48 47 90 25 41 43 78 39 82 -8 8 -103 -91 -111 -118
-9 -27 -27 -24 -62 14 -84 89 -172 266 -209 420 -15 59 -31 107 -36 107 -5 0
-6 -41 -2 -95 6 -82 5 -95 -10 -101 -50 -19 -130 47 -182 150 -28 57 -37 89
-41 149 -8 111 -27 103 -39 -18 -7 -64 -24 -101 -24 -51 0 14 -4 26 -9 26 -13
0 -28 44 -45 134 -9 43 -16 80 -16 83 0 2 -4 2 -8 -1 -8 -5 -1 -102 13 -199
l7 -47 -58 28 c-33 15 -64 31 -70 34 -6 4 -23 45 -38 90 -30 92 -104 240 -123
246 -16 5 7 -76 49 -171 16 -37 36 -102 44 -143 25 -132 15 -374 -16 -374 -5
0 -38 49 -75 110 -65 108 -94 145 -76 97 21 -54 82 -176 122 -241 39 -65 41
-72 35 -123 -7 -62 -30 -123 -46 -123 -5 0 -30 30 -53 68 -86 132 -104 118
-28 -22 30 -56 57 -124 70 -178 20 -82 27 -158 16 -158 -21 0 -79 41 -133 93
-66 65 -75 66 -39 2 21 -37 65 -75 139 -120 l33 -20 3 -98 c1 -53 -1 -97 -5
-97 -4 0 -19 16 -32 36 -26 37 -132 137 -139 130 -2 -2 24 -37 57 -76 78 -93
102 -156 102 -265 0 -112 -19 -155 -69 -155 -34 0 -132 97 -132 131 0 26 -49
117 -74 138 -20 17 -20 5 -1 -49 27 -76 76 -164 129 -230 29 -36 62 -80 75
-98 26 -37 103 -230 98 -245 -2 -6 -22 7 -45 27 -48 44 -59 26 -12 -19 58 -55
91 -123 136 -271 24 -81 44 -151 44 -155 0 -10 -56 7 -89 27 -14 9 -38 30 -53
48 -26 29 -27 30 -28 9 0 -29 56 -92 97 -109 18 -8 48 -14 67 -14 25 0 38 -6
46 -20 19 -36 3 -43 -83 -38 l-80 5 -46 49 c-25 27 -74 81 -108 119 -33 39
-64 67 -68 63 -13 -12 44 -119 85 -160 65 -65 88 -125 100 -263 5 -66 10 -138
9 -160 l0 -40 -50 55 c-28 30 -64 78 -80 105 -25 43 -29 47 -29 24 0 -32 66
-137 129 -204 37 -39 52 -66 70 -125 68 -226 87 -245 379 -372 120 -52 141
-64 117 -66 -47 -5 -624 127 -676 154 -18 9 -33 31 -47 71 -25 68 -57 123 -72
123 -16 0 -12 -20 20 -108 17 -46 30 -89 30 -96 0 -20 -130 -50 -216 -51 -68
0 -74 2 -140 46 -38 26 -79 49 -91 53 -44 14 -34 -17 24 -73 61 -59 103 -139
184 -351 16 -41 44 -105 63 -142 40 -79 36 -82 -52 -37 -56 29 -82 32 -82 8 0
-5 42 -30 94 -55 53 -25 101 -56 110 -69 20 -31 136 -293 143 -323 5 -22 4
-23 -33 -16 -62 11 -176 52 -196 71 -22 20 -33 12 -19 -15 10 -19 76 -50 198
-93 69 -24 72 -29 89 -143 l7 -49 -104 6 c-106 6 -97 -1 29 -22 35 -5 70 -15
77 -21 17 -14 94 -173 111 -230 19 -65 89 -140 131 -140 42 0 93 -11 93 -20 0
-4 -26 -11 -57 -15 -32 -3 -85 -13 -118 -22 l-60 -15 -25 29 c-14 16 -39 47
-57 69 -46 56 -41 20 7 -55 22 -34 40 -66 40 -71 0 -15 -80 -70 -102 -70 -39
0 -88 64 -160 210 -40 81 -73 138 -75 128 -5 -21 54 -166 118 -288 47 -89 49
-95 32 -108 -45 -32 -115 19 -201 148 -35 52 -67 102 -72 110 -5 8 -12 12 -15
8 -4 -4 12 -48 35 -98 43 -93 46 -117 11 -86 -23 21 -61 110 -95 226 -33 108
-46 129 -46 74 0 -87 84 -316 149 -403 43 -57 98 -208 83 -223 -16 -16 -73 17
-156 89 -42 35 -82 62 -89 60 -21 -8 115 -130 194 -172 70 -38 75 -43 97 -97
12 -32 25 -78 29 -103 l6 -45 -69 0 c-68 0 -107 -11 -86 -24 6 -3 42 -10 80
-15 72 -9 137 -35 127 -51 -4 -6 -15 -10 -26 -10 -20 0 -99 -37 -134 -63 -36
-28 -8 -29 52 -4 32 14 68 29 80 32 28 8 82 -17 118 -55 l28 -29 -69 -76 c-80
-89 -99 -113 -91 -121 3 -3 36 23 74 58 131 121 119 113 147 94 14 -9 30 -25
36 -36 10 -18 6 -23 -32 -40 l-43 -20 56 6 c45 5 66 2 100 -14 43 -20 89 -54
89 -66 0 -3 -27 -6 -61 -6 -62 0 -104 -14 -94 -31 4 -5 55 -9 114 -9 102 0
109 -1 154 -30 62 -39 358 -262 375 -282 14 -17 17 -17 -140 17 -80 17 -173
17 -173 0 0 -5 25 -14 55 -18 101 -15 249 -48 284 -62 35 -15 85 -72 148 -167
24 -38 34 -46 47 -38 46 24 268 -71 414 -177 26 -20 46 -37 44 -40 -2 -2 -62
21 -133 52 -157 68 -178 74 -304 85 -116 10 -156 28 -183 83 -10 20 -23 37
-28 37 -17 0 -9 -46 16 -96 14 -27 25 -50 25 -51 0 0 -27 8 -60 19 -57 20 -98
19 -85 -2 3 -6 39 -34 79 -64 75 -55 114 -99 159 -176 32 -55 59 -128 49 -134
-4 -2 -38 5 -77 15 -82 22 -95 23 -95 8 0 -14 75 -45 130 -54 62 -9 82 -25
117 -87 17 -29 62 -90 101 -135 l71 -81 -82 44 c-92 48 -217 98 -217 86 0 -5
47 -32 104 -61 117 -59 203 -130 243 -199 54 -96 115 -142 188 -142 52 0 79
-33 109 -131 35 -116 50 -218 36 -253 -5 -15 -16 -26 -23 -24 -6 3 -34 37 -62
77 -48 70 -80 100 -92 87 -4 -3 3 -16 14 -29 11 -12 36 -52 56 -88 20 -36 43
-72 52 -79 25 -21 17 -47 -25 -80 -33 -26 -40 -38 -40 -66 0 -78 -62 -148
-180 -207 -57 -28 -74 -32 -140 -31 -87 2 -183 29 -241 70 -22 15 -43 24 -47
20 -12 -13 48 -55 148 -105 115 -57 168 -90 220 -138 44 -39 47 -48 25 -73
-14 -16 -10 -18 57 -23 120 -9 228 -56 228 -99 0 -7 -39 -35 -87 -63 -85 -49
-179 -124 -157 -125 7 0 42 21 79 46 38 26 106 65 153 87 l85 39 123 -38 c68
-20 124 -41 124 -46 0 -4 -22 -19 -50 -33 -27 -14 -50 -30 -50 -35 0 -12 25
-7 133 26 114 35 128 31 106 -31 -7 -19 -10 -37 -6 -41 3 -4 25 8 49 25 40 30
91 41 102 22 3 -4 -13 -17 -37 -27 -23 -10 -76 -51 -118 -91 -72 -67 -124
-103 -148 -103 -6 0 -20 19 -32 42 -74 149 -133 206 -71 70 47 -103 49 -117
16 -139 -24 -15 -49 -18 -154 -18 -129 0 -172 -13 -90 -28 101 -18 170 -41
273 -89 59 -28 107 -54 107 -58 0 -4 -19 -20 -42 -35 -58 -37 -89 -66 -82 -77
8 -13 42 0 91 33 54 37 79 36 158 -6 36 -19 132 -55 213 -81 81 -25 151 -50
157 -55 5 -5 -16 -9 -52 -9 -56 0 -85 -11 -69 -27 3 -3 46 -5 96 -4 67 1 99
-3 123 -15 29 -16 30 -18 12 -25 -11 -4 -34 -8 -51 -8 -37 -1 -94 -20 -94 -31
0 -5 55 -10 123 -12 110 -3 128 -6 184 -32 35 -16 63 -32 63 -36 0 -14 -64
-20 -142 -14 -51 5 -78 3 -78 -3 0 -20 34 -26 180 -32 162 -8 184 -15 242 -79
56 -62 64 -112 14 -78 -29 19 -70 22 -64 4 2 -6 31 -28 64 -48 44 -27 62 -44
71 -70 15 -43 16 -80 3 -100 -8 -13 -14 -13 -42 -1 -77 31 -138 45 -150 33 -8
-8 -7 -13 8 -18 58 -19 147 -66 169 -88 14 -14 34 -26 44 -26 35 0 77 -71 88
-146 l6 -47 -29 7 c-50 11 -261 17 -238 7 11 -5 52 -12 90 -16 141 -15 174
-46 174 -161 l0 -67 -60 58 c-34 31 -63 55 -66 52 -3 -3 15 -31 40 -62 81 -99
57 -143 -60 -110 -33 9 -68 18 -79 21 -12 3 -31 -3 -45 -14 -21 -17 -22 -22
-11 -36 7 -9 20 -16 28 -16 45 0 169 -94 198 -150 18 -34 10 -42 -62 -70 l-48
-19 51 -1 c139 -1 231 -38 335 -136 68 -64 184 -145 235 -164 15 -6 34 -20 41
-31 8 -10 28 -26 46 -35 17 -9 39 -27 49 -39 9 -12 49 -39 87 -59 39 -20 92
-53 118 -73 27 -20 95 -68 153 -107 185 -122 389 -303 475 -420 85 -114 96
-126 115 -126 30 0 24 19 -21 80 -162 214 -337 383 -539 518 -80 53 -163 113
-185 133 -22 19 -60 45 -85 57 -25 12 -78 51 -119 86 -70 63 -106 84 -118 72
-3 -3 -19 5 -35 19 -15 13 -56 39 -91 57 -34 18 -82 54 -107 79 -25 25 -67 61
-95 79 -66 44 -238 216 -233 232 3 7 15 15 29 16 39 6 86 49 104 95 14 37 15
64 8 185 -4 78 -5 142 -2 142 4 0 24 -21 45 -46 53 -66 112 -100 244 -140 285
-87 376 -116 384 -124 5 -5 -11 -14 -35 -20 -116 -32 -239 -112 -274 -181 -24
-45 -5 -41 52 11 30 27 88 66 130 87 65 32 87 38 139 37 54 0 124 -18 124 -31
0 -2 -22 -26 -49 -53 -50 -48 -115 -139 -106 -148 2 -3 38 27 80 66 41 39 85
74 99 78 16 4 44 -5 85 -26 113 -57 178 -134 200 -238 6 -29 24 -79 41 -112
17 -33 27 -60 23 -60 -4 0 -21 14 -39 31 -18 17 -37 30 -43 28 -7 -3 25 -45
69 -94 80 -90 87 -110 31 -81 -16 9 -37 16 -46 16 -24 0 -18 -17 9 -24 54 -13
178 -186 210 -293 12 -37 -20 -28 -128 37 -55 33 -104 60 -109 60 -30 0 103
-103 201 -156 63 -33 79 -54 153 -198 l57 -109 27 27 28 28 -9 257 c-13 358
-10 875 5 1071 12 157 15 179 25 169 3 -2 10 -117 17 -255 12 -249 12 -251 -9
-296 -29 -58 -28 -70 3 -62 28 7 24 23 60 -200 16 -94 24 -174 20 -194 -4 -20
-2 -39 6 -48 6 -8 15 -67 19 -131 8 -128 14 -153 38 -153 13 0 14 20 9 168
l-7 168 53 35 c28 19 52 39 51 44 -1 22 -34 15 -67 -15 -20 -17 -38 -27 -40
-23 -9 15 -26 125 -42 282 l-16 154 40 38 c23 20 41 44 41 53 0 20 -3 20 -49
-4 l-39 -19 -6 52 c-3 29 -8 123 -12 210 -6 152 -6 157 13 157 33 0 84 22 80
34 -2 6 -25 11 -53 11 l-49 0 -6 65 c-4 36 -7 116 -8 178 -1 110 0 114 25 137
59 55 84 43 114 -54 28 -89 27 -177 -5 -400 -15 -101 -25 -185 -22 -187 10
-11 58 120 78 216 18 86 22 137 22 279 l0 173 57 62 c69 75 95 112 104 151 4
17 29 84 55 150 75 186 85 239 120 593 11 111 25 210 30 220 9 14 10 14 11 2
0 -9 9 -33 20 -54 15 -30 17 -43 9 -59 -24 -43 -30 -91 -44 -337 -31 -524 -83
-804 -229 -1224 -36 -104 -66 -195 -66 -201 0 -6 7 -20 15 -31 15 -19 15 -19
30 0 8 11 17 17 20 15 3 -3 -16 -33 -41 -67 -48 -65 -52 -92 -11 -92 34 0 53
-26 70 -95 34 -139 30 -151 -43 -121 -50 20 -90 21 -90 2 0 -7 15 -19 33 -26
92 -34 106 -43 116 -73 6 -16 11 -88 11 -158 0 -159 13 -226 46 -241 13 -6 24
-18 24 -25 0 -33 26 -2 45 53 19 54 23 60 64 74 54 18 66 40 22 40 -21 0 -31
5 -31 15 0 29 31 210 42 244 10 32 12 33 49 27 48 -8 50 6 4 33 -39 23 -40 27
-23 83 14 48 48 69 74 47 29 -24 46 -80 54 -177 5 -57 14 -102 25 -118 16 -25
13 -64 -6 -64 -6 0 -24 7 -41 16 -23 12 -33 13 -42 4 -8 -8 -4 -17 15 -34 15
-13 32 -32 38 -44 14 -26 14 -87 0 -113 -10 -19 -11 -19 -49 2 -22 13 -43 20
-46 16 -4 -4 30 -44 75 -89 l82 -83 -7 85 -6 84 36 -27 c41 -32 45 -24 15 35
-17 34 -20 53 -16 102 3 34 11 80 19 103 l13 42 54 -45 c108 -90 123 -79 31
22 -33 36 -63 77 -66 91 -8 30 11 123 30 148 21 29 44 11 72 -52 74 -171 92
-186 49 -43 -26 88 -31 120 -17 120 5 0 98 -92 207 -205 109 -113 200 -203
203 -201 2 3 -7 20 -20 38 -21 27 -211 247 -292 337 l-21 24 72 -7 c90 -8 104
-14 233 -102 151 -102 203 -127 180 -84 -6 11 -34 31 -63 45 -28 14 -69 41
-91 60 l-39 34 154 0 c85 0 169 5 187 10 26 8 39 7 55 -4 36 -23 207 -76 235
-73 21 2 -1 15 -92 53 l-119 49 59 27 c73 34 130 36 279 9 60 -11 111 -17 114
-15 8 9 -86 45 -153 59 -37 7 -69 16 -71 18 -2 2 29 20 69 41 69 35 79 37 165
37 50 0 91 4 91 9 0 11 -25 21 -53 21 -21 1 -21 2 -4 14 24 18 108 34 252 46
129 11 215 27 215 40 0 4 -35 10 -77 12 -64 3 -91 10 -153 40 -56 27 -102 41
-179 53 -58 8 -106 17 -108 19 -2 2 13 14 34 26 51 31 28 36 -56 15 -62 -17
-69 -17 -99 -1 -39 20 -41 40 -6 62 62 41 265 87 287 65 6 -6 28 -11 48 -11
32 0 47 -9 96 -53 94 -87 161 -136 201 -146 64 -18 58 5 -9 37 -45 22 -88 55
-144 111 l-80 81 245 0 c306 0 349 14 141 46 -151 23 -179 55 -85 99 158 75
201 75 341 -1 58 -30 111 -54 119 -52 15 3 -153 129 -188 141 -28 10 -21 24
28 58 72 50 208 109 307 134 l92 23 -97 -5 c-104 -6 -114 -2 -75 35 21 20 66
34 202 64 56 12 58 13 23 16 -20 2 -67 -1 -104 -6 l-68 -9 30 24 c48 40 116
71 205 93 141 36 136 55 -7 28 -35 -6 -67 -9 -70 -5 -12 12 27 58 87 102 104
77 213 107 454 125 106 8 154 16 165 26 13 13 2 14 -95 7 -181 -13 -553 -8
-605 9 l-45 14 70 18 c81 22 169 59 179 75 10 16 -3 14 -100 -14 -99 -29 -209
-34 -240 -11 -20 15 -21 15 54 41 6 2 12 9 12 16 0 7 -7 8 -17 4 -10 -3 -40
-9 -66 -12 -43 -5 -51 -3 -77 22 -17 16 -30 32 -30 36 0 4 17 10 38 13 68 12
182 49 182 59 0 5 -13 7 -29 4 -86 -18 -200 -30 -222 -24 -14 4 -46 24 -70 46
-35 31 -42 42 -32 52 20 20 121 22 196 5 38 -9 75 -16 84 -16 27 0 -3 26 -53
45 -39 15 -44 19 -30 27 28 16 157 21 221 9 32 -6 88 -24 122 -41 50 -23 61
-25 54 -12 -17 32 -46 51 -126 80 -72 27 -108 52 -72 52 8 0 30 13 50 29 20
15 93 50 162 76 69 26 124 50 122 52 -2 2 -41 -4 -86 -12 -46 -9 -86 -13 -90
-10 -3 4 10 37 30 73 35 66 36 67 85 74 27 4 76 16 109 27 53 17 56 19 27 20
-19 1 -62 -7 -98 -16 -35 -9 -66 -14 -70 -10 -11 10 33 53 83 83 24 13 43 27
43 30 0 3 -16 2 -35 -2 -83 -15 -25 68 204 293 96 95 172 175 168 179 -9 10
-49 -18 -127 -91 -38 -34 -90 -73 -115 -85 -64 -31 -75 -19 -75 76 0 68 2 75
23 83 12 5 30 19 39 30 10 12 49 41 88 66 38 25 70 48 70 51 0 13 -58 -9 -122
-47 -36 -21 -69 -39 -72 -39 -21 0 5 73 79 216 106 206 151 275 259 393 47 52
83 97 81 100 -6 5 -25 -12 -185 -165 -136 -130 -220 -183 -220 -139 0 47 74
164 182 286 39 44 68 82 66 85 -5 4 -53 -33 -145 -112 -42 -35 -43 -36 -43
-13 1 46 36 105 87 142 103 75 90 93 -20 27 -36 -22 -69 -40 -73 -40 -12 0 4
302 19 355 28 100 93 198 166 248 32 22 41 33 29 35 -27 5 -67 -21 -194 -124
-65 -53 -145 -114 -177 -136 -61 -41 -145 -83 -153 -75 -8 7 15 59 58 130 22
37 38 70 35 73 -9 9 -84 -97 -112 -159 -23 -48 -31 -58 -63 -67 -49 -13 -57
-13 -72 5 -19 22 -5 73 40 148 22 36 40 69 40 73 0 4 -60 -52 -133 -123 -129
-126 -211 -192 -223 -180 -9 8 14 74 49 140 16 31 27 61 23 65 -12 11 -44 -35
-93 -133 -55 -110 -88 -155 -113 -155 -45 0 -59 97 -36 250 14 92 22 118 72
215 31 61 76 134 100 164 54 65 48 84 -7 23 -41 -47 -109 -155 -237 -377 -87
-150 -260 -410 -269 -401 -3 2 0 21 7 41 19 57 6 51 -31 -16 -88 -157 -138
-171 -139 -36 0 26 -4 47 -10 47 -10 0 -15 -28 -25 -125 -3 -36 -14 -72 -27
-90 -25 -37 -90 -90 -109 -90 -22 0 -22 40 0 84 12 22 21 49 21 60 0 32 48
150 81 203 37 57 35 86 -3 45 -37 -40 -94 -153 -112 -223 -20 -77 -46 -135
-108 -243 -86 -150 -118 -163 -118 -48 0 75 -13 65 -29 -23 -19 -103 -49 -185
-87 -234 -56 -73 -71 -55 -34 42 11 28 16 52 12 52 -17 0 -42 -37 -56 -83 -17
-56 -69 -140 -104 -167 -32 -25 -42 -25 -35 0 3 12 -1 28 -10 38 -14 15 -13
23 4 77 23 74 25 102 5 86 -8 -7 -17 -23 -20 -36 -4 -14 -11 -25 -16 -25 -10
0 -88 149 -120 231 -11 27 -22 65 -24 85 -3 19 -10 42 -17 50 -10 12 0 38 50
141 34 69 60 127 58 130 -2 2 -39 10 -81 18 -88 17 -116 29 -116 50 0 22 57
53 120 65 109 22 110 28 3 29 -58 1 -103 5 -103 11 0 5 20 23 45 40 38 26 53
48 95 133 27 56 61 145 74 197 32 121 76 429 83 585 5 110 4 127 -20 205 -15
47 -42 110 -61 140 -20 30 -45 74 -56 98 -20 41 -21 45 -5 97 18 62 29 73 54
51 10 -9 21 -16 24 -16 14 0 6 38 -12 59 -43 49 -35 115 12 104 104 -24 121
-35 71 -47 l-25 -7 25 -30 c29 -34 34 -91 15 -150 -17 -51 -28 -57 -49 -31
-10 12 -21 22 -24 22 -10 0 -6 -33 9 -75 8 -22 14 -68 15 -101 0 -77 16 -96
56 -65 15 12 35 21 45 21 23 0 25 25 4 34 -10 3 -15 19 -15 46 0 51 11 51 102
4 39 -19 73 -32 77 -29 7 8 -18 27 -86 66 -28 17 -57 36 -63 44 -15 18 -6 93
14 120 12 17 17 16 97 -9 46 -15 90 -29 97 -31 6 -3 12 0 12 5 0 5 -44 30 -97
57 -54 26 -91 49 -82 51 11 2 15 10 12 23 -7 24 -6 24 113 -5 54 -14 143 -32
197 -41 96 -17 99 -17 179 5 45 12 92 29 104 37 25 16 94 143 118 218 14 41
26 57 66 84 111 76 228 227 264 339 43 137 68 281 74 419 l5 131 -53 56 -52
55 36 59 c63 103 163 434 152 501 -4 27 0 48 14 74 35 65 29 102 -54 308 -15
36 -48 90 -73 120 -59 70 -88 115 -103 163 -8 23 -37 65 -76 105 -79 81 -129
175 -120 223 3 18 15 48 27 67 18 30 23 33 56 28 33 -6 34 -5 19 12 -36 39
-12 61 66 61 30 0 40 -5 51 -27 l15 -27 6 35 c12 58 27 78 74 96 44 16 45 16
61 -3 16 -20 17 -20 31 -2 20 26 73 37 216 44 l120 7 22 -29 c13 -16 32 -40
43 -54 l20 -25 -6 68 -7 67 39 17 c73 30 117 29 171 -6 79 -50 102 -36 31 20
l-40 32 52 29 c29 15 61 36 72 46 19 16 20 16 31 -2 6 -10 19 -28 28 -40 17
-20 17 -20 18 35 0 69 16 93 159 240 96 99 100 103 119 86 10 -9 20 -17 23
-17 2 0 3 21 1 47 -3 43 1 56 47 126 l51 78 31 -25 c17 -14 37 -26 46 -26 17
0 11 10 -35 62 l-24 26 34 54 c43 66 116 134 172 159 24 10 102 34 174 53 157
42 198 59 235 93 32 31 35 58 8 73 -33 17 -181 22 -335 11 -127 -9 -156 -14
-197 -36 -65 -34 -70 -32 -63 14 4 24 2 41 -5 45 -18 11 -13 32 14 64 14 17
25 32 25 35 0 3 -16 1 -36 -5 -44 -12 -76 7 -105 62 -16 30 -17 36 -4 50 23
26 18 33 -20 26 -38 -7 -78 8 -109 43 -15 17 -16 25 -8 51 12 34 11 35 -33 19
-28 -10 -40 -8 -115 26 -70 32 -89 36 -129 31 -104 -13 -95 -17 -102 42 -8 60
-22 82 -53 82 -11 0 -34 7 -50 15 -21 11 -60 15 -150 14 -66 -1 -134 -4 -151
-8 -16 -4 -37 -3 -46 3 -13 7 -28 0 -65 -33 -37 -33 -50 -39 -52 -27 -5 24 40
100 66 111 12 5 22 14 22 19 0 5 7 18 17 28 26 29 6 34 -40 10 -54 -28 -71
-28 -85 3 -17 37 -15 50 14 84 l26 31 -41 0 c-43 0 -44 2 -41 57 1 24 -4 33
-19 38 -12 3 -24 18 -27 31 -7 26 0 96 12 127 3 9 2 17 -3 17 -5 0 -14 -14
-20 -31 -7 -18 -18 -29 -25 -27 -20 7 -84 135 -180 361 -102 241 -134 325
-149 400 -6 29 -16 58 -21 65 -15 18 -42 15 -62 -7z m70 -243 c18 -76 49 -147
135 -320 61 -123 131 -258 156 -301 42 -75 44 -80 29 -102 -21 -32 -21 -32 14
-38 24 -5 30 -12 30 -33 0 -15 11 -50 25 -79 31 -67 48 -173 40 -252 -4 -34
-4 -67 0 -73 4 -6 22 5 44 28 35 36 157 112 180 112 6 0 11 -12 12 -27 l1 -28
10 28 10 27 103 0 c57 0 106 -4 109 -8 2 -4 -14 -39 -36 -77 -47 -81 -61 -115
-49 -115 14 0 77 91 96 137 19 47 34 57 69 43 45 -17 48 -77 11 -228 -29 -122
-164 -532 -174 -532 -4 0 -15 22 -25 49 -10 28 -24 55 -32 62 -19 16 -18 3 6
-73 11 -34 20 -76 20 -93 0 -41 -59 -183 -101 -243 -30 -44 -36 -48 -56 -39
-31 14 -37 5 -22 -37 12 -32 10 -38 -13 -73 -36 -53 -97 -117 -105 -110 -3 4
0 31 7 61 7 30 9 63 5 73 -13 32 -37 -44 -38 -119 -1 -77 -5 -80 -69 -47 -36
19 -42 19 -56 5 -13 -12 -13 -18 -2 -30 7 -9 18 -16 25 -16 23 0 36 -25 22
-43 -20 -26 -199 -156 -247 -179 -81 -38 -107 -75 -47 -65 42 7 116 51 235
141 127 96 158 114 224 127 32 6 63 18 70 27 11 13 7 14 -40 10 -28 -3 -52 -2
-52 2 0 11 43 47 78 64 25 13 32 23 32 45 0 52 88 161 131 161 27 0 35 21 13
37 -17 12 -17 16 -4 55 25 69 73 92 165 76 17 -3 20 2 17 30 -1 19 -7 43 -13
55 -10 18 -12 18 -21 4 -10 -19 -96 -72 -104 -64 -8 8 64 167 92 205 29 37 49
42 41 10 -5 -20 5 -28 81 -66 48 -23 93 -42 100 -42 27 0 9 17 -60 55 -69 38
-73 43 -76 78 -3 39 -8 40 -69 21 -7 -2 -13 0 -13 5 0 18 130 402 149 439 26
50 60 72 114 72 36 0 59 -11 150 -70 59 -38 110 -76 113 -85 4 -8 1 -29 -6
-46 -16 -36 -7 -48 19 -25 26 24 49 10 106 -62 51 -65 48 -75 -28 -87 -53 -9
-77 -22 -77 -40 0 -20 9 -19 61 5 24 11 54 20 66 20 29 0 53 -36 53 -82 0 -20
5 -49 10 -64 l10 -26 53 50 c54 51 56 51 180 68 52 7 53 5 33 -34 -20 -38 -54
-67 -101 -87 -22 -9 -63 -41 -92 -72 l-52 -55 -42 36 c-23 20 -44 34 -47 32
-8 -9 18 -44 53 -70 40 -31 38 -38 -17 -78 l-30 -20 -84 22 c-46 13 -88 20
-92 16 -12 -13 26 -33 75 -41 47 -7 93 -24 93 -34 0 -21 -45 -73 -76 -88 -29
-14 -41 -28 -56 -70 -36 -98 -105 -121 -142 -48 -12 22 -29 41 -39 43 -21 4
-22 -17 -2 -44 21 -28 18 -43 -10 -54 -44 -17 -22 -50 32 -50 46 0 42 -17 -21
-79 -57 -56 -82 -62 -88 -20 -2 12 -9 24 -15 27 -9 2 -13 -11 -13 -45 0 -41
-5 -54 -27 -75 -38 -35 -121 -85 -158 -94 -16 -4 -44 -17 -60 -30 -17 -13 -51
-28 -75 -33 -40 -10 -47 -9 -60 9 -52 71 -49 70 -50 17 0 -58 -6 -61 -143 -76
-145 -16 -139 -18 -135 29 3 39 -10 55 -24 29 -4 -8 -14 -31 -22 -52 -15 -38
-16 -38 -63 -35 -41 3 -48 6 -51 26 -5 33 -26 27 -45 -12 -15 -32 -19 -34 -51
-29 -41 6 -109 -23 -147 -63 -24 -25 -24 -26 -4 -40 17 -13 18 -16 5 -24 -8
-5 -29 -10 -46 -10 -42 0 -48 -9 -23 -36 17 -18 19 -26 10 -43 -7 -12 -21 -21
-33 -21 -18 0 -118 65 -118 77 0 16 110 124 141 138 26 12 40 26 44 44 7 35
-18 222 -55 405 -37 185 -38 205 -3 247 l28 32 -28 -7 c-26 -6 -27 -5 -27 37
0 56 28 268 36 276 4 3 9 0 12 -8 9 -25 60 -76 68 -68 5 5 1 20 -9 35 -9 15
-27 47 -38 72 -22 44 -22 46 -6 109 27 102 96 264 152 359 52 88 105 207 105
237 0 8 6 31 14 50 13 30 19 34 58 37 30 2 43 7 43 18 0 11 -12 15 -50 15 -42
0 -51 3 -62 25 -7 14 -13 38 -13 54 0 24 2 27 15 16 30 -25 26 -1 -9 50 -59
86 -172 333 -249 545 -39 108 -40 113 -43 265 -3 123 -1 146 7 110 6 -25 21
-89 35 -142z m-7342 -252 c80 -30 117 -55 216 -144 90 -82 135 -112 171 -112
31 0 48 -18 84 -90 39 -78 120 -195 165 -238 47 -46 171 -113 274 -147 43 -15
87 -36 97 -48 25 -30 79 -160 79 -191 0 -23 3 -25 28 -20 27 5 30 1 91 -113
69 -130 139 -234 173 -258 43 -30 56 -20 78 58 48 165 62 187 102 167 62 -33
205 -152 261 -219 172 -206 317 -442 317 -517 0 -25 -3 -27 -105 -48 -38 -8
-124 -40 -190 -71 -181 -85 -302 -169 -430 -300 -98 -98 -117 -124 -169 -223
-47 -91 -67 -119 -105 -146 -59 -44 -210 -199 -244 -251 -45 -69 -127 -346
-127 -429 0 -38 -19 -41 -53 -8 -32 31 -107 68 -302 153 -132 56 -189 118
-263 280 -30 66 -52 94 -52 65 0 -25 48 -146 80 -203 17 -29 30 -55 30 -57 0
-11 -68 19 -105 46 -22 15 -65 46 -95 67 -83 58 -119 135 -159 336 -17 84 -51
318 -51 348 0 10 202 3 258 -9 26 -5 32 -3 32 10 0 9 -4 16 -9 16 -16 0 -68
92 -105 186 -33 85 -140 474 -130 474 3 0 21 -8 42 -19 20 -10 52 -22 71 -26
19 -4 45 -19 57 -32 21 -23 24 -24 30 -8 12 30 -8 46 -88 74 -90 32 -118 50
-152 93 -39 52 -42 82 -13 118 38 44 75 243 77 408 0 17 4 32 9 32 6 0 24 -28
42 -61 22 -40 57 -83 101 -122 l67 -61 -39 -34 c-59 -50 -53 -86 6 -39 35 27
93 28 144 2 154 -77 262 -228 360 -500 28 -75 68 -175 90 -222 23 -47 59 -132
80 -189 72 -192 197 -465 219 -479 6 -3 17 8 26 24 19 38 19 38 -5 44 -21 5
-82 122 -96 182 -7 29 -7 30 13 12 20 -17 21 -17 36 6 28 44 128 249 123 254
-3 3 -21 -19 -40 -49 -43 -68 -133 -168 -151 -168 -16 0 -65 95 -65 126 0 12
7 24 15 28 20 7 20 74 -1 115 -13 27 -16 65 -16 199 1 312 32 401 203 580 78
81 112 133 97 148 -3 2 -26 -22 -51 -55 -44 -55 -129 -121 -156 -121 -9 0 -11
8 -7 24 20 81 33 410 17 421 -12 7 -17 -22 -31 -180 -18 -197 -39 -317 -82
-483 -38 -142 -42 -169 -42 -282 -1 -69 2 -159 7 -200 l7 -75 -35 67 c-41 79
-72 155 -165 408 -37 103 -104 275 -148 381 -45 107 -90 229 -102 271 -19 70
-20 81 -7 120 16 49 30 128 22 128 -11 0 -45 -66 -45 -87 0 -67 -52 38 -72
147 -6 30 -23 84 -38 120 -16 36 -60 155 -100 265 -65 184 -100 258 -100 213
0 -9 13 -53 30 -97 16 -44 41 -124 56 -178 14 -54 42 -136 61 -183 20 -47 46
-123 60 -170 39 -133 193 -561 215 -598 35 -57 14 -56 -62 5 -41 33 -121 90
-176 126 -198 130 -261 234 -294 490 -14 102 -10 151 18 228 15 38 26 110 36
235 20 224 26 284 31 284 3 0 34 -11 69 -24z m5239 -662 c31 -9 39 -39 22 -86
-16 -48 -20 -178 -5 -178 5 0 30 43 55 95 25 52 49 95 54 95 11 0 122 -67 138
-83 7 -7 21 -54 32 -106 26 -119 73 -222 122 -265 48 -44 124 -61 234 -53 121
10 223 48 308 116 49 38 121 65 217 81 124 21 207 -3 250 -72 28 -44 20 -78
-31 -145 -45 -57 -47 -90 -7 -74 13 5 50 25 83 45 69 42 78 43 105 16 28 -28
24 -65 -15 -140 -19 -35 -32 -66 -30 -69 3 -2 32 4 64 14 75 22 103 13 164
-55 67 -74 177 -333 177 -415 0 -33 -25 -60 -132 -142 -100 -77 -112 -100 -36
-74 47 16 86 14 97 -7 5 -10 13 -47 16 -82 4 -36 17 -87 29 -115 14 -34 21
-71 21 -115 0 -59 -4 -70 -38 -120 -22 -30 -49 -60 -60 -66 -12 -7 -69 -24
-127 -39 -178 -44 -328 -110 -523 -229 -60 -36 -112 -66 -116 -66 -9 0 -318
-209 -466 -315 -185 -133 -573 -424 -580 -435 -8 -12 -83 -56 -112 -64 -44
-13 -122 81 -138 167 -7 34 -10 37 -41 37 -45 0 -51 18 -24 70 30 58 16 64
-28 12 l-37 -43 -54 27 -53 28 7 64 c5 51 4 63 -6 60 -7 -2 -18 -24 -24 -48
-14 -58 -35 -70 -77 -45 -25 14 -49 19 -97 17 l-64 -2 6 43 c3 23 19 85 35
137 27 85 85 394 112 585 28 206 74 1085 60 1150 -4 22 -20 67 -34 100 -14 33
-26 67 -26 75 0 8 -10 31 -21 50 -24 39 -27 103 -8 173 36 137 247 405 368
466 72 37 160 46 234 25z m744 -118 c3 -3 -15 -36 -40 -74 -26 -37 -47 -74
-47 -82 0 -8 29 15 65 53 72 76 87 80 186 51 58 -17 89 -38 89 -61 0 -8 9 -32
20 -54 12 -22 18 -43 16 -48 -3 -5 -29 -20 -58 -34 -29 -15 -78 -49 -108 -77
-70 -65 -111 -86 -193 -100 -185 -33 -283 57 -294 269 l-6 98 50 7 c27 3 88
20 134 36 80 28 167 36 186 16z m-2041 -141 c87 -26 84 -18 73 -199 -9 -145
-8 -178 6 -164 10 10 26 121 33 230 l7 113 59 3 c77 4 134 -24 246 -121 99
-86 166 -163 182 -209 6 -18 24 -50 40 -73 15 -22 38 -76 50 -120 22 -76 23
-97 22 -425 -2 -570 -49 -998 -154 -1399 -17 -64 -37 -122 -45 -130 -13 -13
-65 -28 -137 -38 -34 -5 -38 -2 -62 36 -28 44 -46 53 -46 21 0 -27 -60 -56
-144 -71 -80 -13 -109 -8 -124 26 -19 42 -35 31 -28 -19 l7 -43 -68 -28 c-37
-15 -92 -39 -122 -52 l-54 -23 -38 26 c-50 34 -69 28 -35 -13 14 -17 26 -38
26 -47 0 -10 -21 -38 -47 -64 -39 -39 -63 -52 -127 -72 -74 -23 -79 -23 -91
-6 -15 19 -61 162 -190 581 -156 507 -214 649 -349 845 -98 142 -335 368 -431
411 -22 10 -71 23 -110 29 -38 7 -74 16 -79 20 -4 4 1 21 13 37 11 15 32 59
46 96 38 102 60 140 100 175 39 35 105 46 105 17 0 -20 73 -95 93 -95 23 0 22
3 -14 41 -35 38 -69 100 -69 127 0 31 70 87 220 176 161 96 276 145 347 149
51 2 48 5 90 -87 22 -49 49 -63 39 -20 -4 16 -9 50 -13 77 -5 44 -3 49 29 80
39 36 253 165 307 185 93 33 349 43 437 17z m5617 -464 c16 -6 17 -9 5 -19
-50 -41 -298 -94 -298 -64 0 5 17 27 38 50 l39 42 99 -1 c54 0 107 -4 117 -8z
m-7393 -590 c0 -5 -7 -14 -16 -22 -9 -7 -29 -40 -46 -73 -17 -34 -35 -64 -41
-68 -6 -3 -23 0 -39 8 -35 18 -50 11 -104 -48 -53 -58 -80 -104 -95 -161 l-12
-48 -29 52 c-27 50 -43 68 -60 69 -13 0 -8 -34 7 -54 20 -26 19 -65 -1 -73 -9
-3 -37 4 -63 17 -59 29 -151 36 -213 17 -27 -8 -48 -11 -48 -7 0 13 125 122
216 190 135 101 321 187 439 203 57 8 105 7 105 -2z m212 -21 c108 -31 420
-354 506 -527 88 -174 149 -342 253 -692 33 -113 71 -234 84 -270 13 -36 32
-100 43 -141 11 -41 34 -110 51 -154 l30 -78 -36 -57 c-50 -80 -72 -101 -105
-101 -36 0 -38 -27 -2 -36 25 -7 26 -9 21 -59 -8 -74 -47 -167 -76 -182 -20
-9 -32 -9 -59 3 -43 18 -62 18 -62 1 0 -8 18 -22 41 -32 22 -10 47 -28 55 -39
15 -21 19 -111 8 -178 -6 -32 -10 -37 -28 -33 -47 10 -69 9 -73 -2 -4 -12 4
-17 74 -43 23 -8 36 -23 47 -51 10 -25 21 -37 27 -33 7 4 10 1 7 -7 -4 -11
-27 -14 -94 -14 -87 1 -91 2 -214 59 -381 178 -483 219 -663 265 -159 41 -331
61 -527 61 -202 0 -313 -17 -427 -66 l-82 -35 -43 22 c-64 33 -268 173 -311
215 l-38 37 7 116 c3 64 10 130 15 147 11 37 44 54 104 54 53 0 64 13 31 35
-18 12 -36 14 -75 9 l-51 -7 -16 39 c-43 104 31 241 175 321 47 27 67 45 77
70 16 38 12 58 -30 158 -29 67 -32 122 -16 254 12 95 34 144 92 206 75 83 134
80 180 -8 l23 -42 3 39 c2 23 -6 64 -18 99 -12 32 -19 69 -16 81 10 40 73 102
128 126 119 51 186 60 275 34 81 -23 155 -15 193 21 37 36 46 61 30 90 -11 20
-8 29 18 67 30 43 70 78 91 78 5 0 22 -23 38 -52 35 -64 53 -73 53 -25 0 19
13 64 30 99 16 34 30 70 30 78 2 61 128 106 222 80z m4861 -87 c29 -104 67
-292 67 -332 0 -28 -7 -48 -25 -68 -18 -21 -24 -24 -25 -11 0 9 -16 47 -37 85
-33 63 -36 76 -41 173 -2 65 -9 113 -18 127 -12 20 -11 25 12 52 14 17 32 31
39 31 7 0 20 -26 28 -57z m-48 -533 c-10 -11 -23 -20 -28 -20 -6 0 -2 9 8 20
10 11 23 20 28 20 6 0 2 -9 -8 -20z m367 -2 c-9 -9 -15 -9 -24 0 -9 9 -7 12
12 12 19 0 21 -3 12 -12z m-411 -144 c107 -64 209 -171 209 -220 0 -12 -16
-41 -35 -64 -19 -23 -32 -46 -29 -51 9 -15 58 -10 91 11 18 11 39 17 46 14 23
-9 87 -106 87 -133 0 -5 -19 -20 -42 -34 -49 -28 -95 -74 -85 -83 4 -4 29 3
56 15 73 31 103 28 153 -16 51 -47 111 -170 141 -289 25 -104 20 -111 -73
-120 -115 -10 -117 -23 -9 -52 l64 -18 -2 -54 c-2 -97 -106 -411 -152 -463
-25 -27 -33 -29 -121 -35 -86 -6 -95 -9 -95 -27 0 -16 11 -21 70 -31 78 -13
178 -48 193 -67 18 -24 21 -61 12 -198 -10 -151 -18 -179 -55 -179 -13 0 -36
-5 -50 -10 -23 -9 -25 -13 -15 -25 7 -8 27 -19 44 -23 44 -11 45 -44 3 -123
-69 -134 -204 -290 -262 -305 -14 -3 -51 7 -96 27 -84 36 -165 51 -157 28 5
-15 47 -47 133 -102 55 -36 56 -38 24 -123 -29 -76 -59 -116 -109 -144 -40
-22 -56 -25 -150 -24 -96 1 -118 5 -253 48 -81 25 -246 74 -365 107 -452 125
-564 169 -697 274 -83 64 -95 73 -318 234 -95 67 -205 141 -244 163 -40 22
-73 44 -73 49 0 5 18 25 40 45 22 20 43 48 47 63 3 14 23 51 44 83 21 31 43
76 48 100 6 24 19 49 30 57 14 9 21 24 21 45 0 25 10 40 52 78 59 51 60 67 3
44 -49 -21 -48 -21 -42 17 3 22 -3 47 -20 79 -26 50 -52 173 -53 248 0 42 4
50 48 91 26 26 148 122 270 215 123 93 267 202 320 242 118 90 428 297 577
387 185 111 471 243 610 280 63 17 96 11 166 -31z m-6205 -306 c-1 -101 0
-104 37 -176 49 -94 47 -119 -13 -150 -25 -14 -67 -37 -93 -53 -27 -16 -53
-29 -59 -29 -19 0 22 290 57 406 15 50 48 104 65 104 4 0 7 -46 6 -102z
m-1076 -132 c92 -29 242 -59 525 -106 216 -36 266 -52 310 -96 40 -40 52 -98
36 -174 -15 -71 -14 -106 8 -174 16 -53 17 -65 5 -110 -8 -28 -14 -92 -14
-143 0 -50 -5 -104 -11 -119 -16 -44 -4 -69 63 -122 86 -68 235 -167 280 -185
60 -25 58 -47 -12 -148 -59 -87 -150 -261 -150 -291 0 -65 -84 -248 -114 -248
-7 0 -23 12 -37 26 -81 86 -390 248 -689 359 -169 63 -240 116 -281 212 -10
25 -37 109 -59 186 -92 325 -108 373 -155 467 -18 36 -38 83 -45 105 -7 22
-45 110 -86 195 -40 85 -87 191 -104 235 -17 44 -38 90 -45 102 -12 18 -12 23
0 33 24 20 135 29 315 26 156 -3 184 -6 260 -30z m4591 -317 c23 -23 22 -52
-2 -57 -11 -2 -19 6 -23 22 -3 13 -9 31 -12 40 -9 23 12 20 37 -5z m-371 1 c0
-5 -4 -10 -10 -10 -5 0 -10 5 -10 10 0 6 5 10 10 10 6 0 10 -4 10 -10z m240
-10 c12 -8 12 -10 -3 -16 -20 -7 -47 1 -47 16 0 12 30 13 50 0z m296 -27 c-23
-101 -34 -126 -59 -140 -25 -13 -40 -2 -17 12 15 9 12 71 -4 84 -7 6 -21 9
-30 5 -24 -9 -20 12 6 30 28 20 38 20 38 1 0 -23 18 -18 36 10 22 33 38 32 30
-2z m-590 -40 c-10 -10 -19 5 -10 18 6 11 8 11 12 0 2 -7 1 -15 -2 -18z m97
12 c1 -5 -6 -11 -15 -13 -11 -2 -18 3 -18 13 0 17 30 18 33 0z m205 -41 c1
-16 -2 -36 -7 -44 -8 -12 -13 -12 -30 4 -27 24 -27 42 0 49 13 4 18 10 14 18
-5 7 -3 10 6 7 8 -2 15 -18 17 -34z m389 30 c-3 -3 -12 -4 -19 -1 -8 3 -5 6 6
6 11 1 17 -2 13 -5z m-721 -30 c13 -19 10 -26 -31 -78 -24 -32 -59 -82 -76
-112 -33 -59 -49 -62 -49 -9 0 28 6 37 30 50 32 17 38 42 18 76 -11 17 -10 22
7 35 11 8 28 13 38 10 14 -3 16 0 12 15 -14 42 26 52 51 13z m-163 -31 c-15
-5 -53 15 -53 28 0 5 15 2 33 -7 17 -10 27 -19 20 -21z m940 30 c11 -10 -13
-33 -34 -33 -24 0 -25 16 -1 29 20 12 27 13 35 4z m-355 -15 c-2 -6 -10 -14
-16 -16 -7 -2 -10 2 -6 12 7 18 28 22 22 4z m422 -13 c17 -20 7 -66 -25 -113
-14 -20 -25 -40 -25 -44 0 -15 24 -8 48 15 22 20 21 16 -11 -48 -19 -38 -44
-81 -56 -95 l-21 -25 6 32 c4 17 1 55 -6 82 -10 44 -10 53 4 67 25 25 56 90
56 119 0 28 12 32 30 10z m-593 -47 c41 -47 63 -87 78 -144 8 -32 26 -75 41
-97 35 -53 58 -153 49 -212 -8 -54 -22 -69 -111 -125 l-62 -38 -4 94 c-3 69
-8 99 -20 110 -14 14 -14 20 -2 50 16 39 18 120 3 184 -16 73 -19 78 -32 55
-11 -19 -11 -19 -17 5 -7 30 6 108 21 126 16 20 33 17 56 -8z m263 -68 c0 -92
11 -115 30 -62 23 63 30 68 24 17 l-7 -50 28 25 27 25 -8 -30 c-4 -16 -11 -40
-15 -53 -14 -36 -11 -42 16 -42 16 0 25 6 25 15 0 8 7 15 15 15 16 0 20 -16 6
-24 -14 -9 -21 -66 -10 -87 14 -28 25 -16 43 46 17 58 32 76 42 51 4 -9 -6
-42 -21 -72 -22 -45 -35 -60 -64 -71 -20 -8 -46 -29 -59 -47 -32 -47 -28 -88
6 -54 23 23 22 -1 -3 -67 -40 -108 -29 -142 22 -63 29 47 44 38 19 -10 -11
-22 -37 -40 -89 -65 -86 -41 -107 -59 -107 -94 0 -14 -9 -36 -20 -51 -15 -18
-18 -28 -10 -36 8 -8 18 -3 35 17 l24 28 7 -25 c6 -24 7 -24 46 25 21 28 54
59 71 70 62 37 224 15 273 -38 29 -31 30 -43 5 -43 -10 0 -21 8 -24 18 -9 36
-116 35 -171 -1 -31 -21 -43 -6 -16 18 38 34 14 69 -30 45 -52 -28 -99 -82
-116 -133 -19 -59 -32 -79 -46 -71 -5 3 -3 16 6 29 10 15 12 26 6 30 -19 12
-49 -16 -71 -66 l-24 -51 -12 63 c-9 42 -20 69 -34 79 -19 15 -19 16 10 44 24
23 28 33 20 43 -19 22 -27 15 -54 -37 -34 -67 -34 -100 1 -100 23 0 25 -3 19
-22 -4 -13 -9 -62 -12 -109 -5 -74 -3 -87 12 -92 31 -13 54 10 57 58 3 48 21
62 26 21 2 -13 12 -32 23 -42 11 -10 19 -30 19 -49 0 -43 30 -71 60 -55 11 6
23 25 27 41 5 27 7 28 23 14 36 -32 59 -14 74 58 5 20 12 27 30 27 38 0 56 10
71 41 16 29 11 58 -12 72 -29 17 -13 72 28 92 40 21 59 18 99 -15 38 -34 60
-37 94 -15 21 14 24 13 46 -10 l23 -24 -35 6 c-41 6 -54 -7 -38 -37 12 -22 40
-26 58 -8 23 23 12 -5 -17 -41 -17 -21 -36 -50 -43 -67 -15 -35 -26 -44 -55
-44 -12 0 -43 -10 -68 -22 l-45 -22 -29 34 c-35 42 -51 33 -28 -14 18 -38 13
-50 -13 -34 -25 16 -53 3 -45 -22 19 -61 -35 -83 -60 -24 -20 47 -36 35 -28
-21 5 -36 3 -45 -9 -45 -9 0 -21 7 -28 15 -17 21 -28 19 -32 -6 -4 -25 -41
-55 -80 -65 -23 -5 -28 -3 -28 13 0 11 11 34 25 53 47 63 21 140 -36 109 -20
-11 -21 -16 -15 -95 4 -52 2 -84 -4 -84 -18 0 -30 38 -30 94 0 30 -5 58 -10
61 -11 7 -14 2 -30 -62 -15 -60 -32 -55 -24 7 5 34 3 50 -5 50 -7 0 -11 27
-11 79 0 47 -5 83 -11 87 -19 11 -39 -21 -46 -73 -4 -42 -1 -61 18 -100 13
-26 26 -66 29 -88 5 -38 7 -40 38 -37 40 4 40 -4 0 -45 -48 -49 -58 -44 -58
31 0 55 -3 64 -20 69 -13 3 -20 14 -20 29 0 24 -16 56 -24 48 -2 -3 -8 -20
-13 -39 -5 -19 -14 -36 -21 -39 -18 -6 -15 44 8 116 29 92 26 172 -6 172 -9 0
-14 -12 -14 -35 0 -24 -5 -35 -15 -35 -8 0 -19 -17 -26 -42 -14 -54 -59 -143
-95 -189 -16 -20 -34 -45 -39 -54 -8 -13 -9 -5 -7 30 4 42 2 47 -13 41 -30
-11 -37 5 -14 30 28 29 39 30 39 3 0 -34 23 -17 50 36 16 33 25 67 25 100 0
47 -2 50 -25 50 -20 0 -30 -10 -49 -50 -13 -27 -39 -69 -57 -94 -39 -51 -40
-53 -17 -148 9 -40 14 -75 11 -79 -4 -3 -15 -1 -26 5 -17 9 -26 6 -52 -15 -38
-32 -66 -87 -115 -223 -20 -58 -81 -202 -135 -320 -54 -119 -121 -279 -150
-356 -115 -306 -231 -476 -341 -500 -17 -4 -45 -23 -62 -42 -149 -165 -257
-215 -613 -288 -93 -19 -222 -46 -287 -61 -113 -26 -120 -27 -147 -11 -15 9
-34 17 -42 17 -7 0 -60 29 -116 65 -137 84 -189 102 -255 85 -84 -21 -249 5
-300 49 -18 14 -49 34 -70 44 -73 33 -63 70 50 188 47 49 83 92 80 95 -3 4
-52 -21 -108 -55 -56 -33 -108 -61 -115 -61 -22 0 -88 85 -126 161 -57 116
-102 345 -102 519 0 74 3 147 7 161 8 31 65 61 160 86 34 8 71 20 82 26 19 10
19 10 0 18 -11 4 -67 8 -125 8 -58 1 -122 4 -144 8 l-38 6 6 71 c10 107 24
182 52 273 28 95 58 128 109 119 16 -3 44 1 60 8 l30 13 -43 18 c-70 29 -76
55 -36 173 47 143 155 293 249 347 171 99 531 126 849 65 162 -32 414 -124
721 -265 142 -66 256 -109 337 -129 20 -4 34 0 56 19 l30 25 21 -26 c12 -15
26 -44 33 -65 9 -33 9 -42 -6 -58 -15 -17 -15 -19 -1 -25 22 -8 110 -8 118 1
4 3 2 12 -5 20 -6 7 -9 16 -6 19 9 8 228 -196 243 -227 8 -15 15 -47 15 -71
l1 -43 22 45 c19 39 27 46 59 51 35 5 78 33 78 49 0 4 -13 10 -30 13 -19 4
-34 17 -44 35 -11 21 -25 32 -51 36 -19 4 -40 4 -45 1 -21 -13 -9 9 26 47 41
45 39 56 -5 34 -35 -19 -45 -20 -35 -5 7 12 102 59 119 59 6 0 10 -31 10 -74
0 -86 9 -103 48 -85 29 13 34 28 16 46 -9 9 -4 24 19 60 17 26 35 59 40 73 5
14 31 52 56 84 25 33 46 63 46 68 0 4 -13 8 -29 8 -20 0 -50 -18 -107 -66 -43
-36 -92 -73 -108 -81 l-29 -15 21 27 c12 15 22 32 22 38 0 6 24 35 53 66 30
31 59 66 66 79 34 63 -73 14 -177 -81 -36 -34 -43 -38 -38 -19 6 18 4 22 -13
22 -11 0 -23 5 -26 10 -4 6 5 10 20 10 33 0 81 24 89 46 8 22 -1 31 -16 16
-17 -17 -33 -15 -18 3 7 8 25 15 41 15 16 0 39 10 51 22 l22 22 -22 9 c-31 14
-67 1 -113 -40 -48 -44 -72 -87 -66 -119 2 -14 -2 -29 -10 -36 -8 -6 -21 -25
-30 -42 -16 -30 -16 -30 -24 -8 -9 25 -31 29 -48 8 -21 -25 -79 -47 -106 -40
-13 3 -23 10 -20 14 2 4 43 22 90 39 90 34 118 54 63 45 l-33 -5 48 41 c26 23
47 46 47 51 0 19 -28 8 -67 -26 -52 -44 -81 -55 -147 -55 -54 0 -85 17 -71 40
9 15 41 12 55 -5 20 -24 41 -18 82 25 38 41 50 80 24 80 -8 0 -35 -9 -61 -20
-26 -11 -61 -20 -78 -19 -31 1 -31 1 8 10 22 5 53 23 70 38 16 16 44 36 60 44
17 8 38 24 48 35 17 18 17 21 2 36 -19 19 -12 36 15 36 10 0 22 5 25 10 17 27
-123 0 -146 -29 -16 -19 -17 -19 -55 20 l-38 39 47 0 c55 0 62 17 21 49 -25
20 -26 22 -10 39 20 23 20 35 0 74 -25 48 -2 56 35 11 32 -39 39 -71 19 -91
-25 -25 55 -82 117 -82 51 0 45 24 -15 61 -53 33 -57 38 -38 57 9 9 7 16 -7
32 -23 26 -6 26 45 0 26 -13 41 -16 45 -9 4 6 5 11 4 13 -76 52 -113 83 -129
106 -43 61 -10 84 36 24 29 -37 71 -64 101 -64 16 0 18 -11 19 -94 1 -81 5
-99 24 -127 22 -30 106 -77 117 -65 10 10 -15 54 -57 100 -22 24 -40 46 -40
50 0 15 23 4 60 -30 49 -44 76 -87 84 -136 9 -48 64 -108 99 -108 14 0 47 -17
75 -39 l50 -40 -10 42 c-14 64 -56 149 -70 145 -7 -3 -14 -17 -16 -33 l-4 -28
-21 38 c-12 21 -28 40 -34 43 -19 6 -16 -28 4 -50 9 -10 13 -21 10 -24 -4 -4
-16 4 -27 17 -16 19 -19 33 -15 62 6 42 11 35 -84 115 -19 16 -32 35 -29 42 3
9 26 -7 71 -48 65 -61 74 -66 110 -63 9 1 17 -3 17 -8 0 -6 8 -11 18 -11 9 0
23 -9 29 -20 7 -11 27 -23 45 -28 32 -8 33 -10 30 -60 -5 -84 43 -159 75 -116
8 11 13 49 13 101 0 49 4 83 10 83 6 0 10 -5 10 -11 0 -7 12 -9 35 -5 19 4 35
3 35 -1 0 -4 -12 -37 -27 -71 -29 -68 -25 -97 13 -97 28 0 43 55 43 157 l1 86
61 -5 61 -6 -6 30 c-4 16 -1 43 5 59 12 27 13 28 16 7 4 -22 23 -33 23 -13 0
19 32 10 37 -10 7 -27 19 -17 48 40 32 62 32 74 0 68 -30 -6 -31 1 -4 54 12
23 25 74 30 112 5 39 16 88 25 109 21 46 7 90 -27 85 -20 -3 -21 2 -24 77 -1
44 -6 90 -10 102 -7 21 1 26 53 32 9 1 12 -23 12 -89z m418 52 c2 -19 -4 -44
-13 -59 -22 -33 -30 -23 -15 22 10 32 10 39 -6 57 -19 20 -19 20 6 17 20 -3
26 -10 28 -37z m-282 3 c-7 -20 8 -19 39 1 23 15 25 15 31 0 4 -10 -1 -35 -11
-56 -14 -31 -15 -43 -6 -54 14 -16 4 -46 -14 -46 -9 0 -15 15 -17 43 -2 34 -7
43 -25 45 -29 4 -37 30 -18 58 17 27 30 32 21 9z m-576 -12 c0 -9 10 -27 22
-40 19 -20 21 -34 20 -97 -1 -40 -6 -85 -12 -100 -16 -42 -13 -58 9 -51 36 11
45 -19 52 -183 7 -147 1 -202 -20 -202 -5 0 -13 15 -16 33 -8 36 -31 67 -51
67 -7 0 -26 -12 -43 -26 l-31 -26 0 66 c0 56 -4 69 -22 86 -13 12 -31 28 -40
37 -17 15 -18 15 -18 -2 0 -10 10 -29 21 -41 21 -22 21 -24 5 -49 -14 -21 -20
-23 -36 -15 -27 14 -36 35 -50 109 -8 45 -8 67 -1 74 6 6 11 26 11 43 0 18 5
36 10 39 6 3 10 17 10 31 0 18 5 24 21 24 19 0 21 -5 17 -50 -1 -28 -2 -50 0
-50 10 0 62 131 62 156 0 42 18 91 36 98 9 3 14 20 14 46 0 29 4 40 15 40 8 0
15 -8 15 -17z m-338 -41 c4 -22 13 -51 22 -64 8 -13 16 -36 18 -53 3 -30 3
-30 -41 -27 -54 5 -61 -5 -61 -80 0 -65 -14 -75 -50 -36 -25 27 -26 57 -2 64
9 3 23 8 30 10 10 3 7 13 -12 35 -17 20 -26 43 -26 65 0 37 15 46 25 14 9 -27
53 -56 66 -43 6 6 5 14 -6 23 -19 16 -20 31 0 24 13 -5 14 3 8 56 -5 51 -4 62
8 58 7 -2 17 -23 21 -46z m30 6 c-9 -9 -12 -7 -12 12 0 19 3 21 12 12 9 -9 9
-15 0 -24z m655 -20 c-3 -7 -5 -2 -5 12 0 14 2 19 5 13 2 -7 2 -19 0 -25z
m-447 -43 c0 -34 -4 -47 -17 -52 -10 -3 -26 -15 -36 -27 -21 -24 -20 -16 14
66 13 32 27 58 32 58 4 0 7 -20 7 -45z m970 10 c-7 -9 -15 -13 -18 -10 -3 2 1
11 8 20 7 9 15 13 18 10 3 -2 -1 -11 -8 -20z m-1426 -77 c5 -25 6 -54 2 -64
-6 -16 -8 -17 -24 -1 -14 15 -15 20 -4 38 17 27 11 32 -16 13 -26 -18 -28 -46
-6 -65 34 -28 82 -155 65 -172 -13 -13 -51 2 -51 19 0 8 5 14 10 14 19 0 10
36 -17 68 -25 30 -43 39 -79 41 -7 1 -22 10 -35 20 l-24 19 37 15 c22 9 48 33
68 62 40 59 62 57 74 -7z m1361 -43 c-49 -46 -87 -86 -83 -90 9 -10 37 7 119
74 40 33 77 57 81 54 5 -3 18 3 29 13 31 28 34 8 5 -31 -34 -44 -103 -102
-168 -140 -90 -53 -70 -76 25 -29 66 34 119 75 136 108 14 25 41 43 41 27 0
-5 -22 -37 -50 -71 -75 -94 -63 -119 40 -80 65 24 90 18 90 -21 0 -23 -3 -23
-43 -3 -31 17 -31 17 -59 -17 -32 -38 -35 -54 -12 -63 29 -11 3 -26 -112 -62
-77 -24 -119 -33 -126 -26 -11 11 -8 13 65 68 47 35 62 59 30 47 -14 -5 -12 0
6 20 14 15 21 30 18 34 -13 12 -56 -20 -72 -53 -10 -22 -25 -36 -43 -40 -15
-3 -43 -10 -62 -15 -53 -13 -54 -12 -22 25 20 23 34 54 42 93 16 79 45 141 83
182 37 39 118 93 126 85 3 -3 -34 -43 -84 -89z m-1287 50 c14 -29 -2 -44 -17
-16 -6 11 -11 24 -11 30 0 20 17 11 28 -14z m612 5 c0 -5 -2 -10 -4 -10 -3 0
-8 5 -11 10 -3 6 -1 10 4 10 6 0 11 -4 11 -10z m-367 -20 c3 -11 1 -20 -4 -20
-5 0 -9 2 -9 4 0 2 -3 11 -6 20 -3 9 -2 16 4 16 5 0 12 -9 15 -20z m-248 -143
c13 -71 15 -101 7 -109 -18 -18 -33 36 -39 137 -7 117 9 103 32 -28z m153 91
c7 -7 12 -19 12 -28 0 -8 9 -32 20 -53 21 -39 26 -72 11 -81 -19 -12 -81 93
-81 137 0 36 16 47 38 25z m79 -20 c-3 -8 -6 -5 -6 6 -1 11 2 17 5 13 3 -3 4
-12 1 -19z m-7 -32 c0 -3 -4 -8 -10 -11 -5 -3 -10 -1 -10 4 0 6 5 11 10 11 6
0 10 -2 10 -4z m-460 -26 c0 -15 -38 -32 -45 -20 -3 5 -3 15 0 20 8 13 45 13
45 0z m1710 -20 c0 -12 -28 -25 -36 -17 -9 9 6 27 22 27 8 0 14 -5 14 -10z
m-345 -37 c-23 -37 -57 -74 -63 -69 -6 7 58 96 70 96 6 0 3 -12 -7 -27z
m-1364 -6 c-1 -12 -15 -9 -19 4 -3 6 1 10 8 8 6 -3 11 -8 11 -12z m376 -14 c9
-16 29 -44 44 -63 40 -53 43 -82 14 -114 -13 -14 -28 -26 -32 -26 -26 0 -133
154 -133 191 0 20 17 7 43 -36 28 -44 71 -85 88 -85 17 0 9 30 -12 42 -12 7
-30 31 -39 52 -28 61 -6 92 27 39z m903 -3 c0 -5 -5 -10 -11 -10 -5 0 -7 5 -4
10 3 6 8 10 11 10 2 0 4 -4 4 -10z m-1302 -29 c3 -8 -1 -12 -9 -9 -7 2 -15 10
-17 17 -3 8 1 12 9 9 7 -2 15 -10 17 -17z m1742 -16 c-7 -9 -15 -13 -18 -10
-3 2 1 11 8 20 7 9 15 13 18 10 3 -2 -1 -11 -8 -20z m-1770 -36 c0 -5 -4 -9
-10 -9 -5 0 -10 7 -10 16 0 8 5 12 10 9 6 -3 10 -10 10 -16z m1392 -1 c-7 -7
-12 -8 -12 -2 0 14 12 26 19 19 2 -3 -1 -11 -7 -17z m438 12 c0 -5 -4 -10 -10
-10 -5 0 -10 5 -10 10 0 6 5 10 10 10 6 0 10 -4 10 -10z m-1720 -46 c0 -8 -4
-12 -10 -9 -5 3 -10 10 -10 16 0 5 5 9 10 9 6 0 10 -7 10 -16z m1758 -12 c2
-13 -4 -35 -13 -49 -18 -26 -12 -26 -118 -7 -24 4 -39 0 -60 -16 -15 -12 -25
-26 -22 -31 4 -5 30 -9 60 -9 67 0 128 -31 123 -64 -2 -13 -12 -22 -27 -24
-13 -2 -26 -12 -28 -23 -8 -29 -23 -23 -23 9 0 16 -3 31 -6 35 -9 9 -68 -17
-110 -49 -32 -25 -36 -26 -51 -11 -24 23 -9 47 29 47 37 0 79 19 86 38 8 24
-79 14 -120 -15 l-39 -26 -29 21 c-16 12 -43 22 -60 22 -28 0 -31 3 -28 27 4
33 32 42 57 19 23 -21 74 -36 100 -29 16 4 19 9 11 23 -6 10 -10 21 -10 23 0
13 112 50 169 55 63 7 66 8 69 35 4 35 35 34 40 -1z m-1540 -8 c1 -10 -2 -26
-8 -34 -15 -23 -34 3 -26 35 8 29 30 29 34 -1z m1092 -49 c-13 -14 -31 -25
-39 -25 -11 1 -8 8 12 25 37 33 57 32 27 0z m-1460 -15 c0 -5 -2 -10 -4 -10
-3 0 -8 5 -11 10 -3 6 -1 10 4 10 6 0 11 -4 11 -10z m-62 -42 c-6 -18 -28 -21
-28 -4 0 9 7 16 16 16 9 0 14 -5 12 -12z m62 -12 c0 -11 -19 -15 -25 -6 -3 5
1 10 9 10 9 0 16 -2 16 -4z m580 -17 c0 -14 -17 -10 -23 5 -4 10 -1 13 9 9 7
-3 14 -9 14 -14z m835 11 c-3 -5 -15 -10 -26 -10 -11 0 -17 5 -14 10 3 6 15
10 26 10 11 0 17 -4 14 -10z m-1028 -33 c7 -5 10 -14 7 -19 -6 -10 -44 19 -44
34 0 9 14 4 37 -15z m864 -37 c-13 -11 -28 -20 -35 -20 -6 1 0 10 13 20 13 11
28 20 35 20 6 -1 0 -10 -13 -20z m-1231 -20 c0 -5 -4 -10 -10 -10 -5 0 -10 5
-10 10 0 6 5 10 10 10 6 0 10 -4 10 -10z m-95 -39 c3 -5 1 -12 -5 -16 -5 -3
-10 1 -10 9 0 18 6 21 15 7z m128 -26 c-4 -15 -36 -12 -41 3 -3 9 3 13 19 10
13 -1 23 -7 22 -13z m1427 11 c0 -11 -19 -15 -25 -6 -3 5 1 10 9 10 9 0 16 -2
16 -4z m303 -9 c2 -7 2 -30 -2 -52 l-7 -40 -29 43 c-24 36 -26 45 -14 53 20
13 46 11 52 -4z m-1643 -12 c0 -2 -10 -10 -22 -16 -21 -11 -22 -11 -9 4 13 16
31 23 31 12z m1210 -24 c0 -32 34 -81 55 -81 19 0 49 -46 41 -65 -9 -25 -36
-18 -36 9 0 14 -4 27 -9 31 -14 8 -26 -20 -42 -88 -12 -58 -34 -73 -34 -24 0
40 -12 42 -34 7 l-19 -32 -17 26 c-25 38 -14 54 42 58 43 3 48 5 46 26 -3 24
-26 77 -45 104 -10 14 -9 21 6 37 27 30 46 26 46 -8z m338 17 c-5 -15 -58 -24
-58 -10 0 15 12 22 38 22 14 0 22 -5 20 -12z m-1699 -17 c21 -13 5 -41 -23
-41 -33 0 -44 20 -21 37 22 15 25 16 44 4z m806 -11 c7 -23 -2 -43 -16 -35
-12 8 -12 55 0 55 5 0 12 -9 16 -20z m-120 -9 c3 -5 1 -12 -5 -16 -5 -3 -10 1
-10 9 0 18 6 21 15 7z m251 -26 c-4 -14 -11 -25 -16 -25 -13 0 -13 16 1 42 14
26 23 16 15 -17z m484 -5 c0 -5 -4 -10 -10 -10 -5 0 -10 5 -10 10 0 6 5 10 10
10 6 0 10 -4 10 -10z m-130 -20 c0 -5 -4 -10 -10 -10 -5 0 -10 5 -10 10 0 6 5
10 10 10 6 0 10 -4 10 -10z m-83 -117 c-3 -10 -5 -4 -5 12 0 17 2 24 5 18 2
-7 2 -21 0 -30z m-587 -28 c-7 -9 -15 -13 -18 -10 -3 2 1 11 8 20 7 9 15 13
18 10 3 -2 -1 -11 -8 -20z m497 9 c1 -5 -2 -16 -7 -24 -12 -20 -33 0 -24 24 7
17 25 17 31 0z m-4317 -14 c0 -5 -4 -10 -10 -10 -5 0 -10 5 -10 10 0 6 5 10
10 10 6 0 10 -4 10 -10z m3938 -31 c-12 -16 -24 -25 -26 -19 -4 12 26 50 40
50 5 0 -2 -14 -14 -31z m137 9 c-4 -13 -11 -27 -16 -32 -15 -17 -23 3 -11 29
15 32 36 34 27 3z m-491 -50 c-41 -42 -90 -70 -116 -66 -42 6 -23 30 57 74 84
46 107 43 59 -8z m872 27 c3 -14 3 -33 0 -42 -6 -15 -8 -15 -16 -3 -13 20 -13
70 0 70 5 0 12 -11 16 -25z m-4353 -54 c42 -18 119 -58 170 -89 119 -72 211
-115 344 -162 98 -35 108 -40 105 -62 -17 -159 -24 -292 -16 -329 7 -36 14
-45 39 -53 17 -6 31 -11 32 -11 1 -1 -7 -21 -19 -45 -46 -92 -31 -373 28 -555
27 -83 80 -196 116 -249 12 -17 45 -57 75 -88 37 -39 53 -65 53 -83 0 -73 37
-106 229 -206 63 -33 97 -69 52 -54 -45 14 -189 100 -259 154 -160 122 -221
160 -294 181 -125 36 -153 55 -343 241 -119 116 -196 183 -227 198 -61 29
-198 159 -198 187 0 17 -8 23 -38 28 -45 7 -143 68 -210 130 -26 24 -61 51
-78 59 -53 27 -151 135 -183 201 -16 33 -41 107 -56 164 -14 56 -37 133 -51
170 -14 37 -32 83 -39 102 -7 19 -11 38 -9 42 2 3 21 2 41 -4 40 -11 133 -5
195 13 22 6 63 33 97 64 61 57 74 65 65 40 -8 -20 10 -19 27 2 38 45 70 54
174 50 85 -3 112 -9 178 -36z m94 23 c-3 -3 -12 -4 -19 -1 -8 3 -5 6 6 6 11 1
17 -2 13 -5z m3539 -52 c-23 -23 -33 -6 -10 19 12 13 20 16 22 9 3 -7 -3 -19
-12 -28z m181 16 c-3 -8 -6 -5 -6 6 -1 11 2 17 5 13 3 -3 4 -12 1 -19z m1033
-13 c120 -60 280 -164 427 -277 78 -59 187 -137 242 -173 54 -35 113 -81 130
-102 44 -53 99 -168 111 -232 13 -71 13 -256 -1 -304 -12 -44 -82 -156 -138
-221 -114 -131 -237 -411 -212 -479 5 -14 15 -28 20 -32 6 -3 11 -15 11 -27 0
-76 72 -132 265 -207 210 -82 265 -128 244 -205 -11 -41 -81 -116 -108 -116
-10 0 -30 14 -46 30 -39 41 -47 38 -40 -13 l7 -44 -99 -88 c-54 -49 -106 -99
-116 -112 -28 -35 -59 -28 -116 23 l-51 46 0 -29 c0 -15 12 -55 25 -88 31 -75
31 -95 1 -128 -57 -61 -150 -82 -296 -66 -228 25 -413 92 -625 230 -50 32
-125 74 -168 93 -42 20 -91 46 -107 58 l-30 22 -133 -18 c-72 -9 -184 -24
-248 -32 l-116 -16 -60 26 c-32 13 -106 37 -164 51 -193 49 -241 81 -299 199
-49 99 -77 206 -92 348 -15 137 -2 224 48 333 20 44 106 247 191 450 86 204
170 399 188 435 18 36 42 94 54 130 27 84 120 248 153 273 15 11 34 17 42 14
20 -8 21 -63 1 -97 -16 -28 -19 -60 -6 -60 15 0 52 71 64 123 15 59 32 59 67
-3 l25 -45 5 30 5 30 85 3 c104 3 128 -8 153 -68 l18 -45 -6 75 c-3 41 -1 81
4 88 12 19 122 41 207 42 61 0 76 -4 120 -31 27 -17 75 -56 107 -87 31 -31 57
-51 57 -45 0 15 -39 63 -114 141 l-61 63 46 44 c73 69 122 72 180 11 18 -19
36 -33 41 -30 10 7 -14 48 -49 84 l-25 24 22 18 c34 27 83 22 160 -17z m-4607
-21 c71 -36 130 -74 124 -80 -5 -6 -207 93 -207 101 0 12 35 3 83 -21z m3673
-41 c-5 -12 -10 -13 -17 -6 -8 8 -7 18 2 34 12 21 14 22 17 6 2 -10 1 -25 -2
-34z m74 -83 c0 -45 -3 -50 -25 -56 -53 -13 -58 2 -18 56 20 27 39 50 40 50 2
0 3 -22 3 -50z m-60 25 c-7 -9 -15 -13 -17 -11 -7 7 7 26 19 26 6 0 6 -6 -2
-15z m-3470 -15 c0 -5 -5 -10 -11 -10 -5 0 -7 5 -4 10 3 6 8 10 11 10 2 0 4
-4 4 -10z m3410 -1 c0 -14 -30 -38 -47 -39 -16 0 -17 22 -1 38 15 15 48 16 48
1z m177 -36 c-3 -10 -5 -4 -5 12 0 17 2 24 5 18 2 -7 2 -21 0 -30z m-550 -35
c-3 -8 -6 -5 -6 6 -1 11 2 17 5 13 3 -3 4 -12 1 -19z m2472 -419 c58 -16 113
-29 123 -29 23 0 23 -11 -3 -62 -12 -23 -24 -62 -28 -87 -9 -68 -29 -64 -92
16 -29 37 -80 99 -113 137 l-60 68 35 -7 c19 -4 81 -20 138 -36z m-149 -33 c0
-3 -4 -8 -10 -11 -5 -3 -10 -1 -10 4 0 6 5 11 10 11 6 0 10 -2 10 -4z m131
-186 c27 -41 52 -86 55 -100 10 -45 13 -50 33 -50 64 0 159 -215 168 -380 l5
-95 -22 35 c-37 60 -91 110 -184 171 -84 56 -115 71 -101 49 3 -5 50 -46 103
-91 150 -124 201 -199 202 -291 0 -90 -102 -544 -128 -570 -12 -12 -60 10
-217 96 -55 31 -122 60 -149 66 -58 12 -168 64 -191 91 -16 17 -15 20 24 57
43 41 59 92 24 76 -10 -4 -34 -9 -54 -12 -32 -3 -37 -1 -49 27 -16 40 -8 87
28 165 35 74 83 132 117 140 29 7 32 18 10 36 -8 7 -15 18 -15 25 0 7 32 55
70 106 104 136 130 195 140 315 5 55 9 135 10 180 0 44 3 84 7 88 10 10 51
-39 114 -134z m-2957 -833 c18 -13 18 -15 -2 -59 -54 -124 -345 -482 -424
-524 -31 -16 -127 -19 -178 -4 -36 10 -60 0 -38 -17 7 -6 38 -18 68 -28 30
-10 59 -21 64 -26 27 -25 -131 -81 -279 -100 -150 -19 -386 -17 -462 4 -134
36 -234 110 -319 239 -53 80 -114 194 -114 214 0 22 93 64 143 64 34 0 58 -9
108 -41 35 -23 92 -55 127 -72 81 -39 105 -68 97 -119 -9 -49 1 -65 26 -42 10
9 19 23 19 30 0 30 52 73 113 93 110 35 266 73 277 66 5 -3 10 -16 10 -29 0
-12 10 -33 22 -46 l22 -24 11 42 c5 23 17 48 25 57 9 8 58 22 110 31 173 30
252 69 383 191 44 42 99 84 121 94 49 22 48 22 70 6z m-2326 -131 c71 -30 210
-82 308 -116 284 -99 293 -105 365 -242 70 -134 137 -202 251 -257 122 -58
173 -73 273 -78 108 -6 349 11 454 33 173 35 246 95 521 423 l154 185 42 -170
c75 -299 107 -359 268 -509 277 -256 475 -389 621 -416 33 -6 65 -12 72 -14 8
-3 -8 -36 -41 -89 -50 -79 -91 -158 -165 -318 -37 -80 -104 -144 -212 -205
-99 -55 -119 -61 -119 -33 0 28 57 165 75 180 8 7 37 15 65 19 67 8 68 25 3
29 -29 2 -53 7 -53 12 0 4 21 61 47 125 33 84 57 129 85 158 21 22 38 41 38
42 0 1 -13 0 -30 -3 -27 -4 -30 -2 -30 24 0 16 -4 35 -9 43 -13 20 -31 4 -31
-29 0 -44 -20 -130 -31 -130 -5 0 -9 9 -9 19 0 11 -4 22 -9 25 -11 7 -21 -28
-21 -76 0 -82 -138 -458 -168 -458 -5 0 -28 39 -51 88 -35 73 -40 81 -35 47 3
-22 19 -74 35 -115 35 -90 36 -122 6 -175 -27 -48 -47 -51 -66 -7 -8 17 -18
32 -21 32 -10 0 -2 -88 10 -110 7 -13 5 -37 -5 -77 -12 -51 -35 -249 -35 -310
0 -21 -5 -23 -46 -23 -82 0 -89 10 -165 210 l-47 125 29 52 c39 71 38 100 -1
53 -17 -19 -30 -40 -30 -47 0 -26 -19 -12 -25 19 -4 18 -32 97 -61 177 -30 79
-54 161 -54 180 0 20 14 65 30 100 31 65 32 97 1 51 -34 -52 -69 -85 -80 -75
-5 6 -21 52 -36 104 -16 58 -36 107 -52 125 -34 41 -58 97 -44 105 6 4 39 13
73 21 l63 15 -82 3 c-71 2 -83 5 -95 25 -18 28 -148 330 -148 342 0 6 26 25
58 43 75 43 155 102 148 109 -3 3 -54 -18 -113 -46 -60 -28 -112 -51 -116 -51
-4 0 -7 7 -7 15 0 25 -35 88 -64 114 l-26 24 0 -33 c0 -21 -8 -43 -21 -56
l-21 -23 35 -6 c20 -4 43 -15 51 -24 16 -18 60 -111 54 -115 -1 -2 -33 -18
-71 -35 -72 -35 -83 -59 -15 -35 22 7 53 14 69 14 33 0 52 -26 112 -154 l37
-79 -38 -41 c-28 -31 -44 -60 -57 -109 -20 -76 -29 -86 -53 -64 -9 8 -33 18
-52 22 -48 10 -122 49 -151 79 -20 21 -27 45 -40 141 -24 167 -43 176 -37 18
3 -68 3 -123 1 -123 -16 0 -133 55 -159 75 -31 24 -34 31 -34 77 0 70 -20 178
-33 178 -6 0 -8 -29 -4 -87 4 -49 2 -94 -2 -102 -15 -24 -92 31 -164 116 -75
91 -107 121 -107 104 0 -7 18 -39 41 -72 22 -33 39 -63 36 -65 -8 -8 -109 41
-203 99 -54 33 -114 81 -145 114 -68 75 -137 179 -145 221 -7 32 -17 41 -29
22 -8 -13 34 -105 79 -172 55 -83 130 -168 183 -205 26 -19 188 -104 358 -190
333 -167 395 -200 395 -213 0 -5 -26 -16 -57 -25 -32 -9 -97 -35 -145 -57
l-88 -41 -40 44 c-22 24 -56 68 -75 97 -41 60 -62 69 -40 16 16 -39 41 -78 94
-143 l35 -44 -56 -52 c-61 -57 -98 -69 -184 -59 -56 6 -42 -9 17 -20 46 -8 64
-28 51 -53 -17 -29 -73 -79 -126 -110 -85 -49 -93 -92 -9 -52 30 15 88 64 155
131 107 108 135 131 104 83 -12 -17 -16 -42 -14 -73 4 -57 19 -61 30 -8 5 21
17 51 28 66 22 31 25 51 9 67 -27 27 174 142 286 164 74 15 235 4 235 -16 0
-7 -14 -45 -30 -85 -17 -40 -28 -75 -26 -77 2 -2 21 20 42 49 21 29 43 56 48
60 12 8 77 -27 113 -60 22 -20 25 -29 19 -68 -4 -34 -3 -44 9 -44 8 0 19 9 25
20 18 33 39 23 114 -52 129 -130 146 -209 80 -362 -20 -48 -34 -89 -31 -92 3
-3 18 14 33 38 57 88 87 108 99 66 3 -13 20 -56 37 -97 29 -66 30 -76 19 -105
-20 -48 -24 -76 -13 -76 6 0 14 5 17 10 16 26 35 4 63 -72 16 -46 52 -144 79
-218 27 -74 61 -158 76 -186 l26 -51 -35 -34 c-44 -42 -79 -89 -66 -89 6 0 29
16 53 35 48 41 69 42 80 4 4 -15 21 -55 37 -90 45 -92 73 -169 62 -169 -5 0
-12 5 -15 11 -17 26 -90 69 -119 69 l-31 -1 30 -21 c44 -31 158 -150 171 -178
34 -75 82 -199 167 -435 24 -66 48 -129 52 -139 7 -16 5 -18 -9 -13 -10 4 -36
10 -59 13 l-42 6 60 -39 c68 -45 83 -64 113 -146 25 -66 27 -87 10 -87 -7 0
-60 34 -117 75 -158 113 -312 183 -546 246 -138 38 -191 67 -282 153 -98 92
-153 175 -153 230 0 62 18 114 51 148 16 17 29 35 29 39 0 16 -16 9 -40 -16
-28 -30 -37 -31 -45 -5 -12 37 -84 118 -157 177 -40 32 -77 62 -81 68 -5 5 -6
49 -3 98 3 48 2 87 -3 87 -9 0 -12 -10 -31 -102 -6 -32 -14 -58 -17 -58 -3 0
-64 35 -137 79 -180 108 -241 137 -348 167 -51 13 -120 32 -152 41 -41 12 -85
37 -144 80 -47 35 -116 82 -154 104 -68 40 -79 59 -34 59 13 0 57 15 97 34 55
25 84 46 112 80 42 50 135 101 241 131 78 23 126 16 306 -45 80 -26 184 -55
232 -64 47 -9 102 -23 122 -31 20 -8 59 -20 88 -26 65 -14 121 -42 307 -153
142 -85 202 -109 223 -88 7 7 -7 19 -48 40 -33 17 -90 53 -127 81 -38 27 -78
53 -90 57 -12 3 -48 22 -79 41 -32 19 -101 52 -155 74 -53 21 -104 45 -112 53
-9 8 -30 17 -48 21 -17 3 -37 13 -44 21 -47 57 -127 79 -327 94 -198 14 -282
27 -359 56 -42 16 -104 28 -172 35 -58 5 -131 16 -161 25 -117 33 -433 183
-561 265 l-64 42 35 15 c127 56 163 78 215 133 52 54 94 125 95 158 0 7 16 31
35 52 19 22 35 48 35 58 0 11 12 34 27 51 19 23 26 42 25 68 -2 41 -86 330
-100 344 -5 5 -52 26 -103 47 -93 37 -94 38 -97 73 -2 26 -9 37 -22 41 -11 3
-23 13 -26 24 -21 62 -63 129 -128 203 -57 64 -94 120 -151 229 -41 79 -78
154 -81 167 -3 13 -24 44 -46 69 -47 53 -43 63 27 89 68 25 104 19 243 -38z
m7662 -379 c-12 -23 -66 -98 -120 -167 -53 -69 -169 -222 -257 -340 -90 -120
-219 -278 -293 -358 -73 -79 -134 -142 -135 -140 -2 2 1 28 6 57 4 30 7 56 5
58 -2 2 -13 -22 -25 -54 -13 -32 -29 -72 -38 -90 -31 -64 -364 -425 -379 -411
-4 5 5 47 19 95 15 49 36 133 47 188 28 136 66 261 98 315 14 25 39 70 54 101
33 66 151 183 243 243 126 81 155 101 155 109 0 13 -21 8 -73 -19 -116 -58
-309 -221 -347 -294 -26 -47 -25 -27 4 88 14 53 43 180 65 282 23 102 43 195
46 208 3 12 1 22 -4 22 -18 0 -60 -129 -95 -295 -60 -281 -159 -661 -176 -679
-6 -6 -12 -2 -16 10 -20 61 -60 128 -108 180 -30 32 -57 56 -61 52 -4 -3 17
-37 46 -75 64 -84 87 -137 101 -233 13 -87 1 -155 -53 -305 -30 -83 -38 -95
-108 -163 -42 -40 -98 -92 -125 -115 -55 -46 -55 -44 -11 61 46 109 22 104
-34 -8 -29 -58 -77 -135 -107 -171 -54 -68 -272 -275 -280 -266 -3 2 14 37 37
76 38 66 80 175 79 204 -1 7 -13 -15 -29 -48 -15 -33 -46 -90 -70 -127 -23
-36 -48 -86 -57 -111 -11 -33 -39 -68 -108 -136 -51 -50 -98 -91 -105 -91 -16
0 -14 24 9 110 22 85 24 100 11 100 -10 0 -53 -117 -75 -204 -9 -36 -26 -70
-43 -88 -44 -47 -187 -151 -191 -140 -2 6 22 86 53 179 31 92 68 221 81 285
40 194 82 284 173 373 117 113 269 316 323 432 36 77 32 104 -7 43 -137 -218
-212 -316 -366 -480 l-61 -65 7 50 c4 28 10 238 14 467 3 229 9 419 12 422 8
9 66 -122 96 -219 30 -95 38 -112 65 -145 l20 -25 234 237 c128 131 246 256
260 278 18 27 34 40 49 40 33 0 134 78 259 199 139 136 246 264 321 386 l60
98 6 -76 c9 -107 15 -125 52 -147 66 -41 129 -18 270 99 l48 40 97 -6 c81 -5
110 -2 175 16 94 26 178 67 232 114 47 41 55 33 25 -26z m16 -134 c16 -149
-12 -426 -56 -572 -11 -35 -20 -77 -20 -93 0 -27 3 -30 25 -26 l24 5 -20 -28
c-52 -74 -234 -211 -369 -279 -91 -45 -140 -58 -140 -37 0 8 65 86 145 172 80
87 145 161 145 166 0 31 -60 -21 -172 -147 -55 -63 -129 -135 -163 -160 -64
-45 -133 -79 -142 -70 -3 3 27 42 67 86 40 44 70 83 68 86 -3 3 -47 -32 -98
-77 -103 -90 -128 -104 -215 -114 l-59 -8 142 151 c266 285 424 473 552 657
34 50 79 108 100 130 20 22 54 67 75 100 41 65 86 123 97 124 3 1 10 -29 14
-66z m-2469 -165 c-6 -77 -26 -137 -50 -152 -14 -9 -21 -6 -41 19 -42 53 -42
16 -1 -63 l41 -77 -23 -79 c-12 -44 -39 -149 -59 -234 -43 -186 -48 -202 -72
-202 -16 0 -17 -7 -14 -64 7 -106 -33 -355 -84 -524 -21 -69 -30 -86 -56 -102
-49 -30 -58 -15 -58 101 0 144 -21 137 -50 -16 -19 -102 -39 -161 -60 -180
-20 -18 -20 -18 -20 6 0 13 9 56 20 94 11 39 34 148 50 243 35 203 66 302 110
347 20 21 28 35 21 39 -6 4 -15 5 -20 1 -15 -9 -22 11 -15 40 7 27 13 28 57
10 25 -10 22 17 -4 41 -19 17 -21 26 -15 94 5 72 31 208 55 296 8 31 21 48 54
70 37 25 39 29 20 32 -40 6 -45 24 -28 96 25 112 45 135 169 200 75 40 80 37
73 -36z m-2493 27 c103 -27 216 -66 231 -82 8 -8 15 -28 15 -44 0 -37 18 -37
54 0 40 42 84 50 406 74 81 7 102 -4 100 -51 -3 -65 0 -84 12 -80 7 3 16 19
20 36 8 29 12 32 49 32 46 0 68 -10 182 -84 45 -30 105 -65 133 -79 52 -27 64
-41 64 -81 0 -12 6 -30 13 -40 12 -17 14 -16 31 9 18 27 20 28 86 22 66 -6
230 -60 230 -77 0 -15 -32 -21 -194 -35 -255 -22 -508 -29 -621 -16 -189 22
-473 139 -640 266 -110 83 -275 225 -275 236 0 13 35 11 104 -6z m2723 -118
c2 -3 -19 -45 -47 -93 -69 -122 -102 -233 -140 -474 -17 -113 -38 -215 -46
-227 -12 -19 -23 -23 -68 -23 l-54 0 28 88 c16 49 32 113 36 143 9 72 19 84
51 63 29 -18 43 -11 25 14 -39 53 -51 79 -47 91 20 51 45 173 45 215 1 28 7
62 15 76 8 14 15 41 15 60 0 19 3 46 7 59 6 23 8 24 91 18 46 -4 86 -8 89 -10z
m-532 -104 c-8 -27 -15 -51 -15 -55 0 -24 -98 -108 -125 -108 -13 0 -2 25 25
57 18 20 30 45 30 62 0 27 24 57 65 79 33 18 35 14 20 -35z m-45 -190 c0 -46
-20 -102 -40 -113 -10 -5 -38 -7 -63 -4 -64 9 -68 -11 -8 -37 57 -24 64 -36
55 -98 -10 -63 -35 -84 -121 -100 -107 -19 -106 -36 1 -28 l88 6 -7 -35 c-15
-84 -36 -103 -113 -105 -36 -1 -36 -1 13 -13 l50 -11 0 -72 c0 -39 -3 -74 -6
-78 -4 -3 -30 1 -58 11 -50 16 -130 15 -175 -2 -39 -15 -9 -24 77 -24 119 0
133 -11 124 -96 -8 -79 -27 -104 -80 -104 -23 -1 -53 -7 -67 -15 -28 -16 -24
-18 36 -15 42 1 74 -18 74 -46 0 -28 -52 -258 -67 -296 -28 -70 -36 -46 -31
90 3 70 2 136 -2 147 -7 19 -7 19 -17 0 -6 -11 -13 -60 -16 -110 -7 -92 -30
-202 -47 -219 -6 -6 -20 -1 -36 15 -41 38 -44 51 -24 96 44 98 33 112 -22 28
l-36 -54 -26 82 c-45 147 -52 184 -34 204 8 10 18 38 21 63 3 25 20 90 37 144
16 55 28 101 26 104 -7 6 -56 -95 -82 -168 -27 -77 -24 -83 -79 138 -20 83
-40 152 -44 152 -9 0 4 -132 21 -220 15 -75 14 -638 -1 -653 -12 -12 -41 46
-75 150 -30 90 -40 104 -51 70 -4 -13 -8 -17 -12 -9 -7 18 -31 15 -61 -9 -32
-25 -40 -11 -16 26 17 25 17 28 1 37 -29 16 -19 35 21 42 22 3 51 17 65 30 28
26 64 25 74 0 3 -8 9 -14 13 -14 9 0 21 96 13 115 -9 24 -32 17 -39 -11 -6
-22 -8 -24 -16 -10 -12 21 -34 21 -42 -1 -6 -14 -8 -14 -21 3 -13 18 -15 18
-49 -15 -31 -30 -36 -32 -42 -17 -14 37 -24 -11 -24 -121 0 -98 2 -114 19
-125 10 -7 21 -23 25 -36 10 -31 28 -23 38 16 11 41 41 43 62 5 41 -74 56
-113 65 -173 12 -73 13 -213 2 -280 l-7 -45 -8 35 c-12 52 -45 112 -59 107 -9
-3 -11 -46 -8 -165 2 -89 1 -162 -3 -162 -17 0 -104 51 -109 64 -8 21 -31 256
-25 261 3 3 21 -2 41 -10 49 -20 48 -4 -1 49 l-39 42 -6 114 c-4 63 -14 190
-23 281 -10 91 -14 173 -11 182 4 10 15 17 25 17 19 0 19 1 1 38 -21 42 -52
189 -45 209 4 9 24 6 78 -13 103 -35 117 -24 26 20 -43 20 -84 47 -92 59 -8
12 -16 51 -18 87 l-3 65 84 5 c57 3 86 9 89 18 3 10 -4 12 -32 7 -47 -9 -122
2 -141 21 -15 16 -20 69 -9 98 8 22 31 20 108 -9 37 -14 70 -25 74 -25 13 1
-33 31 -93 62 -73 37 -73 37 -55 48 12 7 11 13 -7 32 -26 28 -43 70 -43 108 0
33 -60 24 460 65 289 23 318 27 362 50 26 14 56 25 65 25 10 1 43 12 73 25 71
31 80 31 80 -2z m496 -120 c-4 -32 -10 -238 -15 -458 -9 -430 -15 -490 -82
-825 -41 -210 -39 -205 -60 -123 -10 39 -31 104 -48 145 -16 40 -42 102 -56
138 -15 36 -33 72 -41 80 -12 12 -14 10 -14 -20 0 -32 20 -85 95 -260 26 -59
28 -75 27 -170 -3 -222 -29 -281 -195 -445 -121 -119 -214 -202 -221 -194 -2
2 3 35 11 73 14 69 11 108 -7 90 -5 -5 -14 -34 -20 -63 -20 -107 -106 -224
-353 -479 -89 -92 -207 -216 -261 -275 -55 -59 -101 -105 -103 -103 -3 2 18
71 45 152 28 82 74 237 102 344 85 317 116 371 378 643 72 76 137 148 143 159
10 18 9 19 -13 7 -28 -15 -244 -235 -335 -341 -36 -43 -70 -78 -75 -78 -12 0
-10 45 7 178 16 131 35 419 35 542 0 44 3 80 6 80 3 0 24 -15 47 -34 116 -94
148 -89 278 43 53 53 104 111 113 129 13 26 23 32 49 32 49 0 119 49 237 169
l106 106 41 111 c53 142 63 182 113 449 46 250 48 255 62 255 6 0 8 -21 4 -57z
m2374 29 c0 -13 -23 -32 -37 -32 -11 0 -11 5 -3 20 10 19 40 28 40 12z m-4017
-49 l58 -6 -7 -56 c-3 -31 -8 -59 -10 -62 -2 -4 -21 -3 -41 2 -96 22 -112 1
-23 -32 33 -12 65 -28 71 -35 17 -20 24 -136 10 -162 -9 -18 -8 -27 5 -48 12
-17 18 -48 18 -92 1 -62 -1 -67 -21 -70 -30 -4 -29 -18 2 -26 31 -8 33 -14 39
-221 3 -93 9 -221 13 -282 l6 -113 -27 0 c-30 0 -33 -15 -10 -41 21 -24 43
-87 44 -126 0 -38 -14 -43 -31 -12 -7 14 -14 18 -21 11 -6 -6 -3 -25 10 -53
42 -93 61 -297 33 -348 -11 -21 -11 -25 3 -33 8 -5 20 -25 25 -46 9 -33 31
-238 31 -286 0 -14 -19 -1 -74 52 -41 40 -78 72 -84 72 -12 0 -2 -48 22 -104
20 -47 21 -76 2 -76 -7 0 -30 -11 -51 -25 -20 -15 -39 -25 -41 -23 -7 8 -26
270 -20 291 3 13 17 29 31 35 36 16 31 32 -10 32 -34 0 -35 1 -35 39 0 40 13
61 98 151 23 25 42 48 42 52 0 19 -25 3 -90 -58 l-70 -66 0 92 0 93 51 47 c67
61 61 84 -8 36 -42 -29 -52 -32 -57 -20 -11 28 -6 89 9 118 19 36 19 36 -5 36
-12 0 -21 8 -24 23 -22 116 -46 272 -46 299 0 45 21 72 56 73 18 1 30 8 32 18
3 13 -4 17 -32 17 -45 0 -56 20 -56 98 l0 59 42 9 c62 13 61 34 -1 34 -27 0
-53 5 -56 10 -13 21 8 92 41 140 l33 49 -34 -6 c-32 -5 -35 -4 -35 19 0 14 -6
41 -14 59 -19 46 -61 312 -53 333 5 13 14 16 36 11 16 -3 32 -2 35 4 8 13 -6
21 -56 29 -48 8 -60 27 -23 36 35 9 31 24 -10 42 -19 8 -35 17 -35 21 0 6 211
-3 313 -14z m3987 -39 c0 -4 -13 -29 -30 -55 -56 -92 -92 -242 -94 -392 -1
-87 1 -100 18 -113 19 -14 19 -14 -1 -36 -12 -13 -51 -77 -89 -143 -129 -230
-143 -252 -189 -303 -52 -58 -160 -129 -256 -169 -112 -46 -198 -64 -347 -73
-78 -5 -147 -12 -153 -15 -21 -14 5 -25 57 -25 30 0 74 -5 97 -11 61 -15 136
-73 156 -120 9 -21 21 -39 28 -39 6 0 35 -19 63 -42 118 -97 184 -138 271
-169 49 -18 92 -35 94 -39 7 -11 -413 -421 -490 -479 -38 -29 -142 -88 -230
-130 -88 -43 -174 -90 -191 -104 -17 -15 -43 -31 -58 -36 -16 -7 -26 -18 -26
-31 0 -27 -26 -36 -146 -50 -248 -28 -434 -81 -501 -143 -35 -32 -29 -51 20
-64 23 -6 70 -23 105 -37 34 -15 113 -38 175 -51 62 -13 126 -28 142 -35 26
-10 28 -13 12 -21 -9 -6 -56 -17 -104 -25 -102 -18 -209 -60 -377 -149 -228
-120 -331 -139 -586 -106 -85 11 -247 29 -360 41 -325 34 -483 64 -516 101
-14 16 -40 24 -152 45 l-23 5 23 40 c44 79 164 111 411 110 238 -1 555 -35
682 -72 97 -29 187 -99 258 -203 20 -30 37 -34 37 -9 0 19 -37 69 -104 141
l-49 52 194 0 c230 0 343 11 398 40 23 11 41 23 41 26 0 3 -4 3 -9 0 -5 -3
-100 -10 -212 -15 -224 -11 -452 -2 -471 17 -9 9 -3 22 32 57 75 76 37 68 -70
-16 -51 -40 -75 -43 -201 -19 -181 33 -183 36 -73 79 77 30 383 187 447 229
86 57 5 29 -191 -66 -341 -165 -394 -180 -677 -192 -147 -6 -233 -15 -287 -28
l-77 -19 41 51 c49 59 660 670 782 781 l83 75 194 32 c263 43 427 44 544 5
128 -43 354 -182 377 -232 11 -25 95 -75 124 -74 16 0 14 4 -10 22 -16 12 -68
57 -115 100 -94 87 -183 153 -249 187 -24 12 -41 25 -38 27 3 3 191 7 418 8
403 2 418 3 633 34 236 33 280 43 310 66 19 13 17 14 -20 15 -22 0 -75 -7
-118 -15 -165 -32 -330 -47 -552 -51 l-230 -5 95 49 c52 27 149 70 215 96 66
26 143 58 170 71 46 22 48 24 21 24 -38 1 -205 -56 -342 -117 -121 -54 -213
-87 -289 -102 -27 -6 -183 -14 -346 -19 -291 -9 -461 -25 -649 -61 -52 -10
-96 -17 -97 -17 -2 3 191 174 311 275 61 52 161 139 221 196 198 183 232 206
398 267 45 17 86 34 92 40 19 19 -49 8 -137 -22 -49 -17 -91 -29 -93 -27 -2 2
38 40 88 84 51 45 184 171 297 281 113 110 216 205 228 212 13 7 69 19 125 27
145 22 156 36 24 31 l-108 -4 48 50 c66 68 109 85 275 107 79 11 195 29 258
40 63 12 169 25 235 29 123 7 126 10 40 33 l-49 14 44 26 c43 26 86 61 240
196 65 57 90 73 90 56z m-4326 -37 c3 -13 10 -65 16 -117 5 -52 17 -143 27
-202 15 -99 15 -108 0 -132 -23 -34 -22 -36 13 -36 35 0 37 -8 11 -58 -19 -38
-136 -171 -142 -162 -2 3 -13 23 -24 45 -28 57 -68 60 -140 11 -28 -20 -56
-36 -61 -36 -14 0 -169 -106 -269 -185 -90 -70 -106 -87 -166 -184 -22 -35
-42 -62 -44 -60 -7 8 23 175 40 224 24 70 52 122 68 128 8 3 17 25 21 50 10
68 47 99 157 131 126 36 232 153 328 361 40 86 138 245 152 245 4 0 9 -10 13
-23z m-1458 -14 c3 -10 20 -51 36 -91 32 -75 32 -84 -4 -134 -19 -27 0 -35 35
-15 29 17 32 17 43 2 7 -9 16 -36 19 -58 4 -23 17 -61 30 -84 13 -24 20 -43
16 -43 -4 0 -27 21 -51 46 -25 25 -83 73 -130 106 -47 34 -88 66 -92 72 -27
40 36 216 78 216 8 0 17 -8 20 -17z m3271 -368 c-9 -53 -124 -288 -138 -280
-8 6 -9 40 -4 124 10 166 23 190 104 191 l44 0 -6 -35z m-1720 -289 c-3 -8
-33 -29 -67 -46 -33 -17 -60 -32 -60 -34 0 -2 19 1 43 6 85 21 82 24 85 -77
l3 -91 -41 -62 c-22 -35 -40 -67 -40 -72 0 -21 20 -8 59 38 l41 47 1 -60 c0
-33 4 -82 9 -110 4 -27 5 -54 1 -58 -12 -12 -59 10 -87 40 -40 43 -103 177
-126 265 -26 102 -19 120 80 199 66 54 77 59 90 45 8 -8 12 -21 9 -30z m-248
-78 c1 -100 23 -237 51 -312 25 -66 86 -137 148 -173 88 -49 119 -92 91 -120
-8 -8 -8 -17 -1 -30 15 -27 41 -220 49 -358 l6 -116 -33 -34 c-39 -41 -35 -53
10 -30 18 9 33 15 35 13 8 -7 25 -176 27 -264 l3 -91 -37 -42 c-50 -55 -48
-68 5 -23 16 14 17 13 17 -14 0 -16 -9 -92 -19 -169 -11 -77 -24 -203 -30
-281 -13 -171 -14 -814 -1 -1054 5 -96 7 -176 5 -179 -6 -5 -137 269 -155 322
-6 21 -9 50 -5 64 5 21 -3 34 -46 80 -45 47 -50 58 -45 84 3 17 -1 98 -10 180
-14 137 -14 162 1 292 23 205 49 326 85 400 28 58 53 177 37 177 -3 0 -13 -25
-22 -56 -9 -31 -19 -54 -22 -51 -3 3 0 54 7 112 7 60 9 139 5 179 -11 126 25
316 90 466 42 96 51 125 36 115 -15 -9 -108 -195 -131 -260 -21 -59 -19 -64
-64 125 -59 250 -61 287 -17 388 17 39 31 76 31 82 0 22 -30 -11 -58 -64 l-27
-51 -3 93 c-1 50 -7 92 -12 92 -6 0 -10 -3 -10 -7 -1 -5 -5 -28 -10 -53 -11
-55 2 -187 29 -288 13 -49 15 -72 7 -69 -10 3 -69 94 -79 121 -2 6 -8 8 -12 4
-13 -12 11 -78 49 -138 20 -30 42 -69 51 -87 15 -33 75 -310 75 -352 0 -23 0
-23 -27 -6 -25 17 -26 17 -18 -1 47 -114 47 -115 42 -249 -3 -71 -17 -209 -31
-305 -39 -267 -49 -402 -43 -548 3 -74 3 -131 0 -128 -16 16 -73 155 -73 178
0 14 7 53 15 85 16 66 38 253 30 261 -10 11 -16 -7 -39 -122 -13 -65 -26 -120
-29 -123 -13 -12 -177 384 -177 428 0 24 76 153 118 200 24 27 42 52 39 55 -8
9 -146 -133 -157 -161 -6 -15 -16 -25 -23 -22 -23 8 -12 111 22 207 18 50 31
96 28 103 -2 6 -25 -33 -52 -88 l-48 -100 -13 30 c-22 50 -16 88 27 179 22 48
39 90 36 92 -7 7 -50 -53 -77 -104 -12 -24 -23 -42 -24 -40 -2 1 -15 34 -30
72 l-28 68 31 39 c35 43 40 65 14 54 -32 -14 -76 -18 -70 -7 4 5 -4 29 -18 53
-13 24 -40 86 -59 136 -19 51 -45 110 -57 131 -14 24 -20 45 -16 57 7 16 16
17 75 11 77 -7 67 5 -28 34 -44 14 -61 26 -84 59 l-30 41 17 68 c9 37 24 107
32 156 18 102 43 173 74 212 11 15 21 35 21 45 0 20 13 37 71 98 33 34 434
311 450 311 4 0 7 -37 8 -82z m1781 58 c0 -3 -4 -8 -10 -11 -5 -3 -10 -1 -10
4 0 6 5 11 10 11 6 0 10 -2 10 -4z m-980 -156 c0 -5 -4 -10 -10 -10 -5 0 -10
5 -10 10 0 6 5 10 10 10 6 0 10 -4 10 -10z m-2475 -180 c46 -22 54 -29 35 -29
-28 -1 -124 41 -135 59 -10 16 23 6 100 -30z m982 -206 c8 -20 -19 -116 -34
-121 -14 -5 -43 58 -43 93 0 38 64 62 77 28z m1471 -564 c41 -25 41 -42 -5
-143 l-38 -82 -7 50 c-13 102 -8 195 11 195 3 0 21 -9 39 -20z m446 -612 c-13
-24 -47 -58 -58 -58 -5 0 5 16 24 35 35 37 46 44 34 23z m-154 -163 c-7 -9
-15 -13 -18 -10 -3 2 1 11 8 20 7 9 15 13 18 10 3 -2 -1 -11 -8 -20z m-50 -53
c0 -4 -19 -26 -42 -47 l-41 -40 33 48 c31 43 50 59 50 39z m-164 -187 c-15
-19 -29 -35 -32 -35 -7 0 16 42 34 63 27 31 26 9 -2 -28z m68 -270 c13 -14 29
-47 36 -73 18 -66 30 -74 30 -20 0 26 5 50 10 53 15 10 11 -76 -5 -105 -8 -14
-14 -45 -15 -70 0 -58 -14 -74 -45 -54 -29 19 -51 74 -65 161 -19 119 3 163
54 108z m369 -136 c0 -26 -9 -58 -18 -72 -11 -18 -14 -36 -9 -61 4 -22 2 -36
-4 -36 -5 0 -16 44 -25 98 -16 107 -12 125 32 120 24 -3 26 -6 24 -49z m-348
-192 c12 -19 13 -34 5 -77 -16 -82 -30 -130 -39 -130 -12 0 -23 140 -15 189 7
46 26 53 49 18z"/>
<path d="M8630 11475 c0 -25 4 -35 13 -32 6 2 12 16 12 32 0 16 -6 30 -12 33
-9 2 -13 -8 -13 -33z"/>
<path d="M8537 11453 c-27 -30 -52 -112 -38 -126 7 -7 14 -7 20 -1 13 14 43
112 39 130 -3 14 -5 14 -21 -3z"/>
<path d="M8901 11355 c-7 -16 -15 -56 -18 -89 -5 -48 -3 -58 8 -54 15 5 32
103 26 148 -3 25 -3 25 -16 -5z"/>
<path d="M8610 11245 c0 -28 20 -75 32 -75 12 0 10 26 -6 65 -18 41 -26 44
-26 10z"/>
<path d="M9056 11203 c-13 -49 -17 -83 -8 -83 12 0 42 61 42 84 0 22 -27 20
-34 -1z"/>
<path d="M9406 11173 c-13 -21 -27 -54 -30 -74 -3 -19 -17 -51 -31 -69 -27
-36 -33 -64 -12 -58 20 7 76 97 87 141 5 23 14 54 19 70 13 39 -4 34 -33 -10z"/>
<path d="M8440 11195 c0 -12 37 -75 45 -75 3 0 5 6 5 14 0 17 -49 77 -50 61z"/>
<path d="M8620 11118 c0 -15 78 -118 90 -118 19 0 10 18 -36 74 -47 58 -54 64
-54 44z"/>
<path d="M8770 11116 c0 -20 49 -76 66 -76 25 0 15 27 -21 59 -40 35 -45 37
-45 17z"/>
<path d="M8400 11091 c0 -24 45 -79 56 -68 10 10 -26 79 -43 85 -8 2 -13 -5
-13 -17z"/>
<path d="M9501 11044 c-29 -24 -41 -54 -22 -54 13 0 71 56 71 69 0 18 -16 13
-49 -15z"/>
<path d="M8999 10994 c44 -14 66 -11 56 7 -4 5 -27 9 -53 8 l-47 -1 44 -14z"/>
<path d="M9485 10969 c-30 -8 -80 -47 -72 -55 2 -2 17 2 33 11 16 8 39 15 52
15 30 0 64 18 57 31 -7 11 -29 10 -70 -2z"/>
<path d="M8310 10941 c0 -22 25 -39 38 -27 8 8 -10 38 -26 44 -7 2 -12 -6 -12
-17z"/>
<path d="M8814 10896 c-8 -32 6 -58 17 -30 11 28 11 54 -1 54 -5 0 -12 -11
-16 -24z"/>
<path d="M9285 10891 c-7 -12 26 -31 55 -31 18 0 19 3 10 20 -11 21 -54 28
-65 11z"/>
<path d="M8482 10878 c5 -15 55 -35 64 -25 4 4 1 13 -6 22 -15 18 -64 21 -58
3z"/>
<path d="M9686 10855 c-65 -27 -88 -43 -81 -56 7 -11 157 52 163 69 6 18 -15
14 -82 -13z"/>
<path d="M9498 10837 c-61 -11 -68 -17 -43 -37 12 -10 23 -7 60 14 25 15 45
29 45 31 0 3 -1 4 -2 4 -2 -1 -29 -6 -60 -12z"/>
<path d="M8612 10762 c-28 -86 -39 -162 -24 -162 6 0 16 17 21 38 12 47 33
184 28 188 -2 2 -13 -27 -25 -64z"/>
<path d="M10003 10808 c-51 -25 -6 -38 56 -17 17 6 31 15 31 20 0 12 -60 10
-87 -3z"/>
<path d="M8822 10797 c-15 -19 -46 -126 -39 -134 14 -13 35 22 50 79 15 56 10
81 -11 55z"/>
<path d="M9370 10789 c-9 -16 -9 -28 0 -48 12 -25 12 -25 26 -6 17 23 15 67
-3 72 -6 2 -17 -6 -23 -18z"/>
<path d="M9607 10693 c-9 -2 -15 -9 -12 -14 11 -17 105 -7 105 12 0 9 -61 10
-93 2z"/>
<path d="M8462 10670 c-14 -23 -16 -54 -3 -46 12 8 32 66 23 66 -4 0 -13 -9
-20 -20z"/>
<path d="M8230 10664 c0 -9 102 -114 111 -114 23 0 4 32 -42 74 -47 42 -69 55
-69 40z"/>
<path d="M8712 10618 c-6 -8 -19 -32 -27 -52 -21 -50 1 -44 28 7 20 39 20 70
-1 45z"/>
<path d="M9414 10601 c-79 -29 -118 -51 -106 -63 12 -12 174 50 180 70 5 16
-12 14 -74 -7z"/>
<path d="M9510 10609 c0 -5 5 -7 10 -4 6 3 10 8 10 11 0 2 -4 4 -10 4 -5 0
-10 -5 -10 -11z"/>
<path d="M8873 10513 c3 -33 10 -69 17 -80 9 -14 10 -6 7 44 -3 33 -10 69 -17
80 -9 14 -10 6 -7 -44z"/>
<path d="M8532 10468 c-24 -39 -27 -48 -12 -48 12 0 42 58 38 72 -3 7 -14 -4
-26 -24z"/>
<path d="M8400 10480 c-12 -7 -12 -12 -3 -21 15 -15 68 5 58 21 -8 13 -35 13
-55 0z"/>
<path d="M8626 10460 c-37 -33 -47 -60 -22 -60 15 0 72 77 64 86 -3 3 -22 -9
-42 -26z"/>
<path d="M9408 10478 c-31 -11 -38 -38 -10 -38 20 0 152 37 160 45 10 9 -122
4 -150 -7z"/>
<path d="M8740 10426 c0 -57 14 -82 24 -43 7 28 -4 97 -15 97 -5 0 -9 -24 -9
-54z"/>
<path d="M8345 10460 c3 -5 8 -10 11 -10 2 0 4 5 4 10 0 6 -5 10 -11 10 -5 0
-7 -4 -4 -10z"/>
<path d="M9150 10464 c0 -3 13 -24 29 -47 33 -48 81 -95 81 -80 0 20 -80 133
-95 133 -8 0 -15 -3 -15 -6z"/>
<path d="M9456 10381 c-8 -13 19 -21 72 -21 44 1 46 2 28 15 -22 16 -91 20
-100 6z"/>
<path d="M8364 10304 c-36 -38 -47 -66 -16 -43 35 26 72 63 72 71 0 18 -25 6
-56 -28z"/>
<path d="M9100 10315 c0 -3 15 -14 33 -25 24 -15 49 -20 97 -19 l65 1 -90 24
c-97 25 -105 27 -105 19z"/>
<path d="M8579 10281 c-13 -11 -21 -23 -17 -27 12 -11 58 13 58 31 0 20 -13
19 -41 -4z"/>
<path d="M8299 10171 c-13 -11 -20 -23 -16 -27 9 -9 59 18 65 35 6 18 -24 13
-49 -8z"/>
<path d="M8953 10124 c-3 -9 0 -46 7 -81 7 -35 10 -66 7 -70 -3 -3 -30 9 -60
26 -58 33 -99 42 -78 18 21 -26 111 -68 139 -65 15 2 27 8 26 13 0 6 -4 47 -8
93 -8 78 -19 101 -33 66z"/>
<path d="M8470 10081 c-17 -43 -7 -63 13 -24 19 36 21 53 8 53 -5 0 -14 -13
-21 -29z"/>
<path d="M9120 10102 c0 -13 34 -32 109 -62 42 -16 51 -17 51 -5 0 8 -18 26
-39 41 -43 28 -121 45 -121 26z"/>
<path d="M8495 10024 c-20 -42 -34 -78 -32 -81 7 -7 62 77 75 114 22 64 -8 42
-43 -33z"/>
<path d="M8601 9921 c-19 -12 -5 -31 24 -31 13 0 27 5 31 11 7 11 -12 29 -31
29 -5 0 -16 -4 -24 -9z"/>
<path d="M1529 11392 c-50 -59 -63 -189 -23 -233 28 -31 33 -22 18 34 -17 63
-10 137 18 172 11 14 18 33 16 42 -2 13 -8 10 -29 -15z"/>
<path d="M1671 11065 c0 -138 2 -158 13 -142 31 41 32 243 1 284 -13 16 -14
-3 -14 -142z"/>
<path d="M1800 10550 c-71 -72 -93 -108 -42 -71 27 19 96 89 121 124 9 11 10
17 3 17 -6 0 -43 -32 -82 -70z"/>
<path d="M2296 10550 c-23 -82 -32 -160 -18 -160 13 0 28 51 37 125 3 28 8 60
11 73 2 12 0 22 -4 22 -5 0 -17 -27 -26 -60z"/>
<path d="M2760 10534 c-74 -39 -95 -57 -85 -73 8 -14 113 39 145 74 34 37 9
36 -60 -1z"/>
<path d="M1097 10388 c-6 -18 16 -58 50 -89 36 -34 143 -109 155 -109 19 0 2
19 -72 80 -41 34 -85 78 -98 96 -25 38 -28 40 -35 22z"/>
<path d="M1320 9906 c0 -21 61 -70 150 -122 85 -49 108 -69 67 -59 -29 8 -46
-11 -18 -20 22 -7 71 10 71 25 0 18 -49 57 -119 96 -36 20 -82 49 -102 65 -42
33 -49 35 -49 15z"/>
<path d="M1230 9711 c0 -31 62 -317 70 -325 25 -25 6 167 -26 266 -14 44 -44
84 -44 59z"/>
<path d="M1661 9558 c-26 -77 -26 -80 1 -76 19 2 24 13 34 63 7 33 10 63 8 67
-12 19 -24 4 -43 -54z"/>
<path d="M1462 9247 c-14 -94 -16 -194 -3 -202 6 -3 16 5 23 17 14 26 14 184
0 233 -8 27 -10 21 -20 -48z"/>
<path d="M6105 11163 c-3 -15 -22 -60 -40 -100 -30 -66 -32 -95 -5 -78 22 14
52 91 57 147 6 61 0 77 -12 31z"/>
<path d="M7148 10838 c-52 -64 -70 -95 -60 -102 16 -10 112 109 112 139 0 15
-21 0 -52 -37z"/>
<path d="M5937 10475 c-14 -55 -20 -418 -8 -448 13 -32 33 -31 41 1 6 26 -7
329 -18 417 -7 53 -8 57 -15 30z"/>
<path d="M7548 10118 c-138 -172 -163 -206 -156 -213 14 -14 233 247 274 327
31 60 -8 22 -118 -114z"/>
<path d="M6703 10177 c-47 -50 -83 -109 -83 -137 l1 -25 20 25 c28 34 102 161
97 166 -3 2 -18 -11 -35 -29z"/>
<path d="M5858 9668 c-12 -28 -69 -370 -63 -376 15 -15 29 29 51 164 23 136
30 255 12 212z"/>
<path d="M6157 9218 c-105 -116 -197 -227 -197 -238 0 -21 34 -8 61 23 75 86
196 239 212 266 32 54 1 33 -76 -51z"/>
<path d="M5992 8640 c-37 -23 -38 -47 -1 -42 23 3 69 38 69 54 0 14 -34 8 -68
-12z"/>
<path d="M4475 10948 c12 -43 38 -98 47 -98 15 0 8 55 -12 88 -23 37 -44 43
-35 10z"/>
<path d="M5117 10928 c-21 -47 -42 -171 -33 -195 11 -28 22 -2 41 104 20 108
16 147 -8 91z"/>
<path d="M3806 10522 c-14 -22 16 -192 42 -238 10 -17 11 -17 17 8 14 56 -39
262 -59 230z"/>
<path d="M5280 9646 c0 -9 5 -16 10 -16 6 0 10 4 10 9 0 6 -4 13 -10 16 -5 3
-10 -1 -10 -9z"/>
<path d="M5258 9422 c-31 -186 -57 -296 -87 -363 -24 -52 -26 -69 -7 -69 49 0
153 459 128 567 -5 25 -13 -3 -34 -135z"/>
<path d="M4331 9270 c-1 -14 13 -72 29 -130 17 -58 42 -150 55 -205 28 -111
53 -175 68 -175 17 0 0 78 -58 270 -62 205 -93 282 -94 240z"/>
<path d="M4891 9194 c0 -11 3 -14 6 -6 3 7 2 16 -1 19 -3 4 -6 -2 -5 -13z"/>
<path d="M4888 9130 c-15 -54 -20 -147 -9 -154 17 -11 22 14 19 100 -2 51 -5
70 -10 54z"/>
<path d="M2954 9875 c17 -143 117 -373 204 -467 94 -101 136 -109 46 -8 -96
107 -146 201 -179 330 -43 174 -84 257 -71 145z"/>
<path d="M2160 9291 c0 -76 190 -331 246 -331 19 0 19 0 -71 101 -27 30 -73
97 -100 149 -51 94 -75 120 -75 81z"/>
<path d="M2010 8776 c0 -27 95 -140 182 -216 82 -73 177 -132 238 -150 51 -15
33 5 -42 46 -82 45 -157 110 -278 241 -47 51 -88 93 -92 93 -5 0 -8 -6 -8 -14z"/>
<path d="M3673 8593 c5 -22 30 -64 139 -231 60 -93 119 -162 137 -162 18 0 13
25 -9 45 -11 10 -65 84 -120 164 -55 80 -111 160 -125 176 -23 26 -26 27 -22
8z"/>
<path d="M3240 8432 c0 -64 170 -264 373 -438 125 -107 277 -214 304 -214 28
1 -81 99 -260 234 -173 129 -249 208 -344 358 -31 49 -60 88 -64 88 -5 0 -9
-12 -9 -28z"/>
<path d="M7765 9050 c-21 -16 -42 -30 -46 -30 -12 0 -42 -47 -37 -60 4 -13 77
43 108 83 31 39 20 43 -25 7z"/>
<path d="M6600 8436 c-58 -41 -141 -94 -185 -117 -94 -50 -135 -77 -135 -90 0
-18 24 -8 158 63 106 57 152 89 211 145 42 40 71 72 65 73 -5 0 -57 -33 -114
-74z"/>
<path d="M7886 8437 c-44 -24 -58 -47 -29 -47 22 0 105 69 83 69 -8 1 -33 -9
-54 -22z"/>
<path d="M6148 8275 c-26 -15 -46 -51 -34 -63 4 -3 22 10 41 28 50 48 47 64
-7 35z"/>
<path d="M8119 8191 c-13 -10 -57 -35 -96 -56 -40 -21 -73 -42 -73 -46 0 -34
97 11 160 76 46 47 50 58 9 26z"/>
<path d="M6838 8034 c-59 -30 -304 -114 -423 -144 -90 -23 -115 -34 -115 -51
0 -25 119 3 355 82 134 46 201 77 228 107 28 30 8 33 -45 6z"/>
<path d="M6068 7683 c-10 -2 -18 -9 -18 -14 0 -10 99 -12 125 -3 42 17 -53 31
-107 17z"/>
<path d="M6348 7342 c-75 -3 -89 -17 -30 -29 65 -13 294 -9 320 5 13 8 22 15
20 16 -6 6 -242 12 -310 8z"/>
<path d="M7831 7207 c-25 -7 -47 -18 -49 -26 -4 -12 6 -13 54 -8 70 7 126 25
118 38 -7 12 -69 10 -123 -4z"/>
<path d="M360 8925 c0 -21 49 -68 145 -139 149 -112 200 -143 550 -328 165
-88 304 -163 308 -168 5 -4 -15 -13 -45 -20 -29 -7 -95 -28 -147 -46 -130 -47
-139 -46 -200 24 -28 31 -51 51 -51 43 0 -7 16 -44 36 -82 36 -67 36 -70 18
-84 -17 -14 -76 -33 -191 -64 -69 -19 -53 -34 27 -29 39 3 70 3 70 0 0 -3 -10
-16 -22 -29 -12 -13 -20 -25 -17 -27 2 -2 29 6 59 19 30 13 63 22 73 19 12 -4
17 0 17 15 0 11 -5 23 -10 26 -17 10 -1 25 54 49 29 13 55 30 59 38 5 15 105
53 114 44 3 -3 -2 -23 -11 -46 -20 -50 -20 -73 -1 -111 28 -53 68 -69 173 -69
50 0 92 4 92 9 0 14 -27 21 -83 21 -165 0 -220 99 -112 200 25 23 35 25 155
30 71 3 132 9 137 13 9 9 -7 37 -28 49 -8 4 -57 27 -109 50 -247 113 -286 142
-311 233 -15 54 -78 190 -85 182 -3 -3 6 -39 20 -80 32 -94 35 -147 6 -147
-25 0 -90 57 -90 79 0 10 -9 26 -20 36 -11 10 -29 48 -40 84 -22 73 -35 99
-46 89 -3 -4 5 -51 20 -104 14 -54 24 -99 22 -101 -5 -5 -183 85 -191 96 -3 7
-11 42 -16 79 -12 87 -31 108 -23 25 4 -36 3 -63 -3 -66 -6 -4 -41 17 -79 45
-144 109 -224 160 -224 143z"/>
<path d="M1205 8750 c3 -5 8 -10 11 -10 2 0 4 5 4 10 0 6 -5 10 -11 10 -5 0
-7 -4 -4 -10z"/>
<path d="M1228 8670 c-14 -50 -21 -197 -10 -216 9 -16 11 -14 17 16 8 47 2
233 -7 200z"/>
<path d="M1176 7750 c17 -17 257 -61 268 -49 20 19 -23 37 -102 43 -43 4 -99
8 -126 11 -32 3 -46 1 -40 -5z"/>
<path d="M1585 7691 c-32 -19 -115 -108 -115 -122 0 -18 17 -8 75 42 33 27 72
53 88 56 33 7 45 22 26 34 -21 13 -41 11 -74 -10z"/>
<path d="M5136 8513 c-10 -11 -7 -21 20 -52 23 -28 25 -37 22 -103 -2 -44 1
-73 7 -73 6 0 9 18 8 40 -3 37 -2 39 12 21 14 -19 15 -17 15 20 0 64 -61 170
-84 147z"/>
<path d="M5243 8228 c-22 -28 -54 -131 -44 -141 10 -10 21 9 44 75 4 11 12 15
22 11 14 -5 16 0 13 27 -3 36 -19 48 -35 28z"/>
<path d="M5160 8201 c0 -17 4 -32 9 -36 12 -7 23 28 15 49 -10 26 -24 18 -24
-13z"/>
<path d="M5440 8285 c0 -8 5 -15 11 -15 8 0 10 -16 6 -47 l-5 -48 24 30 c29
36 30 56 6 78 -23 21 -42 22 -42 2z"/>
<path d="M5400 8063 c0 -10 4 -24 9 -32 15 -24 44 5 30 30 -12 24 -39 25 -39
2z"/>
<path d="M4431 7807 c-6 -8 -8 -16 -5 -20 10 -9 34 4 34 19 0 18 -14 18 -29 1z"/>
<path d="M4495 7755 c-5 -2 -36 -11 -67 -20 -32 -9 -58 -20 -58 -25 0 -18 79
-32 115 -20 33 11 70 52 58 64 -7 6 -31 7 -48 1z"/>
<path d="M5670 7701 c-24 -45 5 -90 66 -100 25 -4 40 -12 42 -24 3 -14 -2 -16
-26 -11 -35 7 -48 -8 -26 -30 21 -21 61 -20 72 2 22 41 -54 182 -98 182 -11 0
-24 -9 -30 -19z m58 -38 c4 -27 -5 -29 -30 -6 -24 22 -23 35 5 31 14 -2 23
-11 25 -25z"/>
<path d="M5177 7633 c-13 -13 -7 -53 8 -53 10 0 15 10 15 30 0 29 -9 38 -23
23z"/>
<path d="M2280 7381 c0 -29 212 -182 278 -201 47 -13 163 -13 142 -1 -8 6 -37
13 -65 16 -64 8 -159 54 -216 103 -50 45 -118 92 -130 92 -5 0 -9 -4 -9 -9z"/>
<path d="M3800 7342 c0 -34 31 -42 157 -41 l118 1 -110 24 c-60 14 -122 27
-137 31 -24 5 -28 2 -28 -15z"/>
<path d="M4347 7249 c-26 -15 -11 -29 33 -29 47 0 61 16 25 30 -32 12 -35 12
-58 -1z"/>
<path d="M2777 7173 c-12 -11 -8 -23 8 -23 8 0 15 7 15 15 0 16 -12 20 -23 8z"/>
<path d="M4190 7038 c-104 -71 -256 -142 -444 -208 -169 -58 -213 -88 -115
-77 107 12 383 119 492 191 95 63 180 146 150 146 -5 0 -42 -23 -83 -52z"/>
<path d="M4448 6948 c-9 -14 -27 -54 -38 -88 -20 -59 -43 -97 -142 -232 -23
-32 -38 -61 -34 -65 15 -14 130 122 168 198 43 87 71 170 66 195 -3 15 -6 14
-20 -8z"/>
<path d="M2795 6153 c-71 -16 -95 -25 -95 -35 0 -7 20 -9 63 -4 77 8 137 24
137 36 0 10 -68 12 -105 3z"/>
<path d="M3509 5906 c-58 -48 -159 -139 -276 -248 -66 -62 -50 -83 23 -30 70
52 332 317 322 327 -2 3 -33 -19 -69 -49z"/>
<path d="M4915 8293 c-4 -15 -8 -37 -10 -48 -6 -29 6 -98 16 -88 14 14 23 149
11 157 -7 4 -14 -4 -17 -21z"/>
<path d="M4990 8221 c-17 -33 -12 -51 12 -48 22 2 23 -1 19 -63 -3 -58 -2 -63
13 -51 18 15 22 113 6 155 -11 31 -35 34 -50 7z"/>
<path d="M4976 8076 c-17 -38 -16 -66 3 -66 12 0 25 60 18 87 -3 14 -8 9 -21
-21z"/>
<path d="M1240 7155 c0 -15 20 -43 131 -180 53 -66 101 -130 108 -142 13 -25
41 -31 41 -10 0 26 -278 356 -280 332z"/>
<path d="M1052 7108 c6 -24 16 -67 23 -95 12 -51 12 -53 -9 -53 -55 0 -101 24
-167 86 -94 88 -110 88 -46 -1 28 -39 28 -40 8 -43 -45 -7 -191 54 -250 104
-64 53 -48 1 18 -58 44 -41 96 -59 321 -114 80 -19 148 -38 153 -43 4 -4 -23
-15 -60 -25 -37 -9 -72 -21 -77 -26 -16 -16 163 0 201 17 29 13 38 13 82 -2
46 -15 80 -39 69 -50 -2 -3 -32 -23 -66 -45 -34 -22 -62 -44 -62 -50 0 -11 18
-5 110 39 36 17 76 31 91 31 14 0 63 -18 109 -40 46 -23 93 -40 104 -38 19 3
17 6 -14 30 -43 32 -230 126 -325 162 -38 14 -85 35 -103 46 -40 25 -72 75
-72 115 0 25 -32 95 -43 95 -3 0 0 -19 5 -42z"/>
<path d="M480 6996 c33 -87 102 -197 115 -184 9 9 -24 82 -69 152 -37 58 -63
76 -46 32z"/>
<path d="M666 6689 c35 -40 142 -67 158 -40 8 12 -18 21 -62 21 -20 0 -52 9
-70 20 -42 26 -50 25 -26 -1z"/>
<path d="M1090 6522 c0 -18 58 -62 113 -88 55 -24 60 -25 75 -10 16 15 15 17
-8 23 -14 4 -58 24 -98 45 -78 41 -82 42 -82 30z"/>
<path d="M1382 6425 c5 -103 17 -145 43 -145 18 0 19 -7 -4 118 -26 145 -45
158 -39 27z"/>
<path d="M5360 7176 c0 -24 24 -67 49 -90 26 -24 27 -7 2 43 -24 47 -51 72
-51 47z"/>
<path d="M5715 7000 c3 -5 8 -10 11 -10 2 0 4 5 4 10 0 6 -5 10 -11 10 -5 0
-7 -4 -4 -10z"/>
<path d="M4947 6969 c-10 -36 -8 -107 2 -113 11 -7 20 91 11 118 -6 18 -7 17
-13 -5z"/>
<path d="M5214 6776 c-15 -40 99 -524 151 -641 31 -69 29 -13 -4 103 -48 169
-79 301 -91 382 -6 41 -13 89 -16 106 -2 17 -11 39 -18 50 -14 19 -15 19 -22
0z"/>
<path d="M6390 6603 c0 -12 83 -114 101 -124 49 -26 37 4 -28 72 -51 54 -73
70 -73 52z"/>
<path d="M4863 5723 c-4 -15 -8 -92 -8 -170 0 -127 5 -166 20 -151 4 4 11 113
18 302 2 47 -19 60 -30 19z"/>
<path d="M6490 5331 c0 -14 107 -122 143 -146 56 -36 40 -1 -30 65 -73 71
-113 99 -113 81z"/>
<path d="M6040 4865 c0 -8 11 -45 25 -82 25 -65 49 -103 67 -103 13 0 9 33 -8
55 -8 11 -19 38 -25 60 -12 46 -35 85 -49 85 -6 0 -10 -7 -10 -15z"/>
<path d="M2980 5075 c0 -41 74 -105 121 -105 20 0 14 9 -41 60 -69 63 -80 69
-80 45z"/>
<path d="M1627 5459 c15 -15 173 -25 173 -12 0 16 -36 23 -114 23 -51 0 -67
-3 -59 -11z"/>
<path d="M1983 4892 c7 -88 21 -137 38 -127 7 5 8 26 4 59 -18 150 -53 206
-42 68z"/>
<path d="M3975 4940 c-7 -12 -9 -130 -1 -137 15 -15 26 16 26 78 0 63 -9 85
-25 59z"/>
<path d="M4119 4603 c-15 -39 -17 -145 -3 -150 14 -5 22 24 30 110 5 48 4 67
-5 67 -6 0 -16 -12 -22 -27z"/>
<path d="M3650 4561 c-25 -17 -1 -26 75 -26 69 0 96 7 82 21 -11 11 -141 15
-157 5z"/>
<path d="M4260 4501 c-15 -29 -12 -61 5 -61 11 0 15 11 15 40 0 45 -4 49 -20
21z"/>
<path d="M4585 4351 c-3 -5 -1 -12 5 -16 5 -3 10 1 10 9 0 18 -6 21 -15 7z"/>
<path d="M4437 4083 c3 -70 7 -130 10 -132 2 -3 9 1 15 7 20 20 22 124 4 185
-28 95 -36 78 -29 -60z"/>
<path d="M4761 4115 c-5 -20 -8 -43 -5 -51 15 -50 15 -49 24 -34 13 20 13 107
1 115 -6 3 -14 -11 -20 -30z"/>
<path d="M4076 4030 c-27 -58 -34 -114 -15 -126 16 -10 27 12 40 87 16 91 7
106 -25 39z"/>
<path d="M2886 3732 c-3 -5 1 -18 9 -28 14 -18 14 -18 15 3 0 23 -15 39 -24
25z"/>
<path d="M2895 3660 c-3 -5 -1 -10 4 -10 6 0 11 5 11 10 0 6 -2 10 -4 10 -3 0
-8 -4 -11 -10z"/>
<path d="M2690 3034 c0 -14 4 -23 10 -19 6 3 10 15 10 26 0 10 -4 19 -10 19
-5 0 -10 -12 -10 -26z"/>
<path d="M2977 3028 c-11 -41 17 -188 36 -188 16 0 2 179 -15 197 -14 13 -16
12 -21 -9z"/>
<path d="M3577 2849 c-58 -124 -72 -165 -58 -173 14 -9 37 25 65 94 31 75 60
180 52 187 -3 3 -30 -46 -59 -108z"/>
<path d="M3964 2643 c8 -51 70 -206 84 -211 7 -2 12 5 12 17 0 32 -58 177 -81
203 l-20 23 5 -32z"/>
<path d="M3572 2619 c3 -8 15 -44 27 -81 26 -79 41 -94 40 -41 0 53 -30 127
-53 131 -13 3 -17 -1 -14 -9z"/>
<path d="M4087 2064 c-22 -23 22 -44 143 -70 78 -17 98 -16 86 5 -13 20 -216
77 -229 65z"/>
<path d="M4426 1911 c-3 -5 1 -14 9 -21 12 -10 15 -10 15 3 0 19 -16 31 -24
18z"/>
<path d="M4024 1886 c-7 -30 -1 -123 10 -133 13 -14 21 11 21 72 0 71 -19 108
-31 61z"/>
<path d="M4480 1861 c0 -13 72 -71 88 -71 26 0 6 35 -33 57 -44 25 -55 28 -55
14z"/>
<path d="M8881 4661 c-6 -11 -11 -26 -11 -33 0 -8 -20 -43 -45 -78 -54 -77
-60 -113 -9 -55 55 61 104 168 84 180 -5 3 -14 -3 -19 -14z"/>
<path d="M7837 4288 c-48 -60 -71 -108 -58 -121 13 -13 41 8 41 32 0 9 9 30
21 46 59 87 56 117 -4 43z"/>
<path d="M7821 4004 c0 -11 3 -14 6 -6 3 7 2 16 -1 19 -3 4 -6 -2 -5 -13z"/>
<path d="M7684 3807 c-49 -73 -55 -87 -49 -97 10 -15 32 5 54 49 40 78 36 111
-5 48z"/>
<path d="M6730 4436 c0 -54 13 -146 21 -146 10 0 12 78 3 133 -7 41 -24 51
-24 13z"/>
<path d="M6582 3804 c7 -130 28 -151 28 -27 0 95 -5 123 -22 123 -7 0 -9 -33
-6 -96z"/>
<path d="M6265 4110 c-3 -5 1 -10 10 -10 9 0 13 5 10 10 -3 6 -8 10 -10 10 -2
0 -7 -4 -10 -10z"/>
<path d="M6452 3054 c-21 -15 -30 -44 -14 -44 5 0 16 8 24 18 36 42 31 55 -10
26z"/>
<path d="M6623 2928 c-23 -24 -31 -68 -13 -68 16 0 42 47 38 70 -3 22 -3 22
-25 -2z"/>
<path d="M6131 2174 c-41 -34 -61 -74 -61 -121 0 -52 14 -73 29 -45 6 11 11
33 11 48 0 15 14 52 31 82 17 30 28 56 26 58 -3 3 -19 -7 -36 -22z"/>
<path d="M5272 4145 c-34 -28 -41 -45 -19 -45 18 0 60 46 55 60 -2 8 -16 2
-36 -15z"/>
<path d="M5340 4023 c0 -10 12 -43 27 -73 21 -44 27 -51 30 -33 4 19 -40 123
-52 123 -3 0 -5 -8 -5 -17z"/>
<path d="M5400 3787 c0 -8 18 -41 39 -74 65 -100 84 -94 29 9 -31 58 -68 94
-68 65z"/>
<path d="M5300 3750 c0 -5 5 -10 10 -10 6 0 10 5 10 10 0 6 -4 10 -10 10 -5 0
-10 -4 -10 -10z"/>
<path d="M5399 3424 c-5 -15 -12 -54 -14 -88 l-5 -61 20 60 c28 87 33 115 21
115 -7 0 -16 -12 -22 -26z"/>
<path d="M8764 3676 c-21 -19 -36 -37 -32 -41 8 -8 88 36 108 59 26 32 -35 17
-76 -18z"/>
<path d="M8448 3614 c-28 -15 -35 -28 -20 -38 11 -7 72 31 72 44 0 14 -20 12
-52 -6z"/>
<path d="M8061 3561 c-14 -4 -26 -12 -29 -19 -4 -13 113 -16 158 -3 25 7 25 7
-9 19 -37 13 -81 14 -120 3z"/>
<path d="M8066 3369 c-30 -27 -44 -45 -38 -51 13 -13 43 4 76 43 27 31 33 49
17 49 -4 0 -29 -19 -55 -41z"/>
<path d="M8531 3316 c-72 -13 -96 -36 -37 -36 42 0 106 24 106 39 0 6 -1 10
-2 10 -2 -1 -32 -7 -67 -13z"/>
<path d="M7878 3203 c6 -2 18 -2 25 0 6 3 1 5 -13 5 -14 0 -19 -2 -12 -5z"/>
<path d="M8031 3076 c-7 -9 -8 -17 -2 -20 13 -8 38 3 45 20 7 19 -28 19 -43 0z"/>
<path d="M7944 2886 c-10 -8 -16 -18 -11 -22 10 -11 80 8 85 24 5 17 -49 16
-74 -2z"/>
<path d="M7458 2795 c-49 -36 -64 -53 -54 -62 9 -9 50 12 90 47 65 58 38 69
-36 15z"/>
<path d="M7642 2767 c-24 -25 -28 -37 -12 -37 13 0 50 37 50 50 0 17 -15 11
-38 -13z"/>
<path d="M7010 2159 c-57 -16 -90 -31 -90 -41 0 -18 93 -3 150 24 l55 26 -40
0 c-22 0 -56 -4 -75 -9z"/>
<path d="M7562 1987 c-22 -23 -30 -67 -13 -67 15 0 51 51 51 71 0 25 -12 24
-38 -4z"/>
<path d="M6600 1765 c0 -19 9 -19 51 0 l34 14 -42 1 c-32 0 -43 -4 -43 -15z"/>
<path d="M4455 3470 c-3 -5 -1 -10 4 -10 6 0 11 5 11 10 0 6 -2 10 -4 10 -3 0
-8 -4 -11 -10z"/>
<path d="M4570 3048 c-40 -40 -65 -77 -56 -85 7 -8 106 92 106 107 0 18 -18
10 -50 -22z"/>
<path d="M4637 2669 c-84 -56 -130 -109 -94 -109 6 0 41 25 77 56 97 85 106
112 17 53z"/>
<path d="M4910 2412 c0 -12 70 -92 81 -92 16 0 10 17 -17 49 -28 33 -64 58
-64 43z"/>
<path d="M5117 1483 c-50 -108 -83 -213 -74 -237 4 -9 15 -16 26 -16 22 0 23
2 45 122 8 42 26 105 40 140 27 68 31 88 18 88 -5 0 -30 -44 -55 -97z"/>
<path d="M4839 1488 c-48 -38 -60 -58 -31 -58 18 0 92 65 92 82 0 15 -18 8
-61 -24z"/>
<path d="M1055 12510 c3 -5 8 -10 11 -10 2 0 4 5 4 10 0 6 -5 10 -11 10 -5 0
-7 -4 -4 -10z"/>
<path d="M1562 11986 c-32 -83 -47 -144 -38 -153 21 -22 70 109 64 174 l-3 38
-23 -59z"/>
<path d="M2096 11695 c-3 -8 -1 -15 3 -15 5 0 11 7 15 15 3 8 1 15 -3 15 -5 0
-11 -7 -15 -15z"/>
<path d="M9190 11580 c0 -5 5 -10 10 -10 6 0 10 5 10 10 0 6 -4 10 -10 10 -5
0 -10 -4 -10 -10z"/>
<path d="M470 11420 c0 -5 5 -10 10 -10 6 0 10 5 10 10 0 6 -4 10 -10 10 -5 0
-10 -4 -10 -10z"/>
<path d="M10040 10641 c0 -15 51 -51 71 -51 29 0 23 18 -13 40 -35 21 -58 26
-58 11z"/>
<path d="M8400 9540 c0 -5 5 -10 10 -10 6 0 10 5 10 10 0 6 -4 10 -10 10 -5 0
-10 -4 -10 -10z"/>
<path d="M415 9430 c-3 -5 -1 -10 4 -10 6 0 11 5 11 10 0 6 -2 10 -4 10 -3 0
-8 -4 -11 -10z"/>
<path d="M590 9322 c0 -14 54 -97 70 -107 6 -3 10 3 10 15 0 22 -79 114 -80
92z"/>
<path d="M9594 5041 c-81 -60 -116 -114 -51 -80 32 17 117 89 117 100 0 17
-27 9 -66 -20z"/>
<path d="M7500 4359 c0 -18 2 -19 15 -9 8 7 15 16 15 21 0 5 -7 9 -15 9 -9 0
-15 -9 -15 -21z"/>
<path d="M1790 4115 c0 -31 83 -145 106 -145 25 0 15 25 -36 85 -47 56 -70 76
-70 60z"/>
<path d="M9000 2860 c0 -5 5 -10 10 -10 6 0 10 5 10 10 0 6 -4 10 -10 10 -5 0
-10 -4 -10 -10z"/>
<path d="M8955 2830 c-3 -5 1 -10 10 -10 9 0 13 5 10 10 -3 6 -8 10 -10 10 -2
0 -7 -4 -10 -10z"/>
<path d="M2760 2660 c0 -5 5 -10 10 -10 6 0 10 5 10 10 0 6 -4 10 -10 10 -5 0
-10 -4 -10 -10z"/>
<path d="M4227 1368 c-96 -121 -100 -155 -7 -63 39 38 60 68 60 82 0 34 -14
28 -53 -19z"/>
<path d="M5607 622 c-27 -30 -50 -93 -38 -105 7 -7 15 1 27 28 8 21 27 47 40
58 24 19 24 37 0 37 -7 0 -20 -8 -29 -18z"/>
</g>
</svg>
