<?xml version="1.0" standalone="no"?>
<!DOCTYPE svg PUBLIC "-//W3C//DTD SVG 20010904//EN"
 "http://www.w3.org/TR/2001/REC-SVG-20010904/DTD/svg10.dtd">
<svg version="1.0" xmlns="http://www.w3.org/2000/svg"
 width="1066.000000pt" height="1280.000000pt" viewBox="0 0 1066.000000 1280.000000"
 preserveAspectRatio="xMidYMid meet">
<metadata>
Created by potrace 1.15, written by Peter Selinger 2001-2017
</metadata>
<g transform="translate(0.000000,1280.000000) scale(0.100000,-0.100000)"
fill="#03a9f4" stroke="none">
<path d="M8477 12128 c11 -13 30 -41 41 -63 41 -83 53 -146 62 -350 11 -240
27 -306 92 -380 23 -26 62 -60 87 -76 l46 -29 -57 0 c-138 0 -418 -67 -638
-153 -131 -51 -250 -106 -250 -116 0 -17 54 -77 100 -112 152 -114 501 -209
767 -209 40 0 73 -2 73 -5 0 -2 -18 -53 -39 -113 -117 -330 -275 -552 -532
-750 -59 -45 -109 -88 -112 -97 -4 -8 33 16 81 54 83 66 298 215 277 194 -50
-53 -430 -362 -433 -353 -2 6 10 26 27 44 17 18 31 36 31 40 0 4 -13 20 -29
35 -21 19 -36 51 -52 104 -27 93 -65 142 -146 184 -83 44 -179 71 -312 87
-175 22 -339 27 -510 17 -151 -9 -154 -9 -235 -49 -140 -70 -243 -179 -401
-426 -50 -80 -88 -128 -113 -144 -66 -44 -132 -114 -132 -141 0 -42 29 -60
179 -107 139 -44 213 -76 255 -108 18 -14 12 -22 -103 -142 -195 -203 -302
-357 -367 -530 l-25 -67 58 6 c32 4 117 23 188 44 119 34 140 37 255 37 107
-1 328 -26 353 -41 4 -2 3 -12 -2 -21 -5 -10 -21 -87 -35 -171 -14 -85 -27
-156 -29 -158 -3 -2 -7 14 -11 36 -3 22 -26 93 -51 157 -25 64 -45 123 -45
132 -1 10 -12 -3 -25 -28 -30 -59 -93 -122 -160 -160 -29 -16 -137 -64 -241
-105 -220 -89 -275 -118 -352 -190 l-58 -53 -23 40 c-57 99 -160 179 -313 242
-118 49 -235 78 -574 146 -165 32 -327 68 -361 78 l-62 20 39 -52 c22 -29 62
-101 91 -161 167 -357 216 -444 326 -570 34 -39 90 -92 126 -120 36 -27 65
-54 63 -60 -5 -21 -85 -55 -201 -85 -248 -65 -333 -132 -387 -304 -17 -56 -44
-101 -121 -208 -55 -76 -101 -138 -104 -138 -2 0 -21 9 -41 19 -68 35 -193 54
-445 71 -76 4 -141 10 -143 13 -3 3 17 28 44 56 96 100 138 223 136 401 -3
193 -69 390 -191 571 -66 96 -170 209 -193 209 -33 0 -202 -122 -290 -210
-167 -166 -272 -349 -315 -553 -8 -38 -15 -86 -15 -108 0 -21 -3 -39 -7 -39
-5 0 -42 7 -83 16 -55 12 -102 14 -177 10 -183 -10 -311 -46 -799 -219 -360
-128 -517 -163 -662 -146 -31 3 -58 5 -60 4 -6 -5 147 -58 234 -80 50 -13 188
-40 305 -59 249 -41 300 -55 360 -97 176 -122 355 -237 414 -265 46 -22 97
-37 150 -44 44 -6 85 -13 92 -15 8 -3 -2 -33 -32 -92 -87 -176 -105 -276 -64
-359 11 -24 50 -71 86 -105 37 -34 58 -59 47 -56 -83 24 -304 37 -434 26 -183
-16 -295 -54 -459 -156 -266 -167 -371 -267 -447 -428 -52 -111 -67 -209 -61
-404 5 -192 32 -334 101 -546 47 -142 123 -303 136 -289 5 5 49 97 100 204
116 248 144 298 228 406 120 155 297 314 502 451 75 50 232 143 242 143 3 0 8
-26 11 -57 6 -64 24 -122 71 -229 l32 -73 69 59 c60 51 85 64 175 94 217 72
532 118 657 96 38 -6 78 -18 91 -26 22 -15 21 -16 -60 -56 -210 -105 -348
-332 -348 -573 0 -102 17 -201 80 -470 65 -277 73 -328 69 -435 -5 -123 -15
-131 -93 -82 -56 35 -64 37 -141 37 l-82 0 27 26 c71 72 66 237 -15 450 -52
136 -162 359 -177 359 -8 0 -84 -42 -169 -93 -359 -214 -569 -392 -569 -482
l0 -33 -88 29 c-179 60 -267 73 -492 73 -174 0 -221 -3 -310 -23 -203 -43
-418 -128 -585 -231 -84 -51 -215 -149 -215 -159 0 -5 42 -11 93 -15 257 -19
576 -67 770 -116 113 -28 257 -86 271 -108 4 -6 -13 -14 -43 -21 -165 -35
-362 -118 -436 -183 -167 -147 -323 -561 -402 -1068 -20 -132 -26 -502 -8
-533 10 -15 22 -8 115 64 229 178 465 311 620 350 148 37 270 110 386 230 86
90 125 146 174 252 51 110 64 183 57 313 -8 120 3 129 27 24 18 -78 20 -194 5
-259 -5 -24 -8 -46 -5 -48 2 -3 37 14 76 37 53 31 111 53 219 81 270 73 385
121 473 198 48 43 98 128 98 168 0 23 2 23 108 23 176 0 319 -43 377 -112 28
-33 31 -76 5 -88 -8 -4 -54 -26 -101 -49 -101 -47 -178 -118 -223 -201 -16
-30 -46 -77 -67 -105 -56 -74 -114 -190 -143 -281 -68 -221 -61 -415 36 -956
l23 -127 35 30 c71 60 179 128 340 214 91 48 197 108 235 133 98 64 213 182
265 272 115 196 229 540 303 910 l24 115 6 -115 c16 -294 92 -530 230 -712 96
-128 197 -203 377 -280 142 -61 187 -75 308 -93 181 -27 246 -49 331 -113 l34
-25 -6 69 c-4 38 -16 175 -27 304 -44 512 -96 813 -186 1074 -68 199 -102 263
-212 401 -85 106 -94 114 -230 200 l-142 90 38 16 c114 49 254 333 337 681
l23 101 -55 -7 c-86 -10 -256 -70 -402 -141 -74 -36 -135 -64 -137 -63 -1 2 9
48 22 103 31 126 40 250 22 285 -11 20 -22 25 -51 25 -20 0 -37 0 -37 0 0 1
10 28 21 60 14 39 22 86 22 135 2 135 -38 245 -157 443 -42 70 -76 133 -76
140 0 17 118 147 134 147 10 0 15 -33 19 -123 3 -75 12 -141 22 -172 30 -87
286 -405 407 -506 105 -87 169 -102 211 -48 l24 31 6 -61 c17 -163 155 -471
328 -731 110 -166 174 -240 207 -240 28 0 28 -12 0 -36 -36 -32 -114 -159
-148 -241 -96 -229 -115 -531 -44 -687 14 -32 52 -164 85 -293 65 -265 98
-346 141 -351 21 -3 32 5 55 35 71 96 245 243 305 258 62 16 77 -7 118 -185
12 -52 31 -113 42 -134 11 -22 27 -62 35 -90 40 -134 151 -302 301 -456 88
-91 112 -106 112 -70 0 55 160 385 262 541 30 46 74 107 98 134 50 57 91 141
117 235 28 101 25 348 -5 453 -39 137 -133 298 -293 502 -139 178 -190 287
-192 416 -2 92 4 101 101 152 54 29 263 117 276 117 1 0 -9 -23 -23 -51 -49
-100 -37 -287 28 -433 15 -36 30 -50 71 -71 70 -36 93 -74 87 -147 -4 -45 -2
-58 9 -58 25 0 183 87 265 146 107 77 216 194 257 275 34 69 56 160 46 193
-13 44 15 -1 49 -79 43 -99 110 -197 294 -428 185 -233 253 -333 313 -460 62
-130 80 -201 91 -357 8 -124 27 -281 35 -289 8 -8 120 96 185 173 88 103 116
157 142 269 16 72 20 127 21 257 0 150 -3 179 -34 320 -18 85 -34 180 -36 212
-6 113 -44 169 -276 404 -98 99 -178 186 -178 193 0 11 17 12 83 7 305 -24
401 -18 506 31 l54 26 -49 18 c-61 24 -124 71 -305 231 -292 258 -445 349
-644 385 -99 18 -230 5 -327 -32 -10 -4 -13 20 -14 107 0 102 -4 122 -33 203
-92 250 -286 536 -405 597 l-40 21 -83 -87 c-262 -275 -362 -597 -287 -927 9
-39 14 -72 12 -75 -3 -2 -24 2 -46 10 -142 50 -334 39 -487 -29 -40 -17 -56
-20 -63 -12 -12 15 -32 85 -32 114 0 39 -40 130 -91 209 -28 42 -111 139 -188
217 -133 137 -171 182 -171 200 0 5 8 0 18 -11 41 -49 173 -94 400 -136 125
-23 139 -28 251 -90 65 -36 121 -66 124 -66 26 0 40 255 26 475 -6 99 -30 157
-129 314 -90 145 -108 194 -72 205 9 2 52 10 95 17 42 7 77 17 77 23 0 5 -34
42 -75 82 -199 193 -589 388 -910 455 -110 22 -285 27 -345 9 -19 -5 -35 -10
-36 -10 -1 0 1 33 4 73 3 55 -1 94 -18 158 -12 46 -24 93 -27 105 -4 20 0 21
79 27 115 8 226 32 336 73 121 46 142 43 157 -17 60 -235 312 -489 685 -691
112 -61 249 -117 304 -124 l45 -7 10 39 c5 22 35 138 67 259 31 121 59 239 61
262 12 107 -71 262 -225 424 -46 49 -82 92 -79 95 3 3 79 6 169 7 121 0 184
-4 243 -17 75 -17 390 -101 421 -113 27 -10 14 38 -18 68 -34 32 -269 217
-416 328 -61 46 -88 74 -103 106 -26 56 -87 112 -168 155 -111 60 -121 94 -57
200 18 30 40 76 50 102 17 46 65 108 83 108 5 0 17 -25 28 -56 26 -77 105
-193 171 -252 30 -27 114 -84 187 -127 307 -181 401 -250 481 -352 51 -64 100
-160 117 -228 14 -57 20 -52 77 55 52 98 99 225 162 443 l52 179 -16 111 c-23
161 -58 274 -131 422 -91 185 -202 317 -343 410 l-43 28 30 28 c37 33 90 116
119 186 40 96 53 166 62 343 13 247 45 358 139 485 21 28 43 61 50 73 7 13 14
22 15 20 1 -1 -1 -43 -5 -93 -20 -254 45 -574 166 -816 150 -298 502 -639 661
-639 l43 0 5 53 c4 28 13 165 21 302 22 356 47 575 89 753 11 47 12 79 5 134
-49 388 -291 624 -595 578 -42 -6 -94 -18 -116 -26 -22 -8 -43 -14 -46 -14 -3
0 53 60 124 133 272 278 395 487 437 742 2 11 6 -142 10 -340 4 -198 10 -396
13 -440 l6 -80 65 60 c181 167 235 223 287 294 70 97 142 233 197 371 l41 105
-12 85 c-11 73 -35 169 -58 229 -3 9 18 -5 48 -31 177 -155 421 -179 651 -63
71 37 72 41 25 119 -83 140 -243 274 -391 327 -77 27 -196 30 -242 6 -18 -9
-34 -17 -36 -17 -3 0 -7 17 -11 38 -9 57 -45 104 -99 131 -48 24 -49 24 -110
7 l-62 -18 -25 33 c-98 129 -218 281 -299 379 -109 131 -352 380 -371 380 -9
0 -6 -8 7 -22z m190 -200 c228 -264 379 -478 412 -583 60 -194 17 -384 -116
-505 -102 -94 -224 -134 -403 -133 -229 1 -472 84 -607 208 l-58 53 90 42
c114 54 324 124 446 150 127 27 286 36 376 21 79 -14 171 -53 221 -95 37 -32
42 -18 13 31 -24 38 -77 75 -198 137 -51 26 -112 63 -137 82 -77 58 -83 76
-96 279 -6 99 -17 231 -24 293 -6 61 -9 112 -5 112 3 0 42 -42 86 -92z m553
-657 c-6 -12 -16 -19 -21 -15 -6 4 -4 13 7 25 21 24 29 18 14 -10z m120 -30
c0 -21 -13 -41 -26 -41 -17 0 -18 22 -2 38 14 14 28 16 28 3z m385 -65 c71
-18 130 -51 182 -99 48 -44 227 -267 220 -274 -3 -2 -44 -15 -93 -28 -49 -13
-116 -33 -148 -44 -33 -12 -76 -21 -97 -21 -123 0 -331 120 -408 236 -65 99
-26 166 127 220 76 27 144 30 217 10z m-509 -93 c-18 -33 -21 -17 -5 24 6 15
13 23 16 16 2 -6 -3 -24 -11 -40z m62 -69 c55 -38 132 -274 132 -403 0 -211
-140 -467 -418 -761 -44 -47 -83 -82 -87 -78 -4 3 -9 202 -12 441 l-6 435 66
99 c121 181 222 283 282 283 11 0 31 -7 43 -16z m-1657 -1015 c96 -23 171 -58
217 -102 44 -42 58 -71 67 -136 4 -30 14 -69 21 -87 19 -46 18 -128 -3 -172
-24 -52 -107 -130 -205 -194 -150 -99 -160 -99 -38 -1 112 90 197 185 210 235
24 85 -20 168 -89 168 -52 0 -68 -17 -73 -75 -11 -117 -135 -280 -267 -349
-38 -20 -75 -36 -82 -36 -8 0 16 17 53 37 37 19 97 62 132 95 80 72 116 141
124 233 5 69 5 69 -46 59 -28 -6 -30 -9 -34 -64 -3 -43 -12 -69 -33 -99 -89
-129 -392 -229 -715 -237 l-155 -3 97 14 c398 57 701 172 747 284 7 16 11 44
9 62 l-3 34 -70 -2 c-139 -4 -638 -128 -950 -237 -71 -25 -131 -44 -132 -42
-2 1 63 34 145 73 284 137 473 191 875 249 21 3 36 8 33 11 -16 16 -151 34
-286 39 -239 9 -480 -30 -621 -101 -63 -32 -64 -14 -1 26 183 116 676 155 932
73 41 -13 98 -24 125 -23 l50 0 -40 35 c-75 67 -260 138 -423 164 -166 27
-356 4 -426 -51 -15 -12 -29 -19 -32 -16 -9 9 63 58 114 77 249 95 740 -1 851
-166 23 -33 27 -35 60 -29 20 4 50 14 66 24 99 57 -31 151 -296 215 -195 47
-193 46 -87 40 53 -3 133 -14 179 -25z m309 -636 c0 -11 -73 -107 -138 -180
-47 -54 -59 -63 -89 -63 -65 0 -53 39 33 104 23 17 72 57 109 89 66 55 85 66
85 50z m-1098 -1151 c29 -106 32 -365 5 -462 -42 -153 -111 -247 -219 -295
-49 -22 -78 -28 -148 -30 -48 -1 -117 -10 -153 -20 -115 -31 -144 -7 -156 129
-12 127 -39 156 -136 142 l-44 -6 -12 42 c-22 85 28 162 146 225 33 17 130 59
215 93 85 34 191 80 234 103 88 46 187 131 206 178 l13 31 14 -26 c8 -15 23
-61 35 -104z m-1925 73 c414 -99 698 -180 778 -223 73 -39 165 -137 205 -218
31 -61 35 -78 35 -150 0 -71 -3 -85 -27 -121 -34 -51 -97 -83 -236 -119 -84
-21 -120 -25 -200 -22 -117 4 -183 30 -263 105 -101 94 -162 187 -334 508 -64
121 -126 235 -137 253 -11 17 -17 32 -14 32 2 0 89 -20 193 -45z m-1256 -328
c80 -53 224 -296 291 -487 30 -88 32 -104 33 -225 0 -110 -4 -140 -23 -197
-46 -132 -157 -255 -292 -323 -76 -38 -90 -40 -90 -13 0 13 -9 38 -20 56 -14
22 -20 50 -20 90 0 31 -6 68 -13 82 -16 33 -66 38 -110 12 -18 -11 -59 -36
-91 -56 -33 -20 -70 -36 -82 -36 -31 0 -100 79 -136 155 -53 115 -56 243 -7
387 72 213 275 459 453 548 33 17 62 30 66 30 4 0 22 -10 41 -23z m2394 -345
c0 -18 -20 -15 -23 4 -3 10 1 15 10 12 7 -3 13 -10 13 -16z m75 -20 c0 -22
-26 -59 -35 -50 -6 6 21 68 30 68 3 0 5 -8 5 -18z m-136 -21 c7 -10 -22 -37
-30 -28 -9 8 3 37 15 37 5 0 12 -4 15 -9z m36 -70 c0 -20 -26 -36 -35 -21 -8
13 6 40 21 40 8 0 14 -9 14 -19z m90 -41 c0 -11 -7 -23 -15 -27 -21 -8 -28 1
-20 26 8 27 35 27 35 1z m-165 -54 c74 -37 84 -52 101 -152 56 -350 -79 -596
-388 -706 -94 -33 -243 -54 -311 -44 -63 10 -67 21 -74 211 -10 251 30 445
108 530 72 78 223 162 333 185 69 15 173 4 231 -24z m675 -61 c155 -41 289
-134 333 -230 14 -29 47 -62 125 -122 129 -99 377 -303 368 -303 -3 0 -59 16
-124 36 -272 82 -429 102 -597 75 -68 -11 -93 -11 -168 2 -225 39 -397 193
-452 404 -29 110 -24 120 77 148 74 21 347 15 438 -10z m-3682 -282 c40 -20
63 -39 76 -64 11 -20 39 -48 62 -63 53 -33 111 -97 130 -142 53 -126 -25 -255
-270 -449 l-99 -78 -76 -5 c-151 -9 -236 31 -481 227 -58 46 -128 94 -155 107
-65 30 -222 63 -510 109 -126 20 -234 37 -240 39 -5 2 19 6 55 11 101 11 299
65 618 169 439 143 589 177 745 172 74 -3 98 -8 145 -33z m540 -161 c2 -14 -2
-22 -12 -22 -19 0 -28 14 -20 35 9 21 28 14 32 -13z m-68 -41 c0 -24 -15 -35
-36 -27 -12 4 -13 10 -4 26 14 26 40 26 40 1z m-100 -12 c0 -25 -17 -59 -30
-59 -13 0 -13 36 0 61 14 25 30 24 30 -2z m1423 7 c88 -36 421 -334 472 -420
59 -101 71 -295 25 -391 -28 -59 -144 -160 -191 -168 -19 -3 -52 -2 -74 2 -32
6 -54 2 -109 -21 -86 -35 -132 -70 -154 -114 -14 -30 -14 -41 -3 -87 27 -112
26 -136 -14 -207 -20 -36 -58 -111 -85 -167 -88 -184 -164 -274 -282 -334 -82
-42 -167 -59 -292 -59 -102 0 -112 2 -174 32 -59 29 -74 32 -183 36 -136 5
-289 -13 -472 -57 -64 -15 -117 -26 -117 -23 0 16 176 218 305 351 236 242
430 393 616 480 173 81 298 93 475 47 55 -14 122 -29 149 -33 72 -9 56 12 -66
84 -61 36 -115 77 -130 97 -46 61 -64 138 -63 261 2 139 30 242 114 410 64
128 180 295 205 295 9 0 30 -6 48 -14z m-1256 -63 c-6 -36 -20 -53 -45 -53
-15 0 -8 31 16 68 22 34 35 27 29 -15z m-92 -54 c0 -15 -7 -25 -17 -27 -13 -3
-18 3 -18 21 0 13 3 27 7 31 13 12 28 -1 28 -25z m716 -4 c85 -15 316 -79 328
-90 8 -9 -111 -477 -127 -497 -23 -28 -106 -41 -216 -35 -234 14 -400 94 -420
203 -4 21 -21 74 -38 116 l-30 77 27 48 c46 79 76 113 123 140 91 54 198 65
353 38z m-601 -188 c83 -83 205 -381 260 -633 23 -110 18 -163 -22 -236 -42
-75 -97 -95 -290 -108 -148 -10 -222 -31 -257 -76 l-19 -24 -143 76 c-215 115
-278 163 -320 246 -20 40 -21 43 -5 107 50 201 259 478 463 614 92 61 132 75
219 75 71 1 72 1 114 -41z m405 -430 c140 -36 255 -51 341 -44 67 6 75 5 94
-15 23 -25 46 -99 53 -170 l5 -48 -55 0 c-102 0 -336 -59 -460 -115 -84 -39
-78 -46 -88 95 -7 110 -31 287 -41 314 -9 23 2 21 151 -17z m1825 -72 c293
-65 626 -235 808 -411 42 -40 74 -76 71 -79 -3 -2 -107 -16 -232 -30 -406 -44
-611 -79 -735 -125 -94 -35 -254 -19 -390 40 -47 20 -46 19 46 -66 105 -98
149 -169 162 -266 18 -126 -17 -251 -150 -530 -49 -103 -99 -216 -112 -252
-13 -36 -28 -66 -34 -66 -26 0 -136 65 -211 125 -146 117 -287 290 -341 418
-21 50 -25 77 -24 142 4 321 192 607 396 605 23 -1 59 -7 81 -15 22 -8 42 -15
45 -15 2 0 -12 17 -32 38 -48 50 -58 72 -58 130 0 38 6 58 29 90 16 22 35 43
41 47 5 3 21 27 34 53 45 88 128 148 244 177 73 19 258 14 362 -10z m-777
-235 c3 -11 2 -20 -3 -20 -8 0 -20 24 -20 41 0 17 17 1 23 -21z m-85 -25 c15
-33 15 -35 -3 -35 -17 0 -39 36 -30 50 10 17 21 11 33 -15z m81 -69 c16 -41
12 -51 -18 -41 -23 7 -37 45 -27 71 9 24 29 11 45 -30z m-137 18 c28 -14 29
-17 14 -26 -18 -10 -66 13 -66 32 0 14 17 12 52 -6z m22 -76 c23 -33 20 -45
-14 -51 -40 -9 -60 1 -60 27 0 47 48 62 74 24z m111 -33 c0 -13 -8 -21 -22
-23 -17 -3 -23 2 -23 16 0 10 3 22 7 26 13 13 38 1 38 -19z m-2256 -95 c91
-12 156 -34 165 -55 4 -12 10 -12 40 0 63 27 150 13 185 -28 44 -53 -62 -154
-424 -407 -406 -283 -585 -430 -721 -591 -131 -154 -208 -292 -245 -438 -13
-50 -27 -91 -30 -91 -24 0 -26 215 -3 304 34 130 115 251 223 330 32 24 58 55
80 96 35 65 37 103 8 108 -56 11 -273 -144 -359 -256 -26 -35 -48 -60 -48 -56
0 4 16 36 36 71 68 123 211 253 355 323 48 24 71 42 85 67 27 51 97 108 182
151 60 29 86 36 133 37 54 0 59 2 59 22 0 60 -125 75 -275 34 -243 -67 -491
-242 -586 -414 -33 -60 -40 -36 -8 32 50 112 208 262 371 353 126 71 224 101
343 106 96 4 118 0 200 -34 18 -7 18 -6 6 9 -18 23 -7 46 29 58 49 18 34 57
-32 84 -92 36 -284 25 -532 -30 -60 -14 -111 -25 -115 -24 -33 4 301 91 420
109 114 18 251 10 286 -16 15 -12 30 -30 31 -40 2 -10 7 -23 11 -27 17 -18
261 93 261 118 0 40 -98 68 -294 85 -71 6 -132 13 -135 16 -9 8 216 4 298 -6z
m3543 -131 c70 -15 177 -71 219 -116 l34 -36 -66 36 c-139 77 -174 91 -231 95
-91 7 -184 -47 -131 -76 11 -6 27 -5 49 4 56 23 124 18 191 -16 73 -36 180
-141 252 -244 l51 -74 -123 122 c-136 136 -214 186 -293 186 -80 0 -78 -4 61
-143 128 -128 212 -239 289 -382 23 -43 24 -46 4 -21 -252 323 -454 524 -491
487 -23 -23 31 -200 98 -319 14 -25 24 -47 21 -49 -5 -5 -93 112 -113 151 -29
56 -53 140 -60 208 -5 58 -9 68 -25 68 -35 0 -68 -45 -68 -92 0 -37 25 -124
55 -192 6 -13 5 -17 -2 -13 -21 13 -73 155 -75 204 -3 77 15 106 96 157 105
65 156 76 258 55z m-504 -309 c41 -146 42 -150 27 -150 -20 0 -30 18 -63 110
-30 86 -49 200 -35 214 11 11 37 -52 71 -174z m1697 -42 c50 -51 119 -135 154
-187 69 -104 152 -270 171 -341 36 -132 -48 -393 -144 -451 -37 -23 -65 -24
-130 -4 -103 31 -153 13 -174 -65 -8 -33 -11 -35 -49 -33 -49 2 -130 41 -181
88 -162 146 -161 488 3 815 24 47 64 113 89 147 46 60 124 123 155 123 9 0 56
-42 106 -92z m-3127 -204 c85 -42 159 -150 205 -299 29 -93 46 -222 28 -211
-6 4 -11 19 -11 34 0 15 -11 67 -25 117 -73 266 -200 371 -343 283 l-34 -21
70 -63 c126 -114 175 -227 153 -354 -12 -69 -64 -239 -56 -180 3 19 8 92 11
161 5 103 3 135 -10 176 -23 68 -74 125 -137 152 -78 34 -88 10 -41 -91 65
-138 100 -329 82 -445 -11 -69 -40 -142 -64 -162 -10 -9 -10 1 2 41 11 38 16
102 16 228 1 163 -1 179 -22 227 -13 28 -35 62 -49 75 l-25 23 -17 -22 c-53
-65 -200 -671 -257 -1063 -15 -105 -19 -119 -26 -90 -21 99 48 502 167 975 23
94 41 172 39 174 -21 23 -90 -82 -160 -244 -130 -301 -208 -647 -176 -782 12
-53 -2 -57 -19 -6 -15 46 -7 246 16 358 71 363 213 683 328 741 42 21 40 19
28 43 -16 28 -67 54 -93 45 -29 -9 -94 -70 -129 -121 -41 -59 -120 -221 -160
-325 -18 -49 -34 -86 -37 -84 -6 7 47 180 80 260 39 96 73 152 127 209 54 58
105 86 172 94 54 6 60 14 27 37 -74 52 -238 -34 -350 -182 -27 -35 -48 -60
-48 -56 0 4 16 35 35 69 85 152 258 247 394 216 42 -9 47 -8 80 21 43 38 107
67 147 68 16 0 54 -12 82 -26z m3862 -605 c158 -43 272 -111 551 -330 196
-154 316 -239 336 -239 26 0 12 -19 -19 -26 -62 -13 -506 2 -593 21 -12 2
-122 11 -245 20 -124 8 -266 24 -315 34 -159 33 -268 107 -296 201 -11 36 -10
46 6 76 57 107 169 206 275 244 76 27 201 27 300 -1z m-3485 -199 c-1 -98 -31
-162 -154 -330 -51 -69 -106 -154 -124 -190 -30 -61 -32 -71 -32 -176 0 -124
-7 -140 -60 -150 -41 -7 -97 10 -147 45 -78 55 -167 233 -168 333 -1 195 186
402 450 498 84 31 166 49 210 47 24 -2 25 -4 25 -77z m2158 65 c89 -19 178
-59 252 -115 33 -25 82 -54 110 -64 71 -27 95 -55 95 -109 0 -117 -216 -296
-444 -366 -114 -35 -288 -25 -581 34 -105 21 -372 86 -457 111 -26 8 -22 16
25 49 23 16 143 104 267 196 124 92 252 180 285 196 153 76 302 99 448 68z
m-3726 -83 c131 -234 183 -468 138 -619 -31 -105 -121 -200 -229 -241 l-50
-19 -20 41 c-29 57 -88 86 -177 86 -37 0 -79 -4 -93 -10 -14 -5 -26 -6 -26 -1
0 4 -11 13 -25 19 -44 20 -117 95 -167 171 -26 40 -48 80 -48 89 0 73 83 180
218 280 103 76 425 281 434 275 4 -2 24 -34 45 -71z m4313 -29 c0 -18 -25 -16
-40 2 -10 12 -10 18 1 31 12 14 14 14 26 -2 7 -10 13 -24 13 -31z m94 -16 c-9
-25 -34 -21 -34 6 0 13 3 27 7 31 11 11 34 -19 27 -37z m-134 -53 c15 -39 13
-44 -20 -44 -25 0 -30 4 -30 23 0 23 17 47 32 47 5 0 13 -12 18 -26z m116 3
c3 -8 0 -26 -6 -41 -9 -23 -13 -26 -25 -16 -18 15 -19 42 -3 58 16 16 27 15
34 -1z m-2322 -39 c-34 -207 -68 -327 -127 -448 -55 -115 -158 -220 -237 -244
-55 -16 -157 -21 -176 -8 -5 4 -20 24 -33 44 -46 76 -103 98 -154 58 l-26 -21
-8 28 c-4 15 -7 49 -6 75 4 168 242 358 635 508 130 49 139 50 132 8z m2367
-103 c14 -8 67 -54 117 -102 72 -69 98 -103 123 -157 58 -123 51 -253 -19
-376 -37 -66 -137 -166 -215 -217 -58 -38 -195 -103 -217 -103 -3 0 -5 13 -2
30 6 39 -37 112 -84 144 -46 31 -79 76 -106 145 -17 44 -21 77 -21 156 0 170
65 322 182 428 81 72 166 91 242 52z m372 -144 c24 -22 69 -77 102 -123 32
-46 62 -87 66 -92 4 -5 22 3 39 17 38 33 83 41 173 34 99 -9 249 -82 335 -165
75 -72 83 -102 11 -39 -90 79 -301 177 -380 177 -43 0 -77 -20 -88 -51 -9 -26
-7 -30 17 -43 47 -25 76 -63 77 -104 1 -62 -4 -59 180 -103 227 -54 362 -180
441 -411 34 -100 30 -105 -14 -17 -83 165 -180 272 -304 334 -57 28 -82 35
-129 35 -32 0 -60 -4 -63 -8 -3 -5 13 -8 36 -8 37 1 44 -3 62 -34 11 -19 27
-68 36 -109 l16 -74 45 -11 c190 -49 286 -260 264 -583 -8 -121 -25 -122 -25
-3 0 84 -21 227 -46 310 -36 123 -110 220 -168 220 -18 0 -17 -3 7 -27 89 -94
153 -425 128 -672 -16 -168 -61 -321 -61 -210 0 70 -28 244 -56 357 -53 213
-142 389 -266 527 -79 88 -185 243 -328 480 -133 222 -182 322 -188 385 -4 46
-3 50 17 50 12 0 41 -18 64 -39z m-5994 -77 c259 -38 462 -132 608 -280 133
-135 173 -207 121 -219 -13 -2 -99 -6 -193 -7 -193 -3 -232 -14 -268 -76 -13
-22 -25 -32 -36 -28 -348 117 -1166 305 -1330 306 l-56 1 30 24 c72 59 391
206 552 255 173 52 338 59 572 24z m2027 -76 c-16 -54 -41 -96 -51 -86 -3 3 9
39 27 81 36 84 48 86 24 5z m2454 -99 c30 -11 67 -20 82 -20 16 1 45 -6 65
-14 98 -41 137 -125 136 -290 0 -94 -20 -225 -36 -241 -2 -3 -7 60 -9 138 -8
197 -42 289 -127 336 -51 29 -71 28 -43 -1 89 -95 95 -316 17 -622 -40 -155
-120 -393 -130 -384 -2 3 14 63 36 134 110 356 122 611 38 805 -33 76 -40 77
-88 18 -35 -43 -39 -53 -27 -60 34 -19 49 -113 43 -268 -6 -167 -37 -329 -92
-491 -38 -110 -151 -347 -185 -389 -16 -18 -13 -9 9 36 166 339 267 775 218
944 -9 30 -23 64 -30 75 -14 18 -17 14 -52 -55 -184 -365 -347 -796 -405
-1070 l-19 -85 0 70 c-2 166 125 563 338 1059 28 65 49 121 46 124 -14 15
-106 -48 -192 -131 -216 -208 -372 -473 -373 -631 -1 -42 -3 -48 -11 -32 -25
43 14 174 103 347 140 269 345 496 469 515 40 7 75 36 64 53 -13 22 -82 11
-151 -24 -83 -41 -233 -163 -328 -266 -74 -81 -75 -70 0 31 154 210 313 315
465 308 54 -2 73 1 86 14 15 16 15 18 -1 24 -49 19 -234 -9 -341 -51 -35 -14
24 44 68 66 100 51 260 64 357 28z m-2324 -104 c19 -29 11 -44 -14 -29 -19 12
-29 54 -13 54 6 0 18 -11 27 -25z m-639 -69 c48 -13 128 -31 177 -39 89 -16
116 -29 116 -52 0 -8 -82 -83 -182 -168 -101 -85 -230 -196 -288 -246 -58 -50
-108 -91 -112 -91 -5 0 -8 8 -8 18 0 38 -32 124 -52 140 -110 88 -140 143
-119 214 25 82 140 175 278 223 84 30 83 30 190 1z m-647 -27 c0 -10 -4 -19
-9 -19 -12 0 -23 29 -15 41 8 14 24 0 24 -22z m1737 -43 c-4 -9 -11 -16 -17
-16 -11 0 -14 53 -3 64 11 10 27 -30 20 -48z m-292 32 c17 -8 24 -17 20 -27
-4 -9 -11 -37 -17 -62 -14 -61 2 -90 72 -133 75 -44 100 -84 100 -156 0 -68
-15 -122 -61 -213 -65 -131 -191 -256 -275 -273 -45 -9 -104 21 -197 98 -59
49 -110 80 -220 130 -193 90 -231 101 -319 96 l-72 -4 90 84 c254 239 484 398
654 453 63 21 187 25 225 7z m198 -7 c5 -19 -9 -41 -25 -41 -10 0 -11 44 -1
53 11 12 21 8 26 -12z m421 -55 c94 -39 239 -164 298 -256 85 -133 90 -321 13
-496 -95 -215 -330 -420 -537 -469 -83 -19 -80 -20 -56 21 32 54 21 142 -45
370 -31 105 -61 231 -68 280 -20 150 1 272 65 374 18 30 46 78 60 107 15 28
39 59 54 69 52 34 134 34 216 0z m-271 -11 c-5 -13 -23 -22 -23 -11 0 15 14
35 21 31 4 -3 6 -12 2 -20z m-1723 3 c0 -23 -39 -78 -55 -78 -23 0 -18 24 13
58 29 34 42 39 42 20z m1660 -59 c0 -11 -4 -19 -9 -19 -10 0 -21 24 -21 47 0
13 3 13 15 3 8 -7 15 -21 15 -31z m-70 19 c0 -17 -67 -60 -87 -56 -26 5 33 68
63 68 13 0 24 -6 24 -12z m-1855 -59 c50 -12 133 -22 185 -24 l95 -3 58 -69
c32 -37 75 -102 95 -142 32 -65 37 -84 37 -145 0 -61 -4 -79 -31 -126 -72
-128 -275 -236 -538 -285 -146 -27 -134 -40 -173 170 -19 99 -46 230 -61 290
-42 174 -34 265 30 325 48 45 134 47 303 9z m-762 -103 c21 -8 48 -22 59 -33
25 -22 68 -110 68 -139 0 -17 8 -23 37 -29 107 -20 163 -85 178 -208 15 -115
-37 -299 -122 -436 -43 -68 -210 -257 -220 -247 -2 2 28 52 67 112 140 215
209 377 217 509 4 70 2 86 -19 125 -24 46 -83 90 -124 90 -11 0 -30 -13 -41
-28 -20 -27 -20 -32 -7 -82 46 -178 -28 -427 -205 -693 -39 -58 -102 -138
-141 -178 l-70 -74 66 104 c166 259 296 524 329 667 18 73 14 144 -9 163 -29
24 -220 -212 -614 -760 -105 -146 -199 -272 -208 -280 -16 -13 91 160 209 336
119 178 368 523 447 618 60 73 77 99 66 103 -23 9 -103 -21 -189 -70 -236
-135 -431 -324 -544 -530 -39 -70 -35 -41 7 51 38 83 94 164 175 251 146 157
406 318 534 329 l60 6 17 43 c22 58 10 74 -58 74 -171 0 -569 -240 -680 -410
l-30 -45 7 35 c26 127 160 252 387 360 159 75 318 111 386 87 21 -8 21 -7 11
20 -24 65 -79 96 -164 97 -120 0 -302 -76 -401 -167 -62 -56 -72 -47 -17 14
103 114 331 227 458 228 22 0 57 -6 78 -13z m1922 -602 c-11 -8 -51 -24 -90
-35 -102 -29 -143 -48 -212 -101 -35 -26 -63 -44 -63 -39 0 4 27 35 60 69 88
90 151 119 270 121 51 0 54 -1 35 -15z m125 -110 c182 -220 180 -393 -5 -797
-37 -81 -72 -150 -77 -153 -5 -3 -1 11 8 33 34 76 113 320 130 398 9 46 17
127 17 190 0 91 -4 120 -22 168 -22 56 -73 127 -92 127 -4 0 -17 -21 -29 -47
l-20 -46 22 -76 c30 -100 32 -301 5 -401 -38 -139 -142 -315 -266 -450 -40
-43 -39 -41 14 38 164 246 254 522 226 687 -11 64 -38 135 -51 135 -4 0 -114
-246 -245 -547 -223 -512 -265 -602 -265 -562 0 44 139 399 333 849 63 146
112 267 110 270 -7 8 -89 -89 -153 -182 -95 -136 -182 -321 -263 -558 -29 -84
-17 -15 18 106 106 371 268 647 422 722 19 9 36 27 43 45 13 38 13 37 -10 37
-67 0 -209 -90 -311 -197 -90 -94 -130 -150 -175 -246 -39 -83 -43 -77 -13 19
72 237 256 420 479 478 100 27 119 22 170 -40z m199 -41 c33 -66 44 -166 38
-344 -3 -95 -12 -190 -21 -225 -19 -78 -55 -174 -65 -174 -4 0 0 48 10 108 45
280 50 536 13 655 -9 30 5 18 25 -20z"/>
<path d="M2810 3060 c0 -5 5 -10 11 -10 5 0 7 5 4 10 -3 6 -8 10 -11 10 -2 0
-4 -4 -4 -10z"/>
</g>
</svg>
