<?xml version="1.0" standalone="no"?>
<!DOCTYPE svg PUBLIC "-//W3C//DTD SVG 20010904//EN"
 "http://www.w3.org/TR/2001/REC-SVG-20010904/DTD/svg10.dtd">
<svg version="1.0" xmlns="http://www.w3.org/2000/svg"
 width="1055.000000pt" height="1280.000000pt" viewBox="0 0 1055.000000 1280.000000"
 preserveAspectRatio="xMidYMid meet">
<metadata>
Created by potrace 1.15, written by Peter Selinger 2001-2017
</metadata>
<g transform="translate(0.000000,1280.000000) scale(0.100000,-0.100000)"
fill="#03a9f4" stroke="none">
<path d="M7949 12781 c-47 -10 -99 -25 -115 -33 -16 -8 -51 -21 -79 -27 -43
-11 -214 -100 -365 -191 -25 -15 -76 -44 -115 -65 -83 -44 -267 -195 -328
-268 -92 -112 -160 -223 -256 -423 -76 -157 -120 -383 -112 -574 3 -75 33
-256 55 -327 59 -193 58 -189 192 -468 18 -38 65 -128 105 -200 39 -71 93
-173 120 -225 27 -52 73 -133 103 -180 31 -47 68 -107 83 -134 15 -27 50 -78
77 -114 58 -77 83 -137 102 -247 18 -103 18 -168 -2 -263 -35 -172 -65 -201
-350 -344 -115 -58 -235 -122 -268 -143 -32 -20 -122 -68 -200 -106 -166 -80
-549 -286 -621 -333 -28 -18 -66 -41 -85 -51 -19 -10 -37 -21 -40 -25 -3 -4
-24 -17 -47 -29 -23 -11 -46 -29 -52 -38 -5 -10 -12 -16 -14 -13 -7 7 -129
-102 -242 -215 -50 -49 -109 -106 -132 -126 -22 -20 -67 -68 -98 -105 -32 -38
-72 -83 -89 -100 -28 -29 -58 -63 -148 -169 -18 -21 -50 -55 -70 -76 -21 -21
-38 -41 -38 -46 0 -5 -25 -41 -55 -79 -31 -38 -74 -100 -97 -139 -43 -73 -49
-82 -149 -230 -77 -112 -205 -322 -218 -357 -6 -15 -43 -72 -83 -128 -82 -114
-178 -261 -236 -365 -22 -38 -80 -137 -129 -220 -48 -82 -100 -172 -113 -198
-14 -26 -42 -71 -63 -99 -22 -28 -45 -69 -53 -92 -8 -22 -27 -61 -43 -86 -43
-69 -85 -146 -198 -369 -58 -112 -119 -227 -137 -255 -44 -70 -126 -232 -171
-341 -21 -49 -55 -126 -76 -170 -20 -44 -63 -159 -94 -255 -31 -96 -67 -206
-81 -243 -31 -87 -85 -282 -91 -327 -2 -19 -8 -44 -12 -55 -5 -11 -18 -42 -29
-70 -12 -27 -26 -68 -32 -90 -7 -22 -30 -85 -52 -140 -23 -55 -64 -170 -93
-257 -51 -153 -53 -158 -119 -231 -37 -41 -97 -98 -134 -127 -37 -30 -137
-122 -222 -206 l-155 -153 -137 -26 c-214 -39 -344 -56 -470 -60 -64 -2 -121
-6 -125 -8 -5 -3 -53 -17 -108 -33 -87 -23 -116 -27 -229 -25 -71 1 -137 -1
-147 -4 -41 -13 -14 -20 67 -16 68 2 85 0 79 -9 -6 -10 -2 -11 16 -6 13 4 141
11 284 16 143 5 280 11 305 14 25 3 79 8 120 11 41 4 80 11 85 16 7 7 2 9 -15
5 -34 -8 -140 -14 -355 -21 -99 -3 -195 -8 -214 -10 -56 -7 -22 11 64 33 48
13 116 22 170 23 98 2 325 29 448 54 96 19 92 19 94 -4 1 -12 -22 -42 -57 -75
l-59 -56 -148 -1 c-113 -1 -135 -3 -95 -9 29 -4 55 -10 58 -13 5 -4 -79 -15
-280 -37 -88 -9 -126 -20 -70 -20 37 0 358 37 400 46 27 5 33 3 39 -16 8 -26
29 -21 33 8 2 14 11 22 23 22 53 0 -1 -45 -131 -110 -58 -29 -119 -63 -137
-76 -17 -13 -37 -24 -43 -24 -7 0 -29 -8 -49 -19 -111 -57 -144 -65 -306 -70
-49 -2 -15 -20 45 -23 l55 -3 -117 -60 -117 -59 -78 26 -78 26 75 2 c41 1 100
6 130 10 60 9 -387 4 -557 -6 -60 -3 -139 -1 -192 6 -85 12 -90 12 -111 -8
l-22 -20 48 -8 c50 -9 170 -10 427 -5 110 2 167 -2 224 -15 69 -15 75 -18 58
-30 -10 -8 -33 -14 -51 -14 -41 0 -82 -21 -76 -39 4 -12 -22 -13 -160 -7 -370
15 -475 34 -530 96 -29 32 -48 38 -48 17 0 -35 142 -117 207 -119 35 -1 43
-12 16 -22 -12 -5 -14 -9 -5 -18 9 -9 15 -9 24 0 8 8 45 12 101 12 61 0 86 3
81 11 -4 8 15 9 67 5 150 -11 526 -16 579 -7 47 8 58 6 79 -10 19 -15 41 -19
112 -19 82 0 89 -2 89 -20 0 -22 10 -26 27 -9 8 8 26 7 65 -4 29 -8 70 -18 92
-22 21 -3 36 -8 34 -10 -2 -2 -118 -12 -258 -20 -237 -15 -459 -19 -572 -10
-27 2 -48 0 -48 -4 0 -7 28 -10 195 -16 73 -3 403 12 575 26 69 6 222 14 340
19 167 7 232 14 290 30 182 51 215 58 225 49 26 -25 242 0 329 39 97 44 117
52 129 51 7 0 -1 -6 -17 -13 l-28 -13 28 -26 27 -26 -24 -5 c-13 -2 -80 -10
-149 -16 -143 -13 -209 -27 -217 -46 -2 -7 -17 -15 -31 -18 -26 -5 -220 -19
-417 -31 -49 -3 -130 -7 -180 -10 -111 -6 -232 -12 -442 -21 -93 -3 -160 -10
-157 -15 3 -5 8 -7 12 -5 4 2 111 7 237 10 127 4 241 9 255 11 14 2 81 7 150
10 69 3 163 8 210 10 47 3 108 5 135 6 28 0 120 7 205 15 85 8 163 14 173 14
9 0 17 5 17 11 0 8 -23 9 -77 4 -56 -5 -75 -4 -68 4 20 20 87 29 560 71 121
11 241 23 268 26 29 3 47 1 47 -6 0 -5 -7 -10 -15 -10 -14 0 -21 -21 -10 -32
3 -3 23 1 44 8 21 7 98 18 172 23 74 6 170 18 214 26 44 8 95 14 113 15 17 0
32 4 32 10 0 5 7 6 17 3 10 -4 14 -2 10 4 -7 10 35 23 74 23 58 0 -22 -41
-129 -67 -37 -8 -72 -16 -79 -16 -17 -1 -5 -17 13 -17 8 0 14 -4 14 -9 0 -4
-30 -11 -67 -14 -91 -9 -143 -6 -70 3 32 4 64 13 70 19 9 10 6 11 -13 7 -36
-9 -312 -36 -359 -36 -32 0 -39 -3 -35 -15 5 -12 -3 -15 -42 -15 -27 0 -119
-7 -204 -15 -192 -17 -545 -44 -665 -49 -140 -7 -147 -9 -50 -15 92 -6 244 0
440 19 61 5 207 14 325 20 118 6 302 17 407 26 242 21 320 17 399 -21 76 -36
91 -42 139 -54 41 -11 253 -15 243 -5 -4 3 -53 7 -110 9 -78 2 -119 9 -169 27
-71 26 -164 77 -156 85 16 16 243 44 339 42 59 -2 111 0 115 4 21 22 128 1
225 -43 l43 -20 -145 5 c-80 2 -197 7 -260 11 -127 7 -148 0 -30 -10 41 -4 89
-9 105 -11 17 -3 159 -5 316 -5 188 0 327 -6 405 -15 65 -8 120 -15 121 -15 2
0 3 -6 3 -14 0 -8 6 -14 13 -13 56 2 117 -5 117 -13 0 -5 -28 -11 -62 -11
l-63 -2 76 -7 c42 -4 82 -11 88 -14 6 -4 11 -2 11 5 0 8 15 10 50 6 61 -7 78
-16 59 -29 -10 -7 -9 -8 5 -4 48 16 282 -70 399 -147 87 -57 146 -89 155 -83
4 2 30 -13 58 -34 135 -107 344 -241 418 -269 28 -10 76 -24 106 -31 30 -7 82
-23 115 -35 33 -13 83 -28 112 -35 29 -6 57 -18 64 -26 6 -8 15 -14 20 -14 17
0 59 -44 59 -62 0 -19 34 -26 45 -8 3 6 19 10 35 10 28 0 50 22 50 49 0 19
-65 84 -97 98 -30 12 -46 43 -23 43 6 0 10 9 10 19 0 11 5 23 10 26 6 4 16 21
24 39 9 21 41 53 86 87 40 30 93 73 119 95 129 116 253 162 400 151 84 -7 144
-24 135 -38 -8 -13 48 0 63 15 19 17 -2 80 -37 109 -16 14 -51 33 -77 42 -26
9 -71 28 -98 41 -28 13 -67 24 -88 24 -30 0 -46 7 -69 31 -20 20 -27 34 -21
40 15 15 65 -1 70 -22 4 -15 11 -17 32 -13 14 4 32 11 39 17 20 15 14 62 -10
84 -35 32 -137 78 -203 92 -66 14 -116 37 -55 26 19 -4 85 -9 145 -11 109 -5
158 -13 245 -40 62 -19 87 -18 95 6 9 27 -30 90 -77 125 -21 16 -38 37 -38 47
0 32 28 74 70 108 36 28 46 32 83 27 23 -3 46 -12 52 -19 18 -23 64 -19 82 8
20 31 6 62 -38 88 -16 9 -29 22 -29 27 0 14 -75 45 -128 54 -36 6 -46 12 -59
41 -14 28 -14 36 -3 49 18 21 99 12 118 -13 12 -16 15 -15 33 7 45 55 5 105
-98 121 -118 20 -397 6 -429 -21 -7 -6 -26 -12 -41 -14 -15 -2 -91 -11 -168
-19 -77 -9 -186 -28 -242 -42 -93 -23 -114 -25 -230 -19 -70 3 -191 2 -268 -2
-136 -8 -349 1 -390 16 -17 7 -13 12 31 34 28 14 60 24 71 21 11 -3 25 1 32
10 8 9 22 16 34 16 24 0 101 43 219 122 48 32 92 58 97 58 5 0 13 5 17 12 5 8
1 9 -12 5 -20 -8 2 14 85 85 25 21 40 38 33 38 -6 0 -39 -23 -72 -51 -78 -64
-63 -39 39 71 81 86 108 98 78 35 -19 -41 -21 -49 -8 -40 6 3 33 47 62 97 29
50 78 121 109 157 30 36 81 100 112 141 58 77 142 164 168 173 12 4 11 6 -3 6
-10 1 -41 -20 -68 -46 -56 -52 -216 -245 -296 -358 -31 -44 -61 -75 -76 -78
-13 -4 -92 -78 -175 -166 -119 -124 -167 -167 -218 -195 -70 -39 -74 -40 -74
-27 0 10 309 300 393 369 79 65 85 71 141 157 79 120 202 263 370 428 146 144
151 148 156 120 5 -26 7 -24 27 28 34 90 88 165 212 293 242 252 267 283 60
76 -118 -118 -225 -235 -239 -260 -26 -45 -61 -83 -259 -275 -131 -127 -257
-273 -341 -395 -46 -68 -110 -134 -310 -320 -282 -262 -273 -255 -332 -276
-46 -17 -181 -54 -184 -51 -5 6 189 130 204 130 9 0 49 23 87 52 39 28 95 67
125 87 31 19 80 61 110 93 30 32 96 102 145 154 91 96 141 158 133 166 -2 3
-22 -17 -43 -43 -86 -103 -319 -340 -334 -340 -9 1 -106 -60 -216 -134 -183
-124 -343 -218 -371 -218 -31 0 -167 -53 -229 -88 -39 -23 -104 -50 -145 -61
-41 -11 -102 -32 -135 -47 -33 -15 -90 -34 -126 -44 -37 -10 -76 -27 -88 -39
-11 -11 -27 -21 -34 -21 -24 0 -96 -58 -112 -90 -9 -17 -15 -46 -13 -63 l4
-32 22 48 c23 51 36 58 52 27 6 -12 21 -20 35 -20 22 0 25 -5 25 -32 0 -43 -9
-53 -43 -56 -27 -2 -28 0 -22 28 10 44 -20 40 -35 -5 -9 -27 -17 -35 -36 -35
-20 0 -24 5 -24 30 0 39 -18 39 -32 0 -11 -33 -33 -35 -34 -4 0 10 -4 29 -8
40 -8 25 29 116 70 173 21 30 18 28 -16 -9 -51 -54 -100 -137 -100 -167 0 -14
-6 -23 -15 -23 -8 0 -15 9 -15 20 0 25 -16 26 -29 3 -12 -22 -17 -17 -25 22
-6 28 -1 35 51 80 84 72 263 253 263 266 0 6 -30 -19 -67 -56 -38 -37 -114
-106 -170 -152 -57 -47 -104 -91 -104 -97 -7 -58 -30 -146 -38 -146 -21 0 -50
48 -49 81 1 45 -8 61 -33 54 -19 -6 -18 -5 3 37 12 24 39 71 61 106 43 69 41
97 -2 45 -15 -18 -31 -33 -35 -33 -10 0 146 175 198 222 22 20 37 40 33 44 -4
4 -7 2 -7 -4 0 -7 -6 -12 -12 -12 -7 0 -39 -20 -71 -45 -32 -25 -62 -43 -67
-40 -8 5 -25 -12 -25 -26 0 -11 -125 -142 -125 -132 0 27 225 334 307 418 45
46 164 155 170 155 2 0 30 28 63 63 120 124 210 241 250 326 62 128 112 199
175 246 19 14 18 15 -8 5 -46 -16 -67 -30 -116 -73 -52 -47 -31 -19 54 72 47
50 48 52 17 37 -48 -25 -142 -122 -192 -199 -46 -72 -60 -81 -36 -22 43 101
167 244 296 338 30 23 57 44 58 49 2 4 9 8 15 8 15 1 85 60 70 60 -5 0 -21 -8
-34 -18 -13 -10 -33 -22 -44 -25 -23 -8 13 26 94 88 29 22 57 48 62 57 21 39
-31 16 -121 -53 -51 -38 -94 -68 -96 -67 -9 10 39 69 68 84 64 32 228 177 228
200 0 27 -30 11 -125 -65 -101 -82 -146 -114 -151 -109 -12 13 56 77 138 130
106 69 188 135 219 179 35 50 14 45 -58 -13 -37 -30 -95 -73 -128 -95 -84 -55
-90 -58 -80 -44 4 7 32 28 61 47 70 45 237 180 289 233 71 75 12 45 -127 -62
-73 -57 -146 -112 -162 -122 l-29 -19 17 32 c9 18 20 32 25 32 5 0 45 30 89
67 43 38 105 88 137 113 81 63 142 134 181 210 18 36 53 105 78 153 25 49 46
96 46 104 0 37 -41 0 -105 -97 -44 -67 -109 -145 -179 -215 -59 -60 -101 -96
-91 -80 10 17 28 41 40 55 12 14 49 61 81 105 233 312 280 371 328 406 47 35
28 38 -28 5 -66 -39 -217 -212 -297 -340 -13 -22 -27 -44 -30 -49 -4 -5 -12
-6 -18 -3 -11 7 16 56 45 81 6 6 22 28 35 50 13 22 75 94 139 160 63 66 143
150 176 186 34 37 68 69 75 71 8 3 11 9 7 13 -16 17 -61 -16 -179 -131 -99
-98 -131 -124 -153 -124 l-27 0 25 28 c14 15 57 64 95 109 41 47 132 131 217
200 138 110 231 203 205 203 -6 0 -37 -24 -69 -53 -55 -51 -206 -167 -217
-167 -8 0 51 65 130 144 78 78 68 82 -25 9 -100 -77 -107 -81 -63 -28 87 104
328 315 360 315 5 0 18 7 29 15 18 15 17 16 -14 10 -42 -8 -83 -29 -155 -78
-63 -42 -90 -45 -35 -4 18 13 89 57 158 97 230 132 256 170 45 65 -145 -72
-188 -84 -77 -20 37 21 94 57 128 81 63 45 154 136 154 154 0 19 -26 10 -51
-16 -29 -32 -149 -124 -161 -124 -11 0 17 43 72 110 l45 55 -43 -38 c-24 -21
-47 -36 -50 -32 -3 3 52 63 124 133 71 70 145 150 163 177 19 28 43 60 54 72
26 29 15 41 -12 14 -37 -37 -36 -22 1 17 19 20 59 72 87 115 29 43 89 113 133
155 81 77 158 166 158 183 0 14 -53 -10 -85 -40 -33 -31 -90 -71 -100 -71 -3
0 17 23 44 51 56 56 71 92 19 42 -126 -119 -154 -131 -62 -26 33 38 77 91 99
118 21 28 93 104 160 170 67 66 129 136 138 156 10 21 106 123 237 250 121
118 229 227 241 243 29 38 90 214 78 222 -5 3 -24 -3 -41 -13 -30 -17 -77 -86
-222 -328 -30 -49 -80 -115 -112 -145 -52 -51 -56 -53 -50 -27 4 16 2 34 -3
41 -7 8 1 23 28 51 153 162 334 395 318 411 -2 3 -24 -26 -47 -63 -63 -101
-259 -335 -230 -275 16 33 48 136 44 141 -2 2 -10 -2 -19 -9 -8 -7 -15 -10
-15 -6 0 19 68 136 122 211 55 75 65 83 75 68 14 -18 15 -18 32 15 7 13 36 52
65 86 72 84 160 248 153 284 -6 29 42 140 69 163 9 7 22 26 31 43 9 17 36 57
60 89 38 49 46 68 53 123 6 48 15 74 37 100 42 53 53 78 63 138 5 30 18 73 30
95 26 53 70 218 70 262 -1 42 5 111 15 167 6 33 14 46 32 53 33 12 33 13 22
-23 -14 -50 -11 -125 7 -159 10 -20 12 -35 6 -42 -17 -21 -60 -140 -81 -224
-24 -93 -24 -96 -11 -88 13 8 2 -114 -20 -205 -26 -108 -31 -142 -21 -136 5 3
14 26 20 50 6 25 19 51 29 58 10 7 27 25 36 40 24 37 56 162 56 221 0 39 12
71 68 180 38 73 75 156 82 185 l12 53 21 -22 20 -21 -23 -52 c-12 -28 -31 -80
-42 -116 -11 -36 -28 -72 -37 -81 -24 -23 -79 -219 -86 -304 l-5 -70 34 125
c45 162 59 202 71 203 18 3 17 -41 -3 -80 -20 -40 -46 -143 -57 -226 -5 -34
-13 -52 -30 -63 -27 -18 -119 -199 -134 -264 -22 -93 -11 -102 36 -32 17 26
52 77 78 114 45 64 47 70 56 164 5 58 15 106 24 118 64 88 65 90 71 186 5 72
12 105 30 135 12 22 30 72 40 110 9 39 28 91 41 116 14 28 27 76 32 124 8 68
13 82 40 109 28 28 31 29 31 10 0 -11 -7 -43 -15 -70 -16 -53 -20 -134 -7
-134 5 0 13 17 19 38 l10 37 2 -51 c1 -44 -8 -69 -65 -185 -65 -130 -67 -137
-78 -246 -6 -62 -8 -113 -4 -113 8 0 10 6 28 93 11 52 46 134 62 143 13 8 5
-33 -37 -176 -19 -63 -37 -133 -40 -155 -4 -22 -9 -49 -11 -60 -4 -16 -3 -17
4 -5 6 8 18 51 27 95 10 44 28 112 42 150 13 39 28 117 34 174 7 81 16 118 39
165 17 33 30 68 30 76 0 9 5 21 12 28 17 17 36 95 44 180 4 40 12 75 17 79 7
4 8 -32 3 -107 -6 -100 -5 -112 8 -107 20 8 21 16 -13 -86 -33 -97 -40 -131
-26 -135 9 -3 34 68 65 192 24 93 24 97 5 72 -19 -25 -19 -12 0 50 8 27 15 59
15 70 0 12 9 32 20 45 l19 24 -10 -38 c-12 -45 -8 -99 7 -104 7 -2 16 25 23
73 6 43 14 80 16 83 8 7 6 -29 -5 -97 -11 -64 -7 -102 11 -102 5 0 9 17 10 38
1 20 4 48 8 62 6 21 9 16 16 -30 5 -30 10 -64 12 -75 9 -61 14 -478 5 -530 -6
-39 -6 -62 0 -66 17 -11 -12 -206 -54 -364 -39 -149 -39 -152 -43 -365 -2
-118 -6 -237 -9 -265 -2 -27 -2 -40 0 -27 3 12 10 22 15 22 5 0 9 -48 9 -107
0 -58 2 -104 5 -102 2 3 6 146 8 319 3 277 6 325 24 395 12 44 24 103 28 130
3 28 8 61 10 75 5 31 31 255 45 375 10 97 -2 468 -20 585 -5 36 -10 100 -10
143 0 86 -20 232 -50 367 -11 50 -20 101 -20 115 0 31 -32 130 -64 200 -13 28
-31 74 -41 103 -9 29 -23 56 -31 59 -8 3 -50 56 -93 118 -49 68 -106 135 -147
171 -37 33 -144 134 -238 226 -143 140 -180 183 -228 261 -63 105 -83 177 -75
268 5 64 39 191 61 234 9 17 16 39 16 50 1 26 52 124 114 217 27 40 96 119
153 174 108 105 196 169 368 269 55 32 123 79 151 105 58 52 80 59 269 84 255
35 300 45 450 102 83 31 175 64 205 74 64 21 175 69 313 134 102 49 133 80
108 110 -30 35 -390 60 -856 57 -465 -2 -676 17 -823 75 -35 14 -130 58 -210
98 -81 40 -176 87 -212 104 -154 73 -337 96 -491 63z m376 -462 c40 -44 65
-133 44 -154 -25 -24 -112 -65 -151 -72 -37 -5 -42 -3 -92 49 -78 80 -90 101
-75 130 13 24 34 42 83 71 23 13 48 16 95 14 58 -3 66 -6 96 -38z m1525 -4 c0
-9 -10 -19 -22 -24 -38 -14 -136 -23 -171 -15 -31 7 -31 7 -8 16 15 5 28 4 37
-3 9 -7 20 -6 39 7 22 14 31 15 46 6 21 -13 59 -1 59 18 0 6 5 10 10 10 6 0
10 -7 10 -15z m65 6 c3 -5 1 -12 -5 -16 -5 -3 -10 1 -10 9 0 18 6 21 15 7z
m-553 -51 c3 -19 0 -31 -10 -35 -21 -8 -25 -1 -17 34 8 39 21 40 27 1z m171 6
c4 -9 -3 -16 -16 -20 -26 -6 -31 -2 -24 19 8 19 33 20 40 1z m62 -7 c-4 -5
-13 -9 -22 -9 -13 0 -13 3 -3 15 13 15 35 11 25 -6z m-165 -5 c0 -8 -4 -12
-10 -9 -5 3 -10 10 -10 16 0 5 5 9 10 9 6 0 10 -7 10 -16z m-137 -14 c3 -11 1
-23 -4 -26 -5 -3 -9 6 -9 20 0 31 6 34 13 6z m738 9 c-41 -16 -312 -57 -301
-46 3 3 35 11 70 17 36 7 97 18 135 25 39 7 81 13 95 13 l25 1 -24 -10z m-830
-41 c15 14 39 16 39 3 0 -11 -64 -34 -84 -29 -10 2 -11 9 -5 27 9 23 10 23 24
5 11 -15 16 -17 26 -6z m-87 -10 c7 -30 1 -34 -71 -49 -69 -14 -80 -11 -63 20
13 24 30 28 30 6 0 -24 23 -17 52 15 31 36 44 38 52 8z m596 3 c-12 -7 -77
-20 -122 -25 -3 -1 -10 -5 -15 -10 -4 -5 -3 -7 2 -3 6 3 17 2 25 -4 11 -6 5
-9 -22 -9 -20 0 -45 -3 -55 -6 -12 -5 -15 -4 -8 4 6 5 19 13 30 16 31 8 -84
-4 -143 -15 -30 -6 -56 -8 -59 -6 -6 7 25 13 215 42 174 27 171 27 152 16z
m-770 -69 c0 -13 -12 -22 -39 -30 -47 -15 -54 -15 -46 -2 3 6 15 10 26 10 10
0 24 9 31 20 16 25 28 26 28 2z m523 -12 c3 -11 2 -20 -2 -20 -5 0 -16 9 -26
20 -18 19 -17 20 2 20 12 0 23 -8 26 -20z m-82 -16 c10 -13 10 -17 -1 -24 -15
-9 -50 14 -50 32 0 14 37 9 51 -8z m426 10 c-3 -3 -12 -4 -19 -1 -8 3 -5 6 6
6 11 1 17 -2 13 -5z m-533 -29 c20 -31 20 -35 -2 -35 -10 0 -29 11 -41 24 -24
25 -22 27 20 35 4 0 14 -10 23 -24z m493 19 c-3 -3 -12 -4 -19 -1 -8 3 -5 6 6
6 11 1 17 -2 13 -5z m-772 -44 c-60 -16 -111 -27 -113 -25 -5 5 92 35 143 45
88 17 74 7 -30 -20z m193 13 c0 -10 3 -26 7 -35 11 -28 -20 -22 -39 7 -20 30
-20 32 2 38 29 8 31 7 30 -10z m-358 3 c0 -2 -9 -6 -20 -9 -11 -3 -18 -1 -14
4 5 9 34 13 34 5z m280 -66 c0 -5 -2 -10 -4 -10 -3 0 -8 5 -11 10 -3 6 -1 10
4 10 6 0 11 -4 11 -10z m-1470 -864 c0 -3 -4 -8 -10 -11 -5 -3 -10 -1 -10 4 0
6 5 11 10 11 6 0 10 -2 10 -4z m135 -73 c-10 -92 -11 -144 -2 -170 10 -29 -6
-30 -33 -3 -30 30 -29 169 1 211 34 48 43 37 34 -38z m445 35 c-4 -18 -11 -45
-15 -60 -6 -23 -4 -28 11 -28 17 -1 17 -2 4 -13 -20 -16 -40 -62 -40 -94 0
-14 10 -43 22 -64 17 -31 20 -45 12 -66 -13 -38 -30 -39 -50 -2 -27 52 -7 221
41 347 10 27 23 11 15 -20z m-616 6 c9 -24 7 -38 -8 -59 -21 -29 -43 -6 -38
40 3 25 9 35 22 35 10 0 21 -7 24 -16z m73 -69 c-10 -59 -15 -70 -32 -70 -17
0 -20 8 -23 52 -4 61 9 90 40 95 13 2 24 1 26 -2 1 -3 -4 -37 -11 -75z m213
55 c0 -4 -7 -27 -15 -51 -9 -24 -15 -70 -14 -104 1 -33 -4 -71 -10 -85 l-11
-25 3 27 c3 16 0 26 -7 25 -7 -1 -10 27 -9 88 3 119 7 130 38 131 14 1 25 -2
25 -6z m223 -167 c-7 -121 -11 -148 -23 -148 -21 0 -40 62 -34 115 9 82 26
175 37 194 21 41 28 -13 20 -161z m231 113 c-7 -22 -22 -67 -33 -98 -12 -32
-22 -68 -23 -80 -1 -13 -4 4 -7 37 -6 64 16 153 47 188 23 26 32 3 16 -47z
m-368 22 c-4 -18 -11 -77 -16 -132 -10 -112 -23 -139 -39 -80 -15 53 -14 89 4
159 13 51 35 85 53 85 3 0 1 -15 -2 -32z m24 -43 c-14 -44 -19 -52 -19 -32 -1
28 26 104 34 96 2 -3 -4 -32 -15 -64z m-190 -226 c0 -5 -4 -9 -10 -9 -5 0 -10
7 -10 16 0 8 5 12 10 9 6 -3 10 -10 10 -16z m447 -81 c-2 -13 -4 -5 -4 17 -1
22 1 32 4 23 2 -10 2 -28 0 -40z m-272 12 c3 -5 -1 -10 -9 -10 -8 0 -18 5 -21
10 -3 6 1 10 9 10 8 0 18 -4 21 -10z m545 -465 c13 -14 19 -25 13 -25 -5 0
-20 11 -33 25 -13 14 -19 25 -13 25 5 0 20 -11 33 -25z m-90 -132 c0 -8 22
-38 49 -66 71 -76 111 -167 73 -167 -17 0 -102 92 -102 110 0 10 -4 22 -10 25
-5 3 -10 16 -10 28 0 12 -7 31 -15 41 -20 26 -20 57 0 50 8 -4 15 -13 15 -21z
m104 21 c9 -3 16 -14 16 -23 0 -9 25 -40 56 -69 45 -43 54 -56 48 -75 -4 -12
-12 -25 -18 -29 -12 -8 -17 -2 -61 73 -16 28 -40 64 -52 79 -34 42 -29 59 11
44z m-332 -21 c10 -9 18 -26 18 -38 0 -15 14 -32 40 -50 36 -25 46 -43 41 -81
-1 -6 6 -24 14 -40 20 -38 19 -47 -4 -35 -20 11 -71 94 -71 116 0 17 -92 105
-102 99 -16 -10 -8 -69 11 -81 11 -7 38 -51 61 -97 25 -51 49 -88 61 -91 26
-8 38 -34 41 -86 3 -37 10 -51 46 -86 23 -23 42 -47 42 -53 0 -17 -49 -31 -70
-20 -26 14 -60 76 -64 118 -4 45 -15 74 -33 85 -7 5 -11 12 -8 17 3 5 -4 14
-15 20 -11 6 -20 19 -20 29 0 32 -28 75 -89 136 -34 33 -61 63 -61 67 0 4 12
8 28 10 21 2 28 9 30 29 3 22 7 25 29 21 17 -3 29 1 35 12 11 20 17 20 40 -1z
m131 -28 c6 -16 16 -34 24 -38 8 -5 23 -28 33 -51 10 -24 32 -59 50 -79 21
-24 30 -43 26 -55 -4 -13 4 -30 27 -53 29 -29 33 -40 29 -72 -2 -20 -8 -37
-12 -37 -9 0 -60 84 -60 99 0 5 -11 22 -25 37 -14 15 -25 39 -25 53 0 14 -9
40 -20 56 -11 17 -20 40 -20 53 0 13 -18 39 -45 65 -25 24 -45 47 -45 51 0 4
12 6 27 4 19 -2 29 -11 36 -33z m375 -54 l41 -49 -17 -34 -18 -34 -16 36 c-9
19 -25 56 -36 81 -11 26 -25 50 -31 53 -6 4 -11 12 -11 17 0 17 46 -20 88 -70z
m-723 27 c18 -8 25 -19 25 -39 0 -18 12 -41 37 -66 49 -50 103 -131 103 -152
0 -18 29 -54 57 -69 13 -8 18 -27 20 -78 4 -84 7 -94 31 -94 23 0 46 -25 38
-39 -10 -16 -85 -24 -101 -11 -18 15 -20 47 -4 52 11 4 -31 72 -88 141 -13 16
-23 40 -23 53 0 28 -15 61 -60 129 -12 18 -17 38 -14 52 5 18 -2 31 -29 57
-26 25 -34 39 -30 55 6 25 5 24 38 9z m-130 -57 c17 -7 40 -18 51 -23 15 -7
24 -24 29 -52 5 -22 7 -45 6 -49 -1 -9 14 -29 47 -59 12 -12 22 -30 22 -40 0
-9 10 -41 23 -70 13 -29 27 -64 30 -78 4 -14 20 -34 37 -45 16 -11 28 -24 26
-30 -2 -5 17 -31 42 -57 38 -39 44 -50 33 -60 -11 -10 -14 -10 -18 0 -7 18
-21 14 -28 -9 -9 -28 -28 -11 -45 42 -8 23 -22 44 -31 46 -11 3 -20 19 -24 45
-4 23 -14 42 -23 45 -37 14 -65 45 -69 75 -2 17 -10 39 -17 47 -8 9 -25 48
-37 86 -13 39 -40 95 -61 126 -35 52 -48 86 -30 77 4 -2 21 -10 37 -17z m-87
-37 c12 -8 22 -22 22 -31 0 -8 15 -29 34 -47 21 -20 35 -44 39 -67 3 -20 24
-75 46 -122 23 -47 41 -90 41 -95 0 -5 7 -16 16 -23 24 -19 84 -151 84 -182 0
-22 -4 -26 -22 -23 -13 1 -23 9 -23 17 0 8 -10 21 -22 29 -39 28 -81 96 -88
144 -4 26 -20 65 -36 89 -16 23 -29 48 -29 55 0 7 -16 34 -35 59 -19 25 -46
69 -60 97 -14 28 -31 59 -37 68 -10 14 -9 20 7 32 26 20 35 20 63 0z m-258 -4
c0 -5 -4 -10 -10 -10 -5 0 -10 5 -10 10 0 6 5 10 10 10 6 0 10 -4 10 -10z
m174 -91 c3 -15 14 -29 25 -32 16 -4 21 -13 21 -40 0 -22 6 -37 15 -41 8 -3
15 -13 15 -22 0 -9 9 -27 20 -41 11 -14 20 -36 20 -49 0 -12 6 -24 13 -27 9
-3 8 -9 -5 -22 -16 -17 -18 -16 -43 11 -14 16 -39 55 -55 86 -16 31 -34 59
-40 63 -5 3 -10 15 -10 26 0 14 -7 19 -25 19 -28 0 -50 28 -59 78 -5 29 -2 35
26 52 l33 20 21 -28 c13 -15 25 -39 28 -53z m994 35 c2 -1 -3 -4 -11 -7 -19
-7 -41 8 -32 22 5 9 11 9 23 -1 10 -7 18 -13 20 -14z m-1150 -24 c14 -11 26
-36 30 -62 6 -36 13 -46 41 -59 36 -17 81 -92 81 -135 0 -15 9 -28 27 -36 26
-13 41 -50 60 -153 6 -31 30 -68 80 -122 22 -23 36 -30 52 -26 12 3 21 1 21
-6 0 -6 -12 -14 -27 -17 -16 -4 -34 -11 -41 -17 -13 -11 -41 16 -42 41 0 6 -7
12 -15 12 -8 0 -15 7 -15 15 0 8 -5 15 -11 15 -6 0 -8 9 -4 20 4 11 2 20 -4
20 -6 0 -11 -4 -11 -10 0 -5 -4 -10 -10 -10 -5 0 -10 6 -10 14 0 7 -8 24 -19
37 -10 13 -29 56 -41 94 -13 39 -27 75 -32 81 -20 26 -58 110 -58 127 0 22
-30 77 -42 77 -4 0 -8 7 -8 15 0 8 -4 15 -9 15 -14 0 -63 69 -56 80 10 16 38
11 63 -10z m-98 -25 c0 -26 57 -145 66 -138 5 5 1 -2 -9 -14 -19 -22 -10 -37
16 -28 11 5 17 -8 26 -52 7 -38 18 -64 31 -73 35 -25 73 -109 66 -148 -4 -30
-3 -34 15 -29 14 4 24 -3 36 -21 9 -15 28 -39 42 -55 17 -18 25 -39 25 -62 0
-19 4 -35 8 -35 4 0 8 -7 8 -15 0 -20 -10 -19 -40 5 -30 24 -38 25 -42 5 -6
-28 -48 11 -48 45 0 31 -8 55 -45 135 -13 28 -28 69 -34 92 -6 22 -29 63 -51
90 -22 26 -46 65 -52 85 -10 33 -9 41 7 58 11 12 13 20 6 20 -19 0 -111 70
-111 85 0 2 14 20 31 40 30 34 49 38 49 10z m1125 5 c3 -5 1 -10 -4 -10 -6 0
-11 5 -11 10 0 6 2 10 4 10 3 0 8 -4 11 -10z m-1271 -36 c14 -13 14 -17 2 -30
-21 -21 -26 -18 -26 16 0 34 3 36 24 14z m1321 -5 c-10 -15 -25 -10 -19 6 4 8
10 12 15 9 5 -3 7 -10 4 -15z m-208 -36 c45 -59 63 -91 63 -112 0 -51 -49 -31
-77 31 -23 48 -36 118 -23 118 4 0 21 -17 37 -37z m383 17 c0 -5 -4 -10 -10
-10 -5 0 -10 5 -10 10 0 6 5 10 10 10 6 0 10 -4 10 -10z m-1433 -67 c4 -10 19
-34 34 -53 15 -20 29 -53 32 -76 3 -23 23 -71 46 -110 22 -37 41 -75 41 -83 0
-9 -10 0 -22 19 -12 19 -43 68 -70 108 -26 40 -48 84 -48 97 0 14 -4 25 -8 25
-4 0 -15 20 -24 45 -15 39 -15 45 -2 45 8 0 18 -8 21 -17z m533 -298 c6 -26 8
-50 5 -54 -9 -9 -25 21 -25 48 0 13 -11 32 -25 43 -27 21 -33 44 -13 50 19 7
46 -34 58 -87z m98 -75 c2 -18 -4 -28 -22 -36 -29 -13 -36 -9 -36 21 0 11 -5
26 -11 32 -8 8 -1 11 27 10 34 -2 39 -5 42 -27z m-410 -88 c19 -25 36 -60 39
-78 5 -28 10 -34 29 -34 13 0 24 -4 24 -10 0 -5 -6 -10 -14 -10 -7 0 -27 -3
-44 -6 -24 -5 -32 -2 -42 16 -8 15 -8 25 -1 34 8 10 6 18 -9 31 -12 11 -19 29
-18 44 1 14 -6 40 -15 58 -22 41 -21 55 1 23 9 -13 32 -44 50 -68z m465 33
c-7 -21 -13 -19 -13 6 0 11 4 18 10 14 5 -3 7 -12 3 -20z m-463 -226 c0 -5 -4
-9 -10 -9 -5 0 -10 7 -10 16 0 8 5 12 10 9 6 -3 10 -10 10 -16z m1560 -113 c0
-24 -12 -46 -21 -40 -15 9 -10 54 6 54 8 0 15 -6 15 -14z m-660 -101 c0 -27
-24 -105 -32 -105 -11 0 -10 64 2 94 10 28 30 35 30 11z m-270 -24 c-13 -25
-32 -28 -23 -3 7 18 25 34 31 27 2 -2 -1 -13 -8 -24z m106 -40 c-11 -18 -34
-1 -29 20 5 18 7 19 21 6 8 -8 11 -20 8 -26z m-536 -12 c-7 -11 -14 -19 -16
-16 -7 7 7 37 17 37 6 0 5 -9 -1 -21z m120 7 c0 -7 -5 -27 -11 -45 -11 -32
-12 -32 -26 -11 -13 18 -13 24 1 45 18 27 36 33 36 11z m61 -19 c-8 -8 -11 -7
-11 4 0 9 3 19 7 23 4 4 9 2 11 -4 3 -7 -1 -17 -7 -23z m88 -34 c1 -46 -6 -72
-31 -125 -18 -38 -36 -68 -41 -68 -15 0 -2 59 26 120 14 30 28 72 32 93 3 20
7 37 9 37 2 0 4 -26 5 -57z m691 4 c0 -15 -38 -41 -48 -32 -2 2 4 20 13 41 13
31 18 36 25 24 5 -8 10 -23 10 -33z m315 0 c-4 -18 -14 -39 -22 -47 -14 -13
-15 -12 -9 10 4 14 9 37 12 52 4 15 11 25 16 22 5 -3 6 -20 3 -37z m-861 -79
c-26 -49 -28 -51 -34 -28 -5 18 2 42 24 85 30 59 31 59 34 28 2 -20 -7 -51
-24 -85z m698 60 c-11 -45 -42 -51 -42 -9 0 21 5 31 15 31 9 0 19 8 22 17 11
28 15 -2 5 -39z m-353 5 c-20 -78 -43 -113 -72 -113 -10 0 31 94 42 98 7 2 16
15 21 28 14 37 20 28 9 -13z m269 -88 c-2 -1 -12 -5 -24 -9 -20 -6 -20 -4 -10
46 17 84 30 93 34 24 2 -32 2 -59 0 -61z m-464 80 c19 -14 19 -17 -12 -122
-18 -60 -32 -128 -32 -152 0 -27 -8 -57 -21 -77 -28 -47 -41 -43 -24 7 23 65
37 162 24 170 -8 4 0 29 22 74 27 55 31 70 21 86 -21 33 -11 39 22 14z m94 -5
c-13 -20 -28 -27 -28 -12 0 10 22 32 32 32 5 0 3 -9 -4 -20z m-799 -62 c-26
-51 -29 -56 -29 -37 0 15 36 79 45 79 3 0 -4 -19 -16 -42z m82 -33 c-11 -25
-25 -45 -30 -45 -18 0 -13 20 16 69 32 55 42 39 14 -24z m-651 -34 c0 -16 -31
-42 -41 -35 -6 4 -3 14 7 25 18 20 34 25 34 10z m1807 -13 c-3 -8 -6 -5 -6 6
-1 11 2 17 5 13 3 -3 4 -12 1 -19z m-384 -20 c-6 -34 -54 -114 -81 -135 -29
-24 -33 -13 -11 30 21 41 87 137 95 137 2 0 1 -15 -3 -32z m-369 -54 c-9 -27
-27 -60 -39 -74 -12 -14 -44 -54 -70 -90 -26 -36 -46 -60 -44 -55 25 62 157
280 166 272 1 -2 -4 -26 -13 -53z m-430 31 c-4 -8 -8 -15 -10 -15 -2 0 -4 7
-4 15 0 8 4 15 10 15 5 0 7 -7 4 -15z m-84 -9 c0 -2 -8 -10 -17 -17 -16 -13
-17 -12 -4 4 13 16 21 21 21 13z m376 -19 c3 -8 -14 -47 -37 -88 -24 -41 -64
-114 -90 -163 -25 -48 -50 -83 -53 -77 -4 6 2 27 12 48 11 21 23 49 27 63 10
36 118 230 128 230 4 0 10 -6 13 -13z m737 -12 c-3 -9 -8 -14 -10 -11 -3 3 -2
9 2 15 9 16 15 13 8 -4z m-1884 -21 c-28 -30 -70 -54 -96 -54 -14 0 -13 3 6
17 24 16 102 61 110 62 3 1 -6 -11 -20 -25z m951 -28 c-10 -44 -58 -131 -67
-122 -3 2 3 16 12 29 9 14 15 32 13 39 -3 13 43 110 50 104 1 -2 -2 -24 -8
-50z m-780 14 c0 -13 -9 -22 -25 -26 -36 -9 -44 4 -16 27 30 24 41 24 41 -1z
m1670 -40 c17 0 -11 -59 -35 -74 -14 -9 -26 -16 -29 -16 -2 0 5 24 15 53 32
84 32 85 36 60 3 -13 8 -23 13 -23z m-1000 -30 c-18 -27 -34 -50 -37 -50 -3 0
-3 15 1 33 5 28 54 83 64 72 3 -2 -10 -27 -28 -55z m462 28 c-7 -7 -12 -8 -12
-2 0 14 12 26 19 19 2 -3 -1 -11 -7 -17z m-1034 -12 c4 -17 -33 -66 -50 -66
-13 0 -9 65 4 78 17 17 42 11 46 -12z m432 -15 c0 -6 -11 -23 -25 -38 l-25
-28 10 29 c6 16 13 33 16 37 7 12 24 11 24 0z m-741 -47 c-31 -34 -54 -45 -73
-38 -43 17 -1 64 56 64 l41 0 -24 -26z m407 2 c7 -19 -13 -56 -30 -56 -19 0
-28 28 -16 51 12 22 38 25 46 5z m1139 -87 c-37 -75 -99 -195 -112 -218 -2 -2
-5 -2 -8 1 -6 5 95 215 133 275 42 67 37 43 -13 -58z m-1439 54 c9 -34 -7 -58
-37 -58 -20 0 -24 5 -22 28 4 56 47 78 59 30z m452 -1 c4 -29 -27 -69 -40 -50
-10 16 -10 62 -1 72 14 13 38 0 41 -22z m1063 1 c-12 -20 -14 -14 -5 12 4 9 9
14 11 11 3 -2 0 -13 -6 -23z m-425 -84 c-42 -90 -90 -254 -82 -276 7 -17 -11
-83 -22 -83 -12 0 -5 112 11 175 15 59 36 108 91 213 40 79 42 57 2 -29z
m-483 31 c-5 -19 -23 -29 -23 -12 0 7 20 32 26 32 1 0 0 -9 -3 -20z m-509 4
c9 -3 16 -12 16 -19 0 -19 -57 -58 -65 -45 -8 13 4 53 19 62 14 9 11 9 30 2z
m-464 -28 c0 -29 -33 -56 -61 -49 -29 8 -32 19 -13 48 23 35 74 36 74 1z
m1685 -51 c-14 -26 -29 -53 -34 -59 -5 -6 -14 -29 -22 -51 -20 -62 -192 -365
-207 -365 -17 0 -8 32 22 80 12 19 27 47 33 61 6 14 51 93 101 175 49 82 97
167 107 188 11 22 20 35 22 29 2 -6 -8 -32 -22 -58z m158 18 c-10 -71 -23
-108 -53 -157 -17 -26 -33 -46 -36 -43 -7 7 80 237 91 237 2 0 1 -17 -2 -37z
m-1725 -9 c3 -20 -38 -64 -59 -64 -12 0 -11 47 2 71 14 27 53 22 57 -7z m1025
-16 c-14 -24 -26 -56 -26 -73 0 -39 -89 -176 -105 -160 -2 2 4 18 13 35 9 18
14 42 11 55 -5 18 8 41 60 104 36 45 68 81 70 81 2 0 -8 -19 -23 -42z m-537
18 c6 -16 -12 -56 -30 -68 -21 -14 -44 -9 -41 10 14 70 15 72 41 72 13 0 27
-6 30 -14z m-826 -61 c0 -36 -5 -47 -25 -61 -14 -9 -32 -13 -41 -10 -8 3 -28
-1 -45 -9 -27 -15 -29 -14 -29 4 0 20 106 121 128 121 8 0 12 -16 12 -45z
m994 22 c8 -12 7 -21 -6 -33 -15 -15 -17 -15 -28 6 -22 42 9 67 34 27z m-560
-3 c22 -22 20 -37 -10 -64 -21 -21 -27 -22 -34 -10 -13 21 -12 47 2 70 15 24
22 25 42 4z m1051 -112 c-29 -64 -125 -212 -138 -212 -4 0 -5 5 -2 10 3 6 -3
10 -14 10 -17 0 -18 3 -8 23 7 12 26 36 42 54 17 18 53 77 80 131 48 95 50 98
58 70 6 -22 2 -43 -18 -86z m-881 57 c13 -19 13 -25 1 -50 -15 -28 -47 -45
-64 -35 -11 7 2 71 19 91 17 20 26 19 44 -6z m-506 -13 c30 -18 -13 -96 -64
-115 -40 -14 -44 -14 -44 4 0 16 34 90 51 111 10 12 38 12 57 0z m1650 -59
c-20 -37 -23 -39 -26 -19 -4 26 24 76 38 67 6 -4 0 -24 -12 -48z m-990 11 c2
-9 -4 -32 -12 -52 -13 -31 -18 -35 -38 -27 -26 10 -27 41 -2 79 17 26 47 26
52 0z m1186 -60 c-2 -62 -9 -88 -47 -173 -24 -55 -60 -131 -80 -170 -23 -44
-33 -72 -26 -76 8 -4 7 -13 -1 -29 -6 -12 -10 -31 -7 -41 3 -12 0 -19 -8 -19
-18 0 -130 -104 -168 -155 -22 -30 -27 -34 -22 -15 5 14 12 40 16 58 9 40 45
82 71 82 21 0 36 29 20 39 -13 8 8 58 99 237 36 71 86 175 110 232 24 56 44
102 44 102 0 0 0 -33 -1 -72z m-1723 29 c3 -31 -5 -54 -27 -85 -21 -27 -30
-31 -52 -26 -15 4 -28 8 -30 9 -5 4 21 58 46 97 20 31 27 36 43 27 11 -5 20
-15 20 -22z m-536 -17 c8 -13 -16 -91 -26 -84 -5 3 -6 -1 -3 -9 6 -18 -21 -41
-38 -31 -7 4 -25 7 -40 6 -28 -2 -46 12 -29 23 6 3 8 11 6 18 -6 15 86 83 117
86 4 1 10 -3 13 -9z m1225 -70 c0 -22 -31 -41 -37 -23 -2 6 -13 9 -23 6 -17
-5 -20 0 -20 34 0 59 19 71 53 33 15 -16 27 -39 27 -50z m-1070 29 c0 -28 -27
-89 -39 -89 -6 0 -11 -6 -11 -14 0 -7 -7 -19 -16 -27 -13 -10 -17 -10 -24 0
-5 9 -10 10 -14 2 -14 -22 -25 -11 -22 22 6 73 44 123 94 125 25 0 32 -3 32
-19z m504 15 c39 -15 -7 -104 -54 -104 -11 0 -20 2 -20 5 0 11 31 79 41 92 13
15 12 15 33 7z m1334 -54 c-7 -10 -14 -17 -17 -15 -4 4 18 35 25 35 2 0 -1 -9
-8 -20z m-464 -17 c-7 -32 -34 -66 -34 -44 0 12 31 71 37 71 2 0 0 -12 -3 -27z
m-731 -33 c-1 -33 -27 -65 -44 -54 -10 6 -12 55 -3 79 4 9 15 15 28 13 17 -2
21 -9 19 -38z m-550 5 c24 -18 15 -46 -24 -79 -52 -44 -79 -3 -41 63 19 34 37
38 65 16z m694 -1 c6 -16 -24 -65 -45 -72 -12 -4 -10 37 3 71 9 21 34 22 42 1z
m433 -14 c0 -11 -6 -20 -13 -20 -7 0 -13 9 -14 20 -1 11 4 20 13 20 8 0 14 -9
14 -20z m385 -19 c-14 -29 -35 -49 -35 -36 0 13 34 65 42 65 5 0 2 -13 -7 -29z
m-710 -61 c-7 -28 -22 -47 -30 -38 -3 3 -9 22 -12 43 -4 26 -2 40 8 46 20 12
41 -20 34 -51z m-665 11 c0 -42 -17 -101 -30 -101 -13 0 -30 59 -23 78 10 28
35 62 44 62 5 0 9 -17 9 -39z m1173 24 c-3 -9 -8 -14 -10 -11 -3 3 -2 9 2 15
9 16 15 13 8 -4z m-1797 -81 c-6 -51 -12 -64 -31 -64 -36 0 -33 125 4 132 24
6 34 -18 27 -68z m2000 19 c-24 -48 -56 -85 -56 -66 0 13 73 124 78 119 2 -2
-8 -26 -22 -53z m-597 15 c5 -13 4 -35 -2 -52 -9 -27 -11 -28 -24 -11 -14 20
-18 67 -6 78 12 13 24 7 32 -15z m-619 -48 c0 -35 -10 -44 -26 -22 -14 18 -18
54 -7 65 12 12 33 -15 33 -43z m1320 -7 c-21 -65 -40 -107 -61 -132 -39 -48
-32 -8 15 85 51 97 67 114 46 47z m-1930 -73 c-14 -27 -24 -25 -38 5 -10 20
-9 33 3 61 8 20 19 33 25 29 5 -3 11 0 12 7 1 7 3 -8 5 -34 2 -26 -1 -56 -7
-68z m730 69 c0 -36 -2 -40 -15 -29 -15 13 -20 51 -8 63 15 16 23 4 23 -34z
m138 7 c2 -9 1 -25 -3 -34 -6 -16 -7 -16 -20 1 -15 20 -8 60 9 54 6 -2 13 -11
14 -21z m-717 -97 c-12 -38 -46 -89 -61 -89 -5 0 -14 18 -21 39 -10 34 -9 44
12 86 13 26 33 53 44 61 19 14 20 12 28 -23 5 -23 4 -53 -2 -74z m1529 76 c0
-1 -7 -8 -15 -15 -13 -10 -15 -9 -15 8 0 15 5 20 15 16 8 -4 15 -7 15 -9z
m-666 -29 c3 -13 3 -39 -1 -57 -6 -30 -7 -31 -20 -14 -14 20 -18 77 -6 88 12
13 21 7 27 -17z m966 -14 c0 -5 -9 -17 -21 -28 -21 -19 -21 -19 -8 9 12 26 29
37 29 19z m-580 -16 c0 -7 -7 -19 -15 -26 -13 -11 -15 -8 -15 14 0 16 5 26 15
26 8 0 15 -6 15 -14z m-1146 -40 c7 -27 -5 -102 -21 -130 -9 -17 -12 -15 -27
14 -20 41 -20 45 4 98 21 47 35 53 44 18z m-664 -36 c0 -30 -7 -48 -29 -72
l-28 -32 -12 23 c-16 28 -1 74 31 101 33 28 38 25 38 -20z m2311 -34 c-14 -33
-24 -44 -35 -40 -17 7 -15 12 22 62 33 43 38 34 13 -22z m-1350 2 c2 -41 -3
-83 -11 -97 -13 -24 -44 33 -35 66 12 51 44 72 46 31z m-801 -42 c0 -67 -19
-89 -44 -51 -24 36 -4 105 30 105 10 0 14 -15 14 -54z m620 -1 c5 -70 -8 -87
-29 -37 -11 26 -9 61 5 83 9 16 21 -7 24 -46z m1667 13 c-4 -14 -21 -31 -42
-41 l-36 -17 12 22 c7 13 21 35 33 51 23 31 42 22 33 -15z m-923 -17 c10 -9
28 -34 40 -56 19 -36 21 -55 20 -190 0 -86 -8 -199 -18 -265 -21 -144 -58
-222 -168 -355 -74 -90 -108 -122 -76 -72 8 12 22 34 31 48 10 14 28 52 40 85
13 32 42 91 64 130 22 39 48 93 57 120 10 27 22 56 26 65 17 34 31 143 25 197
-15 128 -53 209 -110 236 -19 9 -39 26 -45 36 -6 11 -17 20 -25 20 -21 0 -18
16 5 33 18 12 27 12 68 -1 26 -8 55 -22 66 -31z m354 -22 c-13 -37 -24 -37
-32 2 -7 38 13 66 31 43 8 -11 9 -24 1 -45z m-1588 -19 c0 -14 -9 -45 -20 -69
-17 -37 -22 -41 -35 -31 -20 16 -19 53 1 92 32 63 54 66 54 8z m810 20 c0 -11
-4 -20 -10 -20 -5 0 -10 9 -10 20 0 11 5 20 10 20 6 0 10 -9 10 -20z m178 -51
l3 -44 -21 21 c-16 16 -20 27 -14 48 10 40 29 26 32 -25z m55 -6 c-4 -10 -9
-11 -16 -4 -5 5 -7 18 -3 28 6 14 9 15 16 4 4 -8 6 -21 3 -28z m-1569 -9 c18
-47 -10 -107 -47 -102 -28 4 -25 39 6 85 25 37 32 40 41 17z m636 -35 c0 -22
-7 -56 -16 -77 -15 -35 -16 -36 -30 -18 -16 23 -19 62 -4 71 6 4 8 10 5 15 -8
13 25 61 36 54 5 -3 9 -23 9 -45z m1593 -31 l-10 -23 -11 22 c-7 12 -9 29 -6
38 6 15 8 15 22 1 12 -11 13 -21 5 -38z m-2113 13 c0 -17 -11 -42 -26 -60 -27
-32 -64 -42 -64 -16 0 17 72 104 88 105 1 0 2 -13 2 -29z m612 -37 c-1 -25 -7
-55 -13 -67 -11 -20 -12 -20 -25 -2 -20 27 -17 68 7 99 27 34 33 28 31 -30z
m-452 -13 c0 -32 -43 -91 -66 -91 -22 0 -16 28 16 76 36 51 50 56 50 15z m650
-40 c0 -42 -11 -91 -21 -91 -5 0 -15 14 -24 30 -13 24 -13 35 -4 53 24 44 49
49 49 8z m1615 2 c-3 -15 -14 -38 -24 -52 -10 -14 -21 -37 -24 -51 -3 -14 -12
-34 -20 -44 -25 -34 -7 44 20 87 13 21 28 49 33 62 13 33 24 32 15 -2z m-2195
-55 c0 -71 -12 -89 -40 -63 -23 21 -21 51 6 93 23 35 34 26 34 -30z m751 -51
c-14 -35 -24 -34 -38 4 -10 25 -9 37 2 59 8 16 20 30 27 32 17 6 23 -59 9 -95z
m-591 -15 c0 -38 -20 -92 -43 -110 -13 -11 -18 -9 -31 10 -9 12 -16 33 -16 45
0 32 30 105 49 121 13 10 17 9 28 -10 7 -13 12 -38 13 -56z m2080 46 c0 -19
-40 -95 -57 -110 -15 -12 -16 -9 -10 22 11 53 67 127 67 88z m-2755 -69 c-4
-11 -13 -19 -21 -19 -23 0 -28 28 -9 57 l18 27 9 -23 c5 -13 6 -32 3 -42z
m1521 24 c-11 -11 -19 6 -11 24 8 17 8 17 12 0 3 -10 2 -21 -1 -24z m181 15
c-3 -8 -6 -5 -6 6 -1 11 2 17 5 13 3 -3 4 -12 1 -19z m-1833 -53 c-9 -14 -19
-24 -21 -21 -6 6 20 46 30 46 4 0 0 -11 -9 -25z m896 -44 c0 -40 -5 -62 -15
-71 -9 -7 -17 -11 -18 -9 -1 2 -10 14 -20 25 -17 20 -17 24 -2 60 15 36 30 53
48 54 4 0 7 -26 7 -59z m-612 -21 c-2 -25 -10 -38 -27 -47 -28 -13 -61 -1 -61
23 0 18 28 64 49 82 22 18 43 -12 39 -58z m2028 2 c-24 -24 -31 -6 -10 25 16
24 19 26 22 9 2 -10 -3 -25 -12 -34z m264 3 c16 -20 4 -50 -25 -63 -24 -11
-25 -10 -19 16 15 69 21 75 44 47z m-1436 -71 c-1 -35 -7 -52 -27 -72 -26 -26
-27 -26 -42 -7 -25 34 -16 74 28 123 28 30 42 14 41 -44z m-780 10 c11 -28 6
-51 -15 -78 -17 -22 -24 -25 -36 -14 -11 9 -13 23 -9 52 4 21 9 43 12 48 9 14
42 9 48 -8z m156 -18 c0 -7 10 -16 21 -19 18 -5 21 -11 15 -38 -8 -42 -20 -55
-77 -84 l-49 -24 0 35 c0 39 10 62 47 112 25 34 43 41 43 18z m800 -35 c0 -78
-17 -102 -46 -63 -17 22 -17 35 0 77 23 53 46 46 46 -14z m-620 -54 c0 -69
-14 -98 -59 -121 -31 -17 -45 -11 -55 22 -13 39 79 182 106 166 4 -3 8 -33 8
-67z m-715 40 c8 -13 18 -37 21 -54 5 -26 2 -34 -20 -48 -29 -19 -70 -14 -79
9 -6 16 40 116 54 116 5 0 15 -10 24 -23z m1532 -68 c-6 -45 -19 -65 -36 -55
-16 11 -13 44 7 71 25 36 35 30 29 -16z m288 -29 c0 -63 -19 -77 -39 -29 -14
33 -12 52 7 77 19 24 32 5 32 -48z m-121 -11 c-3 -5 -9 -9 -15 -9 -11 0 -12
43 -2 54 9 9 25 -33 17 -45z m-1614 4 c0 -20 -28 -53 -47 -53 -17 0 -17 15 3
45 19 29 44 33 44 8z m2156 -18 c4 -18 1 -32 -11 -45 -17 -19 -19 -19 -37 -4
-21 20 -23 45 -6 62 20 20 47 14 54 -13z m435 -41 c-17 -33 -30 -51 -31 -40 0
21 49 111 57 103 2 -3 -9 -31 -26 -63z m-2467 -38 c-9 -30 -55 -76 -76 -76
-33 0 -20 59 25 107 19 22 22 22 39 6 12 -11 16 -24 12 -37z m678 45 c20 -3
-40 -111 -61 -111 -19 0 -19 45 -1 81 13 25 25 36 37 34 10 -2 21 -4 25 -4z
m1554 -23 c5 -17 -1 -28 -25 -50 -46 -41 -52 -35 -22 22 29 56 36 60 47 28z
m-2063 -88 c-16 -72 -76 -131 -104 -103 -14 14 18 110 49 143 l27 29 17 -22
c11 -14 15 -31 11 -47z m707 16 c0 -25 -28 -56 -50 -56 -20 0 -38 52 -21 58 6
2 11 12 11 22 0 16 3 17 30 7 19 -7 30 -18 30 -31z m-1350 -53 c0 -29 -25 -63
-47 -63 -20 0 -16 38 8 71 23 33 39 30 39 -8z m801 -63 c-6 -21 -19 -46 -28
-55 -19 -20 -72 -16 -86 6 -16 26 25 101 70 127 l38 21 9 -30 c6 -19 5 -43 -3
-69z m743 51 c7 -11 -4 -94 -14 -111 -5 -7 -22 -14 -39 -15 -27 -2 -30 1 -26
22 3 12 7 33 10 46 5 24 40 67 55 67 5 0 11 -4 14 -9z m1323 -68 c-8 -15 -25
-37 -37 -48 l-23 -20 13 25 c20 39 52 82 57 77 2 -3 -2 -18 -10 -34z m-2577 7
c0 -37 -29 -79 -83 -118 -75 -55 -74 -55 -75 -24 0 32 18 69 50 100 65 63 108
80 108 42z m-202 -33 c3 -29 -2 -39 -22 -52 -26 -17 -57 -17 -63 0 -5 16 57
97 71 92 6 -2 12 -20 14 -40z m867 -7 c-3 -4 -7 -25 -10 -45 -8 -69 -55 -111
-63 -57 -5 29 16 98 34 117 12 12 19 13 30 4 8 -6 12 -15 9 -19z m822 8 c-3
-8 -6 -5 -6 6 -1 11 2 17 5 13 3 -3 4 -12 1 -19z m113 -185 c-73 -191 -205
-554 -262 -718 -32 -93 -111 -277 -142 -330 -15 -27 -16 -27 -10 -5 4 14 20
61 36 105 16 44 60 185 99 313 39 129 83 266 98 305 27 67 153 349 217 481 53
112 35 38 -36 -151z m-125 163 c12 -12 11 -16 -5 -31 -25 -22 -35 -14 -26 20
7 29 12 30 31 11z m-1321 -86 c-32 -76 -104 -116 -104 -58 0 25 32 91 57 120
15 17 17 16 39 -4 21 -21 22 -24 8 -58z m1780 4 c16 -42 -4 -71 -39 -58 -18 7
-19 27 -5 55 13 23 36 25 44 3z m176 -26 c0 -24 -36 -68 -56 -68 -16 0 -2 45
23 72 22 24 33 23 33 -4z m-2566 -10 c22 -36 24 -79 3 -92 -36 -22 -77 70 -45
102 17 17 26 15 42 -10z m800 -40 c8 -44 -11 -87 -48 -112 -23 -14 -26 -14
-26 -1 0 8 -7 15 -15 15 -37 0 -2 102 48 142 25 19 31 13 41 -44z m491 -6
c-13 -69 -38 -90 -65 -57 -16 19 3 69 33 90 29 20 40 8 32 -33z m-1175 -23 c0
-34 -36 -77 -52 -61 -13 13 27 106 42 97 5 -3 10 -19 10 -36z m104 -66 c-6
-56 -17 -78 -49 -99 -41 -27 -47 -11 -29 74 6 28 61 85 75 77 5 -4 6 -27 3
-52z m1282 -16 c2 -18 -31 -67 -46 -67 -5 0 -8 14 -8 30 1 18 6 30 15 30 7 0
13 7 13 16 0 21 23 13 26 -9z m-489 -7 c3 -11 9 -20 13 -20 14 0 22 -40 12
-53 -5 -7 -12 -24 -16 -39 -6 -28 -32 -42 -79 -43 -30 0 -42 21 -32 58 22 82
29 97 54 106 38 14 42 13 48 -9z m-571 -82 c-12 -45 -65 -118 -86 -118 -14 0
-20 7 -20 21 0 16 -4 19 -20 14 -16 -5 -20 -2 -20 15 0 27 46 109 74 132 19
15 22 15 49 -12 22 -22 28 -35 23 -52z m-571 8 c10 -52 3 -71 -25 -71 -21 0
-26 5 -28 33 -2 23 3 40 15 52 26 27 31 24 38 -14z m1860 14 c-11 -5 -15 -9
-8 -9 13 -1 13 -41 0 -41 -5 0 -7 -6 -4 -14 3 -8 -2 -16 -14 -19 -10 -3 -19
-1 -19 5 0 5 -4 6 -10 3 -15 -10 -12 18 6 43 8 12 12 22 7 22 -4 0 -1 5 7 10
8 5 24 9 35 9 l20 0 -20 -9z m938 -25 c-10 -13 -22 -25 -27 -25 -5 0 1 11 14
25 30 32 36 32 13 0z m-1438 -87 c-6 -27 -25 -56 -68 -101 -45 -48 -60 -48
-51 1 9 52 28 85 65 116 35 30 61 22 54 -16z m-1185 -75 c0 -70 -2 -77 -30
-105 -23 -22 -37 -29 -53 -24 -12 3 -30 6 -39 6 -14 0 -18 9 -18 44 0 36 7 52
36 88 83 101 104 99 104 -9z m590 59 c-1 -29 -37 -100 -57 -110 -10 -5 -33
-13 -50 -17 -33 -7 -33 -6 -27 27 9 49 45 98 77 105 15 3 30 10 33 14 8 14 24
0 24 -19z m1367 -14 c-3 -8 -6 -5 -6 6 -1 11 2 17 5 13 3 -3 4 -12 1 -19z
m103 -57 c12 -23 13 -58 3 -64 -5 -2 -20 -7 -35 -11 -26 -6 -28 -4 -28 22 0
28 24 72 40 72 5 0 14 -9 20 -19z m-702 -34 c4 -35 -22 -77 -48 -77 -25 0 -26
27 -3 75 20 42 46 43 51 2z m890 -3 c2 -25 -2 -33 -24 -43 -15 -6 -28 -10 -31
-8 -8 9 30 88 41 84 6 -2 12 -17 14 -33z m-2048 -36 c0 -62 -19 -123 -52 -162
-31 -38 -52 -44 -80 -22 -40 30 0 152 70 213 44 38 62 30 62 -29z m535 -16
c-8 -31 3 -46 21 -31 11 9 18 9 26 1 13 -13 -20 -70 -51 -90 -18 -10 -21 -10
-21 3 0 19 -14 19 -30 0 -18 -21 -27 -19 -34 11 -6 24 28 116 57 152 16 20 40
-15 32 -46z m-1087 6 c-2 -35 -7 -43 -23 -43 -26 0 -31 29 -11 60 25 37 38 31
34 -17z m1876 13 c9 -14 -4 -41 -19 -41 -21 0 -28 19 -15 35 14 17 26 19 34 6z
m-1814 -60 c0 -33 -7 -42 -26 -34 -17 6 -18 45 -2 61 16 16 28 5 28 -27z
m2739 -37 c-13 -14 -33 -30 -44 -35 -11 -6 -2 6 19 26 46 41 60 46 25 9z
m-2656 -26 c14 -11 15 -20 6 -56 -11 -51 -41 -113 -63 -131 -20 -16 -76 -10
-89 10 -16 25 1 86 35 124 16 19 36 35 43 35 7 0 18 7 25 15 15 18 21 19 43 3z
m1117 -3 c0 -8 9 -15 19 -15 30 0 34 -16 15 -66 -20 -53 -64 -86 -64 -48 0 12
-6 15 -25 10 -14 -4 -25 -2 -25 3 0 5 -2 15 -5 23 -7 18 51 108 70 108 8 0 15
-7 15 -15z m-521 -19 c20 -21 22 -31 17 -70 -4 -24 -14 -50 -21 -56 -8 -7 -15
-19 -15 -26 0 -7 -19 -23 -42 -35 l-42 -21 -21 26 c-43 53 -26 130 38 175 52
36 58 37 86 7z m1586 -40 c8 -23 6 -30 -9 -42 -25 -18 -46 -2 -46 36 0 50 38
54 55 6z m131 -21 c8 -19 -21 -65 -40 -65 -12 0 -12 7 1 40 17 42 30 50 39 25z
m-988 -48 c2 -15 -1 -27 -7 -27 -6 0 -11 -7 -11 -15 0 -12 -28 -35 -44 -35
-12 0 6 76 22 93 21 23 36 17 40 -16z m-1644 -58 c-38 -42 -48 0 -11 47 l22
29 3 -28 c2 -17 -4 -37 -14 -48z m466 46 c41 -21 48 -65 18 -122 -13 -25 -35
-54 -48 -65 -24 -17 -28 -18 -63 -3 -37 15 -43 28 -38 79 1 17 86 126 97 126
3 0 18 -7 34 -15z m620 -61 c6 -14 10 -31 10 -39 0 -16 -92 -115 -108 -115
-21 0 -13 71 13 116 39 66 70 80 85 38z m-1044 -30 c8 -29 -7 -49 -30 -41 -19
7 -21 38 -4 55 18 18 27 15 34 -14z m1830 -29 c-8 -30 -22 -33 -29 -5 -3 12 1
24 11 29 22 12 26 7 18 -24z m-1803 -25 c-4 -15 0 -20 16 -20 12 0 25 -8 28
-17 4 -10 10 -21 15 -24 11 -7 -64 -138 -93 -161 -30 -25 -45 -22 -58 11 -14
33 -7 88 17 123 10 14 29 44 45 67 30 46 38 51 30 21z m1189 -38 c10 -66 -9
-107 -57 -128 -19 -8 -36 -14 -37 -14 -8 0 0 68 10 93 7 16 12 36 12 45 0 27
30 63 48 60 12 -2 19 -19 24 -56z m1248 25 c0 -24 -35 -65 -45 -55 -8 7 26 78
37 78 4 0 8 -11 8 -23z m-1857 -4 c13 -16 14 -23 2 -55 -17 -50 -40 -84 -70
-104 -32 -21 -45 -11 -45 37 0 61 45 139 80 139 9 0 24 -8 33 -17z m1742 -39
c0 -19 -6 -30 -17 -32 -19 -4 -24 21 -12 53 10 25 29 12 29 -21z m377 1 c-37
-47 -78 -92 -93 -100 -15 -9 11 24 70 88 40 42 52 49 23 12z m-1332 -91 c0
-33 -15 -61 -42 -75 -20 -11 -21 -10 -15 32 8 59 57 97 57 43z m-616 -67 c-24
-71 -77 -101 -87 -50 -6 34 13 74 50 102 22 18 29 19 40 8 11 -11 10 -21 -3
-60z m-984 29 c0 -27 -24 -51 -40 -41 -15 9 -12 36 6 56 20 22 34 16 34 -15z
m440 25 c0 -5 9 -11 19 -14 17 -4 18 -9 10 -47 -12 -55 -24 -78 -62 -117 -35
-37 -48 -40 -71 -17 -33 32 -16 123 33 177 23 25 71 38 71 18z m-420 -78 c0
-29 -17 -50 -30 -37 -9 9 -8 17 2 33 16 26 28 27 28 4z m1798 -15 c3 -27 -33
-72 -50 -62 -23 15 9 100 35 91 7 -2 13 -15 15 -29z m-1172 -39 c13 -27 14
-38 3 -76 -6 -24 -25 -62 -40 -83 -24 -33 -35 -40 -64 -40 -79 0 -71 124 13
197 46 41 67 41 88 2z m515 -4 c-4 -34 -28 -69 -73 -102 l-32 -23 -9 22 c-11
30 -1 80 22 109 14 18 29 24 57 24 37 0 39 -1 35 -30z m799 -45 c0 -12 -61
-112 -66 -108 -5 6 50 118 58 118 4 0 8 -4 8 -10z m-1975 -160 c-30 -74 -52
-136 -50 -138 2 -2 18 -12 37 -21 41 -23 47 -56 19 -117 -12 -24 -21 -47 -21
-51 0 -3 -7 -14 -16 -24 -15 -16 -18 -17 -39 -3 -29 19 -37 51 -25 93 5 19 5
29 -1 26 -13 -8 -12 -7 20 81 68 182 79 212 100 253 42 81 31 35 -24 -99z
m2006 59 c-6 -21 -27 -60 -45 -88 -19 -28 -53 -83 -76 -123 -23 -40 -59 -100
-80 -133 -22 -33 -64 -105 -94 -161 -55 -101 -242 -414 -278 -467 -11 -15 -17
-34 -14 -42 3 -9 0 -15 -8 -15 -7 0 -44 -48 -81 -107 -73 -112 -173 -242 -260
-333 -28 -30 -67 -75 -85 -100 -64 -85 -202 -251 -206 -247 -2 2 5 34 15 70
18 64 24 73 142 195 151 155 237 266 394 510 67 103 143 222 170 264 28 42 78
121 113 175 35 54 84 128 110 164 26 36 61 86 78 110 38 55 154 276 148 282
-3 3 10 33 28 68 28 54 33 60 36 39 2 -13 -1 -41 -7 -61z m-1853 41 c1 -14 -8
-50 -20 -80 -37 -88 -38 -90 -78 -81 -34 7 -35 8 -33 53 0 25 10 67 22 92 20
47 21 47 63 44 37 -3 43 -6 46 -28z m1186 14 c21 -20 20 -25 -7 -65 -46 -67
-105 -12 -61 56 19 29 45 32 68 9z m-511 -27 c31 -48 -13 -165 -75 -198 -18
-9 -24 -8 -35 7 -17 23 -16 52 2 105 14 40 69 109 86 109 4 0 13 -10 22 -23z
m-983 -28 c15 -27 9 -59 -13 -73 -31 -20 -41 17 -21 82 5 18 22 15 34 -9z
m2426 -46 c15 -34 15 -38 -1 -50 -21 -14 -55 -1 -55 22 0 24 19 65 30 65 6 0
18 -17 26 -37z m-1994 14 c9 -7 18 -24 20 -38 5 -36 -43 -170 -70 -196 -25
-25 -67 -30 -75 -10 -7 18 18 112 37 139 9 12 16 29 16 38 0 18 37 80 47 80 5
0 16 -6 25 -13z m1240 -39 c-5 -19 -48 -58 -63 -58 -12 0 -11 47 1 71 6 10 17
19 25 19 8 0 15 5 15 12 0 6 6 3 14 -7 7 -10 11 -27 8 -37z m-1609 -8 c5 -20
-15 -50 -34 -50 -12 0 -12 27 1 51 14 25 26 24 33 -1z m1110 -14 c24 -19 26
-26 18 -48 -5 -14 -24 -42 -42 -63 -26 -30 -37 -35 -58 -30 -42 10 -53 32 -35
74 16 39 61 91 78 91 6 -1 24 -11 39 -24z m-549 -59 c9 10 26 -17 26 -42 0
-35 -20 -91 -44 -128 -14 -20 -20 -37 -15 -39 19 -6 -2 -58 -22 -58 -14 0 -19
7 -19 30 0 33 -19 40 -40 15 -19 -23 -30 -8 -30 44 0 48 23 130 54 190 l17 31
33 -25 c18 -14 36 -22 40 -18z m-724 -71 c0 -19 -9 -45 -21 -60 -41 -52 -52
-21 -19 52 23 51 40 54 40 8z m1433 -14 c-4 -34 -33 -72 -54 -72 -31 0 -28 43
4 78 26 28 53 25 50 -6z m-518 -59 c11 27 22 20 28 -18 7 -43 -28 -172 -54
-201 -10 -11 -19 -26 -19 -32 0 -7 -4 -12 -10 -12 -5 0 -10 23 -10 51 0 27 -4
48 -8 45 -15 -9 -52 33 -52 58 0 13 7 29 16 37 9 7 13 21 10 32 -5 22 19 77
34 77 6 0 10 -8 11 -17 0 -14 3 -13 12 6 11 23 11 23 23 -10 10 -28 13 -31 19
-16z m700 7 c10 -16 -24 -77 -46 -83 -24 -6 -32 6 -23 36 13 45 53 72 69 47z
m245 -36 c0 -26 -32 -64 -54 -64 -29 0 -26 41 5 71 33 33 49 30 49 -7z m-1816
1 c7 -18 -2 -44 -22 -67 -33 -38 -42 -12 -18 47 16 37 30 44 40 20z m366 -51
c0 -7 6 -11 14 -8 9 3 17 -3 21 -16 9 -29 -13 -174 -30 -197 -12 -16 -14 -16
-26 10 -8 18 -18 26 -27 22 -16 -6 -50 28 -58 60 -6 25 11 75 26 75 5 0 10 8
10 19 0 10 9 30 21 45 17 21 24 24 35 15 8 -6 14 -18 14 -25z m1534 21 c-4 -9
-16 -21 -28 -27 -19 -10 -19 -9 3 16 28 30 33 32 25 11z m103 -127 c-36 -73
-108 -201 -160 -284 -52 -83 -107 -175 -122 -205 -35 -69 -158 -253 -229 -344
-31 -38 -87 -110 -126 -160 -39 -49 -102 -124 -141 -165 -50 -52 -59 -60 -32
-25 22 28 53 70 70 95 17 25 48 61 68 80 69 65 241 306 313 439 15 27 40 69
55 93 42 66 218 368 225 387 12 34 134 232 139 227 3 -3 -24 -65 -60 -138z
m-917 82 c35 0 36 -6 15 -78 -15 -51 -27 -63 -41 -41 -4 8 -10 7 -18 -1 -8 -8
-6 -15 9 -26 20 -14 19 -15 -2 -20 -20 -6 -33 -22 -39 -52 -4 -20 -11 -25 -24
-17 -11 7 -8 78 6 123 4 14 2 22 -5 22 -8 0 -9 6 -3 18 5 9 13 35 17 57 9 54
13 57 35 35 11 -11 34 -20 50 -20z m773 -87 c-27 -37 -77 -115 -112 -173 -35
-58 -92 -143 -126 -190 -35 -47 -102 -146 -149 -220 -48 -74 -122 -176 -164
-227 -133 -158 -245 -283 -250 -279 -2 3 -1 19 3 37 5 22 30 54 81 102 40 38
100 108 133 155 33 48 91 130 130 182 38 52 122 169 185 260 139 199 310 430
314 425 2 -2 -18 -34 -45 -72z m-2018 35 c-12 -55 -39 -120 -50 -118 -15 2 -9
42 15 99 25 58 45 69 35 19z m2403 20 c16 -16 15 -55 0 -60 -25 -9 -38 4 -38
38 0 35 16 44 38 22z m-2253 -168 c-25 -79 -49 -147 -52 -150 -16 -14 45 224
74 290 34 75 22 -1 -22 -140z m1296 128 c6 -81 -20 -138 -55 -125 -28 11 -15
89 21 129 22 24 33 23 34 -4z m143 -14 c26 -10 20 -63 -9 -90 -21 -19 -27 -21
-30 -9 -3 8 -7 22 -10 31 -4 12 22 74 31 74 1 0 9 -3 18 -6z m-884 -24 c0 -10
8 -23 17 -29 16 -8 16 -17 6 -100 -6 -50 -15 -96 -19 -102 -8 -13 -54 32 -54
53 0 7 -7 22 -15 32 -22 28 -18 60 11 116 26 51 54 66 54 30z m-435 -75 c-1
-35 -10 -69 -29 -109 -50 -102 -80 -86 -73 40 6 105 16 124 65 121 l37 -2 0
-50z m-229 -70 c-8 -49 -32 -78 -42 -51 -9 24 2 94 17 112 11 14 13 13 22 -1
5 -9 6 -36 3 -60z m878 20 c28 -42 21 -117 -15 -170 -29 -43 -32 -45 -45 -28
-12 16 -15 16 -23 3 -9 -13 -12 -13 -28 3 -9 9 -12 17 -6 17 6 0 13 9 16 21 4
14 2 19 -7 16 -25 -10 13 110 48 149 18 21 42 16 60 -11z m-526 -30 c-10 -22
-9 -29 7 -43 10 -9 15 -11 11 -4 -4 6 -2 12 3 12 6 0 11 -7 11 -16 0 -8 5 -12
10 -9 6 3 10 2 10 -4 0 -5 3 -18 7 -28 6 -16 5 -16 -10 -4 -20 16 -23 0 -5
-29 10 -16 8 -27 -10 -65 -37 -76 -102 -85 -102 -13 0 16 -3 27 -7 25 -5 -3
-9 8 -10 24 -1 16 3 29 8 29 6 0 9 -7 6 -15 -4 -8 -2 -17 3 -20 6 -4 10 3 10
14 0 12 5 21 11 21 5 0 7 5 3 11 -5 8 -9 8 -14 -1 -10 -16 -18 5 -16 45 1 18
6 29 14 28 7 -2 12 8 12 26 0 29 10 39 42 40 15 1 16 -2 6 -24z m32 -21 c0 -2
-7 -4 -15 -4 -8 0 -15 4 -15 10 0 5 7 7 15 4 8 -4 15 -8 15 -10z m1314 -19 c6
-17 -2 -45 -14 -45 -5 0 -11 9 -15 20 -11 33 16 57 29 25z m-621 -40 c-3 -10
-1 -15 7 -13 6 2 21 -9 32 -23 17 -22 18 -31 9 -65 -18 -63 -40 -86 -79 -78
-21 4 -31 11 -28 19 2 7 -1 23 -8 36 -16 32 3 98 21 71 6 -9 14 -14 18 -10 4
4 0 14 -9 23 -21 21 -21 22 12 39 34 19 32 19 25 1z m-1273 -33 c0 -25 -43
-106 -55 -104 -20 2 -16 33 10 77 27 47 45 58 45 27z m1530 -22 c0 -10 8 -24
18 -29 9 -6 13 -11 8 -11 -5 0 -4 -6 2 -12 7 -10 -1 -25 -29 -58 -37 -42 -39
-44 -56 -27 -42 42 -7 190 40 166 9 -6 17 -18 17 -29z m821 20 c23 -13 25 -48
3 -57 -19 -7 -44 21 -44 49 0 20 12 23 41 8z m-1401 -14 c0 -3 -4 -8 -10 -11
-5 -3 -10 -1 -10 4 0 6 5 11 10 11 6 0 10 -2 10 -4z m-180 -31 c7 -9 10 -18 6
-22 -3 -3 -6 -1 -6 5 0 7 -4 12 -10 12 -16 0 1 -29 20 -35 11 -3 17 -12 14
-19 -3 -7 2 -16 10 -19 9 -4 16 -18 16 -33 0 -33 -46 -114 -64 -114 -31 0 -74
23 -84 45 -23 50 2 146 48 182 20 17 35 16 50 -2z m916 -37 c2 -29 -2 -40 -23
-53 -31 -21 -46 -9 -41 31 2 23 9 30 33 35 27 6 28 7 5 8 -20 1 -22 3 -10 11
24 15 34 6 36 -32z m-1390 -13 c23 -21 25 -28 16 -52 -5 -16 -17 -54 -27 -85
-22 -74 -39 -89 -58 -52 l-15 28 -11 -57 c-22 -113 -30 -163 -34 -212 -2 -27
-2 -42 0 -33 2 9 11 22 19 29 11 9 19 8 35 -7 17 -15 20 -27 16 -64 -6 -50
-37 -150 -48 -150 -10 0 -19 55 -19 111 0 27 -4 49 -9 49 -5 0 -12 -73 -16
-162 -3 -90 -11 -203 -15 -253 -5 -49 -7 -114 -3 -145 5 -53 -10 -255 -43
-570 -19 -182 -18 -181 -49 -214 -18 -19 -25 -38 -25 -67 0 -45 -50 -247 -80
-328 -12 -29 -32 -69 -45 -89 -27 -39 -33 -72 -13 -72 6 0 3 -9 -7 -20 -21
-23 -9 -27 20 -7 11 7 38 24 60 36 l40 23 -40 -36 c-51 -46 -146 -78 -161 -55
-3 6 13 37 35 69 44 63 77 131 118 243 26 72 25 99 -1 50 -26 -48 -18 0 8 54
18 34 31 90 45 193 12 80 28 179 37 220 18 87 41 387 54 710 5 124 12 236 14
250 3 14 10 63 17 110 22 166 50 317 81 442 30 122 34 131 70 137 4 0 19 -10
34 -24z m-216 -8 c0 -30 -24 -62 -38 -53 -15 9 -15 31 -2 57 15 27 40 24 40
-4z m920 -97 c8 -5 11 -10 6 -10 -5 0 -3 -7 5 -16 10 -13 10 -17 -2 -25 -10
-6 -10 -9 -1 -9 19 0 14 -22 -18 -82 -33 -61 -55 -67 -85 -25 -26 38 -16 137
14 137 9 0 23 5 31 11 12 9 11 10 -5 5 -20 -6 -20 -6 -1 9 23 17 35 18 56 5z
m-860 -39 c0 -11 -29 -35 -35 -29 -10 9 7 38 21 38 8 0 14 -4 14 -9z m329 -27
c7 5 9 1 4 -10 -5 -13 -3 -16 10 -11 9 3 17 2 17 -2 0 -5 3 -17 7 -27 5 -13 3
-15 -8 -9 -11 6 -12 5 -1 -6 19 -21 14 -90 -13 -146 -23 -51 -25 -53 -50 -41
-14 6 -25 15 -25 19 0 4 -9 10 -19 14 -11 3 -18 12 -15 19 3 8 -4 16 -18 20
-19 5 -20 8 -8 16 10 6 11 10 3 10 -20 0 -16 56 7 102 11 23 20 47 20 53 0 7
10 17 23 22 18 9 25 7 38 -9 9 -12 21 -18 28 -14z m1649 24 c19 -19 15 -48 -8
-48 -16 0 -20 7 -20 30 0 32 9 37 28 18z m-878 -63 c-7 -9 -7 -14 -1 -17 11
-3 -23 -126 -40 -143 -16 -16 -60 38 -66 80 -3 26 -2 35 6 31 6 -4 11 -2 11 3
0 6 -6 11 -12 12 -7 0 2 7 21 15 18 8 40 21 48 29 18 18 48 9 33 -10z m-1385
-39 c20 -30 11 -76 -15 -76 -22 0 -33 40 -20 74 12 32 15 32 35 2z m1575 -51
c0 -39 -16 -86 -33 -97 -37 -23 -51 71 -17 115 27 34 50 25 50 -18z m168 27
c-3 -10 1 -23 9 -30 20 -19 16 -41 -12 -54 -36 -16 -58 5 -49 46 8 38 21 56
41 56 10 0 14 -7 11 -18z m-1698 -62 c0 -11 -4 -20 -10 -20 -5 0 -10 9 -10 20
0 11 5 20 10 20 6 0 10 -9 10 -20z m785 -38 c5 -12 18 -22 28 -22 28 0 40 -41
33 -113 -9 -79 -23 -103 -57 -93 -13 3 -34 15 -46 25 -18 15 -21 24 -14 48 5
19 5 36 -1 44 -8 11 -8 10 -4 -5 5 -13 2 -17 -9 -12 -12 4 -14 0 -9 -22 l6
-27 -16 29 c-12 22 -14 31 -5 37 7 4 10 19 6 38 -5 22 -3 31 6 30 31 -4 37 1
27 26 -10 26 -2 33 17 14 9 -9 10 -6 6 11 -8 30 18 23 32 -8z m-84 -25 c-10
-9 -11 -8 -5 6 3 10 9 15 12 12 3 -3 0 -11 -7 -18z m-607 -20 c8 -12 5 -21 -8
-36 -25 -28 -36 -26 -36 3 0 53 21 69 44 33z m916 -39 c0 -5 12 -25 26 -44 23
-30 26 -41 21 -84 -3 -27 -11 -59 -17 -70 -10 -19 -13 -19 -32 -5 -19 13 -25
13 -44 0 -19 -12 -22 -12 -31 8 -16 37 -15 94 2 111 9 9 14 16 11 16 -7 0 16
63 28 76 12 13 36 7 36 -8z m-323 -3 c0 -8 -4 -12 -9 -9 -5 3 -6 10 -3 15 9
13 12 11 12 -6z m787 -42 c-8 -38 -25 -98 -84 -308 -51 -178 -166 -477 -193
-499 -8 -6 -33 -36 -55 -67 -39 -54 -110 -119 -129 -119 -12 0 -4 68 9 76 6 4
7 -2 3 -17 -9 -31 -1 -22 67 71 104 143 197 322 237 457 12 40 46 145 76 235
30 90 55 171 55 181 0 9 5 17 10 17 6 0 8 -11 4 -27z m69 -13 c-3 -10 -11 -25
-19 -31 -17 -14 -17 -9 -4 25 11 30 31 35 23 6z m-1663 -42 c0 -33 -36 -92
-51 -83 -13 9 -11 51 4 77 30 54 47 56 47 6z m1414 -14 c23 -60 -24 -130 -62
-92 -19 19 -14 44 14 77 29 35 39 38 48 15z m706 -2 c0 -18 -36 -60 -44 -51
-2 2 3 19 10 37 15 35 34 43 34 14z m-1510 -40 c0 -12 3 -13 12 -4 17 17 27
15 25 -7 0 -11 -5 -17 -11 -14 -6 4 -6 -1 -1 -13 22 -53 18 -73 -20 -109 -42
-37 -48 -37 -69 4 -12 23 -12 37 -1 89 15 73 31 98 51 81 8 -6 14 -19 14 -27z
m-544 -48 c-3 -9 -6 -20 -6 -25 0 -5 -4 -9 -10 -9 -5 0 -10 11 -10 25 0 16 6
25 16 25 11 0 14 -5 10 -16z m746 -56 c-24 -24 -14 -44 20 -42 17 1 36 0 43
-2 17 -7 13 -91 -6 -129 -21 -44 -43 -43 -78 5 -40 56 -42 131 -3 166 25 24
47 25 24 2z m-597 -29 c5 -16 0 -29 -19 -47 -33 -34 -53 -19 -34 24 21 47 43
57 53 23z m645 10 c0 -5 -9 -9 -19 -9 -11 0 -22 4 -25 9 -3 5 6 9 19 9 14 0
25 -4 25 -9z m1290 -38 c0 -11 -4 -23 -10 -26 -6 -4 -10 5 -10 19 0 14 5 26
10 26 6 0 10 -9 10 -19z m-1026 -101 c-4 -42 -29 -100 -43 -100 -4 0 -16 9
-26 20 -24 27 -25 99 -1 127 17 18 21 19 46 7 24 -12 27 -19 24 -54z m830 3
c6 -33 1 -38 -34 -33 -34 4 -42 25 -25 66 15 37 16 38 34 18 10 -10 21 -34 25
-51z m-1482 7 c9 0 9 3 -2 10 -8 5 -10 10 -4 10 26 0 29 -23 21 -132 -4 -62
-12 -117 -16 -121 -14 -14 -50 12 -64 46 -15 35 -22 181 -9 173 4 -2 14 -1 22
5 12 7 10 9 -8 9 -19 0 -21 2 -10 14 11 13 16 13 35 0 12 -8 28 -14 35 -14z
m1162 -46 c-16 -21 -41 -44 -54 -53 -15 -10 -6 6 25 41 54 62 77 71 29 12z
m-1700 20 c8 -21 -14 -150 -29 -171 -7 -9 -17 -13 -23 -9 -16 10 -15 55 3 105
8 23 14 45 15 49 2 38 23 54 34 26z m1360 -26 c14 -23 -2 -52 -32 -56 -25 -4
-38 29 -22 58 13 24 38 23 54 -2z m-699 -68 c-3 -6 1 -7 9 -4 9 3 16 2 17 -2
4 -50 24 -78 39 -54 16 26 23 -13 10 -60 -11 -43 -52 -90 -76 -90 -8 0 -21 14
-29 30 -19 37 -18 160 2 167 7 3 10 9 7 14 -3 5 2 9 11 9 9 0 13 -4 10 -10z
m915 -49 c0 -5 -7 -14 -15 -21 -16 -14 -18 -10 -9 14 6 17 24 22 24 7z m-1492
-47 c4 -29 -23 -62 -39 -47 -9 9 -9 19 1 43 14 33 33 35 38 4z m776 -36 c-3
-13 -3 -20 1 -16 5 4 15 2 23 -5 12 -9 16 -9 19 0 4 10 8 9 19 -1 16 -16 19
-30 5 -21 -5 3 -12 1 -16 -5 -3 -5 1 -10 9 -10 9 0 15 -6 14 -12 -2 -7 2 -12
7 -11 6 1 11 -7 12 -16 2 -23 -61 -86 -76 -77 -17 11 -44 75 -37 91 3 8 1 15
-4 15 -6 0 -10 5 -10 11 0 5 6 7 13 3 9 -6 9 -4 -1 8 -9 11 -10 23 -2 42 12
32 34 36 24 4z m-664 -13 c12 -22 12 -28 -3 -42 -23 -23 -39 -5 -31 35 8 39
16 40 34 7z m1494 -70 c29 -45 14 -71 -31 -54 -25 9 -29 29 -13 60 14 25 24
24 44 -6z m-618 0 c-15 -11 -16 -15 -5 -15 8 0 21 6 28 13 11 10 13 9 8 -5 -3
-9 -1 -18 5 -20 6 -2 11 -24 12 -48 1 -53 -16 -62 -58 -29 -25 20 -27 26 -22
63 7 39 19 56 41 56 6 -1 1 -7 -9 -15z m149 -44 c-7 -42 -25 -57 -25 -22 0 26
19 75 26 68 3 -3 3 -24 -1 -46z m-685 -22 c0 8 3 11 6 8 4 -4 1 -13 -6 -22
-10 -13 -9 -15 9 -15 19 0 22 -5 19 -36 -3 -33 -6 -37 -36 -39 -27 -2 -33 1
-38 22 -9 33 23 104 37 82 7 -12 9 -12 9 0z m1734 -47 c-12 -9 -49 -37 -82
-61 -34 -24 -80 -61 -103 -82 -23 -21 -44 -38 -45 -36 -9 9 54 65 141 127 94
65 137 91 89 52z m-2494 -36 c0 -16 -18 -31 -27 -22 -8 8 5 36 17 36 5 0 10
-6 10 -14z m150 -37 c0 -25 -44 -74 -58 -65 -19 12 -14 61 10 91 20 26 22 27
35 9 7 -10 13 -26 13 -35z m724 15 c9 -24 7 -64 -4 -64 -15 0 -43 48 -36 65 7
20 32 19 40 -1z m1146 12 c0 -3 -4 -8 -10 -11 -5 -3 -10 -1 -10 4 0 6 5 11 10
11 6 0 10 -2 10 -4z m-646 -81 c-9 -33 -23 -71 -32 -85 -9 -14 -18 -37 -19
-53 -3 -25 -58 -146 -72 -157 -4 -3 -12 -17 -18 -31 -13 -29 -180 -209 -194
-209 -19 0 21 58 98 143 73 81 84 99 162 272 46 102 85 184 87 182 2 -1 -4
-30 -12 -62z m-389 44 c13 -21 9 -79 -7 -95 -14 -15 -18 -14 -37 5 -23 23 -27
52 -11 82 12 21 45 26 55 8z m-637 -16 c-3 -19 -53 -51 -63 -41 -4 3 1 18 10
32 20 30 58 36 53 9z m-122 -60 c-4 -13 -12 -23 -19 -20 -20 6 -20 37 0 59 16
18 18 18 21 3 2 -9 1 -28 -2 -42z m852 20 c5 -16 -22 -27 -44 -19 -13 5 -14 9
-4 22 15 17 41 15 48 -3z m334 -105 c-27 -28 -30 -29 -25 -10 6 23 43 56 52
46 3 -2 -9 -19 -27 -36z m-1480 -12 c17 11 1 -56 -19 -78 -21 -24 -33 -23 -33
3 0 27 33 96 38 81 2 -7 9 -9 14 -6z m1158 -79 c0 -8 -7 -36 -15 -62 -8 -27
-12 -51 -10 -54 3 -2 5 1 5 7 0 7 4 12 9 12 10 0 -5 -66 -18 -85 -4 -5 -20
-41 -36 -80 -33 -81 -43 -97 -58 -88 -5 3 -7 2 -4 -4 3 -5 -15 -30 -40 -54
-50 -48 -49 -40 7 36 52 71 69 112 103 257 20 82 36 128 44 128 7 0 13 -6 13
-13z m1183 -18 c-10 -17 -24 -36 -32 -42 -12 -10 -13 -9 -6 3 14 24 48 70 52
70 2 0 -4 -14 -14 -31z m-2210 15 c3 -3 1 -19 -5 -35 -11 -31 -48 -41 -48 -13
0 37 33 67 53 48z m424 -41 c-3 -10 -5 -4 -5 12 0 17 2 24 5 18 2 -7 2 -21 0
-30z m-297 -39 c-7 -7 -16 -14 -21 -14 -15 0 -10 32 9 53 17 19 17 19 20 -2 2
-12 -2 -29 -8 -37z m981 -7 c-10 -9 -11 -8 -5 6 3 10 9 15 12 12 3 -3 0 -11
-7 -18z m1047 -7 c-7 -10 -14 -17 -17 -15 -4 4 18 35 25 35 2 0 -1 -9 -8 -20z
m-752 -56 c-25 -18 -30 -12 -22 22 7 26 8 26 24 10 16 -16 16 -18 -2 -32z
m188 1 c5 -14 -22 -50 -31 -41 -8 8 6 56 16 56 5 0 11 -7 15 -15z m-1917 -151
c-3 -21 -16 -47 -33 -65 -31 -33 -42 -36 -50 -14 -6 14 63 114 79 115 4 0 6
-16 4 -36z m1011 -16 c-17 -78 -160 -324 -214 -369 -16 -13 -16 -12 -4 11 7
14 28 43 45 65 45 56 113 174 120 210 8 39 46 125 56 125 4 0 3 -19 -3 -42z
m54 -10 c-7 -7 -12 -8 -12 -2 0 14 12 26 19 19 2 -3 -1 -11 -7 -17z m-14 -55
c-24 -53 -71 -138 -85 -153 -8 -8 7 29 34 82 26 53 51 97 55 97 4 1 2 -11 -4
-26z m-225 -33 c-3 -12 -8 -19 -11 -16 -5 6 5 36 12 36 2 0 2 -9 -1 -20z m302
-33 c-6 -24 -121 -125 -130 -115 -6 6 38 68 49 68 5 0 25 18 44 40 37 45 46
46 37 7z m-1085 0 c0 -27 -34 -64 -44 -48 -8 13 20 71 34 71 6 0 10 -11 10
-23z m1822 -12 c-12 -22 -27 -2 -18 22 5 12 10 13 17 6 7 -7 8 -17 1 -28z
m-212 -28 c0 -7 -9 -18 -20 -25 -23 -14 -26 -3 -9 29 10 20 29 17 29 -4z
m-1500 -41 c0 -14 -5 -28 -11 -32 -17 -10 -32 12 -24 35 9 29 35 27 35 -3z
m1169 -40 c0 -11 -3 -16 -5 -9 -3 7 -12 9 -20 6 -15 -6 -17 -2 -8 21 8 21 34
8 33 -18z m-1643 -33 c-10 -10 -19 5 -10 18 6 11 8 11 12 0 2 -7 1 -15 -2 -18z
m929 -14 c-19 -53 -70 -143 -92 -160 -12 -11 52 122 94 194 12 20 11 3 -2 -34z
m1455 15 c-8 -8 -22 -20 -32 -25 -17 -9 -18 -8 -9 9 10 19 25 29 45 31 5 1 3
-6 -4 -15z m-2295 -64 c3 -5 -1 -10 -10 -10 -9 0 -13 5 -10 10 3 6 8 10 10 10
2 0 7 -4 10 -10z m6 -47 c5 -14 4 -23 -5 -26 -20 -8 -56 21 -49 39 8 21 44 13
54 -13z m5099 -9 c0 -24 -2 -25 -47 -22 -35 2 -49 7 -51 20 -3 14 6 18 45 21
26 2 49 4 51 5 1 1 2 -9 2 -24z m87 -1 c5 -13 -45 -24 -53 -11 -3 5 -3 15 0
23 6 16 47 6 53 -12z m-217 -7 c0 -7 -14 -16 -31 -20 -56 -11 -66 -7 -34 13
36 23 65 26 65 7z m285 4 c3 -5 -3 -10 -15 -10 -12 0 -18 5 -15 10 3 6 10 10
15 10 5 0 12 -4 15 -10z m100 -10 c3 -5 -3 -10 -14 -10 -11 0 -23 5 -26 10 -3
6 3 10 14 10 11 0 23 -4 26 -10z m-515 -20 c0 -5 -12 -10 -27 -9 -25 0 -26 1
-8 9 27 12 35 12 35 0z m-5142 -9 c-2 -5 6 -16 16 -24 19 -14 19 -16 2 -41
-18 -29 -43 -31 -59 -5 -7 12 -4 24 13 47 24 33 32 39 28 23z m5039 -4 c3 -4
-8 -7 -25 -7 -18 0 -32 4 -32 9 0 11 46 8 57 -2z m-4657 -11 c0 -19 -49 -76
-50 -58 0 18 32 72 42 72 4 0 8 -6 8 -14z m4570 -5 c0 -4 -16 -12 -35 -18 -31
-10 -37 -9 -45 7 -9 17 -6 19 27 22 41 4 53 1 53 -11z m610 9 c0 -5 -19 -10
-42 -10 -32 0 -39 3 -28 10 20 13 70 13 70 0z m-725 -31 c4 -11 4 -23 1 -26
-10 -11 -141 -15 -166 -5 -24 9 -23 10 15 17 22 4 60 13 85 20 61 17 58 18 65
-6z m599 -15 c9 -24 7 -44 -4 -44 -12 0 -30 41 -23 53 7 12 21 8 27 -9z m46 6
c0 -5 -2 -10 -4 -10 -3 0 -8 5 -11 10 -3 6 -1 10 4 10 6 0 11 -4 11 -10z
m-1000 -5 c0 -21 -34 -65 -50 -65 -11 0 -24 -9 -30 -20 -6 -11 -20 -20 -31
-20 -16 0 -19 4 -13 23 11 38 33 75 46 80 18 7 78 8 78 2z m747 -1 c-3 -3 -12
-4 -19 -1 -8 3 -5 6 6 6 11 1 17 -2 13 -5z m146 -24 c3 -13 0 -20 -9 -20 -8 0
-14 10 -14 26 0 28 15 25 23 -6z m-4806 13 c-4 -3 -2 -12 4 -19 7 -9 4 -17
-13 -28 -22 -16 -48 -21 -48 -10 0 10 45 63 54 63 5 1 6 -2 3 -6z m3703 -13
c0 -11 -6 -20 -14 -20 -8 0 -21 -3 -30 -6 -22 -9 -21 22 2 35 27 16 42 13 42
-9z m90 15 c0 -4 -7 -19 -15 -35 -15 -28 -16 -29 -33 -12 -26 25 -16 52 19 52
16 0 29 -2 29 -5z m947 -21 c-3 -3 -25 -4 -48 -2 l-44 3 45 11 c39 9 62 3 47
-12z m233 16 c0 -5 -2 -10 -4 -10 -3 0 -8 5 -11 10 -3 6 -1 10 4 10 6 0 11 -4
11 -10z m-1515 -10 c-3 -5 -15 -10 -25 -10 -10 0 -22 5 -25 10 -4 6 7 10 25
10 18 0 29 -4 25 -10z m78 4 c12 -12 -6 -34 -27 -34 -28 0 -36 8 -29 26 5 14
44 20 56 8z m77 -14 c0 -15 -7 -20 -25 -20 -24 0 -34 18 -18 33 15 15 43 7 43
-13z m390 11 c0 -22 -23 -71 -33 -71 -29 0 -57 14 -57 27 0 33 21 53 55 53 19
0 35 -4 35 -9z m55 -21 c3 -5 -1 -10 -9 -10 -9 0 -16 -5 -16 -12 0 -6 -3 -9
-6 -5 -9 8 3 37 15 37 5 0 13 -4 16 -10z m120 -20 c0 -9 -11 -16 -27 -18 -23
-3 -26 0 -21 18 7 24 48 25 48 0z m107 -5 c-6 -32 -15 -37 -47 -29 -17 4 -25
12 -23 23 3 13 18 20 69 30 3 0 4 -10 1 -24z m117 2 c15 -19 4 -27 -39 -27
-20 0 -40 3 -43 7 -12 12 15 33 43 33 15 0 33 -6 39 -13z m102 3 c6 0 6 -7 0
-19 -12 -21 -61 -18 -61 4 0 16 19 25 38 19 8 -2 18 -4 23 -4z m105 -16 c-3
-9 -6 -20 -6 -25 0 -12 -12 -11 -44 1 -37 14 -23 40 21 40 28 0 34 -3 29 -16z
m106 11 c2 -3 3 -18 0 -35 -3 -25 -9 -30 -31 -30 -40 0 -53 13 -45 43 5 22 12
27 38 27 18 0 35 -2 38 -5z m-4542 -25 c0 -11 -4 -20 -9 -20 -14 0 -23 18 -16
30 10 17 25 11 25 -10z m4669 4 c3 -3 0 -13 -5 -22 -15 -23 -94 -30 -94 -8 0
39 12 48 54 42 22 -4 43 -9 45 -12z m-5324 -21 c-12 -51 -46 -71 -59 -36 -7
18 29 63 52 63 10 0 12 -7 7 -27z m4545 -9 c0 -2 -11 2 -25 8 -14 6 -25 15
-25 20 0 5 11 1 25 -8 14 -9 25 -18 25 -20z m868 28 c21 -14 2 -42 -28 -42
-36 0 -49 19 -25 37 21 15 35 16 53 5z m97 -27 c0 -16 -7 -20 -30 -20 -24 0
-31 5 -33 23 -3 21 0 23 30 20 25 -2 33 -8 33 -23z m-1193 -56 c5 -33 -6 -37
-40 -13 -24 17 -29 43 -10 62 17 17 45 -11 50 -49z m-312 26 c0 -19 -20 -29
-32 -17 -15 15 -2 43 17 36 8 -3 15 -12 15 -19z m70 15 c4 0 10 -7 14 -15 4
-11 -2 -15 -24 -15 -24 0 -30 4 -30 21 0 15 4 19 16 15 9 -3 19 -6 24 -6z
m-142 -16 c30 -9 8 -22 -30 -17 -73 8 -93 13 -79 23 12 7 78 4 109 -6z m226
10 c9 -3 16 -10 16 -16 0 -14 -53 -5 -58 10 -4 13 16 16 42 6z m66 -9 c0 -8
-4 -15 -9 -15 -13 0 -22 16 -14 24 11 11 23 6 23 -9z m-4513 -9 c-3 -7 -1 -18
5 -24 11 -11 -6 -52 -22 -52 -4 0 -15 -3 -24 -6 -25 -10 -20 24 10 63 26 34
40 43 31 19z m398 4 c-3 -5 -2 -10 3 -10 11 0 -13 -77 -30 -97 -17 -20 -28
-15 -28 12 0 26 13 56 39 88 15 18 26 23 16 7z m1145 -15 c0 -15 -18 -30 -27
-22 -2 3 -2 15 2 26 7 23 25 19 25 -4z m2134 -6 c58 -2 50 -3 -45 -9 -63 -4
-140 -10 -170 -14 l-54 -6 40 20 c32 17 52 20 99 15 32 -3 91 -6 130 -6z
m1026 -27 c-1 -40 -17 -44 -44 -12 -14 17 -24 36 -21 40 9 14 65 -10 65 -28z
m431 27 c-16 -6 -28 -6 -35 1 -7 7 1 10 25 9 32 0 33 -1 10 -10z m-3191 -14
c0 -8 -4 -15 -10 -15 -5 0 -10 7 -10 15 0 8 5 15 10 15 6 0 10 -7 10 -15z
m3317 9 c-3 -3 -12 -4 -19 -1 -8 3 -5 6 6 6 11 1 17 -2 13 -5z m-757 -25 c27
-15 -11 -10 -45 6 l-30 14 30 -6 c17 -3 37 -9 45 -14z m1330 7 c0 -18 -17 -29
-30 -21 -8 5 -7 11 1 21 15 18 29 18 29 0z m-1907 -15 c38 -14 -130 -50 -288
-61 -82 -6 -187 -14 -232 -17 -46 -3 -83 -10 -83 -15 0 -9 147 -2 235 11 79
12 195 14 195 2 0 -17 -11 -19 -180 -25 -241 -9 -360 -17 -366 -27 -3 -5 21
-6 53 -3 153 13 450 21 459 11 13 -12 -8 -25 -53 -33 l-48 -8 35 -5 35 -6 -21
-20 c-70 -65 -70 -65 -111 -45 -52 25 -153 32 -153 10 0 -5 12 -10 28 -10 29
0 106 -19 100 -25 -2 -3 -53 2 -288 30 -14 2 -31 4 -37 4 -7 1 -13 6 -13 11 0
6 29 10 68 10 94 0 282 21 282 32 0 5 -3 7 -7 5 -11 -7 -141 -16 -250 -19 -64
-2 -94 -7 -97 -15 -3 -7 -10 -13 -15 -13 -6 0 -8 6 -6 13 4 8 -9 13 -42 15
-91 6 -108 39 -38 79 52 30 100 43 182 49 38 3 74 7 82 10 7 2 106 7 220 10
116 4 210 11 216 16 13 13 -319 2 -462 -16 -101 -12 -123 -7 -60 13 51 17 171
28 322 30 77 1 156 6 175 11 36 9 128 4 163 -9z m865 1 c-14 -3 -15 -7 -6 -28
14 -30 6 -38 -27 -30 -17 4 -25 13 -25 28 0 27 27 47 54 40 17 -5 18 -7 4 -10z
m380 -4 c-3 -7 -13 -15 -24 -17 -16 -3 -17 -1 -5 13 16 19 34 21 29 4z m72 8
c0 -16 -14 -36 -26 -36 -14 0 -19 22 -7 33 7 8 33 10 33 3z m65 -6 c3 -6 -1
-13 -10 -16 -19 -8 -30 0 -20 15 8 14 22 14 30 1z m71 -12 c-3 -13 -6 -29 -6
-35 0 -23 -28 -14 -32 10 -6 33 1 47 24 47 16 0 19 -5 14 -22z m74 16 c0 -18
-24 -84 -30 -84 -13 0 -19 41 -10 66 8 21 40 35 40 18z m66 -19 c-3 -13 -12
-37 -18 -52 l-12 -28 -4 38 c-3 37 10 67 30 67 6 0 7 -11 4 -25z m76 19 c5 -5
-17 -93 -26 -102 -2 -2 -13 1 -24 7 -19 10 -19 12 -3 43 30 59 38 67 53 52z
m88 -11 c0 -18 -47 -102 -57 -103 -16 0 -17 34 -1 77 9 24 18 33 35 33 13 0
23 -3 23 -7z m-792 -25 c3 -15 0 -16 -27 -7 -38 14 -41 31 -4 27 17 -2 29 -10
31 -20z m852 15 c0 -14 -49 -69 -50 -56 0 22 23 63 37 63 7 0 13 -3 13 -7z
m-1434 -32 c62 -12 136 -29 165 -40 147 -52 447 -129 529 -136 68 -6 193 -26
208 -34 12 -7 -95 -24 -318 -52 -41 -5 -138 -12 -215 -14 -77 -2 -178 -11
-225 -20 -133 -24 -143 -23 -320 30 -31 9 -124 21 -210 26 -85 5 -186 13 -225
18 l-70 7 35 17 c19 9 46 32 60 51 14 20 31 36 39 36 8 0 11 6 7 16 -7 19 18
64 36 64 6 0 19 6 27 14 9 8 36 21 61 29 61 22 268 15 416 -12z m1455 2 c-12
-20 -14 -14 -5 12 4 9 9 14 11 11 3 -2 0 -13 -6 -23z m-732 1 c2 -2 -1 -10 -8
-17 -16 -20 -85 -7 -89 16 -3 15 3 16 45 10 26 -3 50 -7 52 -9z m-4909 -19 c0
-28 -20 -65 -35 -65 -24 0 -28 26 -9 59 17 29 44 32 44 6z m5007 11 c1 -1 -1
-13 -4 -28 -6 -31 -28 -36 -57 -15 -15 11 -17 17 -7 35 9 18 17 21 39 16 15
-4 28 -7 29 -8z m-247 -27 c0 -12 -43 6 -48 20 -3 9 2 9 22 0 14 -7 26 -16 26
-20z m-5110 -28 c-6 -13 -18 -18 -31 -16 -30 6 -32 10 -17 34 25 41 71 24 48
-18z m5460 31 c0 -30 -24 -54 -51 -50 -19 2 -25 10 -27 36 -3 31 -2 32 37 32
33 0 41 -4 41 -18z m115 -12 c3 -5 -1 -25 -9 -45 -14 -33 -18 -36 -52 -33 -32
3 -38 7 -39 28 -4 43 12 60 55 60 21 0 41 -4 45 -10z m-349 -16 c18 -15 18
-15 -6 -10 -14 3 -31 6 -37 6 -7 0 -13 5 -13 10 0 15 34 12 56 -6z m488 -15
c6 -5 5 -19 -3 -35 -11 -25 -14 -26 -59 -19 -61 9 -63 10 -50 46 10 30 12 31
57 24 25 -4 50 -11 55 -16z m-5236 -20 c-3 -23 -33 -48 -44 -37 -3 4 -4 19 0
33 8 33 49 36 44 4z m437 -9 c-6 -9 -9 -9 -16 1 -10 17 0 34 13 21 6 -6 7 -16
3 -22z m4907 25 c3 -3 -1 -27 -7 -53 -10 -37 -16 -46 -31 -44 -42 8 -52 30
-34 76 7 20 17 26 38 26 16 0 31 -2 34 -5z m62 -31 c20 -19 31 -63 20 -73 -5
-5 -25 -6 -44 -4 l-36 5 10 44 c11 46 24 54 50 28z m-5326 -27 c2 -19 -1 -27
-12 -27 -22 0 -38 34 -23 49 17 17 32 8 35 -22z m-478 3 c9 -16 6 -22 -20 -35
-33 -17 -50 -13 -50 12 0 17 28 42 47 43 7 0 17 -9 23 -20z m1154 6 c-21 -15
-30 -14 -19 3 3 6 14 11 23 11 13 0 13 -2 -4 -14z m1391 -6 c3 -5 -1 -10 -10
-10 -9 0 -13 5 -10 10 3 6 8 10 10 10 2 0 7 -4 10 -10z m-2 -59 l36 -28 -61
-7 c-105 -11 -106 -10 -62 29 21 19 42 34 45 35 3 0 22 -13 42 -29z m-1480 -9
c-11 -43 -154 -113 -258 -126 l-50 -6 68 25 c38 15 107 50 155 79 48 29 88 52
89 51 1 0 0 -11 -4 -23z m2223 -18 c8 -32 -4 -44 -38 -37 -23 4 -28 11 -28 34
0 25 4 29 30 29 23 0 31 -5 36 -26z m-3211 -24 c0 -22 -29 -18 -33 3 -3 14 1
18 15 15 10 -2 18 -10 18 -18z m795 4 c0 -8 -91 -46 -97 -41 -3 3 12 15 34 26
38 20 63 26 63 15z m2526 -5 c10 -17 -9 -27 -43 -22 -22 4 -30 9 -26 19 6 16
59 19 69 3z m96 -4 c3 -3 3 -16 1 -29 -4 -18 -10 -22 -29 -18 -13 2 -24 8 -24
12 0 5 -3 15 -6 24 -5 12 1 16 23 16 16 0 32 -2 35 -5z m-898 -21 c3 -8 9 -13
13 -12 7 2 83 -40 83 -45 0 -1 -33 -1 -72 1 -67 3 -201 -10 -401 -39 -71 -10
-99 -8 -85 6 3 3 30 10 61 15 54 8 169 59 182 80 11 17 212 11 219 -6z m1014
-12 c3 -20 -1 -22 -37 -22 -33 0 -41 4 -41 18 0 26 9 32 44 29 23 -2 32 -8 34
-25z m-788 -19 c0 -29 -12 -24 -17 7 -2 11 2 20 7 20 6 0 10 -12 10 -27z m898
10 c2 -9 -8 -13 -32 -13 -26 0 -36 4 -36 16 0 19 61 16 68 -3z m105 -15 c4
-12 5 -23 3 -25 -3 -3 -67 17 -75 23 -10 9 14 24 38 24 21 0 30 -6 34 -22z
m-560 -4 c26 -9 19 -50 -8 -46 -38 6 -43 10 -38 37 3 14 10 23 17 20 6 -3 19
-8 29 -11z m697 4 c-1 -45 -12 -58 -48 -55 -32 2 -37 6 -43 35 l-6 32 48 0
c33 0 49 -4 49 -12z m95 2 c3 -5 3 -26 -1 -46 -6 -32 -9 -35 -33 -29 -37 9
-44 19 -36 54 5 26 11 31 35 31 16 0 32 -4 35 -10z m1313 -5 c9 -9 -4 -16 -42
-22 -32 -5 -36 -3 -36 17 0 20 4 22 36 17 20 -3 39 -9 42 -12z m-5618 -4 c0
-9 -60 -24 -68 -16 -5 5 36 23 56 24 6 1 12 -3 12 -8z m1540 4 c0 -2 -15 -11
-32 -19 -42 -19 -148 -32 -148 -18 0 20 28 31 90 35 36 2 71 4 78 5 6 1 12 0
12 -3z m1594 -1 c9 -3 16 -15 16 -26 0 -14 -5 -18 -16 -14 -9 3 -18 6 -20 6
-2 0 -4 9 -4 20 0 22 1 23 24 14z m532 -43 c18 15 74 2 74 -18 0 -13 -12 -15
-75 -11 -41 3 -81 11 -90 18 -14 11 -13 15 7 34 l23 21 24 -28 c18 -21 26 -25
37 -16z m734 31 c0 -11 -7 -33 -16 -50 -12 -25 -19 -30 -33 -23 -13 7 -16 19
-13 50 4 38 6 41 33 41 22 0 29 -5 29 -18z m1100 9 c0 -11 -35 -21 -74 -21
-24 0 -27 2 -16 15 13 16 90 21 90 6z m260 -6 c0 -16 -20 -19 -71 -8 -33 7
-33 7 -9 14 45 13 80 10 80 -6z m-5232 -19 c6 -27 -11 -38 -33 -22 -17 12 -17
16 -6 30 17 20 35 16 39 -8z m3949 -21 c-9 -59 -46 -145 -63 -145 -23 0 -34
33 -18 60 7 14 13 42 14 62 0 55 8 68 42 68 31 0 31 0 25 -45z m84 35 c6 0 9
-23 7 -52 -3 -46 -6 -53 -25 -56 -23 -3 -31 -26 -13 -37 30 -19 -17 -118 -54
-113 -18 3 -21 9 -18 41 2 21 14 54 28 74 13 19 21 40 18 45 -3 5 0 31 7 59 9
35 17 48 27 44 7 -3 18 -5 23 -5z m1287 -5 c12 -12 -13 -24 -36 -19 -34 8 -36
10 -27 24 6 10 52 6 63 -5z m-2014 -1 c23 -9 20 -23 -4 -17 -11 3 -20 9 -20
14 0 11 3 11 24 3z m1334 -6 c18 -18 15 -48 -5 -48 -10 0 -28 -3 -40 -6 -21
-6 -23 -3 -23 30 0 33 2 36 28 36 15 0 33 -5 40 -12z m112 -8 c0 -13 -7 -20
-20 -20 -11 0 -23 0 -27 -1 -17 -1 -13 30 4 34 35 9 43 7 43 -13z m88 8 c-7
-19 -45 -21 -51 -4 -5 12 1 16 24 16 20 0 29 -4 27 -12z m-405 -22 c7 -18 -4
-76 -15 -76 -21 0 -49 22 -63 50 -19 37 -19 38 8 42 32 5 65 -2 70 -16z m102
-5 c0 -18 -8 -27 -28 -34 -34 -11 -35 -10 -43 32 l-7 32 39 -3 c34 -3 39 -6
39 -27z m-1652 12 c-7 -2 -19 -2 -25 0 -7 3 -2 5 12 5 14 0 19 -2 13 -5z m525
0 c-10 -2 -26 -2 -35 0 -10 3 -2 5 17 5 19 0 27 -2 18 -5z m708 -59 c-3 -25
-11 -54 -16 -65 -10 -18 -12 -18 -26 -4 -13 12 -14 21 -5 47 6 17 11 44 11 60
0 26 2 28 21 17 19 -9 21 -17 15 -55z m200 39 c28 -37 3 -38 -45 -1 l-24 18
28 0 c15 0 34 -8 41 -17z m-772 -9 c32 -32 18 -45 -37 -32 -49 11 -49 11 -41
32 8 21 57 21 78 0z m644 -46 c-3 -58 -5 -63 -27 -66 -21 -3 -23 -1 -18 20 4
12 7 42 7 66 0 36 3 42 20 42 19 0 21 -5 18 -62z m-883 42 c4 -6 -8 -10 -29
-10 -20 0 -36 5 -36 10 0 6 13 10 29 10 17 0 33 -4 36 -10z m339 -6 c23 -9 21
-54 -2 -54 -29 0 -54 23 -46 43 6 18 21 21 48 11z m1365 -30 c36 -61 20 -66
-29 -11 -21 24 -22 30 -10 37 8 5 16 10 17 10 0 0 11 -16 22 -36z m-48 -46
c10 -19 2 -23 -17 -10 -17 12 -44 56 -44 72 1 15 40 -25 61 -62z m-1217 56 c9
-3 16 -14 16 -23 0 -13 -7 -16 -34 -13 -27 3 -33 7 -29 23 5 20 20 24 47 13z
m554 -29 c2 -2 1 -17 -3 -34 -4 -21 -13 -31 -25 -31 -40 0 -50 11 -50 56 l0
44 37 -15 c20 -9 39 -17 41 -20z m797 -5 c28 -44 30 -50 15 -50 -12 0 -50 59
-50 78 0 21 9 14 35 -28z m76 5 c10 -16 18 -36 18 -44 1 -20 -28 8 -53 49 -17
30 -17 32 0 28 9 -1 25 -16 35 -33z m83 -5 c30 -46 31 -50 11 -50 -8 0 -15 8
-15 19 0 10 -11 26 -25 35 -27 18 -33 36 -11 36 7 0 25 -18 40 -40z m-383 8
c24 -29 24 -38 0 -38 -18 0 -51 34 -51 52 0 17 33 7 51 -14z m-5088 5 c-7 -2
-21 -2 -30 0 -10 3 -4 5 12 5 17 0 24 -2 18 -5z m4037 -24 c0 -6 -4 -7 -10 -4
-5 3 -10 11 -10 16 0 6 5 7 10 4 6 -3 10 -11 10 -16z m973 7 c3 -8 3 -17 0
-20 -7 -7 -33 13 -33 25 0 15 27 10 33 -5z m-73 -6 c0 -5 -4 -10 -10 -10 -5 0
-10 5 -10 10 0 6 5 10 10 10 6 0 10 -4 10 -10z m-1095 -15 l40 -14 -55 6 c-30
3 -62 9 -70 14 -25 14 40 9 85 -6z m802 -7 c17 -14 17 -47 -1 -54 -8 -3 -32 0
-55 6 -37 10 -41 14 -41 42 0 30 0 31 42 24 23 -4 48 -12 55 -18z m223 12 c-8
-5 -24 -9 -35 -9 -16 1 -16 2 5 9 35 11 48 11 30 0z m-135 -30 c11 -17 -6 -58
-23 -56 -30 5 -28 66 2 66 8 0 17 -4 21 -10z m313 -47 l3 -43 -36 0 -36 0 7
38 c9 49 12 54 37 50 18 -2 23 -11 25 -45z m88 31 c20 -5 24 -12 24 -46 0 -39
0 -40 -32 -33 -18 4 -33 8 -34 9 -1 0 -4 21 -8 45 -6 37 -4 43 10 37 9 -3 27
-9 40 -12z m-289 -30 c-3 -20 -8 -38 -9 -39 -2 -2 -20 2 -41 8 -24 8 -35 17
-32 25 3 8 5 20 5 28 0 10 12 14 41 14 l42 0 -6 -36z m91 28 c21 -14 4 -68
-26 -81 -17 -8 -28 -9 -36 -1 -7 7 -6 10 3 10 7 0 9 5 6 10 -4 6 -4 24 0 40 7
30 27 38 53 22z m-636 -27 c9 -20 8 -29 -3 -42 -9 -10 -20 -30 -27 -45 -13
-32 -20 -34 -47 -15 -17 13 -17 16 8 70 28 62 50 72 69 32z m968 -9 c0 -28 -4
-35 -25 -40 -36 -9 -45 -1 -45 40 0 32 2 34 35 34 33 0 35 -2 35 -34z m148 2
c-4 -42 -42 -53 -52 -16 -10 38 -11 37 47 47 5 0 7 -14 5 -31z m109 18 c1 -1
4 -13 8 -29 7 -26 6 -27 -33 -27 -41 0 -52 11 -52 51 0 17 5 19 38 13 20 -4
38 -7 39 -8z m214 4 c22 -12 26 -59 7 -78 -7 -7 -24 -12 -39 -12 -24 0 -27 3
-23 25 2 14 0 25 -6 25 -5 0 -10 11 -10 25 0 20 5 25 26 25 14 0 34 -5 45 -10z
m-411 -30 c0 -16 -4 -30 -10 -30 -5 0 -10 3 -10 8 0 4 -3 17 -6 30 -5 16 -2
22 10 22 11 0 16 -9 16 -30z m-1244 -7 c-7 -7 -26 7 -26 19 0 6 6 6 15 -2 9
-7 13 -15 11 -17z m1506 -18 c-5 -31 -22 -23 -22 10 0 16 4 23 14 19 8 -3 11
-15 8 -29z m-1128 6 c3 -5 -2 -19 -12 -31 -16 -20 -19 -21 -31 -6 -11 13 -11
19 -1 31 14 17 36 20 44 6z m-353 -21 c10 -6 19 -20 19 -30 0 -15 15 -27 53
-44 33 -15 58 -34 70 -54 23 -41 21 -50 -5 -25 -13 11 -36 28 -53 37 -38 20
-74 52 -103 94 -24 32 -17 41 19 22z m249 -5 c11 -13 8 -21 -20 -50 -36 -37
-60 -45 -60 -20 0 22 27 72 42 78 21 9 25 8 38 -8z m154 -7 c-7 -27 -35 -60
-42 -53 -7 7 30 75 41 75 5 0 5 -10 1 -22z m76 -4 c0 -7 -52 -77 -64 -86 -6
-4 -13 -5 -18 -2 -11 7 51 94 68 94 8 0 14 -3 14 -6z m79 -13 c10 -7 1 -22
-40 -65 -29 -31 -56 -56 -61 -56 -16 0 5 55 34 93 30 38 43 43 67 28z m-256
-32 c7 -12 0 -29 -26 -67 -34 -49 -35 -50 -52 -32 -16 18 -14 60 4 60 3 0 15
14 25 31 18 31 33 34 49 8z m347 15 c0 -8 -136 -144 -144 -144 -19 0 1 40 45
91 36 41 58 59 75 59 13 0 24 -3 24 -6z m89 -14 c7 0 -17 -30 -54 -67 -36 -36
-73 -77 -82 -89 -12 -19 -19 -22 -34 -13 -10 5 -19 15 -19 22 0 7 30 45 67 85
52 56 72 72 88 68 11 -3 26 -6 34 -6z m38 -67 c-90 -91 -111 -119 -103 -138 9
-24 23 -17 43 19 10 19 52 71 94 115 58 62 82 81 103 81 31 0 32 -4 9 -28 -72
-74 -180 -198 -191 -217 -14 -27 -29 -25 -91 13 -27 17 -30 21 -16 32 8 7 15
18 15 25 0 7 32 46 71 88 64 69 83 81 129 86 8 0 -20 -34 -63 -76z m233 58 c0
-10 -26 -42 -103 -126 -76 -85 -107 -126 -107 -146 0 -11 5 -19 10 -19 6 0 10
4 10 9 0 6 32 47 71 92 39 46 89 107 111 136 41 54 73 68 80 36 3 -11 -18 -41
-53 -78 -94 -100 -148 -164 -164 -195 l-15 -29 -43 18 c-29 12 -42 24 -43 39
-1 19 54 96 144 201 20 24 41 50 45 57 9 15 57 19 57 5z m180 -5 c0 -2 -18
-13 -40 -25 l-40 -21 2 25 c2 22 7 25 40 25 21 0 38 -2 38 -4z m216 -4 c-3 -5
-53 -37 -112 -72 -159 -93 -294 -238 -294 -314 0 -47 -14 -46 -66 5 -38 37
-41 44 -33 71 10 38 46 85 128 171 61 64 127 114 136 105 4 -4 -24 -41 -58
-78 -52 -56 -157 -214 -157 -235 0 -31 15 -32 31 -2 28 52 143 195 184 227 88
69 263 158 241 122z m-120 -15 c-10 -7 -41 -27 -69 -45 -27 -18 -52 -31 -54
-29 -2 2 17 23 42 46 31 28 53 41 72 40 26 0 26 -1 9 -12z m-916 -40 c0 -5
-13 -24 -29 -42 -16 -18 -31 -39 -34 -47 -4 -10 -7 -10 -16 2 -17 24 -13 53
15 93 25 37 27 38 45 21 10 -9 19 -21 19 -27z m52 -34 c10 -9 18 -19 18 -23 0
-15 -80 -91 -89 -85 -18 11 -12 49 14 88 29 42 32 43 57 20z m66 -55 c18 -18
14 -29 -23 -72 -29 -35 -35 -38 -49 -27 -20 17 -12 46 23 83 29 32 32 33 49
16z m90 -60 c8 -10 3 -24 -20 -58 -31 -46 -38 -49 -75 -24 l-23 14 36 50 c37
51 51 54 82 18z m75 -42 c17 -13 17 -16 -8 -51 -14 -21 -25 -42 -25 -46 0 -13
-14 -11 -36 5 -19 14 -19 15 6 60 26 49 35 53 63 32z m65 -45 c11 -6 11 -15 0
-49 -13 -42 -22 -48 -52 -36 -21 8 -20 22 4 62 21 34 27 37 48 23z m72 -31
c16 -9 17 -14 8 -43 -15 -44 -21 -49 -42 -34 -17 12 -17 18 -7 50 14 41 14 41
41 27z m98 -52 c26 -28 33 -81 12 -85 -8 -2 -30 6 -48 17 -28 17 -31 24 -26
47 12 52 28 57 62 21z m77 -98 c3 -5 -1 -10 -9 -10 -8 0 -18 5 -21 10 -3 6 1
10 9 10 8 0 18 -4 21 -10z"/>
<path d="M8198 12343 c0 -4 -2 -12 -3 -18 -2 -5 -3 -18 -4 -27 -1 -14 -10 -18
-41 -18 l-40 0 0 -48 c0 -57 19 -80 73 -89 50 -8 107 4 107 23 0 8 10 28 22
44 39 53 0 119 -79 135 -18 4 -34 3 -35 -2z"/>
<path d="M5910 7710 c0 -5 5 -10 11 -10 5 0 7 5 4 10 -3 6 -8 10 -11 10 -2 0
-4 -4 -4 -10z"/>
<path d="M6246 6131 c-4 -7 -5 -15 -2 -18 9 -9 19 4 14 18 -4 11 -6 11 -12 0z"/>
<path d="M4850 4251 c0 -6 4 -13 10 -16 6 -3 7 1 4 9 -7 18 -14 21 -14 7z"/>
<path d="M4030 4061 c0 -6 4 -13 10 -16 6 -3 7 1 4 9 -7 18 -14 21 -14 7z"/>
<path d="M3898 2375 c-3 -11 -9 -29 -13 -40 -3 -11 1 -7 10 8 9 16 15 33 12
40 -2 6 -6 3 -9 -8z"/>
<path d="M5067 1383 c18 -2 50 -2 70 0 21 2 7 4 -32 4 -38 0 -55 -2 -38 -4z"/>
<path d="M5025 1350 c-19 -8 -19 -9 3 -9 12 -1 22 4 22 9 0 6 -1 10 -2 9 -2 0
-12 -4 -23 -9z"/>
<path d="M4945 1340 c-18 -8 -18 -9 5 -9 14 0 32 4 40 9 12 8 12 10 -5 9 -11
0 -29 -4 -40 -9z"/>
<path d="M9211 8662 c-13 -105 -15 -200 -2 -186 9 10 30 191 28 236 -4 56 -15
35 -26 -50z"/>
<path d="M9221 8388 c-7 -18 -14 -60 -17 -93 -3 -33 -7 -75 -9 -92 -2 -18 0
-33 4 -33 8 0 45 239 38 247 -3 2 -10 -11 -16 -29z"/>
<path d="M9093 8398 c-16 -21 -33 -102 -38 -185 -3 -43 -3 -73 0 -68 5 11 53
265 49 265 -1 0 -6 -6 -11 -12z"/>
<path d="M8856 8364 c-10 -25 1 -29 14 -5 6 12 7 21 1 21 -5 0 -12 -7 -15 -16z"/>
<path d="M9011 8153 c-1 -6 -4 -20 -7 -30 -5 -17 -5 -17 6 0 6 10 9 23 6 30
-3 9 -5 9 -5 0z"/>
<path d="M8456 8054 c-21 -54 -62 -152 -92 -219 -53 -120 -65 -174 -44 -205
22 -32 116 109 138 208 10 44 0 65 -26 54 -12 -4 -14 -1 -8 14 39 97 76 211
74 227 -2 11 -20 -23 -42 -79z"/>
<path d="M8997 8093 c-4 -3 -7 -13 -7 -22 1 -13 3 -13 11 2 11 19 8 33 -4 20z"/>
<path d="M8961 7974 c-6 -22 -17 -61 -26 -89 -15 -51 -19 -72 -10 -64 8 9 56
182 51 186 -3 3 -9 -12 -15 -33z"/>
<path d="M8810 7981 c-5 -11 -10 -26 -10 -35 0 -8 -18 -52 -40 -97 -39 -81
-50 -129 -30 -129 6 0 10 4 10 8 0 4 22 43 50 87 51 81 67 128 55 164 -8 26
-21 27 -35 2z"/>
<path d="M9010 7856 c-13 -42 -21 -79 -17 -82 3 -3 11 14 17 37 6 24 16 56 21
71 6 15 9 32 7 39 -2 6 -14 -23 -28 -65z"/>
<path d="M8967 7718 c-28 -77 -59 -189 -54 -194 3 -3 22 47 42 111 21 64 35
118 33 121 -3 2 -12 -15 -21 -38z"/>
<path d="M8676 7655 c-3 -9 -6 -22 -5 -28 0 -7 5 -1 10 12 5 13 8 26 5 28 -2
2 -6 -3 -10 -12z"/>
<path d="M9096 7600 c-15 -70 -60 -207 -97 -299 -41 -99 -47 -138 -9 -54 56
123 126 349 117 377 -2 6 -7 -5 -11 -24z"/>
<path d="M8616 7497 c-51 -119 -65 -167 -49 -167 5 0 15 11 21 25 6 14 18 25
26 25 7 0 16 13 19 29 3 15 18 54 32 86 24 52 25 60 13 86 l-14 29 -48 -113z"/>
<path d="M8437 7527 c-12 -14 -33 -56 -46 -94 -13 -37 -35 -90 -48 -116 -13
-27 -22 -54 -20 -60 8 -21 106 93 138 159 46 97 30 169 -24 111z"/>
<path d="M8267 7510 c-14 -11 -35 -45 -46 -74 -11 -30 -47 -112 -81 -182 -33
-70 -58 -130 -55 -132 9 -9 65 50 103 108 81 122 87 135 107 214 19 78 11 97
-28 66z"/>
<path d="M8896 7495 c-9 -26 -7 -32 5 -12 6 10 9 21 6 23 -2 3 -7 -2 -11 -11z"/>
<path d="M9052 7164 c-29 -70 -50 -129 -47 -132 7 -7 5 -10 52 93 34 76 62
165 51 165 -2 0 -27 -57 -56 -126z"/>
<path d="M8476 7147 c-9 -7 -34 -57 -57 -112 -22 -55 -50 -112 -61 -127 -26
-38 -1 -38 34 0 33 34 104 166 113 209 7 36 -4 48 -29 30z"/>
<path d="M8238 7083 c-9 -10 -26 -38 -38 -63 -13 -25 -54 -81 -91 -125 -38
-44 -69 -88 -69 -97 0 -23 -2 -23 56 10 134 74 176 128 178 230 1 59 -11 74
-36 45z"/>
<path d="M9200 7063 c-1 -96 -14 -315 -21 -343 -6 -24 -7 1 -4 75 4 121 -4 91
-24 -95 -17 -147 -61 -379 -81 -425 -12 -27 -25 -78 -40 -150 -12 -59 -22 -97
-95 -360 -49 -175 -66 -223 -142 -404 -70 -168 -121 -272 -164 -336 -27 -41
-213 -417 -276 -559 -38 -86 -65 -136 -94 -178 -11 -14 -19 -29 -19 -32 0 -8
-107 -170 -187 -284 -32 -45 -80 -115 -108 -155 -27 -39 -70 -99 -95 -132 -25
-33 -111 -159 -192 -280 -122 -182 -166 -240 -260 -336 -62 -63 -133 -133
-157 -155 l-44 -39 45 60 c54 72 178 260 178 270 0 14 -119 -151 -327 -453
-105 -153 -254 -343 -369 -471 -59 -67 -121 -141 -136 -164 -30 -45 -43 -57
-129 -117 -31 -22 -63 -45 -70 -52 -8 -7 -31 -22 -51 -33 -21 -11 -38 -23 -38
-27 0 -11 28 2 95 44 33 21 77 47 97 58 63 34 185 164 294 315 60 83 127 162
244 285 25 26 55 67 67 91 12 24 43 69 68 99 25 30 45 58 45 62 0 4 9 9 19 13
11 3 29 20 40 38 11 18 21 28 21 23 0 -5 11 2 23 16 13 14 33 29 44 32 12 4
26 19 32 35 7 15 40 57 74 92 68 71 87 98 245 335 121 182 287 426 335 494 18
25 60 84 94 130 54 75 203 321 203 335 0 13 274 553 304 599 66 102 111 197
147 311 15 48 48 121 72 156 30 45 142 434 187 649 35 164 51 224 74 268 9 17
22 68 30 114 8 45 20 108 27 138 19 93 18 81 33 393 2 32 -1 60 -6 63 -4 3 -8
-3 -8 -13z"/>
<path d="M8621 6988 c-6 -24 -25 -96 -42 -161 -16 -65 -39 -141 -49 -168 -28
-69 -24 -75 6 -9 23 51 108 369 100 377 -2 2 -9 -16 -15 -39z"/>
<path d="M8775 7009 c-4 -6 -5 -12 -2 -15 2 -3 7 2 10 11 7 17 1 20 -8 4z"/>
<path d="M8747 6938 c-9 -23 -15 -43 -13 -45 2 -2 11 15 20 38 9 23 15 43 13
45 -2 2 -11 -15 -20 -38z"/>
<path d="M8692 6815 c-17 -36 -30 -65 -27 -65 7 0 67 121 63 126 -2 2 -18 -26
-36 -61z"/>
<path d="M8947 6833 c-4 -3 -7 -14 -7 -23 0 -16 -71 -175 -136 -304 -14 -27
-23 -51 -20 -53 2 -3 30 43 61 101 31 59 64 114 73 123 20 19 54 145 43 156
-4 4 -10 4 -14 0z"/>
<path d="M8630 6695 c-6 -15 -13 -32 -16 -36 -3 -5 -3 -9 0 -9 9 0 38 61 32
67 -3 3 -10 -7 -16 -22z"/>
<path d="M8014 6665 c-28 -19 -154 -170 -183 -217 -12 -21 -21 -46 -19 -55 3
-15 9 -12 34 15 43 50 67 73 118 115 41 34 96 118 96 147 0 14 -22 12 -46 -5z"/>
<path d="M8133 6527 c-47 -51 -98 -135 -88 -145 4 -4 16 5 28 19 67 82 117
150 117 159 0 20 -18 10 -57 -33z"/>
<path d="M8672 6525 c-17 -37 -14 -45 4 -12 9 16 14 31 11 33 -2 2 -9 -7 -15
-21z"/>
<path d="M7655 6433 c-148 -136 -215 -225 -215 -284 0 -22 70 39 224 196 95
97 145 185 105 185 -5 0 -56 -44 -114 -97z"/>
<path d="M8640 6459 c0 -5 5 -7 10 -4 6 3 10 8 10 11 0 2 -4 4 -10 4 -5 0 -10
-5 -10 -11z"/>
<path d="M8848 6418 c-15 -29 -50 -91 -79 -138 -28 -46 -41 -76 -30 -66 12 11
21 22 21 27 0 4 16 31 36 60 45 67 86 147 82 160 -2 6 -15 -14 -30 -43z"/>
<path d="M7790 6204 c-39 -35 -140 -176 -140 -195 0 -20 39 18 115 112 44 54
83 99 88 99 4 0 7 5 7 10 0 21 -31 9 -70 -26z"/>
<path d="M8767 6113 c-47 -95 -97 -187 -130 -242 -12 -19 -16 -31 -9 -27 22
13 198 343 188 353 -2 3 -24 -35 -49 -84z"/>
<path d="M7421 6015 c-96 -81 -164 -152 -188 -198 -23 -45 -7 -44 45 4 26 24
79 68 117 98 62 48 155 147 155 165 0 23 -52 -5 -129 -69z"/>
<path d="M8489 5893 c-108 -168 -120 -190 -84 -148 33 38 188 285 183 291 -2
2 -47 -62 -99 -143z"/>
<path d="M8836 5832 c-10 -31 -40 -111 -67 -176 -27 -66 -48 -121 -46 -123 6
-6 103 226 121 291 22 76 15 83 -8 8z"/>
<path d="M8891 5782 c-11 -21 -44 -103 -74 -182 -30 -80 -89 -215 -130 -300
-41 -85 -89 -189 -107 -230 -54 -124 -91 -193 -123 -229 -16 -19 -68 -114
-115 -210 -87 -178 -128 -255 -187 -346 -218 -338 -249 -384 -349 -512 -62
-80 -142 -220 -132 -230 8 -8 6 -11 47 71 33 66 100 152 218 281 56 61 161
199 161 211 0 3 21 38 46 76 25 38 45 71 43 73 -2 2 -48 -61 -102 -139 -53
-79 -107 -152 -118 -162 -12 -10 14 35 58 101 144 216 245 393 332 585 19 41
63 120 98 174 36 55 92 156 125 225 142 295 209 446 251 562 25 68 54 145 66
172 24 56 19 62 -8 9z"/>
<path d="M7414 5781 c-40 -30 -91 -88 -112 -128 -13 -24 -16 -56 -4 -51 4 2
52 49 106 106 86 88 96 102 74 102 -13 0 -42 -13 -64 -29z"/>
<path d="M8660 5678 c-32 -57 -84 -201 -78 -219 2 -6 19 33 37 88 18 54 44
117 58 141 14 23 22 42 19 42 -3 0 -19 -24 -36 -52z"/>
<path d="M7089 5608 c-94 -63 -193 -160 -225 -223 -16 -29 -25 -57 -22 -61 4
-3 38 24 75 62 37 38 107 104 156 147 91 82 119 117 93 117 -7 0 -42 -19 -77
-42z"/>
<path d="M8316 5484 c-5 -14 -4 -15 9 -4 17 14 19 20 6 20 -5 0 -12 -7 -15
-16z"/>
<path d="M8223 5353 c-100 -135 -215 -313 -200 -313 2 0 23 30 47 68 103 157
165 249 195 287 34 43 49 65 42 65 -2 0 -40 -48 -84 -107z"/>
<path d="M7942 5303 c-13 -36 -21 -67 -19 -70 3 -2 15 26 27 62 12 36 20 68
18 70 -2 2 -14 -26 -26 -62z"/>
<path d="M7896 5169 c-21 -68 -13 -76 9 -9 9 28 15 54 12 57 -3 3 -13 -19 -21
-48z"/>
<path d="M8141 5013 l-116 -117 115 109 c63 60 119 113 125 117 5 5 5 8 0 8
-4 0 -60 -53 -124 -117z"/>
<path d="M7847 5032 c-39 -100 -41 -108 -30 -97 14 13 67 154 61 160 -2 3 -16
-26 -31 -63z"/>
<path d="M8085 4798 c-8 -13 -46 -66 -84 -118 -71 -99 -106 -158 -98 -167 3
-2 11 6 17 19 7 12 43 66 80 118 73 102 115 170 106 170 -3 0 -12 -10 -21 -22z"/>
<path d="M8027 4543 c-71 -139 -98 -184 -148 -253 -72 -99 -158 -240 -145
-240 3 0 56 78 119 173 104 156 214 353 203 365 -3 2 -16 -18 -29 -45z"/>
<path d="M7986 4193 c-129 -221 -199 -326 -316 -473 -97 -122 -106 -132 -80
-87 44 76 0 33 -78 -75 -44 -62 -100 -133 -123 -158 -63 -65 -158 -174 -154
-178 1 -2 27 23 56 55 125 134 185 201 207 228 l23 30 -20 -35 c-11 -19 -39
-69 -62 -110 -28 -50 -89 -124 -178 -220 -74 -80 -162 -179 -195 -220 -34 -41
-78 -94 -100 -117 -21 -24 -34 -43 -29 -43 13 0 82 74 215 230 64 74 139 158
168 185 72 69 170 205 170 236 0 16 72 121 140 204 174 211 266 341 337 478
54 103 88 165 110 200 23 37 46 87 39 87 -2 0 -60 -98 -130 -217z"/>
<path d="M7565 4337 c-49 -62 -69 -97 -55 -97 5 0 10 4 10 9 0 5 21 37 46 70
56 75 55 89 -1 18z"/>
<path d="M7431 4339 c-5 -13 -16 -41 -24 -61 -9 -21 -14 -38 -11 -38 9 0 56
111 50 117 -3 3 -10 -5 -15 -18z"/>
<path d="M7782 4293 c-38 -59 -74 -142 -68 -157 2 -6 10 5 17 24 7 19 30 68
51 108 21 39 37 72 34 72 -2 0 -18 -21 -34 -47z"/>
<path d="M1715 4273 c-3 -16 -13 -52 -21 -80 -8 -29 -21 -110 -29 -180 -22
-196 -53 -364 -70 -383 -35 -38 -46 -152 -43 -420 3 -251 4 -256 29 -307 l26
-52 8 187 c4 103 9 284 11 402 3 181 7 225 24 275 l20 60 -4 -165 -4 -165 45
-115 45 -115 -9 -130 c-9 -119 -13 -137 -47 -212 -37 -79 -51 -92 -96 -93 -8
0 -26 21 -40 48 -13 26 -48 72 -77 103 -46 48 -55 64 -64 115 -25 143 -72 260
-143 358 -19 27 -33 53 -30 57 2 4 -4 10 -13 13 -10 3 -26 18 -36 33 l-18 28
5 -32 c3 -17 22 -60 44 -95 55 -91 142 -311 142 -359 0 -4 -21 2 -47 16 -34
17 -51 21 -60 13 -10 -8 -4 -17 25 -38 86 -64 103 -84 117 -140 20 -76 20 -83
-5 -70 -11 6 -44 48 -74 93 -54 84 -82 115 -93 103 -3 -3 -1 -17 5 -31 13 -28
2 -34 -19 -9 -18 22 -67 46 -87 42 -12 -2 -9 -11 17 -41 18 -20 47 -45 63 -55
29 -17 75 -88 64 -100 -3 -3 -36 7 -74 21 -37 15 -71 27 -75 27 -12 0 -8 -28
6 -32 36 -9 176 -93 165 -99 -7 -3 -42 -10 -78 -13 -36 -4 -83 -12 -104 -17
-34 -9 -47 -7 -88 12 -41 19 -51 21 -75 10 l-28 -13 29 -23 29 -23 -54 -15
c-85 -24 -117 -29 -123 -19 -7 12 33 48 59 55 16 4 15 5 -6 6 -26 1 -79 -44
-79 -67 0 -13 -21 -19 -109 -29 -37 -5 -66 -13 -69 -20 -5 -18 121 -16 223 2
116 22 266 30 303 17 18 -6 34 -7 37 -3 2 5 27 11 55 15 56 8 66 23 19 33 -38
7 -28 17 36 32 28 7 57 14 66 17 12 3 20 -5 28 -28 8 -22 14 -29 22 -21 7 7
23 6 51 -4 30 -10 49 -11 67 -4 14 5 154 17 311 26 157 9 305 17 330 20 25 2
88 4 140 5 62 1 88 4 74 10 -12 4 -147 2 -310 -6 -422 -21 -586 -22 -592 -5
-4 11 5 13 49 8 l54 -6 -25 19 c-19 15 -22 20 -10 24 38 13 100 25 158 32 l62
7 0 -32 c0 -19 4 -30 10 -26 6 3 10 14 10 24 0 35 25 43 147 43 129 1 153 6
105 22 -17 6 -32 16 -32 21 0 11 5 12 70 14 39 1 43 3 28 15 -16 12 -16 14 0
30 16 16 16 18 0 27 -10 6 -18 17 -18 25 0 8 -12 27 -27 42 -28 28 -80 147
-108 247 -27 97 -56 188 -72 223 -12 24 -19 30 -28 22 -10 -8 -15 7 -24 67
-14 95 -44 196 -70 232 -23 32 -26 100 -15 359 7 150 2 201 -11 135z m28 -641
c14 -56 58 -359 57 -396 0 -6 -19 26 -41 71 l-41 82 -5 155 c-4 94 -2 156 3
156 5 0 17 -31 27 -68z m-147 -407 c-1 -151 -4 -275 -7 -275 -15 0 -19 139
-10 325 6 110 11 206 11 213 0 6 2 12 4 12 2 0 3 -124 2 -275z m283 45 c23
-80 41 -154 41 -165 0 -11 14 -55 31 -99 19 -50 27 -82 21 -88 -16 -16 -50 9
-60 45 -5 17 -20 57 -32 87 -13 32 -26 95 -31 150 -5 52 -12 124 -15 160 -4
36 -4 63 -1 60 3 -3 24 -71 46 -150z m-80 -295 c-6 -44 -17 -90 -25 -103 -8
-12 -13 -30 -12 -39 3 -18 -46 -42 -59 -29 -4 4 3 26 16 48 30 52 71 166 71
197 0 16 4 21 9 16 6 -6 6 -40 0 -90z m73 -77 c-28 -11 -52 -9 -47 5 2 6 9 26
16 42 l11 30 18 -35 c17 -32 17 -36 2 -42z m-332 -109 c0 -28 -39 -31 -66 -4
-18 18 -24 35 -24 67 l0 42 45 -44 c25 -24 45 -52 45 -61z m371 70 l22 -32
-52 5 c-70 7 -85 23 -40 42 46 20 44 20 70 -15z m-91 -39 c0 -5 -5 -10 -11
-10 -5 0 -7 5 -4 10 3 6 8 10 11 10 2 0 4 -4 4 -10z m-390 -60 c12 -8 11 -10
-7 -10 -13 0 -23 5 -23 10 0 13 11 13 30 0z m-215 -66 c-54 -15 -82 -18 -72
-8 8 9 67 22 97 22 14 0 4 -6 -25 -14z m-192 -41 c-7 -2 -21 -2 -30 0 -10 3
-4 5 12 5 17 0 24 -2 18 -5z"/>
<path d="M7845 4157 c-16 -23 -29 -46 -27 -50 1 -5 -26 -48 -61 -95 -100 -137
-218 -312 -210 -312 9 1 93 114 178 240 31 47 69 99 84 115 15 17 45 55 66 85
34 48 35 52 11 30 l-29 -25 12 23 c21 39 8 33 -24 -11z"/>
<path d="M6575 3462 c-187 -193 -191 -198 -71 -87 132 123 250 245 267 277 5
10 8 18 7 17 -2 -1 -93 -94 -203 -207z"/>
<path d="M7589 3403 c-43 -46 -75 -91 -89 -127 -17 -47 5 -28 43 37 20 34 50
77 67 95 17 17 27 32 23 32 -5 0 -25 -17 -44 -37z"/>
<path d="M8806 3220 c-94 -286 -162 -472 -261 -715 -91 -222 -99 -245 -96
-272 2 -22 21 -14 21 9 0 25 121 321 128 314 2 -3 -12 -55 -32 -116 -49 -147
-75 -271 -69 -320 6 -44 26 -50 31 -9 6 38 19 43 37 15 20 -30 51 -34 95 -11
41 21 78 10 102 -30 25 -44 43 -49 67 -20 10 14 24 25 30 25 10 0 65 -22 103
-41 9 -4 83 -15 165 -24 81 -8 195 -20 253 -26 58 -6 123 -13 145 -16 56 -5
64 -9 61 -30 -3 -16 -12 -18 -72 -15 -63 2 -213 22 -289 39 -27 5 -28 7 -10
14 15 7 12 8 -14 6 -19 -1 -36 -7 -38 -13 -4 -11 53 -26 172 -44 73 -12 88
-14 194 -25 49 -6 65 -11 68 -25 6 -23 37 -22 81 2 18 10 51 18 74 18 47 0
250 -40 258 -50 5 -7 22 -10 62 -11 10 0 17 -6 15 -12 -1 -7 7 -11 21 -9 17 3
22 -2 22 -18 0 -19 4 -21 33 -15 43 10 46 14 19 35 -25 20 -229 71 -364 91
-72 10 -88 15 -88 29 0 23 -16 27 -195 54 -122 18 -150 25 -147 38 2 11 -11
19 -42 27 -61 15 -111 14 -171 -5 -46 -14 -57 -14 -132 2 -92 19 -153 49 -168
82 -13 29 -29 23 -33 -12 -2 -19 -8 -26 -20 -24 -14 3 -18 17 -19 68 -6 134
-27 170 -51 88 -7 -24 -16 -49 -19 -57 -3 -9 -1 -11 6 -7 7 5 11 -4 11 -28 0
-38 -10 -49 -34 -40 -12 5 -13 10 -5 26 15 27 4 35 -13 9 -9 -15 -23 -21 -50
-21 -20 0 -39 4 -42 9 -9 13 -10 104 -2 129 6 16 3 22 -8 22 -28 0 -19 82 25
223 23 73 45 148 51 167 31 111 55 170 70 170 4 0 8 -7 8 -15 0 -39 100 -189
116 -173 2 3 -9 35 -25 71 -36 80 -71 201 -71 246 0 43 20 121 31 121 5 0 9
-30 9 -67 0 -38 6 -95 14 -128 8 -33 17 -80 20 -105 4 -25 11 -52 17 -60 15
-21 4 178 -16 290 -8 47 -17 101 -20 120 -5 24 2 61 20 118 14 46 25 88 22 95
-2 6 -29 -67 -61 -163z m-75 -333 c-13 -13 -15 1 -4 30 7 17 8 17 11 -1 2 -10
-1 -23 -7 -29z m-185 -715 c-13 -12 -17 8 -10 40 l9 33 3 -33 c2 -19 1 -36 -2
-40z m99 -42 c-3 -5 -13 -10 -21 -10 -8 0 -14 5 -14 10 0 6 9 10 21 10 11 0
17 -4 14 -10z m180 -40 c-3 -5 -10 -10 -16 -10 -5 0 -9 5 -9 10 0 6 7 10 16
10 8 0 12 -4 9 -10z m510 -50 c16 -7 13 -9 -15 -8 -19 0 -48 4 -65 8 -27 7
-26 8 15 8 25 0 54 -3 65 -8z"/>
<path d="M6530 3180 c-51 -55 -90 -100 -87 -100 3 0 46 45 97 100 51 55 90
100 87 100 -3 0 -46 -45 -97 -100z"/>
<path d="M5756 3123 c-6 -14 -5 -15 5 -6 7 7 10 15 7 18 -3 3 -9 -2 -12 -12z"/>
<path d="M5690 3035 c-28 -35 -88 -98 -132 -140 -45 -41 -77 -75 -72 -75 19 0
264 257 264 277 0 10 -14 -4 -60 -62z"/>
<path d="M7050 3053 c-49 -58 -238 -332 -266 -385 -41 -80 -26 -75 24 8 26 44
68 106 93 139 49 65 191 275 185 275 -2 0 -18 -17 -36 -37z"/>
<path d="M8136 3005 c-9 -26 -7 -32 5 -12 6 10 9 21 6 23 -2 3 -7 -2 -11 -11z"/>
<path d="M6824 2908 c-11 -13 -32 -41 -46 -63 -14 -22 -46 -71 -70 -110 -25
-38 -93 -128 -152 -200 -114 -139 -223 -291 -214 -300 3 -3 34 34 68 82 35 48
94 124 130 168 100 120 181 231 229 315 24 41 52 87 63 103 23 33 19 35 -8 5z"/>
<path d="M6585 2884 c-15 -22 -82 -124 -149 -229 -66 -104 -132 -205 -145
-223 -43 -60 -14 -44 35 19 102 131 302 454 290 466 -3 3 -17 -12 -31 -33z"/>
<path d="M7717 2866 c-6 -18 0 -260 7 -284 4 -12 12 -22 18 -22 6 0 9 2 6 5
-3 3 1 31 8 63 15 61 19 220 6 237 -10 14 -40 15 -45 1z"/>
<path d="M6227 2843 c-4 -3 -7 -13 -7 -22 1 -13 3 -13 11 2 11 19 8 33 -4 20z"/>
<path d="M7585 2775 c-25 -26 -45 -54 -45 -62 0 -15 -20 -55 -33 -64 -4 -3
-14 -39 -21 -80 -9 -51 -15 -69 -21 -56 -4 10 -5 31 -2 47 6 28 6 29 -12 12
-10 -9 -26 -22 -35 -27 -19 -11 -32 -75 -16 -75 6 0 10 -7 10 -15 0 -8 -4 -15
-10 -15 -5 0 -10 -5 -10 -12 0 -9 3 -9 12 0 18 18 25 15 32 -14 9 -34 -5 -49
-32 -35 -15 8 -23 8 -27 0 -10 -15 -2 -19 38 -22 20 -2 45 -11 55 -20 26 -23
41 -21 35 4 -5 19 -4 20 16 9 17 -9 26 -9 36 0 14 11 86 1 185 -26 17 -5 22
-3 15 3 -14 14 -100 41 -155 49 -25 3 -51 7 -57 9 -18 6 -4 35 16 36 10 0 11
2 4 6 -18 7 -16 33 7 148 34 165 30 158 52 85 10 -36 25 -89 32 -118 19 -73
24 -74 26 0 0 35 2 79 4 98 4 46 -22 156 -40 171 -12 10 -22 4 -59 -36z m-88
-357 c-3 -8 -6 -5 -6 6 -1 11 2 17 5 13 3 -3 4 -12 1 -19z"/>
<path d="M8070 2798 c0 -13 -5 -30 -11 -38 -8 -13 -9 -12 -7 4 5 30 -21 31
-32 1 -5 -14 -10 -64 -10 -110 0 -66 -6 -99 -26 -152 -46 -125 -84 -237 -84
-252 -1 -40 -15 -41 -95 -7 -93 40 -280 75 -298 57 -6 -6 -47 -11 -96 -11 -46
0 -81 -3 -77 -7 3 -4 57 -10 119 -14 202 -13 261 -21 302 -39 31 -14 35 -18
18 -19 -13 -1 -23 -5 -23 -10 0 -4 37 -11 83 -14 45 -3 128 -15 185 -27 56
-12 113 -20 125 -18 23 3 -115 42 -191 53 -35 6 -42 10 -36 23 3 10 12 42 19
72 7 30 28 97 47 149 36 97 42 99 54 22 3 -20 7 -37 8 -39 2 -1 6 57 9 130 4
73 12 150 17 171 16 55 20 97 9 97 -5 0 -9 -10 -9 -22z"/>
<path d="M8145 2747 c-13 -31 -33 -110 -44 -174 -40 -247 -53 -335 -47 -340 3
-3 12 0 21 7 12 10 19 7 40 -18 33 -40 81 -55 158 -50 l62 3 -3 -36 c-4 -43 6
-49 68 -40 33 4 46 11 48 25 3 15 0 17 -14 12 -11 -4 -31 -10 -46 -13 -26 -5
-28 -3 -28 31 l0 36 -76 0 c-85 0 -121 15 -148 60 -20 35 -20 65 -1 119 16 45
12 50 -18 24 -20 -18 -20 -17 -13 17 4 19 13 89 21 155 7 66 22 144 34 174 28
73 18 79 -14 8z"/>
<path d="M2530 2724 c0 -8 5 -12 10 -9 6 4 8 11 5 16 -9 14 -15 11 -15 -7z"/>
<path d="M5355 2580 c-38 -38 -67 -71 -64 -73 2 -2 37 29 77 70 41 40 70 73
65 73 -5 0 -40 -31 -78 -70z"/>
<path d="M1845 2630 c-49 -3 -99 -11 -110 -18 -19 -13 -18 -13 5 -6 14 4 190
8 392 8 233 1 368 5 368 11 0 11 -500 15 -655 5z"/>
<path d="M6428 2471 c-68 -66 -121 -122 -118 -125 4 -3 62 51 130 119 69 69
122 125 118 125 -4 0 -62 -54 -130 -119z"/>
<path d="M1845 2564 c-256 -31 -430 -58 -585 -90 -304 -64 -459 -86 -555 -81
-22 1 -41 -2 -42 -8 -2 -6 44 -10 125 -9 126 2 146 5 417 66 154 34 344 66
556 93 112 14 208 30 214 36 10 10 18 11 -130 -7z"/>
<path d="M6522 2419 c-135 -140 -144 -163 -12 -33 62 62 111 116 109 120 -2 5
-46 -34 -97 -87z"/>
<path d="M1545 2420 l-40 -7 40 -1 c22 0 58 3 80 7 l40 9 -40 -1 c-22 0 -58
-3 -80 -7z"/>
<path d="M1448 2403 c6 -2 18 -2 25 0 6 3 1 5 -13 5 -14 0 -19 -2 -12 -5z"/>
<path d="M1383 2393 c9 -2 23 -2 30 0 6 3 -1 5 -18 5 -16 0 -22 -2 -12 -5z"/>
<path d="M1328 2383 c6 -2 18 -2 25 0 6 3 1 5 -13 5 -14 0 -19 -2 -12 -5z"/>
<path d="M1278 2373 c6 -2 18 -2 25 0 6 3 1 5 -13 5 -14 0 -19 -2 -12 -5z"/>
<path d="M1178 2353 c7 -3 16 -2 19 1 4 3 -2 6 -13 5 -11 0 -14 -3 -6 -6z"/>
<path d="M1138 2343 c7 -3 16 -2 19 1 4 3 -2 6 -13 5 -11 0 -14 -3 -6 -6z"/>
<path d="M1025 2320 c-13 -5 -14 -9 -5 -9 8 0 24 4 35 9 13 5 14 9 5 9 -8 0
-24 -4 -35 -9z"/>
<path d="M978 2303 c7 -3 16 -2 19 1 4 3 -2 6 -13 5 -11 0 -14 -3 -6 -6z"/>
<path d="M938 2293 c7 -3 16 -2 19 1 4 3 -2 6 -13 5 -11 0 -14 -3 -6 -6z"/>
<path d="M898 2283 c7 -3 16 -2 19 1 4 3 -2 6 -13 5 -11 0 -14 -3 -6 -6z"/>
<path d="M5777 2263 c-39 -29 -386 -398 -352 -374 27 19 395 394 391 398 -1 2
-19 -9 -39 -24z"/>
<path d="M840 2270 c-8 -5 -10 -10 -5 -10 6 0 17 5 25 10 8 5 11 10 5 10 -5 0
-17 -5 -25 -10z"/>
<path d="M7648 2213 c-9 -2 -19 -11 -22 -19 -4 -10 3 -14 26 -14 17 0 40 -7
50 -16 16 -15 18 -15 24 -1 12 31 0 52 -31 54 -17 0 -37 -1 -47 -4z"/>
<path d="M5430 2185 c0 -8 2 -15 4 -15 2 0 6 7 10 15 3 8 1 15 -4 15 -6 0 -10
-7 -10 -15z"/>
<path d="M5952 2088 c-74 -83 -126 -135 -139 -139 -9 -3 -10 -12 -4 -34 5 -16
10 -25 10 -19 1 6 31 45 67 85 67 74 130 159 119 159 -3 0 -27 -24 -53 -52z"/>
<path d="M5680 2014 c-36 -30 -66 -59 -68 -64 -2 -6 -9 -10 -16 -10 -7 0 -21
-9 -31 -20 -10 -11 -14 -20 -9 -20 7 0 150 118 203 166 2 2 0 4 -5 4 -5 -1
-38 -26 -74 -56z"/>
<path d="M5520 2045 c-17 -10 -20 -14 -9 -15 9 0 22 7 29 15 15 18 12 18 -20
0z"/>
<path d="M5978 1992 c-32 -32 -58 -61 -58 -65 0 -12 117 92 124 109 10 26 -8
14 -66 -44z"/>
<path d="M5700 1883 c-106 -73 -162 -116 -212 -160 -51 -45 -148 -95 -323
-166 -139 -57 -205 -87 -205 -92 0 -13 364 142 475 201 55 29 150 79 212 111
61 32 110 60 107 62 -2 3 -54 -20 -114 -51 -61 -30 -110 -52 -110 -49 0 3 22
21 48 38 26 18 60 44 76 58 16 13 51 39 77 56 47 29 58 40 42 38 -5 -1 -37
-21 -73 -46z"/>
<path d="M5462 1845 c-58 -44 -106 -90 -72 -70 16 10 129 93 145 107 5 5 5 8
-2 8 -6 0 -38 -20 -71 -45z"/>
<path d="M5184 1818 l-29 -33 33 29 c17 17 32 31 32 33 0 8 -8 1 -36 -29z"/>
<path d="M5265 1823 c-100 -84 -165 -146 -165 -159 0 -9 24 7 58 39 31 30 77
72 102 95 49 44 53 66 5 25z"/>
<path d="M5196 1679 c-58 -54 -83 -87 -57 -77 20 7 150 138 138 138 -8 0 -44
-27 -81 -61z"/>
<path d="M4770 1658 c-24 -35 -81 -104 -127 -155 -46 -50 -83 -95 -83 -100 0
-14 171 162 226 233 57 74 62 84 41 84 -7 0 -33 -28 -57 -62z"/>
<path d="M1330 1659 c-142 -12 -158 -18 -40 -13 58 2 126 4 153 4 26 0 47 5
47 10 0 11 -22 11 -160 -1z"/>
<path d="M770 1625 c-52 -13 -126 -27 -163 -31 -38 -4 -64 -10 -58 -14 6 -3
-69 -26 -166 -50 -111 -26 -203 -55 -244 -76 -92 -46 -160 -127 -130 -157 6
-6 11 -19 11 -29 0 -22 35 -24 44 -3 3 9 16 20 28 25 20 8 18 9 -17 11 -22 1
-43 1 -47 0 -21 -3 -4 34 34 75 69 75 103 88 453 175 93 23 205 45 250 48 55
4 79 10 78 18 -2 7 12 17 30 22 66 19 -11 8 -103 -14z"/>
<path d="M967 1629 c-48 -3 -91 -9 -95 -14 -8 -9 175 3 233 15 l40 8 -45 -1
c-25 -1 -84 -4 -133 -8z"/>
<path d="M413 1583 c9 -2 23 -2 30 0 6 3 -1 5 -18 5 -16 0 -22 -2 -12 -5z"/>
<path d="M478 1583 c12 -2 30 -2 40 0 9 3 -1 5 -23 4 -22 0 -30 -2 -17 -4z"/>
<path d="M906 1579 c3 -5 26 -9 51 -9 26 0 44 2 42 4 -9 8 -98 13 -93 5z"/>
<path d="M1160 1581 c0 -4 11 -6 25 -3 14 2 25 6 25 8 0 2 -11 4 -25 4 -14 0
-25 -4 -25 -9z"/>
<path d="M1530 1544 l-65 -13 70 5 c39 3 74 10 80 15 11 11 -2 10 -85 -7z"/>
<path d="M1245 1531 c-50 -4 -85 -10 -78 -14 7 -4 65 -5 128 -1 69 4 111 10
103 15 -7 5 -24 8 -38 7 -14 -1 -65 -4 -115 -7z"/>
<path d="M1050 1521 l-45 -7 45 -5 c53 -6 92 0 84 12 -6 10 -14 10 -84 0z"/>
<path d="M710 1508 c-16 -6 -73 -8 -152 -4 -137 6 -177 -8 -55 -19 75 -7 163
-2 284 16 40 6 98 8 128 6 30 -3 58 -1 61 4 7 13 -236 10 -266 -3z"/>
<path d="M4490 1500 c0 -5 4 -10 9 -10 6 0 13 5 16 10 3 6 -1 10 -9 10 -9 0
-16 -4 -16 -10z"/>
<path d="M695 1428 c-82 -5 -220 -6 -305 -3 -125 5 -153 4 -142 -7 24 -24 622
-12 622 13 0 5 -6 8 -12 7 -7 0 -80 -5 -163 -10z"/>
<path d="M890 1431 c0 -7 27 -11 72 -11 87 0 85 8 -5 16 -45 4 -67 2 -67 -5z"/>
<path d="M1160 1419 c0 -5 21 -9 47 -9 25 0 44 2 42 4 -10 8 -89 13 -89 5z"/>
<path d="M66 1361 c-3 -5 9 -15 27 -22 23 -9 134 -13 402 -14 204 -2 350 1
325 5 -25 4 -189 9 -364 10 -309 2 -397 8 -311 21 37 6 36 6 -17 8 -31 0 -59
-3 -62 -8z"/>
<path d="M725 1033 c-158 -10 -322 -26 -335 -34 -10 -6 8 -7 50 -4 36 3 128
10 205 16 147 12 503 13 593 3 32 -4 52 -2 52 4 0 17 -362 27 -565 15z"/>
<path d="M3146 1021 c-5 -8 84 -3 93 5 2 2 -16 4 -42 4 -25 0 -48 -4 -51 -9z"/>
<path d="M3268 1023 c7 -3 16 -2 19 1 4 3 -2 6 -13 5 -11 0 -14 -3 -6 -6z"/>
<path d="M2990 1010 l-45 -7 47 -1 c26 -1 50 3 53 8 3 6 3 9 -2 8 -4 0 -28 -4
-53 -8z"/>
<path d="M2820 1000 l-45 -7 58 -1 c37 -1 56 2 52 8 -3 6 -9 9 -13 8 -4 0 -27
-4 -52 -8z"/>
<path d="M2908 1003 c6 -2 18 -2 25 0 6 3 1 5 -13 5 -14 0 -19 -2 -12 -5z"/>
<path d="M255 990 l-70 -6 80 -2 c44 -1 87 3 95 8 17 11 13 11 -105 0z"/>
<path d="M2650 993 c-19 -3 -39 -8 -43 -13 -10 -9 79 -1 108 11 18 7 17 8 -5
7 -14 -1 -41 -3 -60 -5z"/>
<path d="M530 981 c12 -8 57 -17 137 -27 13 -1 25 2 29 7 3 5 -7 9 -23 10 -32
1 -49 3 -113 13 -31 5 -40 4 -30 -3z"/>
<path d="M4348 963 c12 -2 30 -2 40 0 9 3 -1 5 -23 4 -22 0 -30 -2 -17 -4z"/>
<path d="M4458 963 c7 -3 16 -2 19 1 4 3 -2 6 -13 5 -11 0 -14 -3 -6 -6z"/>
<path d="M4524 962 c5 -8 66 -4 66 4 0 2 -16 4 -36 4 -19 0 -33 -4 -30 -8z"/>
<path d="M4604 960 c-5 -5 -63 -14 -129 -20 -128 -11 -170 -18 -162 -26 12
-12 367 34 367 48 0 11 -64 10 -76 -2z"/>
<path d="M5043 958 c16 -6 33 -6 37 -2 5 5 -7 10 -28 11 -37 2 -37 2 -9 -9z"/>
<path d="M2190 932 c0 -5 14 -7 30 -4 17 2 30 6 30 8 0 2 -13 4 -30 4 -16 0
-30 -4 -30 -8z"/>
<path d="M955 920 c-30 -8 -30 -8 8 -9 20 0 37 4 37 9 0 11 -2 11 -45 0z"/>
<path d="M1020 920 c0 -7 28 -10 74 -8 41 1 72 6 70 10 -8 12 -144 10 -144 -2z"/>
<path d="M833 913 c9 -2 23 -2 30 0 6 3 -1 5 -18 5 -16 0 -22 -2 -12 -5z"/>
</g>
</svg>
