<?xml version="1.0" standalone="no"?>
<!DOCTYPE svg PUBLIC "-//W3C//DTD SVG 20010904//EN"
 "http://www.w3.org/TR/2001/REC-SVG-20010904/DTD/svg10.dtd">
<svg version="1.0" xmlns="http://www.w3.org/2000/svg"
 width="1280.000000pt" height="708.000000pt" viewBox="0 0 1280.000000 708.000000"
 preserveAspectRatio="xMidYMid meet">
<metadata>
Created by potrace 1.15, written by Peter Selinger 2001-2017
</metadata>
<g transform="translate(0.000000,708.000000) scale(0.100000,-0.100000)"
fill="#03a9f4" stroke="none">
<path d="M1830 7071 c-111 -25 -283 -74 -335 -95 -33 -13 -121 -45 -195 -71
-232 -82 -308 -136 -405 -284 -24 -36 -47 -55 -110 -88 -44 -23 -118 -54 -165
-69 -47 -14 -132 -43 -190 -64 -58 -21 -141 -45 -185 -55 -44 -9 -92 -24 -107
-31 -15 -8 -36 -14 -47 -14 -11 0 -36 -19 -56 -42 -34 -40 -36 -47 -31 -88 3
-25 26 -85 51 -135 25 -49 51 -109 60 -133 22 -64 70 -125 123 -156 26 -15 55
-40 64 -56 18 -32 104 -80 142 -80 13 0 64 -12 112 -27 75 -23 108 -27 209
-27 120 -1 331 17 343 29 16 15 -28 26 -88 20 -183 -16 -233 -17 -291 -7 -35
6 -88 14 -116 18 -51 6 -67 17 -40 26 6 3 108 1 226 -4 237 -9 281 -4 281 36
0 58 -67 60 -310 11 -111 -22 -238 -20 -308 6 -31 12 -70 24 -87 27 -16 2 -44
17 -61 31 -16 15 -45 33 -63 40 -32 14 -71 72 -71 107 0 32 51 104 91 130 22
13 37 29 34 34 -3 5 0 18 7 29 17 28 3 37 -27 17 -14 -9 -25 -12 -25 -7 0 5
16 19 35 31 39 24 45 40 15 40 -24 0 -26 26 -4 51 9 10 18 36 21 59 7 51 18
57 253 135 261 86 360 142 360 204 0 29 101 131 174 175 26 15 102 47 169 71
67 23 147 53 177 65 133 54 354 110 438 110 32 0 122 -7 202 -17 135 -15 149
-19 210 -54 91 -53 115 -73 151 -129 18 -28 42 -56 54 -64 12 -8 119 -64 239
-126 120 -61 268 -140 330 -174 61 -35 183 -99 271 -143 88 -44 201 -107 250
-142 149 -102 218 -147 250 -159 17 -6 94 -25 172 -41 78 -17 155 -36 170 -44
16 -8 73 -24 128 -36 91 -21 210 -56 415 -125 192 -64 241 -85 269 -115 16
-17 38 -31 49 -31 11 0 25 -7 32 -15 7 -8 21 -15 32 -15 10 0 33 -8 51 -17
l32 -18 -27 -3 c-57 -7 -24 -56 65 -100 36 -18 70 -32 76 -32 6 0 11 -4 11
-10 0 -16 -48 -12 -75 6 -13 9 -33 13 -44 9 -10 -3 -22 -1 -26 5 -7 12 -35 14
-35 2 0 -10 49 -62 134 -142 43 -40 68 -75 92 -129 19 -41 33 -79 31 -84 -2
-6 -22 6 -44 27 -23 20 -44 32 -47 27 -10 -16 51 -77 99 -100 46 -21 74 -61
89 -126 8 -33 23 -55 38 -55 16 0 2 53 -36 136 -28 59 -33 79 -24 93 8 13 6
25 -6 49 -18 34 -8 43 16 15 8 -10 36 -74 62 -142 53 -137 71 -171 93 -171 8
0 13 3 11 8 -1 4 -18 39 -36 77 -57 118 -61 129 -55 139 13 21 72 -64 94 -134
12 -40 32 -84 45 -98 l23 -27 1 36 c0 20 -6 42 -14 49 -8 6 -27 44 -42 83 -25
65 -38 83 -141 186 -62 62 -110 117 -107 122 14 23 53 7 89 -36 20 -25 75 -85
121 -133 78 -81 86 -93 110 -168 32 -98 63 -158 87 -162 15 -3 17 1 11 25 -4
15 -17 37 -29 48 -13 11 -30 43 -40 72 -13 43 -14 55 -3 74 10 17 10 23 0 26
-14 5 -213 207 -226 230 -11 19 6 36 32 31 28 -4 237 -270 259 -328 32 -88 52
-130 62 -130 16 0 13 26 -4 40 -15 13 -21 50 -7 50 4 0 34 -38 67 -85 60 -86
75 -100 75 -67 -1 25 -331 448 -398 510 -45 40 -35 52 22 25 35 -18 62 -47
147 -165 105 -145 251 -308 275 -308 8 0 14 9 14 21 0 32 -19 60 -39 57 -24
-4 -215 203 -255 275 -50 90 -80 127 -115 138 -79 25 -181 71 -175 80 3 5 39
9 80 9 72 0 77 -2 122 -38 26 -20 69 -49 97 -62 35 -18 108 -83 250 -227 190
-191 276 -263 317 -263 29 0 22 39 -9 51 -48 18 -126 81 -245 198 -82 79 -118
122 -118 138 0 26 -8 32 -160 122 -112 66 -180 117 -180 134 0 4 15 7 33 5 24
-2 35 -10 46 -33 10 -24 37 -42 143 -93 121 -59 133 -68 176 -125 76 -100 142
-166 227 -227 99 -71 192 -124 198 -112 10 14 -6 28 -123 107 -144 98 -212
154 -208 174 6 32 110 37 210 10 32 -8 38 -15 44 -44 3 -18 22 -52 41 -75 l35
-41 -53 32 c-30 17 -77 47 -105 65 -62 41 -87 45 -53 8 33 -36 259 -185 270
-178 5 3 9 11 9 18 0 7 9 17 20 22 25 12 17 22 -53 68 -65 43 -107 89 -85 94
7 1 40 -7 72 -18 66 -22 76 -24 76 -11 0 4 -55 29 -123 55 -96 37 -143 62
-214 114 -50 37 -119 84 -153 105 -34 21 -60 40 -58 43 3 2 34 -6 69 -20 35
-13 98 -26 139 -30 63 -6 132 -21 243 -52 31 -9 18 12 -19 30 -43 20 -161 46
-212 46 -48 0 -112 18 -112 32 0 7 34 9 103 6 78 -4 123 -12 195 -35 95 -32
129 -28 69 7 -19 12 -37 29 -40 39 -8 30 -90 51 -230 58 -99 5 -131 3 -137 -6
-12 -20 -174 20 -179 44 -3 17 3 17 65 10 38 -4 128 -8 199 -9 72 0 145 -5
164 -10 27 -7 33 -6 29 5 -8 24 -72 38 -177 40 -56 1 -101 5 -101 10 0 19 84
31 144 20 53 -9 62 -8 79 7 17 16 56 17 456 17 632 0 983 -19 1291 -71 47 -8
126 -19 175 -24 50 -6 108 -17 130 -25 22 -8 74 -19 115 -25 41 -6 150 -29
242 -52 l167 -41 -5 -33 c-5 -39 -18 -34 165 -64 148 -24 181 -25 132 -3 -27
11 -31 17 -20 23 8 5 14 15 14 22 0 24 991 12 1543 -19 124 -7 121 -33 -5 -33
-28 0 -59 -3 -68 -6 -27 -11 3 -23 42 -17 21 4 33 2 33 -6 0 -6 -18 -14 -40
-17 -24 -4 -40 -12 -40 -20 0 -11 21 -14 93 -14 98 0 114 4 96 26 -13 16 -9
18 76 33 33 6 83 16 110 21 28 6 63 8 78 6 40 -8 74 2 80 23 4 15 32 19 243
30 131 8 291 18 354 23 63 5 239 12 390 16 262 8 276 7 304 -11 25 -17 41 -19
125 -14 90 5 181 28 181 47 0 28 -35 30 -486 20 -252 -6 -515 -15 -584 -19
-339 -24 -470 -30 -765 -36 -186 -4 -481 -1 -705 6 -212 6 -572 12 -800 13
l-415 1 -240 63 c-243 63 -382 92 -555 117 -52 8 -118 18 -146 24 -153 30
-601 58 -1134 71 -217 5 -451 14 -520 19 -184 14 -1074 -1 -1094 -19 -14 -11
-19 -10 -35 4 -10 9 -40 19 -67 21 -262 25 -263 25 -356 64 -51 22 -133 51
-183 66 -49 14 -124 37 -165 50 -41 14 -115 34 -164 46 -49 11 -112 29 -140
39 -28 10 -109 33 -181 50 -195 48 -242 69 -391 175 -81 58 -193 126 -286 173
-178 90 -294 153 -349 188 -22 13 -69 39 -107 58 -37 18 -101 50 -142 72 -41
21 -108 55 -149 74 -47 22 -83 47 -100 69 -102 134 -198 189 -387 221 -143 24
-257 32 -304 21z m-1654 -805 c12 -30 -13 -51 -60 -51 -38 -1 -43 2 -33 15 34
46 82 64 93 36z m117 -21 c-3 -13 -9 -22 -14 -19 -10 6 -12 38 -3 47 13 12 21
-3 17 -28z m-113 -220 c-7 -8 -17 -15 -23 -15 -5 0 -2 9 8 20 21 23 35 19 15
-5z m5400 -364 c49 -14 2 -20 -103 -14 -58 3 -104 10 -101 14 6 10 168 10 204
0z m496 -12 c-25 -15 -194 -25 -181 -11 11 12 54 18 140 20 48 1 56 -1 41 -9z
m-218 -68 c11 -7 10 -10 -3 -15 -22 -8 -123 -8 -155 1 l-25 7 25 7 c36 10 143
10 158 0z m-547 -60 c116 -24 229 -59 229 -70 0 -15 -53 -19 -74 -6 -12 7 -43
15 -69 19 -71 9 -153 35 -179 56 -29 24 -21 24 93 1z m216 3 c-3 -3 -12 -4
-19 -1 -8 3 -5 6 6 6 11 1 17 -2 13 -5z m436 -24 c37 -7 67 -15 67 -19 0 -4
-33 -2 -72 5 -40 7 -90 13 -110 14 -20 0 -40 5 -44 12 -8 12 37 9 159 -12z
m202 -10 c4 -6 -5 -10 -19 -10 -14 0 -26 5 -26 10 0 6 9 10 19 10 11 0 23 -4
26 -10z m155 -10 c0 -5 -4 -10 -9 -10 -6 0 -13 5 -16 10 -3 6 1 10 9 10 9 0
16 -4 16 -10z m-694 -15 c19 -14 19 -14 -1 -14 -11 0 -29 6 -39 14 -20 15 -20
15 0 15 11 0 29 -7 40 -15z m206 -9 c4 -7 51 -39 105 -71 118 -71 213 -143
213 -161 0 -25 -20 -14 -75 40 -39 40 -85 70 -167 111 -126 63 -138 71 -138
92 0 12 7 13 28 8 15 -3 30 -12 34 -19z m553 14 c3 -5 2 -10 -4 -10 -5 0 -13
5 -16 10 -3 6 -2 10 4 10 5 0 13 -4 16 -10z m-420 -32 c11 -11 61 -44 110 -75
130 -79 155 -100 155 -129 0 -35 -24 -30 -56 11 -34 45 -124 112 -219 165 -41
23 -75 45 -75 49 0 14 65 -2 85 -21z m-562 -66 c34 -36 34 -42 -3 -42 -32 0
-85 44 -74 61 11 18 51 8 77 -19z m86 7 c32 -11 40 -24 19 -32 -20 -7 -58 11
-58 28 0 18 -1 18 39 4z m76 -39 c3 -5 1 -10 -4 -10 -6 0 -11 5 -11 10 0 6 2
10 4 10 3 0 8 -4 11 -10z m3555 -10 c0 -5 -2 -10 -4 -10 -3 0 -8 5 -11 10 -3
6 -1 10 4 10 6 0 11 -4 11 -10z"/>
<path d="M1896 6965 c-32 -7 -63 -18 -69 -24 -19 -19 3 -25 41 -11 51 18 115
21 108 5 -3 -9 11 -12 54 -11 71 1 99 20 48 32 -18 4 -45 6 -60 5 -14 -1 -29
2 -33 8 -7 13 -11 13 -89 -4z"/>
<path d="M2170 6963 c0 -10 27 -39 59 -66 55 -44 60 -51 66 -100 14 -104 49
-224 87 -293 43 -80 47 -112 17 -173 -11 -23 -36 -76 -54 -117 -19 -42 -48
-96 -65 -120 -36 -53 -70 -119 -70 -134 0 -25 20 -4 64 70 27 44 51 78 53 76
2 -2 -14 -51 -36 -108 l-41 -104 25 -79 c13 -44 40 -107 60 -139 35 -58 41
-86 19 -93 -30 -10 -158 239 -169 331 -6 49 -3 59 75 219 44 92 87 170 94 173
23 9 28 53 11 87 -21 41 -91 315 -100 390 -9 68 -25 76 -25 11 0 -49 48 -277
80 -382 l20 -63 -50 -97 c-40 -79 -49 -92 -49 -67 0 17 3 47 8 67 7 28 5 38
-5 42 -8 3 -14 20 -14 40 0 19 -4 37 -9 40 -21 13 -71 302 -71 412 0 80 -47
159 -59 99 -2 -12 1 -16 12 -12 11 4 15 -12 20 -86 4 -51 16 -153 27 -227 25
-169 25 -223 0 -279 -24 -52 -25 -62 -5 -55 8 3 19 22 25 43 5 20 14 43 20 51
8 12 10 9 10 -11 0 -47 -39 -155 -70 -194 -35 -44 -38 -71 -10 -100 12 -13 28
-57 40 -114 11 -50 39 -132 61 -182 22 -50 39 -93 36 -95 -2 -3 -17 10 -32 28
-72 85 -173 378 -148 430 11 23 63 307 63 343 0 12 -3 15 -9 9 -11 -10 -61
-225 -61 -261 0 -20 -24 -43 -35 -32 -2 2 8 42 21 89 32 109 56 227 52 248 -5
21 -23 -34 -83 -249 l-46 -167 35 -136 c21 -80 54 -176 80 -231 41 -86 43 -97
34 -130 -6 -19 -14 -35 -18 -35 -7 0 -27 50 -51 125 -6 22 -18 49 -25 60 -17
27 -44 135 -44 176 0 19 -5 41 -10 49 -7 11 -10 1 -10 -35 0 -83 19 -174 49
-234 16 -31 32 -72 36 -91 l7 -35 -26 24 c-32 30 -68 93 -88 152 -24 75 -6
293 40 478 38 150 39 191 2 107 -32 -75 -59 -227 -71 -398 l-12 -163 27 -64
c14 -35 25 -66 23 -67 -6 -6 -84 101 -107 146 -13 25 -36 94 -51 155 l-28 109
29 121 c16 66 36 152 46 190 9 39 20 111 24 160 11 121 18 164 43 273 13 58
17 96 11 102 -5 5 -25 16 -45 24 l-37 15 -131 -79 c-138 -83 -200 -112 -149
-68 16 13 68 48 118 77 83 50 107 71 79 71 -6 0 -19 -5 -30 -10 -13 -7 -19 -7
-19 0 0 21 -37 9 -125 -41 -101 -56 -175 -84 -205 -76 -21 5 -136 -26 -182
-49 -30 -15 -39 -40 -12 -30 9 3 28 9 42 12 22 5 25 4 14 -7 -16 -17 -15 -29
2 -29 7 0 19 -6 25 -14 9 -11 25 -8 93 18 110 42 70 48 -67 10 l-20 -6 20 21
c26 26 124 52 146 38 12 -8 28 0 69 32 57 45 109 75 116 68 3 -3 -17 -21 -43
-40 -27 -19 -57 -45 -67 -56 -18 -20 -18 -21 -1 -21 13 0 16 -5 12 -21 -5 -19
-3 -21 24 -15 l30 6 -20 -26 c-47 -59 -6 -60 59 -1 52 47 145 107 166 107 24
0 28 -23 6 -40 -43 -35 -228 -134 -262 -140 -20 -4 -29 -9 -20 -12 34 -12 165
-28 230 -28 55 0 70 -3 70 -15 0 -12 -13 -14 -77 -8 -56 5 -74 3 -69 -5 4 -7
18 -12 31 -12 16 0 28 -9 39 -32 9 -17 14 -33 12 -35 -8 -8 -55 17 -73 40 -10
13 -39 35 -63 47 -41 21 -44 21 -56 5 -11 -15 -16 -16 -28 -5 -9 6 -55 16
-103 20 -98 9 -159 28 -216 67 -33 23 -42 25 -72 16 -41 -13 -42 -11 -14 29
20 28 20 31 5 46 -15 15 -18 15 -44 0 -36 -21 -77 -80 -106 -150 -17 -42 -34
-66 -64 -88 -45 -32 -52 -47 -27 -56 12 -5 13 -10 4 -20 -17 -20 -2 -36 22
-23 31 16 32 6 4 -21 -31 -29 -31 -35 1 -78 23 -29 31 -33 57 -28 27 6 36 0
90 -59 33 -36 66 -65 74 -65 21 0 103 -80 103 -102 0 -17 -7 -15 -65 17 -35
20 -69 34 -74 31 -14 -9 0 -48 14 -42 16 6 62 -17 127 -62 25 -17 58 -36 72
-42 15 -5 44 -38 71 -80 45 -71 65 -86 65 -51 0 19 -55 93 -131 178 -21 23
-45 57 -53 76 -7 19 -46 67 -86 107 -49 48 -69 75 -62 82 15 15 51 -13 127
-98 37 -41 71 -74 76 -74 19 0 8 39 -19 62 -30 25 -62 67 -62 81 0 5 33 -21
73 -58 81 -76 112 -94 128 -78 8 8 -5 22 -43 51 -56 41 -118 106 -118 122 0 6
9 10 19 10 12 0 43 -29 81 -75 34 -41 77 -86 95 -100 38 -29 70 -34 61 -9 -3
9 -6 18 -6 20 0 2 -6 4 -12 4 -7 1 -25 11 -39 23 -34 30 -123 136 -118 142 3
2 22 -4 44 -14 25 -11 61 -44 95 -85 61 -74 115 -120 130 -111 19 12 10 33
-23 53 -37 21 -95 89 -121 139 -9 18 -25 37 -36 43 -11 6 -20 17 -20 26 0 27
75 -22 127 -83 100 -118 111 -129 123 -117 9 9 -6 31 -58 89 -39 43 -76 89
-83 101 -25 48 3 36 70 -29 67 -65 101 -83 101 -52 0 8 -7 20 -16 27 -9 7 -33
28 -53 47 -44 42 -26 55 24 17 18 -14 38 -26 43 -26 15 0 21 25 11 41 -18 29
-10 41 21 34 26 -6 30 -4 30 14 0 14 6 21 20 21 24 0 25 8 6 29 -8 9 -17 31
-21 49 -6 27 -4 32 13 32 33 0 44 -24 37 -77 -12 -90 -37 -208 -56 -265 -23
-71 -25 -171 -3 -245 10 -34 14 -70 10 -94 -3 -21 -2 -49 4 -63 16 -43 30
-146 23 -177 -11 -56 -28 -22 -44 87 -18 122 -26 154 -40 154 -5 0 -9 -12 -9
-26 l0 -26 -37 23 c-21 12 -55 35 -76 51 -21 16 -43 28 -49 26 -19 -7 74 -89
129 -115 l51 -24 12 -65 c6 -37 9 -69 6 -72 -3 -3 -25 1 -48 8 -48 15 -158 29
-158 20 0 -8 146 -70 164 -70 9 0 37 -19 64 -42 26 -24 67 -58 90 -77 52 -41
137 -173 146 -226 4 -22 24 -80 44 -130 34 -83 36 -98 37 -192 0 -95 6 -122
18 -90 8 19 27 -13 27 -45 0 -28 13 -37 25 -18 14 23 24 6 27 -47 2 -32 8 -58
15 -60 29 -10 29 156 -1 202 -12 18 -14 42 -9 114 4 60 2 91 -4 91 -16 0 -23
-26 -30 -100 -7 -75 -22 -116 -23 -59 0 60 -20 149 -47 208 -27 60 -45 171
-47 289 -1 39 -4 72 -7 72 -7 0 -19 -62 -19 -102 0 -39 -18 -35 -36 7 -15 38
-19 132 -5 154 7 10 22 12 57 8 38 -4 53 -11 74 -37 21 -25 31 -31 48 -26 16
5 24 3 28 -8 4 -9 18 -16 34 -16 25 0 29 -4 35 -40 6 -38 26 -53 40 -30 4 6
14 9 23 8 12 -2 28 18 55 69 25 49 48 78 67 88 17 9 30 21 30 27 0 6 29 39 65
73 41 40 65 71 65 84 0 12 11 32 24 44 26 24 56 94 56 130 -1 21 -1 21 -15 3
-7 -10 -18 -15 -24 -11 -15 9 -14 42 1 47 15 5 -3 95 -37 183 -46 119 -78 232
-71 250 9 24 16 15 65 -75 46 -87 100 -262 83 -268 -14 -4 -15 -51 -2 -72 7
-12 12 -12 21 -3 8 8 12 50 13 120 0 95 -4 118 -29 188 -30 82 -93 191 -151
258 -23 28 -34 53 -39 90 -7 48 -50 155 -109 267 -18 34 -29 45 -47 45 -13 0
-40 12 -59 26 -67 51 -100 61 -100 32z m-391 -146 c-40 -35 -169 -110 -169
-98 0 13 38 44 108 88 80 49 111 55 61 10z m111 2 c0 -6 -4 -7 -10 -4 -5 3
-10 11 -10 16 0 6 5 7 10 4 6 -3 10 -11 10 -16z m510 -124 c17 -37 31 -85 35
-125 l7 -65 -30 30 c-24 23 -37 55 -61 142 -17 62 -31 116 -31 120 0 20 55
-50 80 -102z m-577 -10 c-14 -29 -23 -35 -59 -41 -79 -11 -84 -2 -19 38 33 21
68 38 77 38 17 0 17 -2 1 -35z m-143 -54 c0 -6 23 -11 52 -13 59 -3 75 -23 27
-33 -37 -8 -139 3 -139 15 0 10 40 40 52 40 5 0 8 -4 8 -9z m-621 -93 c-6 -34
-16 -69 -22 -75 -25 -32 -37 30 -16 84 11 30 39 66 46 59 3 -2 -1 -33 -8 -68z
m108 46 c7 -19 -11 -41 -21 -25 -4 6 -17 11 -29 11 -22 1 -22 1 -3 15 26 19
45 19 53 -1z m133 -59 c6 -15 20 -27 37 -30 91 -19 116 -29 97 -36 -10 -4 -32
-8 -49 -9 -16 0 -51 -11 -77 -24 -52 -25 -53 -25 -37 5 5 11 9 28 6 37 -5 23
-35 -48 -49 -116 -12 -56 -31 -65 -36 -18 -5 40 23 118 60 171 18 25 33 45 35
45 2 0 8 -11 13 -25z m305 -5 c3 -5 1 -10 -4 -10 -6 0 -11 5 -11 10 0 6 2 10
4 10 3 0 8 -4 11 -10z m26 -59 c13 -11 20 -23 16 -27 -10 -10 -59 16 -65 34
-6 18 23 14 49 -7z m-81 -11 c0 -5 -2 -10 -4 -10 -3 0 -8 5 -11 10 -3 6 -1 10
4 10 6 0 11 -4 11 -10z m-365 -10 c7 -11 -28 -117 -43 -132 -16 -16 -35 39
-28 82 7 46 53 79 71 50z m-100 -39 c7 -24 -3 -51 -20 -51 -7 0 -20 -3 -28 -6
-26 -9 -29 27 -5 51 29 28 45 30 53 6z m292 3 c-3 -3 -12 -4 -19 -1 -8 3 -5 6
6 6 11 1 17 -2 13 -5z m1017 -175 c-43 -89 -66 -108 -29 -24 14 30 32 71 41
92 10 24 18 33 21 24 3 -8 -12 -49 -33 -92z m-1094 77 c0 -3 -4 -8 -10 -11 -5
-3 -10 -1 -10 4 0 6 5 11 10 11 6 0 10 -2 10 -4z m1225 -78 c7 -18 16 -49 19
-68 2 -19 15 -96 27 -171 20 -126 20 -205 0 -183 -11 12 -39 142 -47 222 -5
48 -9 60 -19 52 -9 -7 -15 -6 -22 2 -25 31 -43 80 -43 115 l1 38 22 -55 c23
-57 51 -76 60 -41 2 10 -4 32 -14 48 -20 30 -25 73 -8 73 5 0 16 -15 24 -32z
m-105 -86 c0 -26 45 -115 68 -133 14 -12 23 -39 32 -101 7 -47 11 -91 8 -99
-7 -19 -28 57 -28 101 0 26 -3 31 -10 20 -5 -8 -10 -56 -10 -106 0 -100 -8
-154 -21 -154 -5 0 -9 11 -9 24 0 38 -18 40 -49 7 -22 -23 -31 -28 -39 -18
-20 25 -55 104 -68 151 -11 43 -10 55 8 115 26 85 96 224 108 216 6 -3 10 -14
10 -23z m-366 -119 c33 -175 95 -345 153 -417 30 -38 60 -46 70 -20 5 15 7 15
15 0 10 -19 12 -171 2 -187 -4 -6 -17 19 -29 57 -29 93 -44 119 -58 105 -20
-20 -37 -12 -37 19 0 17 -24 81 -54 143 -30 62 -62 141 -71 177 -9 36 -24 88
-33 117 -12 41 -13 57 -4 77 6 14 15 26 20 26 5 0 16 -44 26 -97z m123 52 c-5
-19 -14 -32 -19 -29 -11 7 -10 17 2 49 15 39 30 22 17 -20z m-317 -499 c-3
-43 -10 -71 -17 -74 -10 -3 -13 21 -13 100 l0 103 18 -30 c14 -24 17 -44 12
-99z m71 -7 c17 -24 19 -38 13 -89 -12 -112 -64 -51 -64 76 0 73 7 74 51 13z
m479 26 c0 -8 -4 -15 -10 -15 -5 0 -7 7 -4 15 4 8 8 15 10 15 2 0 4 -7 4 -15z"/>
<path d="M2390 6113 c1 -44 30 -207 39 -216 27 -27 22 41 -15 211 -5 26 -24
30 -24 5z"/>
<path d="M2355 5931 c-8 -80 1 -154 18 -148 7 2 12 9 11 15 -1 7 -2 55 -2 107
-1 52 -6 95 -11 95 -5 0 -12 -31 -16 -69z"/>
<path d="M2184 6813 c7 -104 18 -175 56 -342 24 -107 37 -138 52 -123 7 7 5
26 -6 59 -26 79 -54 220 -71 358 -20 163 -40 194 -31 48z"/>
<path d="M1980 6889 c0 -6 9 -13 20 -16 20 -5 24 -15 35 -88 l6 -40 -26 28
c-28 31 -34 20 -9 -18 9 -14 13 -32 9 -42 -6 -17 -7 -17 -21 1 -13 18 -14 17
-14 -22 0 -34 -3 -42 -19 -42 -15 0 -21 -17 -39 -107 -27 -143 -35 -213 -23
-213 14 0 20 24 33 126 12 104 37 162 38 89 0 -64 -28 -208 -65 -329 -19 -61
-30 -115 -25 -119 11 -12 47 87 72 197 39 177 37 170 59 150 26 -23 29 -17 19
36 -14 72 -12 90 9 90 11 0 21 -5 23 -12 3 -7 10 -8 17 -4 9 6 11 21 6 53 -5
32 -2 51 9 68 13 19 15 38 10 82 -8 67 -25 105 -56 127 -26 18 -68 21 -68 5z
m66 -256 c-4 -4 -11 -1 -16 7 -16 25 -11 35 7 17 9 -9 13 -20 9 -24z"/>
<path d="M1393 6658 c-46 -11 -83 -24 -83 -29 0 -12 23 -10 104 9 38 9 71 23
74 30 4 14 8 15 -95 -10z"/>
<path d="M1465 6590 c3 -5 8 -10 11 -10 2 0 4 5 4 10 0 6 -5 10 -11 10 -5 0
-7 -4 -4 -10z"/>
<path d="M630 6335 c0 -16 17 -19 44 -9 26 10 18 24 -14 24 -20 0 -30 -5 -30
-15z"/>
<path d="M3174 6289 c-9 -15 24 -47 63 -60 49 -16 64 2 25 30 -42 29 -80 43
-88 30z"/>
<path d="M700 6255 c-16 -20 -1 -39 26 -33 27 5 32 48 6 48 -11 0 -25 -7 -32
-15z"/>
<path d="M513 6243 c-11 -10 -25 -30 -31 -45 -10 -25 -10 -28 8 -28 32 0 102
48 98 68 -4 24 -50 27 -75 5z"/>
<path d="M2915 6249 c-12 -18 78 -94 131 -112 27 -9 50 -14 52 -12 3 2 1 14
-2 27 -9 31 -60 70 -96 72 -16 1 -38 10 -48 19 -22 20 -28 21 -37 6z"/>
<path d="M533 6143 c-7 -2 -13 -9 -13 -15 0 -14 43 -6 48 10 4 12 -12 15 -35
5z"/>
<path d="M3325 6140 c-9 -15 12 -46 50 -76 34 -26 36 -26 70 -10 19 9 37 21
40 26 9 14 -55 50 -88 50 -16 0 -37 5 -47 10 -12 7 -21 7 -25 0z"/>
<path d="M663 6110 c-34 -14 -29 -34 7 -27 20 4 34 1 45 -10 12 -12 19 -13 28
-4 24 24 -40 57 -80 41z"/>
<path d="M867 6113 c-8 -13 1 -23 62 -71 53 -41 71 -50 71 -34 0 20 -125 118
-133 105z"/>
<path d="M824 6054 c3 -9 6 -17 6 -19 0 -2 21 -18 46 -35 25 -18 44 -34 41
-36 -2 -2 -37 7 -77 21 -40 14 -75 23 -78 21 -15 -15 62 -60 157 -91 49 -16
55 -16 63 -1 5 9 16 16 23 16 29 0 14 19 -38 49 -30 17 -71 44 -92 61 -42 33
-60 38 -51 14z"/>
<path d="M1867 6062 c-10 -15 -27 -135 -27 -189 0 -38 4 -53 13 -53 11 0 16
30 21 121 6 116 5 141 -7 121z"/>
<path d="M425 6020 c-10 -16 4 -30 31 -30 26 0 31 9 12 28 -15 15 -35 16 -43
2z"/>
<path d="M1030 6010 c0 -26 56 -114 95 -148 36 -33 60 -38 35 -7 -24 29 -4 24
60 -15 80 -48 124 -55 70 -10 -53 44 -136 92 -173 99 -23 5 -37 16 -49 40 -21
43 -38 60 -38 41z"/>
<path d="M511 5997 c-15 -19 -4 -27 36 -27 21 0 33 5 33 14 0 26 -50 35 -69
13z"/>
<path d="M620 5990 c0 -5 7 -10 15 -10 8 0 15 5 15 10 0 6 -7 10 -15 10 -8 0
-15 -4 -15 -10z"/>
<path d="M230 5970 c0 -5 9 -10 19 -10 11 0 23 5 26 10 4 6 -5 10 -19 10 -14
0 -26 -4 -26 -10z"/>
<path d="M2811 5900 c2 -68 -21 -211 -32 -204 -5 3 -9 20 -9 37 0 18 -4 38 -9
45 -12 20 -21 -34 -12 -83 5 -34 10 -40 31 -41 14 -1 34 -5 44 -9 20 -9 20
-11 0 55 -11 34 10 22 34 -20 12 -22 29 -40 37 -40 19 0 19 3 -5 47 -11 21
-20 47 -20 58 0 18 1 18 16 -3 8 -12 24 -22 34 -22 10 0 23 -8 29 -17 5 -10
13 -14 17 -10 11 11 -35 144 -59 171 l-18 21 5 -27 c3 -14 9 -34 12 -45 10
-29 -31 24 -66 87 l-30 55 1 -55z"/>
<path d="M3685 5927 c28 -44 125 -112 147 -105 6 2 -18 25 -53 50 -36 25 -71
53 -78 62 -21 25 -33 19 -16 -7z"/>
<path d="M700 5937 c0 -3 11 -17 24 -30 19 -19 34 -24 69 -23 60 1 68 12 25
31 -40 16 -118 31 -118 22z"/>
<path d="M3216 5931 c-5 -7 6 -40 24 -77 31 -64 52 -78 77 -53 8 8 17 8 33 -1
38 -20 47 4 16 41 -15 17 -34 45 -42 61 -18 35 -34 28 -35 -15 l0 -32 -17 24
c-38 55 -49 65 -56 52z"/>
<path d="M440 5920 c-13 -9 -12 -12 4 -25 21 -16 56 -20 56 -7 0 9 -33 42 -41
42 -2 0 -11 -5 -19 -10z"/>
<path d="M1410 5923 c0 -37 143 -193 177 -193 34 0 28 17 -15 44 -22 13 -63
53 -92 88 -51 62 -70 78 -70 61z"/>
<path d="M260 5894 c0 -9 5 -14 12 -12 18 6 21 28 4 28 -9 0 -16 -7 -16 -16z"/>
<path d="M3900 5901 c0 -11 41 -28 84 -36 41 -8 51 10 14 24 -36 13 -98 21
-98 12z"/>
<path d="M4194 5899 c-3 -5 7 -14 21 -19 32 -12 113 -13 100 -1 -15 13 -115
29 -121 20z"/>
<path d="M577 5894 c-11 -12 3 -24 29 -24 16 0 24 5 22 13 -5 13 -40 22 -51
11z"/>
<path d="M3155 5880 c-7 -12 7 -40 34 -64 18 -16 21 -17 27 -3 3 9 -4 29 -17
46 -24 33 -34 37 -44 21z"/>
<path d="M620 5844 c0 -23 26 -64 41 -64 15 0 1 41 -22 65 -19 19 -19 19 -19
-1z"/>
<path d="M356 5842 c-3 -6 -1 -14 5 -17 15 -10 25 3 12 16 -7 7 -13 7 -17 1z"/>
<path d="M4012 5838 c5 -15 40 -26 86 -27 46 -1 39 15 -12 28 -58 14 -79 14
-74 -1z"/>
<path d="M390 5820 c0 -5 7 -10 15 -10 8 0 15 5 15 10 0 6 -7 10 -15 10 -8 0
-15 -4 -15 -10z"/>
<path d="M4231 5805 c29 -30 189 -41 189 -13 0 13 -15 16 -115 22 -81 6 -88 5
-74 -9z"/>
<path d="M510 5801 c0 -5 7 -14 15 -21 18 -15 42 1 31 19 -8 13 -46 15 -46 2z"/>
<path d="M62 5778 c-7 -7 -12 -21 -12 -32 0 -18 1 -19 20 -1 20 18 27 45 12
45 -4 0 -13 -5 -20 -12z"/>
<path d="M3991 5771 c-7 -11 -18 -21 -26 -21 -29 0 -28 -24 4 -50 32 -27 32
-27 9 -34 l-23 -6 25 -15 c14 -8 35 -14 48 -15 19 0 22 4 17 20 -6 18 -4 19
20 10 40 -15 68 -13 61 5 -3 10 3 17 19 21 30 7 32 20 5 34 -25 14 -26 30 -1
30 44 0 27 18 -22 23 -28 4 -68 9 -89 13 -30 5 -38 3 -47 -15z"/>
<path d="M3814 5734 c15 -14 31 -22 35 -19 7 7 -39 45 -54 44 -5 0 3 -11 19
-25z"/>
<path d="M167 5723 c-4 -3 -7 -11 -7 -17 0 -6 5 -5 12 2 6 6 9 14 7 17 -3 3
-9 2 -12 -2z"/>
<path d="M3770 5701 c0 -12 30 -172 36 -194 9 -30 26 -7 19 26 -22 118 -38
177 -46 177 -5 0 -9 -4 -9 -9z"/>
<path d="M136 5658 c-10 -19 -16 -41 -14 -49 4 -9 12 0 22 24 22 51 16 69 -8
25z"/>
<path d="M1330 5649 c-94 -7 -193 -35 -191 -54 1 -16 107 -18 133 -2 13 8 54
18 92 21 146 14 115 46 -34 35z"/>
<path d="M3644 5625 c25 -60 21 -185 -9 -270 -27 -76 -30 -95 -15 -95 30 0 76
197 67 286 -6 58 -25 105 -45 112 -10 3 -10 -5 2 -33z"/>
<path d="M3721 5600 c18 -60 17 -93 -7 -172 -7 -23 21 -24 30 -2 4 10 9 49 12
88 4 58 2 77 -14 105 -31 57 -42 47 -21 -19z"/>
<path d="M1488 5633 c6 -2 18 -2 25 0 6 3 1 5 -13 5 -14 0 -19 -2 -12 -5z"/>
<path d="M6838 5613 c-93 -15 71 -33 301 -33 187 0 162 17 -36 23 -98 4 -191
8 -208 11 -16 2 -42 2 -57 -1z"/>
<path d="M7814 5559 c-4 -7 17 -11 132 -24 64 -7 295 -63 428 -104 106 -33
116 -35 116 -23 0 15 -215 81 -400 122 -103 23 -269 40 -276 29z"/>
<path d="M2794 5438 c1 -62 -3 -135 -8 -162 -7 -40 -6 -48 5 -44 23 7 51 134
45 204 -5 59 -22 114 -36 114 -4 0 -7 -51 -6 -112z"/>
<path d="M7196 5521 c5 -5 42 -16 83 -25 40 -9 86 -23 102 -31 33 -17 49 -19
49 -5 0 17 -72 47 -141 59 -80 13 -106 14 -93 2z"/>
<path d="M5021 5461 c-21 -14 -6 -27 64 -55 109 -44 112 -27 5 33 -36 19 -60
27 -69 22z"/>
<path d="M4520 5440 c0 -16 32 -28 94 -35 48 -6 58 -5 54 6 -8 23 -148 50
-148 29z"/>
<path d="M4427 5413 c-3 -5 8 -23 23 -42 22 -26 42 -36 90 -48 34 -8 65 -12
67 -9 3 2 -1 17 -9 33 -10 21 -29 34 -73 50 -64 23 -91 28 -98 16z"/>
<path d="M8517 5389 c7 -7 15 -10 18 -7 3 3 -2 9 -12 12 -14 6 -15 5 -6 -5z"/>
<path d="M2909 5385 c-10 -15 -49 -145 -49 -161 0 -36 22 -7 40 55 19 63 25
131 9 106z"/>
<path d="M7340 5370 c40 -31 100 -62 100 -52 0 12 -29 36 -67 56 -44 22 -64
20 -33 -4z"/>
<path d="M7502 5340 c5 -51 37 -100 65 -100 18 0 16 15 -3 31 -22 18 -44 64
-44 94 0 14 -5 25 -11 25 -8 0 -10 -17 -7 -50z"/>
<path d="M12740 5380 c-8 -6 -53 -22 -99 -37 -87 -27 -103 -27 -226 3 -26 6
-28 5 -17 -8 7 -9 24 -19 37 -22 14 -4 25 -11 25 -17 0 -6 -6 -9 -13 -6 -8 3
-40 8 -73 12 l-59 6 23 -20 c46 -40 337 -83 357 -52 7 12 -27 31 -55 31 -38 0
-16 22 47 45 72 28 115 54 107 66 -7 12 -35 11 -54 -1z"/>
<path d="M3552 5343 c-37 -53 -63 -124 -65 -184 -2 -51 5 -80 17 -68 3 2 9 44
14 92 8 68 16 97 36 128 32 48 30 77 -2 32z"/>
<path d="M6170 5361 c0 -5 17 -11 38 -14 20 -3 97 -21 171 -41 142 -38 161
-42 146 -27 -18 18 -294 91 -341 91 -8 0 -14 -4 -14 -9z"/>
<path d="M2420 5274 c0 -62 3 -75 12 -66 17 17 17 134 1 139 -10 4 -13 -15
-13 -73z"/>
<path d="M8391 5346 c3 -3 88 -49 189 -101 210 -110 433 -255 392 -255 -13 0
-101 49 -140 78 -49 37 -49 20 -1 -22 72 -61 232 -137 302 -144 77 -7 70 12
-11 28 -84 16 -107 28 -119 59 -14 39 -199 163 -398 266 -135 70 -236 113
-214 91z"/>
<path d="M8620 5346 c0 -2 19 -16 43 -31 145 -95 338 -241 375 -285 33 -38 47
-48 56 -40 10 8 2 21 -33 58 -25 26 -65 70 -88 97 -29 34 -45 46 -50 38 -6 -8
-48 14 -143 77 -117 78 -160 101 -160 86z"/>
<path d="M11897 5344 c-14 -14 7 -24 51 -24 56 0 86 14 50 23 -30 9 -93 9
-101 1z"/>
<path d="M2673 5298 c3 -18 12 -69 21 -113 29 -150 13 -295 -49 -453 -28 -69
-30 -82 -14 -82 15 0 51 89 83 203 26 90 28 109 24 240 -3 120 -7 150 -25 190
-26 55 -48 63 -40 15z"/>
<path d="M2961 5286 c-13 -15 -28 -86 -18 -86 6 0 38 92 33 97 -2 2 -9 -3 -15
-11z"/>
<path d="M5790 5290 c0 -22 116 -175 206 -273 108 -117 202 -199 224 -195 24
5 22 41 -5 73 -20 24 -26 27 -34 16 -7 -12 -19 -6 -58 26 -79 67 -194 192
-257 281 -55 77 -76 96 -76 72z"/>
<path d="M4255 5280 c-8 -13 54 -40 95 -40 41 0 30 17 -21 30 -22 6 -46 13
-54 16 -7 3 -16 0 -20 -6z"/>
<path d="M5067 5283 c-13 -13 -6 -20 42 -42 69 -33 87 -21 27 17 -53 34 -59
36 -69 25z"/>
<path d="M7430 5263 c0 -53 66 -135 104 -130 35 4 28 24 -19 53 -30 19 -49 40
-56 61 -14 43 -29 51 -29 16z"/>
<path d="M3448 5263 c-43 -49 -108 -213 -108 -272 1 -46 15 -25 30 45 6 27 31
89 56 137 44 87 54 126 22 90z"/>
<path d="M4625 5270 c-7 -12 62 -47 72 -36 9 9 -33 46 -53 46 -7 0 -16 -4 -19
-10z"/>
<path d="M6296 5270 c7 -6 50 -18 95 -26 46 -8 122 -31 169 -50 111 -46 120
-49 120 -35 0 16 -110 65 -200 90 -94 26 -200 38 -184 21z"/>
<path d="M9425 5268 c-22 -5 -60 -12 -85 -16 -57 -9 -59 -31 -5 -47 l40 -11
-33 -7 -33 -7 24 -42 c23 -42 25 -43 68 -40 24 1 75 -6 114 -18 38 -11 77 -20
85 -20 24 0 -40 48 -82 61 -21 7 -38 16 -38 20 0 5 -9 17 -21 28 -19 17 -20
22 -7 47 10 22 22 30 51 35 21 3 43 11 50 18 14 14 -67 14 -128 -1z"/>
<path d="M10053 5254 c-35 -16 -2 -24 95 -24 81 1 103 3 89 11 -21 12 -165 22
-184 13z"/>
<path d="M11482 5248 c3 -9 28 -14 69 -15 35 -1 94 -4 132 -8 108 -10 77 9
-35 23 -133 16 -171 16 -166 0z"/>
<path d="M11810 5241 c0 -9 32 -23 90 -39 62 -18 80 -20 85 -13 2 5 -31 20
-74 34 -84 29 -101 32 -101 18z"/>
<path d="M9835 5220 c-4 -6 6 -10 24 -10 16 0 33 5 36 10 4 6 -6 10 -24 10
-16 0 -33 -4 -36 -10z"/>
<path d="M9010 5206 c0 -8 72 -129 112 -188 21 -32 45 -58 53 -58 21 0 19 24
-4 44 -11 10 -47 60 -82 112 -52 80 -79 110 -79 90z"/>
<path d="M12250 5200 c0 -11 23 -27 43 -31 29 -6 15 -24 -18 -24 -16 0 -32 -4
-34 -10 -6 -16 81 -54 123 -55 38 0 39 0 33 34 l-5 33 70 6 c73 6 100 19 82
37 -12 12 -294 21 -294 10z"/>
<path d="M11057 5191 c-84 -9 -75 -25 13 -22 77 3 90 6 90 22 0 9 -8 9 -103 0z"/>
<path d="M9906 5174 c-21 -20 -20 -27 3 -48 35 -32 351 -37 351 -6 0 5 -22 16
-49 24 -27 8 -62 21 -79 30 -43 22 -204 23 -226 0z"/>
<path d="M7390 5153 c0 -43 32 -85 86 -114 69 -37 94 -44 94 -25 0 8 -25 29
-54 46 -57 32 -106 81 -106 106 0 8 -4 14 -10 14 -5 0 -10 -12 -10 -27z"/>
<path d="M3940 5162 c0 -21 45 -64 88 -86 58 -29 154 -61 167 -57 6 2 23 7 39
10 43 10 43 28 -1 35 -21 4 -51 12 -66 18 -20 8 -31 8 -39 0 -12 -12 -109 26
-143 57 -28 25 -45 34 -45 23z"/>
<path d="M4190 5161 c0 -16 41 -40 75 -43 65 -6 28 34 -44 48 -20 4 -31 2 -31
-5z"/>
<path d="M11328 5146 c-27 -20 -22 -33 21 -60 47 -30 75 -36 76 -16 0 10 8 14
25 11 58 -8 95 -27 115 -59 11 -19 46 -59 79 -90 47 -46 70 -60 120 -75 75
-21 276 -35 276 -19 0 23 38 33 84 21 24 -6 52 -9 62 -6 15 3 11 7 -17 20 -54
24 -319 99 -332 94 -11 -4 36 -28 126 -65 49 -21 22 -35 -52 -28 -130 12 -261
62 -261 99 0 10 -16 37 -35 60 -30 35 -42 68 -36 101 4 19 -28 26 -129 26 -72
-1 -111 -5 -122 -14z m137 -18 c35 -16 31 -25 -10 -20 -20 2 -42 -1 -50 -8
-13 -10 -19 -9 -36 6 -19 17 -19 19 -2 25 28 11 69 10 98 -3z m90 -38 c3 -5 2
-10 -4 -10 -5 0 -13 5 -16 10 -3 6 -2 10 4 10 5 0 13 -4 16 -10z"/>
<path d="M2248 5065 c-1 -41 -2 -88 -2 -105 -1 -42 17 -42 26 0 10 42 0 180
-13 180 -5 0 -10 -34 -11 -75z"/>
<path d="M10922 5128 c5 -15 148 -56 198 -57 51 -1 21 14 -91 44 -108 29 -112
29 -107 13z"/>
<path d="M9181 5105 c0 -11 9 -37 22 -58 17 -30 35 -44 81 -62 33 -13 92 -45
133 -70 75 -46 111 -59 81 -29 -24 24 -82 58 -173 103 -83 40 -111 64 -132
109 -9 23 -11 24 -12 7z"/>
<path d="M2315 5101 c-8 -14 6 -201 15 -201 12 0 20 40 20 96 0 88 -16 135
-35 105z"/>
<path d="M10524 5089 c-6 -10 -3 -11 71 -30 28 -6 73 -23 101 -35 63 -30 84
-31 60 -5 -32 35 -219 91 -232 70z"/>
<path d="M3880 5075 c0 -17 17 -35 94 -98 46 -38 46 -38 46 -13 0 15 -10 32
-25 43 -14 10 -46 33 -70 51 -34 25 -45 29 -45 17z"/>
<path d="M12180 5082 c0 -5 6 -14 13 -20 17 -14 159 -64 165 -58 14 15 -14 34
-79 55 -41 13 -80 26 -86 28 -7 3 -13 1 -13 -5z"/>
<path d="M5317 5073 c-18 -18 96 -123 135 -123 28 0 22 18 -13 36 -17 8 -50
33 -74 55 -23 21 -45 36 -48 32z"/>
<path d="M9965 5070 c-9 -14 11 -30 38 -30 9 0 17 -6 17 -14 0 -17 21 -26 63
-26 18 -1 61 -7 96 -14 110 -24 119 -2 12 29 -68 21 -60 30 14 15 55 -11 78
-8 59 9 -27 24 -286 52 -299 31z"/>
<path d="M2468 5065 c-3 -6 -18 -54 -32 -108 -15 -55 -35 -116 -46 -137 -12
-23 -16 -41 -10 -45 15 -9 48 66 76 171 23 85 29 145 12 119z"/>
<path d="M11910 5063 c0 -9 222 -113 317 -149 63 -24 94 -18 51 10 -37 23
-206 96 -287 122 -83 27 -81 27 -81 17z"/>
<path d="M3262 5015 c-25 -32 -66 -154 -60 -182 7 -35 22 -13 38 54 9 37 24
83 34 101 23 45 15 62 -12 27z"/>
<path d="M7610 5017 c0 -46 59 -145 100 -167 30 -16 24 2 -17 56 -21 27 -48
69 -60 94 -21 41 -22 43 -23 17z"/>
<path d="M9535 5030 c3 -5 13 -10 21 -10 8 0 12 5 9 10 -3 6 -13 10 -21 10 -8
0 -12 -4 -9 -10z"/>
<path d="M7410 5021 c0 -11 85 -115 123 -149 14 -13 28 -19 31 -14 7 12 -21
50 -88 120 -49 51 -66 62 -66 43z"/>
<path d="M10640 5013 c0 -16 42 -50 97 -77 57 -28 63 -30 63 -18 0 9 -118 88
-146 99 -8 3 -14 1 -14 -4z"/>
<path d="M4825 4990 c-3 -6 10 -30 29 -53 36 -45 37 -57 4 -57 -28 0 -22 -26
17 -69 36 -39 76 -64 128 -76 39 -10 36 15 -10 66 -33 36 -35 43 -24 62 12 19
8 25 -47 79 -58 56 -84 69 -97 48z"/>
<path d="M6625 4978 c29 -97 230 -294 352 -344 49 -21 43 4 -10 40 -154 106
-226 174 -302 283 -33 47 -50 56 -40 21z"/>
<path d="M10540 4971 c0 -6 12 -14 28 -17 15 -4 66 -25 115 -47 48 -22 91 -37
95 -33 10 11 -22 32 -104 66 -87 36 -134 47 -134 31z"/>
<path d="M11017 4974 c-16 -16 -4 -48 52 -131 60 -88 145 -182 256 -281 l60
-53 -35 6 c-73 12 -157 62 -258 154 -55 50 -103 91 -106 91 -35 0 108 -158
199 -218 87 -59 157 -87 240 -97 59 -6 115 5 115 24 0 5 -28 22 -62 38 -35 17
-97 57 -138 90 -78 62 -210 191 -210 205 0 5 24 -9 53 -30 143 -105 299 -181
370 -182 51 0 24 22 -61 51 -150 50 -283 138 -395 260 -40 44 -76 76 -80 73z"/>
<path d="M4410 4946 c0 -8 5 -27 10 -42 14 -36 5 -42 -19 -13 -19 23 -20 23
-21 4 0 -11 11 -37 25 -58 20 -29 32 -37 56 -37 35 0 48 23 27 48 -8 9 -27 38
-42 65 -28 49 -36 56 -36 33z"/>
<path d="M4984 4948 c-9 -14 82 -102 97 -93 16 10 -58 105 -82 105 -4 0 -11
-5 -15 -12z"/>
<path d="M9690 4953 c0 -5 27 -21 60 -36 69 -32 180 -131 216 -193 17 -29 40
-50 68 -64 56 -26 89 -74 127 -184 52 -149 38 -146 -88 16 -119 153 -176 209
-196 189 -8 -8 4 -27 49 -74 62 -64 107 -120 139 -172 12 -20 -1 -11 -40 28
-31 32 -75 65 -96 74 -24 9 -39 22 -39 33 0 25 -23 42 -160 117 -126 68 -154
82 -310 148 -47 20 -90 41 -95 45 -6 5 -23 13 -38 19 -47 18 -30 -7 26 -39 29
-16 64 -41 77 -55 l24 -26 -50 2 c-28 1 -56 -1 -62 -5 -17 -11 -15 -45 9 -112
11 -32 29 -97 40 -144 11 -47 22 -93 25 -102 3 -10 1 -18 -4 -18 -11 0 -32 55
-64 164 -12 43 -27 80 -33 81 -51 14 -114 43 -162 76 -63 43 -86 50 -58 19 23
-25 22 -63 -5 -215 -21 -118 -27 -228 -10 -190 10 24 50 269 50 311 0 56 15
57 44 5 30 -57 153 -224 167 -229 20 -8 -13 52 -76 135 -37 48 -62 89 -57 91
4 1 29 -7 55 -18 46 -20 46 -21 77 -118 18 -57 45 -116 65 -144 37 -51 128
-128 151 -128 14 0 19 -12 8 -22 -10 -10 -78 13 -101 35 -13 11 -26 17 -30 13
-14 -13 14 -41 75 -75 61 -34 77 -51 47 -51 -19 0 -19 -10 -1 -35 14 -21 46
-118 46 -142 0 -30 -19 0 -40 62 -23 69 -36 80 -46 40 -9 -37 2 -71 57 -165
27 -47 49 -89 49 -93 0 -4 -7 -7 -16 -7 -23 0 -84 64 -84 89 0 12 -5 21 -11
21 -7 0 -9 -9 -5 -24 4 -18 1 -25 -15 -29 -20 -5 -21 -10 -15 -64 4 -32 12
-80 17 -106 12 -50 5 -75 -12 -44 -6 9 -16 17 -23 17 -7 0 -25 9 -39 20 -14
11 -28 20 -31 20 -15 0 -3 -30 24 -65 22 -27 27 -41 19 -46 -9 -5 -9 -18 1
-53 7 -26 11 -48 9 -51 -3 -2 -20 4 -38 13 -36 17 -111 121 -111 153 0 10 -4
21 -10 24 -6 4 -10 -7 -10 -24 0 -66 -40 -18 -64 77 -20 75 -20 116 -1 132 12
10 15 7 20 -17 16 -68 28 -94 61 -123 33 -28 64 -39 64 -22 0 4 -20 27 -44 51
-39 38 -47 53 -61 119 -13 57 -15 80 -6 94 7 11 9 45 5 95 -4 43 -3 74 2 70 4
-4 11 -40 15 -80 4 -40 17 -99 29 -131 28 -74 120 -178 120 -136 0 5 -16 27
-35 48 -41 46 -85 136 -85 175 0 16 5 47 11 70 9 38 7 48 -16 95 -14 29 -30
50 -35 47 -10 -6 -50 67 -69 128 -7 20 -16 37 -21 37 -11 0 14 -86 46 -157 19
-43 21 -59 13 -81 -6 -15 -8 -60 -5 -102 6 -81 4 -78 -36 74 -13 50 -29 91
-37 94 -11 4 -12 -2 -6 -24 29 -118 35 -165 29 -269 -10 -172 31 -303 108
-354 33 -21 36 -27 31 -55 -9 -50 -18 -49 -43 4 -23 48 -40 64 -40 37 0 -7 18
-50 40 -95 21 -45 35 -82 30 -82 -13 0 -48 52 -56 84 -9 38 -28 17 -20 -22 4
-16 23 -53 41 -83 19 -29 35 -61 35 -71 0 -27 -29 -10 -36 21 -4 14 -9 30 -12
35 -7 13 -22 -16 -22 -44 -1 -25 -1 -25 -16 -5 -12 15 -15 35 -10 83 7 78 -9
82 -20 5 -5 -32 -13 -58 -19 -58 -5 0 -17 27 -27 60 l-16 60 -1 -61 c-1 -47 5
-72 24 -108 25 -46 30 -85 17 -118 -14 -35 -52 23 -52 78 0 16 -4 23 -11 18
-7 -4 -9 -23 -5 -50 3 -28 2 -44 -5 -44 -16 0 -36 59 -44 128 -4 35 -10 60
-14 57 -3 -4 -9 -55 -12 -113 -6 -110 -31 -271 -51 -332 l-11 -35 -8 27 c-4
15 -10 71 -14 125 -11 138 -24 160 -24 41 -1 -54 -7 -109 -13 -125 -12 -26
-13 -24 -16 39 -2 57 -6 68 -27 82 -27 18 -34 49 -60 246 -23 170 -24 177 -36
159 -27 -42 40 -403 83 -443 18 -17 19 -26 13 -95 -7 -86 -30 -177 -46 -187
-8 -5 -9 25 -4 107 10 161 -9 128 -28 -49 -19 -177 -27 -191 -51 -96 -6 26
-17 49 -23 51 -6 2 -21 -27 -33 -64 -33 -98 -77 -193 -90 -193 -8 0 -10 9 -7
23 15 61 19 117 8 117 -6 0 -11 -5 -11 -12 0 -19 -140 -298 -149 -298 -19 0
-19 18 -1 91 21 79 27 157 10 128 -11 -19 -70 -247 -70 -271 0 -20 15 -24 25
-8 3 6 17 10 30 10 20 0 31 14 66 80 22 44 45 80 49 80 5 0 12 -9 15 -20 3
-11 11 -20 16 -20 6 0 31 44 57 98 40 82 47 93 50 69 2 -19 8 -27 17 -23 16 6
25 -15 18 -43 -3 -13 -1 -21 8 -21 7 0 74 -62 148 -138 110 -111 150 -145 207
-175 42 -21 86 -37 106 -37 19 0 38 -4 44 -10 15 -15 153 -80 169 -80 8 0 15
9 15 20 0 11 5 20 12 20 6 0 61 -32 121 -71 86 -57 111 -69 118 -58 11 18 -4
30 -146 120 -119 75 -145 99 -145 134 0 12 -12 49 -26 81 -15 33 -51 124 -81
204 -64 170 -61 164 -78 150 -10 -9 -19 8 -44 82 -43 132 -78 331 -53 302 5
-5 16 -38 26 -74 10 -36 35 -96 56 -135 21 -38 45 -97 55 -130 23 -83 163
-411 196 -460 48 -71 112 -129 186 -168 40 -21 85 -48 100 -61 55 -46 115 -78
125 -68 14 14 3 29 -35 48 -38 20 -167 115 -186 138 -10 12 -17 13 -27 5 -17
-14 -50 8 -103 70 -40 48 -149 284 -173 376 -6 22 -28 85 -49 140 -53 142
-106 365 -86 365 3 0 18 -39 32 -87 15 -49 41 -108 60 -133 18 -26 48 -94 70
-160 21 -63 48 -137 60 -165 12 -27 25 -66 29 -85 3 -19 37 -77 74 -129 139
-196 311 -339 415 -345 29 -2 66 -9 82 -16 17 -7 75 -23 130 -35 59 -14 143
-44 205 -73 58 -27 121 -53 140 -57 19 -4 78 -21 130 -37 76 -24 100 -36 120
-61 13 -18 55 -64 93 -104 71 -74 68 -67 152 -293 7 -19 20 -114 29 -210 9
-96 18 -198 21 -227 l5 -52 -37 -10 c-21 -6 -56 -11 -79 -11 -59 0 -104 -18
-142 -56 -35 -36 -72 -60 -72 -47 1 4 21 24 45 43 25 19 47 40 50 47 10 27
-26 11 -83 -38 -59 -50 -109 -115 -151 -197 -22 -43 -28 -92 -11 -92 10 0 20
20 49 94 9 22 15 26 25 17 7 -6 16 -8 19 -4 12 11 8 -7 -7 -35 -8 -15 -28 -40
-45 -56 -42 -40 -41 -66 2 -66 49 1 69 22 78 82 8 61 65 154 129 212 44 40 48
41 84 25 36 -17 38 -32 7 -75 -15 -22 -34 -59 -41 -84 -18 -55 -80 -125 -126
-142 -38 -13 -45 -28 -13 -28 14 0 25 -11 35 -36 14 -34 17 -36 47 -28 18 4
67 7 110 5 111 -3 175 12 243 62 32 22 70 42 85 43 53 4 98 26 133 65 20 21
36 44 36 50 0 6 9 23 19 38 14 20 22 56 29 132 6 57 8 106 7 109 -2 3 -9 80
-15 170 -10 154 -60 474 -96 615 -22 89 -31 129 -55 255 -25 131 -34 160 -49
160 -14 0 -9 -41 31 -248 15 -83 33 -161 39 -171 5 -11 16 -64 25 -119 8 -54
24 -146 35 -203 21 -104 36 -253 47 -467 5 -108 5 -114 -19 -150 -14 -20 -28
-58 -32 -83 -5 -31 -15 -54 -34 -71 -34 -32 -70 -51 -82 -43 -13 8 -13 92 0
100 13 8 13 25 0 25 -25 0 -60 -50 -60 -85 0 -43 -31 -77 -105 -111 -51 -24
-128 -31 -155 -14 -12 7 -12 12 5 29 31 35 8 36 -39 3 -42 -30 -75 -40 -89
-26 -9 9 10 41 49 87 18 22 35 56 39 76 10 58 53 102 148 149 47 23 88 49 91
58 4 11 2 14 -6 11 -7 -3 -20 -8 -28 -11 -32 -13 -43 72 -47 374 -4 291 -13
382 -23 230 -4 -58 -8 -79 -14 -65 -51 124 -54 137 -37 164 7 12 13 12 24 3 7
-7 17 -9 20 -6 10 10 -10 42 -72 119 -91 113 -187 246 -211 295 -12 25 -31 53
-41 62 -28 28 -79 105 -79 122 0 12 10 10 58 -9 33 -13 68 -21 83 -18 46 9
101 -29 168 -116 34 -45 66 -81 70 -81 5 0 16 11 25 25 12 19 16 50 16 134 0
60 -3 117 -6 126 -4 9 -54 39 -113 67 -58 27 -126 63 -150 79 -28 20 -94 44
-190 70 -80 22 -158 45 -173 51 -35 13 -44 11 -39 -10 3 -16 1 -15 -16 1 -22
20 -40 22 -45 6 -9 -26 -206 100 -279 178 -45 48 -74 91 -67 98 2 3 37 -23 78
-56 83 -68 116 -87 241 -135 158 -61 160 -38 3 36 -139 65 -269 151 -226 150
4 0 34 -9 67 -19 37 -12 64 -16 71 -10 8 6 27 -9 59 -46 46 -55 101 -93 113
-80 4 4 -11 21 -33 38 -85 67 -104 97 -65 97 35 0 88 -27 101 -52 12 -22 11
-23 -8 -6 -28 25 -47 24 -33 -2 14 -26 79 -70 105 -70 11 0 51 -21 89 -45 38
-25 75 -45 82 -45 7 0 18 -9 24 -20 6 -11 19 -24 29 -30 23 -12 251 -73 336
-90 79 -16 161 -53 174 -79 7 -11 21 -50 32 -86 11 -36 24 -65 28 -65 14 0 19
36 11 80 -17 90 -105 167 -220 191 -166 33 -197 43 -233 71 -20 16 -88 49
-150 74 -127 51 -196 102 -267 197 -39 54 -42 61 -36 103 3 25 15 57 26 71 25
33 26 89 1 168 -16 50 -23 61 -47 69 -67 20 -83 29 -137 74 -55 46 -151 151
-144 158 2 2 29 -21 62 -52 63 -60 139 -104 180 -104 42 0 29 17 -47 61 -108
62 -207 163 -280 289 -34 58 -69 114 -79 125 -24 28 -61 105 -51 105 17 0 129
-125 175 -195 25 -38 75 -99 111 -135 41 -39 66 -73 66 -86 0 -27 34 -70 70
-89 56 -29 116 -10 71 22 -24 16 -101 110 -101 122 0 4 11 13 25 19 30 14 32
28 4 37 -11 4 -25 17 -31 30 -9 20 -7 29 16 55 15 18 26 44 26 60 0 35 -44
126 -68 139 -10 6 -17 22 -17 38 0 20 -6 29 -20 31 -28 6 -54 31 -78 77 l-21
40 -6 -40 -5 -40 -48 46 c-46 45 -57 49 -57 22 0 -24 89 -110 138 -134 31 -15
41 -24 30 -26 -45 -10 -145 76 -224 192 -56 83 -66 119 -21 78 12 -11 48 -37
80 -58 52 -35 72 -39 72 -14 0 13 5 12 55 -10 86 -39 94 -21 18 40 -29 22 -61
57 -70 77 -10 21 -25 47 -34 60 -16 22 -16 22 16 22 43 0 35 19 -18 46 l-42
22 35 6 c42 8 49 36 9 36 -30 0 -94 28 -94 41 0 5 18 9 41 9 62 0 49 29 -26
58 -100 38 -126 54 -212 136 -91 86 -112 114 -94 126 8 5 6 20 -9 55 -11 26
-19 52 -18 56 13 36 208 -158 272 -271 28 -50 31 -53 34 -28 4 31 -29 88 -97
168 -26 30 -55 68 -65 84 -10 15 -33 42 -52 59 -42 36 -38 45 11 20 43 -23
242 -244 293 -327 34 -55 37 -58 40 -34 4 30 -13 60 -72 131 -21 26 -36 50
-33 53 10 10 155 -77 210 -125 27 -25 67 -73 89 -108 22 -35 43 -63 47 -63 4
0 6 15 4 33 l-3 32 15 -30 c8 -16 14 -35 15 -41 0 -6 7 -17 15 -24 25 -20 29
14 17 119 -7 60 -23 125 -42 175 -17 43 -29 81 -26 84 7 6 140 -128 204 -206
24 -28 47 -52 53 -52 14 0 11 83 -6 130 -8 23 -15 44 -15 46 0 29 127 -89 187
-173 24 -35 49 -61 54 -57 23 14 8 89 -46 228 -14 38 -23 71 -20 74 3 3 20
-12 38 -34 17 -21 67 -79 110 -127 42 -49 89 -104 103 -123 15 -19 30 -34 35
-34 20 0 7 38 -29 82 -20 26 -50 64 -67 85 -76 96 -258 293 -271 293 -21 0
-17 -17 22 -105 51 -116 95 -235 86 -235 -5 0 -30 26 -58 57 -27 32 -62 71
-79 86 -59 58 -172 157 -179 157 -12 0 -5 -20 23 -65 31 -49 87 -192 79 -200
-3 -3 -27 25 -54 61 -63 86 -186 192 -270 234 -46 23 -91 57 -143 109 -51 51
-99 89 -147 114 -75 39 -84 42 -84 30z m-260 -244 c35 -11 37 -13 37 -55 0
-52 -4 -55 -18 -14 -12 33 -26 39 -35 15 -10 -25 -19 -17 -31 25 -11 45 -10
46 47 29z m-70 -3 c0 -3 -4 -8 -10 -11 -5 -3 -10 -1 -10 4 0 6 5 11 10 11 6 0
10 -2 10 -4z m303 -391 c36 -25 48 -45 27 -45 -14 0 -88 69 -75 70 6 0 27 -11
48 -25z m95 -53 c10 -7 52 -78 52 -90 0 -9 -81 62 -91 79 -8 15 -6 19 8 19 10
0 24 -4 31 -8z m9 -169 c14 -27 38 -65 54 -85 45 -57 20 -46 -56 24 -77 71
-148 156 -140 168 3 5 31 -7 62 -26 43 -26 62 -45 80 -81z m-119 -13 c7 -17 7
-30 2 -30 -12 0 -41 56 -33 63 10 10 20 -1 31 -33z m340 -434 c25 -9 60 -16
78 -16 41 0 76 -34 72 -70 -4 -31 -26 -36 -95 -20 -54 12 -72 30 -30 30 20 0
18 4 -18 35 -45 40 -94 69 -102 61 -3 -3 2 -17 11 -32 29 -43 8 -40 -39 6 -63
62 -225 296 -225 326 0 3 68 -64 151 -149 124 -127 160 -159 197 -171z m-443
118 c19 -12 25 -25 25 -50 0 -45 -15 -43 -31 4 -6 20 -16 43 -22 50 -13 17 -1
15 28 -4z m223 -201 c61 -93 121 -194 132 -226 37 -98 162 -236 274 -301 71
-42 96 -74 96 -126 0 -23 -7 -35 -31 -49 -43 -26 -86 -13 -174 54 -90 69 -104
84 -163 180 -27 44 -88 142 -137 219 -48 76 -95 161 -105 190 -18 49 -18 76 0
46 5 -8 17 -27 27 -41 10 -14 36 -52 57 -85 61 -93 145 -194 161 -194 25 0 17
26 -23 77 -75 96 -216 334 -236 401 -17 53 18 11 122 -145z m-148 94 c0 -5 -4
-5 -10 -2 -5 3 -10 14 -10 23 0 15 2 15 10 2 5 -8 10 -19 10 -23z m-96 7 c9
-23 7 -36 -3 -30 -12 8 -21 46 -11 46 4 0 11 -7 14 -16z m89 -145 c20 -64 46
-115 105 -205 225 -345 282 -410 426 -485 72 -38 77 -42 62 -57 -44 -45 -224
67 -278 173 -12 22 -53 83 -92 135 -157 208 -303 500 -268 534 10 11 18 -6 45
-95z m-113 -33 c0 -35 -20 -2 -25 40 l-5 39 14 -30 c9 -16 15 -39 16 -49z
m523 3 c62 -32 92 -87 37 -66 -40 15 -101 77 -76 77 9 0 27 -5 39 -11z m-693
-19 c16 -16 20 -33 20 -87 0 -40 -4 -63 -9 -57 -8 8 -51 141 -51 158 0 12 20
6 40 -14z m161 -107 c23 -69 34 -117 34 -160 0 -34 -3 -59 -6 -55 -7 8 -62
176 -79 238 -10 41 -6 74 10 74 5 0 23 -44 41 -97z m123 -10 c38 -79 143 -238
219 -332 34 -43 74 -98 88 -123 17 -28 55 -66 101 -101 79 -60 100 -70 165
-87 45 -11 73 -44 55 -62 -13 -13 -113 16 -164 48 -22 14 -60 44 -84 66 -25
23 -47 38 -51 35 -11 -12 25 -53 96 -107 40 -30 68 -56 63 -58 -15 -5 -114 36
-162 66 -75 48 -163 136 -225 227 -40 58 -61 81 -63 70 -4 -20 65 -122 143
-213 44 -50 55 -69 55 -98 0 -38 73 -156 126 -205 75 -68 225 -159 262 -159
10 0 43 -21 73 -47 30 -27 78 -65 107 -87 29 -21 51 -41 48 -43 -9 -10 -143
69 -216 127 -72 58 -90 69 -90 53 0 -15 16 -29 98 -96 46 -37 116 -84 154
-104 56 -29 77 -47 97 -81 14 -25 46 -72 71 -106 40 -55 133 -226 123 -226 -2
0 -20 8 -41 19 -20 10 -102 39 -182 65 -171 54 -179 58 -160 80 15 19 16 18
-35 44 -95 48 -260 206 -464 445 -45 53 -87 97 -92 97 -32 0 330 -405 457
-510 76 -64 91 -87 52 -74 -32 9 -57 24 -108 62 -25 18 -85 60 -135 92 -49 32
-119 87 -155 122 -136 132 -276 324 -243 335 7 3 -12 74 -58 211 -38 113 -69
210 -69 214 0 5 7 8 16 8 10 0 14 6 11 15 -7 17 -62 244 -72 295 -10 51 8 28
40 -50 14 -36 31 -94 36 -130 15 -101 46 -202 141 -455 16 -44 39 -90 51 -102
22 -24 38 -23 18 1 -10 12 -111 279 -111 293 0 15 24 -16 47 -60 41 -82 101
-165 162 -226 32 -31 68 -75 81 -99 13 -23 34 -49 47 -57 28 -19 29 -11 3 22
-25 32 -26 47 -1 33 11 -5 27 -10 35 -10 30 0 16 20 -29 41 -120 57 -255 233
-326 427 -14 39 -29 42 -30 5 0 -18 -13 9 -35 72 -23 66 -32 109 -28 128 3 15
9 27 12 27 4 0 22 -38 41 -85 20 -50 74 -145 129 -228 101 -154 118 -175 129
-164 10 10 -18 65 -97 186 -103 160 -145 242 -131 250 9 6 5 28 -13 87 -29 92
-29 92 89 -82 80 -118 200 -264 216 -264 21 0 6 31 -48 100 -128 163 -277 404
-283 455 -4 35 0 65 8 65 4 0 20 -26 36 -57z m336 -29 c0 -8 -4 -12 -10 -9 -5
3 -10 10 -10 16 0 5 5 9 10 9 6 0 10 -7 10 -16z m-670 -159 c19 -92 86 -280
135 -380 24 -49 77 -160 119 -245 51 -106 94 -179 136 -230 96 -119 254 -272
330 -321 38 -24 70 -47 70 -51 0 -9 -100 16 -135 34 -33 18 -232 188 -281 240
-66 71 -97 122 -150 245 -145 335 -229 566 -238 658 -4 33 -9 76 -12 95 -9 57
11 22 26 -45z m90 5 c24 -37 29 -53 22 -66 -14 -25 8 -100 117 -401 47 -131
41 -153 -9 -30 -18 45 -43 105 -56 132 -64 140 -137 415 -110 415 2 0 18 -22
36 -50z m-135 -155 c21 -74 53 -160 75 -200 21 -38 54 -108 73 -155 19 -47 46
-110 59 -140 14 -30 28 -68 32 -85 12 -49 141 -213 257 -326 60 -58 109 -108
109 -112 0 -37 -159 53 -245 138 -82 81 -119 137 -178 269 -97 217 -226 628
-227 725 0 38 5 25 45 -114z m-298 -246 c8 -30 27 -97 43 -150 22 -71 27 -102
21 -125 l-9 -29 -25 57 c-47 102 -86 316 -56 306 7 -2 19 -29 26 -59z m161
-217 c29 -5 49 -31 77 -101 l24 -62 -41 3 c-40 3 -41 4 -63 66 -13 35 -32 72
-43 82 -11 10 -29 55 -42 100 -40 150 -34 162 18 35 38 -92 54 -121 70 -123z
m-268 179 c0 -26 11 -93 24 -147 13 -54 27 -122 30 -151 5 -54 33 -120 61
-143 26 -21 28 -5 5 40 -14 27 -19 51 -15 69 4 18 -5 60 -25 120 -17 51 -30
97 -28 103 2 6 21 -30 42 -81 38 -92 57 -121 79 -121 7 0 25 -37 40 -82 16
-46 35 -92 43 -102 30 -41 26 -1 -9 102 -21 59 -37 114 -37 122 0 30 24 -11
60 -107 21 -54 47 -122 59 -150 11 -29 17 -53 13 -53 -16 0 -66 40 -118 95
-30 31 -58 55 -61 51 -3 -3 13 -30 36 -59 22 -30 41 -57 41 -60 0 -18 -51 -3
-97 28 -51 34 -104 95 -84 95 17 0 13 27 -4 34 -8 3 -15 16 -15 29 0 14 -7 44
-15 68 -9 24 -13 55 -10 70 4 17 -2 41 -15 68 -34 63 -40 211 -10 211 6 0 10
-22 10 -49z m-50 -148 c18 -89 29 -129 51 -180 11 -25 17 -48 15 -51 -9 -9
-56 28 -56 44 0 9 -12 43 -27 76 -26 59 -42 63 -43 11 0 -25 -15 -31 -23 -9
-6 16 51 166 64 166 4 0 13 -26 19 -57z m1745 -307 c28 -7 80 -28 117 -46 115
-55 111 -81 -6 -40 -68 23 -176 79 -176 91 0 12 6 11 65 -5z m-17 -85 c2 -6
-21 4 -52 21 -31 18 -56 37 -56 41 0 11 104 -49 108 -62z m141 -56 c46 -19 88
-28 145 -32 111 -6 121 -9 134 -38 18 -38 16 -86 -3 -79 -8 3 -17 14 -20 25
-4 11 -10 17 -15 14 -11 -7 4 -58 30 -100 12 -19 20 -45 18 -57 -2 -17 -17 -2
-73 76 -106 148 -103 144 -115 124 -6 -10 -15 -18 -20 -18 -12 0 -190 110
-190 117 0 9 41 -4 109 -32z m180 -570 c77 -94 83 -107 33 -64 -44 38 -122
135 -122 152 0 15 28 -13 89 -88z m146 -834 c6 -11 -33 -26 -43 -16 -4 3 0 10
8 15 19 12 27 12 35 1z"/>
<path d="M9900 3190 c0 -27 86 -146 129 -178 46 -33 172 -92 198 -92 40 0 25
27 -21 39 -90 22 -182 90 -256 189 -40 51 -50 60 -50 42z"/>
<path d="M10015 2269 c94 -97 350 -330 402 -366 98 -68 73 -27 -40 64 -62 50
-175 150 -250 222 -75 72 -142 131 -149 131 -7 0 10 -23 37 -51z"/>
<path d="M10340 2061 c0 -16 34 -49 135 -130 107 -87 155 -108 90 -40 -45 46
-206 179 -217 179 -5 0 -8 -4 -8 -9z"/>
<path d="M2553 4938 c-20 -25 -113 -189 -113 -198 0 -17 28 -11 34 8 3 10 22
42 41 72 32 50 60 119 51 127 -2 2 -8 -2 -13 -9z"/>
<path d="M3906 4928 c14 -46 52 -126 63 -132 19 -12 12 24 -10 55 -11 16 -25
45 -30 64 -6 19 -15 35 -20 35 -6 0 -7 -9 -3 -22z"/>
<path d="M5253 4943 c-26 -10 -11 -34 48 -81 60 -46 61 -47 34 -52 -44 -8 -40
-26 12 -64 82 -60 164 -82 163 -44 -1 12 -61 77 -188 201 -27 26 -51 47 -53
46 -2 0 -10 -3 -16 -6z"/>
<path d="M7765 4919 c12 -41 57 -118 71 -123 20 -8 18 -1 -22 70 -38 68 -61
93 -49 53z"/>
<path d="M8200 4930 c0 -49 109 -234 159 -270 51 -36 46 -17 -13 50 -29 34
-73 100 -96 146 -41 81 -50 95 -50 74z"/>
<path d="M3155 4907 c-33 -51 -80 -228 -57 -213 6 3 18 32 27 63 9 31 22 65
30 77 15 23 31 96 21 96 -3 0 -12 -10 -21 -23z"/>
<path d="M7420 4899 c0 -15 53 -89 84 -118 46 -43 32 6 -20 72 -44 55 -64 69
-64 46z"/>
<path d="M10570 4897 c0 -16 21 -35 73 -66 57 -35 58 -15 2 34 -51 45 -75 55
-75 32z"/>
<path d="M2761 4833 c-11 -38 -24 -84 -29 -103 -5 -19 -19 -59 -31 -88 -23
-57 -25 -72 -13 -72 17 0 61 107 86 207 29 113 30 123 16 123 -5 0 -18 -30
-29 -67z"/>
<path d="M6990 4891 c0 -15 223 -171 244 -171 3 0 6 6 6 14 0 15 -217 166
-238 166 -7 0 -12 -4 -12 -9z"/>
<path d="M6850 4879 c0 -36 213 -189 264 -189 32 0 14 16 -66 60 -45 25 -105
66 -134 93 -54 49 -64 55 -64 36z"/>
<path d="M9540 4886 c0 -7 146 -116 155 -116 5 0 17 -8 28 -17 11 -10 18 -13
16 -7 -10 30 -199 163 -199 140z"/>
<path d="M8998 4861 c43 -37 202 -86 202 -62 0 6 -6 13 -12 15 -25 8 -183 57
-198 62 -8 3 -5 -4 8 -15z"/>
<path d="M6590 4858 c0 -27 65 -109 140 -176 72 -64 110 -86 110 -65 0 3 -56
62 -125 129 -69 68 -125 118 -125 112z"/>
<path d="M8406 4838 c37 -71 174 -192 195 -171 7 7 -13 29 -61 68 -39 32 -84
75 -101 96 -37 47 -56 51 -33 7z"/>
<path d="M7910 4827 c0 -37 17 -96 33 -112 6 -7 7 2 3 25 -3 19 -9 52 -12 73
-9 49 -24 58 -24 14z"/>
<path d="M9930 4852 c0 -10 119 -100 160 -122 48 -26 27 0 -32 40 -35 23 -72
50 -83 60 -29 25 -45 33 -45 22z"/>
<path d="M3880 4829 c0 -39 32 -159 41 -153 12 7 12 47 0 76 -6 13 -12 40 -16
61 -6 39 -25 52 -25 16z"/>
<path d="M4341 4831 c-9 -6 -11 -18 -7 -35 8 -31 17 -33 41 -6 29 32 3 64 -34
41z"/>
<path d="M2553 4730 c-48 -90 -54 -110 -31 -110 12 0 89 172 86 192 -2 9 -26
-27 -55 -82z"/>
<path d="M7285 4810 c10 -11 25 -20 34 -20 12 1 10 5 -8 20 -30 26 -49 26 -26
0z"/>
<path d="M11520 4821 c0 -40 263 -106 285 -72 11 19 1 23 -113 47 -59 12 -122
25 -139 29 -22 5 -33 4 -33 -4z"/>
<path d="M8830 4804 c0 -3 8 -18 18 -32 11 -15 34 -56 53 -92 20 -38 35 -57
37 -47 4 18 -64 158 -81 169 -15 9 -27 10 -27 2z"/>
<path d="M8982 4780 c-8 -88 -25 -412 -25 -470 0 -80 22 -230 34 -230 11 0 11
17 -4 119 -9 56 -10 112 -5 168 5 46 7 166 5 266 -1 100 -4 166 -5 147z"/>
<path d="M10606 4753 c-4 -4 12 -25 34 -48 42 -43 66 -80 101 -155 85 -181 92
-195 96 -173 3 12 -14 66 -37 119 -22 53 -39 101 -38 106 2 6 50 -27 106 -73
116 -95 162 -126 162 -110 0 26 -142 153 -280 251 -109 77 -135 92 -144 83z"/>
<path d="M11430 4751 c0 -34 165 -100 248 -101 46 0 53 3 50 18 -2 13 -17 19
-63 24 -33 3 -98 20 -144 37 -97 35 -91 34 -91 22z"/>
<path d="M2752 4624 c-43 -86 -57 -124 -47 -124 8 0 34 43 63 103 58 121 64
135 54 141 -5 3 -36 -51 -70 -120z"/>
<path d="M3003 4738 c-19 -23 -124 -240 -119 -245 5 -5 9 1 74 112 42 72 68
132 60 141 -3 2 -10 -1 -15 -8z"/>
<path d="M8051 4705 c0 -50 14 -133 22 -142 15 -14 16 7 7 82 -11 87 -30 126
-29 60z"/>
<path d="M8610 4735 c0 -11 46 -45 61 -45 33 0 30 20 -5 35 -36 15 -56 19 -56
10z"/>
<path d="M7990 4713 c0 -13 5 -23 10 -23 13 0 13 11 0 30 -8 12 -10 11 -10 -7z"/>
<path d="M10850 4716 c0 -19 100 -196 111 -196 5 0 6 12 3 27 l-7 27 29 -23
c76 -58 145 -96 203 -113 36 -10 67 -16 69 -13 13 13 -13 35 -70 55 -91 34
-162 83 -249 172 -77 80 -89 88 -89 64z"/>
<path d="M2230 4683 c1 -63 17 -115 43 -137 38 -32 69 -112 72 -186 2 -79 38
-162 59 -139 18 20 59 135 54 151 -3 7 -18 -7 -36 -35 -16 -26 -32 -44 -35
-40 -3 4 -8 46 -12 93 -7 92 -49 201 -85 220 -10 5 -23 31 -30 60 -14 59 -30
66 -30 13z"/>
<path d="M4240 4707 c0 -8 13 -32 29 -54 29 -40 29 -41 15 -84 -22 -62 7 -121
35 -72 9 17 11 16 33 -5 14 -12 34 -22 45 -22 12 0 32 -15 47 -35 15 -19 34
-35 42 -35 16 0 19 16 4 25 -21 13 -60 85 -60 109 0 17 -12 34 -37 53 -21 15
-62 52 -92 81 -30 28 -56 52 -58 52 -1 0 -3 -6 -3 -13z m125 -155 c-6 -7 -35
18 -35 31 0 5 9 2 20 -8 11 -10 18 -20 15 -23z"/>
<path d="M3828 4704 c-2 -5 0 -37 5 -72 11 -75 33 -75 24 -1 -6 51 -21 88 -29
73z"/>
<path d="M7505 4658 c19 -64 75 -153 75 -119 0 19 -61 141 -71 141 -6 0 -8 -9
-4 -22z"/>
<path d="M7780 4636 c0 -25 5 -48 11 -51 16 -10 18 -4 12 48 -7 59 -23 62 -23
3z"/>
<path d="M3000 4628 c-29 -39 -38 -68 -22 -68 4 0 12 8 18 18 5 9 20 34 33 55
31 50 9 47 -29 -5z"/>
<path d="M8830 4663 c0 -4 9 -37 20 -73 11 -36 20 -89 20 -117 0 -56 15 -71
26 -28 11 46 -29 203 -56 220 -5 3 -10 3 -10 -2z"/>
<path d="M5250 4655 c0 -6 57 -35 70 -35 19 0 10 17 -15 28 -26 12 -55 16 -55
7z"/>
<path d="M3217 4558 c-5 -76 -2 -92 13 -68 12 19 13 140 1 140 -4 0 -11 -33
-14 -72z"/>
<path d="M7706 4582 c-2 -4 -23 -55 -46 -112 -46 -116 -99 -220 -136 -263 -27
-32 -30 -47 -10 -47 34 0 187 295 202 389 6 38 2 52 -10 33z"/>
<path d="M3786 4483 c4 -54 8 -100 10 -102 2 -2 8 9 15 25 8 22 8 46 -1 96
-18 105 -31 94 -24 -19z"/>
<path d="M3053 4495 c20 -74 37 -98 37 -52 0 40 -30 127 -44 127 -10 0 -8 -17
7 -75z"/>
<path d="M5996 4554 c-10 -27 -7 -40 19 -79 30 -43 28 -50 -9 -36 -34 13 -36
-7 -3 -36 16 -15 31 -19 59 -16 47 6 54 25 22 63 -30 35 -19 38 37 10 41 -21
62 -20 53 4 -7 17 -139 106 -158 106 -8 0 -17 -7 -20 -16z"/>
<path d="M7506 4553 c-2 -10 -8 -42 -11 -71 -5 -34 -29 -100 -67 -180 -33 -70
-76 -165 -95 -212 -18 -47 -45 -104 -59 -128 -14 -24 -23 -46 -20 -49 11 -11
34 18 65 85 17 37 47 96 65 132 19 36 46 99 61 140 14 41 35 89 45 107 18 31
40 123 40 170 0 27 -16 31 -24 6z"/>
<path d="M8240 4563 c0 -13 65 -123 73 -123 19 0 -36 115 -60 124 -7 3 -13 3
-13 -1z"/>
<path d="M3130 4440 c0 -67 4 -110 10 -110 6 0 10 43 10 110 0 67 -4 110 -10
110 -6 0 -10 -43 -10 -110z"/>
<path d="M4620 4538 c0 -25 62 -157 105 -224 50 -77 116 -222 105 -229 -4 -3
-10 1 -13 7 -7 20 -20 2 -13 -19 3 -10 37 -72 76 -137 47 -81 73 -138 80 -175
6 -31 15 -69 20 -84 18 -55 -12 -22 -67 73 -30 52 -61 102 -69 110 -30 31 -13
-15 45 -119 33 -58 65 -119 71 -136 11 -29 11 -29 -9 -11 -12 11 -35 43 -51
73 -34 60 -50 66 -26 10 36 -86 136 -207 172 -207 24 0 16 17 -22 47 -36 29
-37 30 -18 51 10 12 28 22 39 22 25 0 113 -50 139 -79 23 -25 51 -29 42 -5 -3
9 -6 17 -6 18 0 2 -35 33 -78 69 -85 72 -146 164 -136 204 10 35 -33 144 -92
239 -31 49 -75 127 -99 174 -24 47 -54 101 -68 122 -14 20 -44 74 -67 120 -46
91 -60 111 -60 86z m337 -650 c-3 -8 -6 -5 -6 6 -1 11 2 17 5 13 3 -3 4 -12 1
-19z m20 -70 c-3 -8 -6 -5 -6 6 -1 11 2 17 5 13 3 -3 4 -12 1 -19z"/>
<path d="M5091 4541 c-11 -7 -10 -13 5 -36 17 -25 17 -28 1 -37 -22 -12 -15
-23 31 -52 59 -36 123 -59 135 -47 7 7 5 12 -6 17 -9 3 -17 10 -17 15 0 6 8 5
19 -1 11 -5 41 -10 66 -10 41 0 46 2 40 19 -4 14 -1 20 12 23 25 5 -86 68
-119 68 -14 0 -33 9 -43 20 -11 13 -29 19 -49 18 -17 -1 -38 2 -46 5 -8 4 -21
3 -29 -2z"/>
<path d="M9110 4525 c0 -11 32 -69 82 -151 27 -45 60 -108 73 -140 18 -43 26
-54 30 -41 11 26 0 54 -54 147 -91 157 -131 213 -131 185z"/>
<path d="M3570 4503 c0 -4 21 -51 46 -106 43 -91 46 -103 40 -153 -3 -30 -2
-54 3 -54 14 0 21 27 28 106 5 61 2 83 -17 136 -13 35 -27 67 -32 73 -14 15
-9 -33 7 -72 25 -58 10 -49 -26 16 -30 54 -49 75 -49 54z"/>
<path d="M8246 4482 c-13 -22 56 -242 76 -242 14 0 6 37 -35 154 -19 54 -37
93 -41 88z"/>
<path d="M6750 4473 c0 -5 7 -43 15 -86 19 -98 19 -187 1 -255 -7 -29 -10 -52
-6 -52 4 0 16 29 25 65 21 77 16 239 -9 299 -14 33 -26 47 -26 29z"/>
<path d="M8810 4388 c0 -59 4 -98 10 -98 12 0 14 16 10 100 -4 108 -19 106
-20 -2z"/>
<path d="M3540 4447 c0 -8 7 -36 15 -63 9 -27 16 -82 16 -121 0 -73 13 -96 25
-47 11 43 -3 146 -25 197 -22 48 -31 58 -31 34z"/>
<path d="M7390 4403 c-44 -104 -87 -219 -83 -223 9 -10 48 49 67 102 34 96 45
137 36 143 -4 3 -14 -7 -20 -22z"/>
<path d="M2836 4388 c-9 -36 -7 -88 4 -88 6 0 10 25 10 55 0 59 -4 69 -14 33z"/>
<path d="M8894 4353 c15 -140 19 -283 7 -283 -17 0 -13 -46 5 -61 13 -10 17
-10 25 2 13 21 10 171 -6 284 -8 55 -15 103 -15 108 0 4 -5 7 -11 7 -8 0 -10
-18 -5 -57z"/>
<path d="M2930 4373 c0 -25 -19 -72 -20 -49 0 5 -26 -15 -57 -45 -32 -30 -69
-62 -83 -71 -24 -15 -24 -17 -8 -34 16 -16 19 -16 52 10 20 14 50 47 67 72 34
50 47 52 30 3 -17 -48 -14 -61 11 -57 32 4 50 44 43 98 -9 74 -16 100 -26 100
-5 0 -9 -12 -9 -27z"/>
<path d="M8676 4299 c-7 -98 -4 -121 12 -105 11 12 15 206 4 206 -5 0 -12 -46
-16 -101z"/>
<path d="M3066 4268 c-4 -92 -2 -141 9 -193 8 -38 15 -73 15 -77 0 -3 -26 -4
-59 -1 -40 4 -61 2 -66 -7 -13 -20 17 -31 77 -27 l56 3 31 -82 c29 -77 54
-114 67 -101 3 3 -11 39 -31 80 -21 42 -35 81 -33 88 2 7 16 -13 31 -43 18
-36 54 -81 102 -127 41 -39 75 -73 75 -76 0 -10 -22 -4 -36 10 -9 8 -28 15
-43 15 -16 0 -48 11 -72 24 -64 36 -126 42 -166 17 -44 -28 -43 -45 2 -37 19
3 51 9 71 13 48 8 43 -2 -35 -68 -63 -54 -102 -99 -84 -99 5 0 27 16 49 36 75
69 110 82 59 22 -14 -16 -25 -34 -25 -39 0 -20 30 -7 50 21 27 38 88 70 135
70 l36 0 -56 -54 c-38 -38 -55 -62 -55 -80 0 -39 14 -39 69 -1 29 19 67 37 86
41 19 3 39 12 46 20 9 12 5 14 -22 14 -19 -1 -52 -7 -74 -15 -54 -19 -55 -12
-3 18 56 33 132 59 151 51 28 -10 30 -38 5 -57 -13 -10 -32 -26 -43 -35 -11
-9 -45 -33 -75 -53 -58 -40 -105 -93 -95 -109 11 -17 25 -11 35 15 10 25 34
41 135 87 47 21 60 32 60 49 0 36 26 44 80 26 26 -9 51 -14 56 -11 18 11 8 23
-28 35 -64 21 -173 149 -173 204 0 8 -5 15 -11 15 -11 0 -10 -20 7 -84 3 -14
2 -26 -2 -26 -10 1 -60 77 -85 131 -22 47 -41 60 -30 21 5 -15 16 -43 25 -60
26 -51 4 -37 -52 32 -53 64 -94 154 -107 234 -9 58 -29 43 -20 -17 9 -64 -11
-42 -23 25 -7 40 -6 55 5 70 17 23 15 186 -3 204 -8 8 -13 -22 -18 -112z"/>
<path d="M7544 4344 c-55 -66 -104 -135 -104 -146 0 -22 41 17 94 91 65 91 72
130 10 55z"/>
<path d="M5146 4361 c-8 -12 10 -24 62 -44 47 -19 62 -21 62 -9 0 7 -102 62
-115 62 -2 0 -6 -4 -9 -9z"/>
<path d="M5815 4360 c-9 -14 10 -45 40 -64 31 -20 49 -13 35 14 -14 27 -67 62
-75 50z"/>
<path d="M8862 4309 c-5 -13 -13 -62 -16 -109 -19 -229 -30 -274 -82 -347 -24
-34 5 -31 39 3 34 34 53 124 67 318 11 147 9 181 -8 135z"/>
<path d="M5685 4300 c-11 -18 107 -121 122 -107 14 15 -10 56 -51 85 -47 34
-61 38 -71 22z"/>
<path d="M4160 4286 c0 -22 40 -96 52 -96 12 0 11 4 -17 56 -31 58 -35 63 -35
40z"/>
<path d="M2450 4224 c0 -19 7 -67 16 -105 9 -39 14 -80 11 -91 -3 -11 -2 -28
3 -37 5 -9 11 -24 14 -34 7 -23 30 -17 34 9 11 61 26 97 62 142 50 63 35 81
-19 23 -21 -23 -41 -41 -44 -41 -9 0 -27 71 -27 107 0 30 -21 63 -41 63 -5 0
-9 -16 -9 -36z"/>
<path d="M8226 4194 c-3 -26 -6 -70 -6 -98 -1 -28 -8 -69 -16 -91 -28 -71 -46
-179 -35 -209 19 -48 28 -27 35 81 5 69 12 111 21 117 15 13 32 246 17 246 -5
0 -12 -21 -16 -46z"/>
<path d="M3490 4177 c0 -35 4 -47 13 -44 13 4 11 52 -4 77 -6 10 -8 -1 -9 -33z"/>
<path d="M5657 4213 c-14 -13 -6 -33 24 -68 58 -65 84 -30 28 38 -31 37 -40
43 -52 30z"/>
<path d="M6558 4210 c-4 -8 -20 -79 -37 -158 -31 -146 -45 -182 -89 -240 -26
-34 -23 -54 6 -36 28 18 72 109 86 181 8 37 21 103 30 146 16 73 18 144 4 107z"/>
<path d="M6677 4200 c-4 -14 -7 -43 -7 -65 -1 -91 -47 -221 -118 -327 -13 -21
-22 -41 -19 -44 3 -4 28 28 56 70 74 114 121 275 103 356 -8 33 -8 34 -15 10z"/>
<path d="M3405 4190 c-9 -15 5 -110 16 -110 5 0 9 27 9 60 0 56 -10 75 -25 50z"/>
<path d="M5009 4195 c-3 -20 3 -53 27 -153 14 -56 27 -145 31 -197 9 -137 26
-106 21 37 -3 84 -12 137 -32 208 -26 88 -44 128 -47 105z"/>
<path d="M2894 4129 c-10 -17 7 -29 42 -29 24 0 34 4 32 12 -5 15 -66 29 -74
17z"/>
<path d="M7251 4058 c-22 -46 -66 -159 -97 -253 -32 -93 -59 -164 -61 -158 -3
7 3 33 12 59 8 26 13 49 10 52 -8 8 -51 -96 -86 -209 -28 -92 -33 -101 -42
-79 -16 42 -14 149 3 160 12 7 15 31 15 107 1 87 4 105 29 156 15 32 53 85 83
118 31 33 53 62 49 66 -9 10 -43 -25 -105 -108 -31 -41 -61 -74 -68 -72 -6 2
-23 -21 -38 -52 -20 -43 -27 -77 -31 -143 -6 -103 -41 -290 -59 -315 -7 -10
-26 -19 -41 -20 -26 -2 -29 2 -32 31 -2 18 2 40 9 48 10 13 10 17 0 24 -16 9
-8 122 16 215 12 51 89 213 125 265 6 8 -1 3 -15 -13 -70 -74 -139 -229 -157
-352 -10 -71 -51 -220 -64 -232 -4 -4 -6 35 -4 87 4 86 17 138 53 225 8 17 7
18 -7 7 -24 -19 -67 -133 -74 -196 -4 -30 -15 -67 -25 -83 -20 -30 -26 -25 -9
8 6 10 7 19 3 19 -4 0 -27 -29 -50 -64 -32 -48 -53 -69 -94 -91 -107 -56 -251
-209 -297 -317 -25 -59 23 -37 54 25 29 58 96 137 146 174 45 32 51 34 60 20
14 -26 32 -21 90 26 74 61 93 70 137 62 28 -5 41 -2 51 10 10 12 24 14 60 9
46 -6 49 -5 64 24 9 17 23 29 33 28 11 -1 19 9 24 33 7 32 23 51 43 51 5 0 2
-8 -7 -18 -10 -10 -17 -25 -17 -33 0 -8 -7 -25 -16 -37 -20 -29 -10 -41 14
-19 20 18 38 22 46 9 2 -4 14 -72 26 -150 19 -125 20 -155 11 -240 -9 -78 -8
-99 2 -106 11 -7 11 -21 -1 -80 -19 -100 -10 -192 27 -269 16 -34 32 -75 36
-92 8 -42 32 -72 46 -58 7 7 7 18 0 34 -6 13 -17 58 -26 100 -13 67 -13 85 0
153 19 100 20 122 1 107 -15 -13 -36 -106 -36 -163 0 -58 -18 -46 -26 18 -7
63 2 198 17 225 16 31 38 139 28 139 -6 0 -15 -14 -21 -31 -16 -47 -20 -27 -8
40 8 45 8 104 0 220 -9 136 -9 172 5 253 17 97 64 217 117 301 29 46 35 74 8
42 -23 -28 -29 -15 -13 33 25 76 104 285 119 314 16 32 17 38 5 38 -5 0 -27
-37 -50 -82z m-282 -315 c-1 -16 -5 -39 -9 -53 -6 -20 -8 -14 -9 28 -1 28 3
52 9 52 6 0 10 -12 9 -27z m104 -181 c-3 -29 -10 -52 -14 -52 -12 0 -11 12 2
66 15 58 20 52 12 -14z m-124 -88 c1 -17 -6 -37 -14 -44 -20 -16 -22 3 -9 80
6 30 8 32 14 15 5 -11 9 -34 9 -51z"/>
<path d="M4239 4113 c15 -29 82 -103 92 -103 21 0 6 29 -40 73 -51 49 -68 59
-52 30z"/>
<path d="M4310 4122 c0 -24 110 -162 130 -162 19 0 10 29 -13 45 -13 8 -41 40
-63 70 -36 50 -54 66 -54 47z"/>
<path d="M8135 4063 c-3 -38 -11 -111 -17 -164 -11 -94 -8 -202 5 -216 4 -4
12 -2 19 5 8 8 8 25 1 59 -6 33 -5 78 3 143 15 114 18 240 5 240 -5 0 -12 -30
-16 -67z"/>
<path d="M8276 4114 c-10 -27 -7 -234 4 -234 6 0 10 33 10 79 0 43 3 99 6 125
7 45 -7 65 -20 30z"/>
<path d="M3670 4073 c0 -64 17 -123 35 -123 18 0 18 5 0 55 -8 22 -14 54 -15
72 0 17 -4 35 -10 38 -6 4 -10 -12 -10 -42z"/>
<path d="M2598 4073 c-41 -45 -50 -72 -56 -164 -4 -76 -2 -92 18 -133 15 -29
30 -46 42 -46 22 0 22 1 1 48 -11 24 -16 65 -17 117 0 66 5 90 27 139 15 32
27 60 27 62 0 12 -19 1 -42 -23z"/>
<path d="M3210 4063 c0 -12 5 -25 10 -28 13 -8 13 15 0 35 -8 12 -10 11 -10
-7z"/>
<path d="M7471 3999 c-108 -81 -292 -317 -290 -373 0 -20 1 -20 12 -2 108 173
209 294 308 368 64 47 82 68 60 68 -6 0 -46 -27 -90 -61z"/>
<path d="M4450 4037 c0 -7 23 -46 51 -87 28 -41 62 -97 76 -125 35 -67 42 -41
9 31 -23 50 -121 194 -132 194 -2 0 -4 -6 -4 -13z"/>
<path d="M8037 4027 c-3 -12 -9 -56 -12 -97 -3 -41 -13 -122 -21 -180 -21
-144 -21 -145 -7 -145 7 0 18 -9 26 -19 9 -12 20 -17 31 -13 15 6 15 9 2 36
-13 24 -14 60 -8 231 6 185 3 246 -11 187z"/>
<path d="M3610 3999 c0 -52 18 -106 46 -136 l25 -28 -5 25 c-8 37 -50 158 -59
166 -4 4 -7 -8 -7 -27z"/>
<path d="M9044 4017 c-3 -10 -3 -53 0 -95 4 -42 7 -88 6 -102 -3 -112 2 -157
26 -231 26 -78 56 -129 75 -129 5 0 -9 37 -32 83 -44 86 -46 100 -38 267 2 51
-12 193 -22 210 -6 13 -9 12 -15 -3z"/>
<path d="M3230 4009 c0 -8 7 -24 15 -35 11 -15 14 -16 15 -3 0 8 -7 24 -15 35
-11 15 -14 16 -15 3z"/>
<path d="M8756 4011 c-3 -4 -26 -65 -50 -135 -25 -70 -52 -137 -61 -149 -19
-27 -19 -37 0 -37 21 0 51 52 76 135 46 150 57 195 49 195 -5 0 -11 -4 -14 -9z"/>
<path d="M6396 3913 c-10 -21 -27 -62 -37 -92 -11 -30 -30 -69 -45 -88 -26
-35 -25 -64 3 -42 21 18 40 58 77 164 33 97 34 125 2 58z"/>
<path d="M2960 3916 c0 -8 6 -16 13 -19 7 -2 -1 -14 -21 -32 -34 -29 -68 -83
-58 -93 4 -3 21 8 39 25 45 43 69 53 121 53 47 0 63 17 26 27 -22 6 -26 19 -8
25 6 2 8 10 4 16 -11 18 -116 16 -116 -2z"/>
<path d="M3530 3916 c0 -13 8 -53 36 -176 l5 -24 -22 19 c-33 30 -79 106 -79
131 0 13 -4 26 -10 29 -15 10 -12 -51 5 -92 32 -77 146 -183 197 -183 27 0 22
16 -17 51 -32 29 -64 94 -52 105 12 12 47 -19 76 -66 30 -49 51 -64 51 -36 0
7 -6 19 -14 25 -8 6 -24 34 -35 62 -14 33 -30 53 -47 59 -13 6 -39 32 -56 60
-33 54 -38 58 -38 36z"/>
<path d="M4600 3919 c0 -17 59 -160 80 -194 24 -39 79 -80 91 -68 5 5 -9 23
-34 44 -33 29 -50 55 -82 132 -36 87 -55 117 -55 86z"/>
<path d="M8963 3848 c14 -181 20 -238 28 -238 24 0 23 58 -3 243 -14 105 -33
102 -25 -5z"/>
<path d="M5916 3902 c-22 -36 -82 -193 -73 -190 13 4 83 140 90 176 4 21 -7
30 -17 14z"/>
<path d="M5116 3874 c-10 -25 -7 -94 4 -94 6 0 10 25 10 55 0 57 -3 66 -14 39z"/>
<path d="M7906 3848 c-3 -13 -11 -85 -18 -160 -6 -75 -15 -135 -20 -132 -4 3
-8 23 -8 45 0 21 -4 39 -9 39 -5 0 -20 -28 -34 -62 -13 -34 -30 -64 -36 -66
-16 -5 -14 33 10 139 28 126 32 149 25 149 -10 0 -43 -74 -55 -125 -6 -27 -22
-98 -36 -156 -26 -111 -32 -179 -15 -179 5 0 13 15 18 33 l9 32 21 -47 c23
-51 22 -51 46 -42 20 8 21 30 1 38 -20 7 -19 50 1 109 16 49 34 54 34 11 0
-37 27 -94 44 -94 25 0 28 18 7 47 -10 16 -21 46 -24 68 -5 40 -5 40 8 11 l13
-30 17 34 c16 31 18 32 28 14 13 -23 28 -34 39 -28 11 7 10 52 -2 59 -5 3 -10
40 -10 81 0 71 -12 96 -25 54 -3 -11 -11 -20 -17 -20 -11 0 -6 100 8 168 7 36
-10 45 -20 10z"/>
<path d="M2646 3844 c-23 -61 14 -240 70 -338 32 -54 43 -66 59 -62 15 4 25
-3 38 -25 25 -44 49 -35 68 27 9 28 29 70 43 93 53 84 6 56 -60 -35 l-21 -29
-12 58 c-18 86 -50 71 -51 -23 0 -44 -10 -31 -46 64 -21 54 -25 78 -21 118 6
43 4 48 -9 37 -21 -17 -26 -8 -31 65 -6 65 -15 82 -27 50z"/>
<path d="M3860 3842 c0 -20 80 -130 124 -170 67 -61 227 -135 226 -104 -1 4
-42 27 -92 50 -97 47 -161 102 -214 186 -27 43 -44 57 -44 38z"/>
<path d="M6094 3833 c-14 -49 -124 -255 -161 -300 -29 -35 -41 -58 -36 -69 5
-12 -8 -30 -44 -63 -148 -135 -294 -352 -292 -434 0 -36 3 -31 35 58 10 31 32
64 57 88 22 20 35 37 28 37 -23 0 31 66 205 254 35 37 64 75 64 83 0 8 21 49
46 91 74 122 124 221 124 247 0 29 -18 34 -26 8z"/>
<path d="M12480 3830 c0 -5 5 -10 10 -10 6 0 10 5 10 10 0 6 -4 10 -10 10 -5
0 -10 -4 -10 -10z"/>
<path d="M6156 3763 c-10 -37 -32 -105 -51 -151 -40 -97 -25 -106 22 -12 54
109 81 218 57 227 -7 2 -18 -24 -28 -64z"/>
<path d="M8578 3774 c-53 -88 -90 -164 -85 -177 4 -14 42 44 91 142 46 91 42
115 -6 35z"/>
<path d="M3750 3800 c15 -27 83 -76 126 -90 62 -21 60 -4 -2 28 -34 17 -75 42
-91 56 -37 31 -47 33 -33 6z"/>
<path d="M7680 3727 c-11 -24 -24 -88 -30 -143 -6 -54 -20 -125 -32 -157 -23
-63 -30 -168 -12 -174 7 -2 14 23 18 69 4 40 10 76 15 81 4 4 14 -26 20 -67
13 -78 56 -156 86 -156 22 0 19 11 -14 56 -48 65 -64 148 -56 294 5 76 15 145
26 177 22 66 6 82 -21 20z"/>
<path d="M8875 3737 c-13 -70 -9 -172 9 -225 10 -29 20 -52 21 -50 2 2 1 72
-2 156 -6 147 -15 188 -28 119z"/>
<path d="M5205 3703 c-9 -32 -18 -63 -20 -70 -6 -18 11 -25 24 -9 12 14 28
136 18 136 -4 0 -14 -26 -22 -57z"/>
<path d="M5270 3745 c-6 -8 -15 -43 -20 -77 -4 -35 -11 -75 -15 -90 -11 -41
20 -37 34 4 13 36 27 178 19 178 -3 0 -11 -7 -18 -15z"/>
<path d="M4400 3742 c0 -5 50 -55 110 -112 61 -56 109 -105 106 -108 -6 -5
-262 133 -288 156 -12 10 -18 11 -18 3 0 -26 299 -201 345 -201 15 0 38 -17
69 -51 25 -28 51 -49 57 -47 17 6 -70 101 -204 224 -119 109 -177 154 -177
136z"/>
<path d="M3750 3722 c6 -13 14 -21 18 -18 3 4 -2 14 -12 24 -18 16 -18 16 -6
-6z"/>
<path d="M7341 3702 c-5 -10 -19 -56 -31 -102 -18 -72 -20 -90 -10 -121 7 -21
10 -49 6 -63 -3 -14 -3 -26 1 -26 7 0 103 264 103 283 0 4 -4 7 -8 7 -10 0
-31 -45 -62 -130 l-20 -55 5 54 c4 30 13 72 21 95 25 68 27 76 16 76 -6 0 -16
-8 -21 -18z"/>
<path d="M5621 3552 c-57 -90 -101 -166 -98 -169 6 -5 91 106 113 148 7 14 32
54 54 88 23 34 40 70 38 79 -2 10 -45 -48 -107 -146z"/>
<path d="M4150 3688 c0 -21 97 -111 146 -136 41 -21 138 -52 162 -52 29 0 -9
29 -61 46 -83 27 -146 62 -198 111 -30 28 -49 40 -49 31z"/>
<path d="M5835 3629 c-65 -78 -174 -183 -182 -175 -3 3 0 19 7 36 7 17 10 33
8 36 -7 7 -57 -74 -114 -185 -30 -59 -69 -117 -106 -156 -62 -67 -67 -75 -43
-75 21 0 134 146 172 222 25 51 43 72 88 103 87 60 271 265 238 265 -5 0 -35
-32 -68 -71z"/>
<path d="M5515 3678 c-2 -7 -9 -49 -14 -94 -6 -44 -17 -102 -27 -130 -28 -84
-90 -198 -136 -249 -36 -41 -123 -151 -231 -291 -10 -13 -17 -32 -15 -41 2
-12 15 -1 43 39 61 86 156 206 219 276 57 64 123 182 157 280 23 66 37 222 20
222 -6 0 -14 -6 -16 -12z"/>
<path d="M6504 3628 c-68 -92 -149 -258 -126 -258 5 0 22 35 37 77 19 51 50
105 91 160 35 46 59 83 53 83 -5 0 -30 -28 -55 -62z"/>
<path d="M2765 3657 c-8 -18 11 -57 26 -57 7 0 9 10 4 28 -9 36 -23 50 -30 29z"/>
<path d="M5323 3598 c-12 -24 -29 -62 -39 -86 -10 -28 -26 -47 -41 -53 -18 -7
-23 -14 -18 -29 11 -33 22 -119 17 -125 -3 -3 -18 -5 -34 -5 -35 0 -36 -13 -3
-28 35 -16 74 -15 81 2 3 8 1 40 -5 71 -10 51 -9 60 9 82 11 14 20 34 20 43 0
10 11 51 25 92 29 84 27 78 17 78 -5 0 -18 -19 -29 -42z"/>
<path d="M3877 3602 c-27 -28 -35 -52 -18 -52 10 0 61 62 61 73 0 14 -17 6
-43 -21z"/>
<path d="M7576 3578 c-21 -44 -28 -78 -33 -156 -6 -103 0 -156 18 -150 6 2 11
54 13 128 1 94 7 136 20 167 28 65 12 75 -18 11z"/>
<path d="M4690 3612 c0 -11 87 -131 123 -169 30 -32 57 -43 57 -24 0 5 -6 11
-14 14 -8 3 -47 47 -86 96 -70 89 -80 99 -80 83z"/>
<path d="M4810 3581 c0 -6 5 -13 10 -16 6 -3 10 1 10 9 0 9 -4 16 -10 16 -5 0
-10 -4 -10 -9z"/>
<path d="M8816 3581 c-29 -46 26 -281 65 -281 6 0 9 6 6 13 -3 6 -12 30 -21
52 -9 22 -22 83 -29 135 -8 62 -16 90 -21 81z"/>
<path d="M3497 3555 c-59 -16 -87 -34 -160 -104 -47 -45 -64 -55 -87 -53 -34
4 -53 -5 -109 -53 -41 -33 -91 -47 -91 -25 0 6 11 33 25 60 29 57 18 74 -19
30 -32 -39 -49 -102 -42 -154 19 -130 25 -299 27 -701 l1 -450 -31 -180 c-33
-182 -72 -354 -115 -500 -13 -44 -27 -92 -30 -107 -12 -55 -138 -323 -181
-388 -57 -85 -68 -95 -94 -80 -23 12 -56 6 -116 -21 -22 -10 -56 -19 -75 -19
-71 -1 -129 -40 -255 -174 -66 -69 -126 -138 -133 -152 -19 -36 -12 -68 16
-72 18 -3 22 1 22 23 0 57 66 145 109 145 8 0 41 25 73 56 32 31 61 54 64 51
12 -12 -29 -68 -89 -123 -75 -68 -137 -152 -137 -183 0 -67 55 -83 90 -25 22
35 21 59 -2 36 -33 -33 -38 7 -7 57 11 19 69 85 127 148 118 124 149 143 205
122 30 -11 41 -9 91 12 46 18 56 27 52 42 -2 11 7 31 23 50 65 76 103 144 205
372 42 94 107 322 150 530 73 350 70 327 76 595 3 140 2 305 -3 366 -4 61 -7
137 -5 170 3 58 3 59 16 29 32 -71 43 -182 47 -445 4 -220 10 -330 28 -470 4
-32 -16 -188 -34 -269 -10 -47 -19 -99 -19 -115 0 -16 -13 -50 -28 -75 -42
-69 -97 -198 -117 -272 -20 -76 -16 -113 7 -59 l15 35 16 -31 c11 -21 14 -44
10 -68 -8 -49 13 -48 26 2 22 91 31 121 55 185 34 93 53 122 72 106 19 -16 18
-38 -5 -90 -11 -24 -28 -78 -38 -119 -16 -67 -18 -71 -21 -38 -2 20 4 53 12
73 19 46 0 44 -27 -3 -24 -40 -25 -118 -5 -194 l16 -57 -39 -33 c-32 -27 -42
-45 -56 -98 -16 -62 -13 -120 6 -120 4 0 11 21 14 48 5 46 43 149 52 140 2 -2
-2 -25 -10 -51 -12 -39 -12 -47 -1 -47 8 0 26 34 42 82 16 45 35 84 43 86 25
8 5 -80 -33 -144 -36 -61 -82 -187 -88 -239 -2 -21 1 -30 12 -30 11 0 21 25
36 85 11 47 33 110 49 139 43 79 136 185 165 189 36 5 50 20 50 53 0 19 5 29
15 29 9 0 19 8 22 18 10 26 48 59 77 66 31 8 32 21 6 61 -11 17 -20 41 -20 55
0 14 -9 39 -20 55 -22 33 -25 45 -12 45 5 0 26 -34 46 -75 40 -80 80 -120 97
-94 6 10 -1 22 -26 44 -18 17 -43 50 -55 73 l-21 44 33 -7 c37 -8 78 -31 78
-45 0 -5 9 -12 21 -15 14 -5 27 1 44 19 13 14 33 26 45 26 13 0 24 9 30 25 5
14 21 30 35 37 13 6 28 20 31 31 8 24 -13 42 -69 59 -30 9 -49 27 -93 86 -36
49 -54 84 -54 103 0 24 -4 29 -25 29 -21 0 -26 7 -39 53 -8 28 -18 71 -21 95
-4 24 -11 39 -17 36 -16 -10 0 -90 38 -188 35 -90 42 -126 24 -126 -14 0 -23
21 -69 154 -23 66 -44 144 -48 174 l-6 53 29 -7 c39 -9 41 -11 63 -74 12 -36
23 -54 33 -52 9 1 24 -17 38 -47 12 -28 39 -65 58 -83 l35 -33 -7 40 c-4 22
-10 75 -13 119 l-6 78 24 -7 c13 -4 44 -29 69 -55 25 -26 60 -55 78 -64 38
-19 39 -22 11 -36 -16 -9 -28 -7 -62 14 -24 13 -49 36 -57 50 -14 27 -30 34
-30 14 0 -25 41 -79 80 -105 37 -26 40 -31 34 -63 -3 -19 -9 -39 -14 -43 -9
-10 -45 7 -77 36 -13 12 -23 15 -23 8 0 -23 31 -58 85 -96 53 -36 56 -37 80
-21 21 14 24 20 15 36 -6 11 -16 20 -22 20 -14 0 -3 72 19 118 20 42 38 50 63
27 11 -10 23 -15 26 -12 15 14 -25 50 -95 85 -120 61 -104 83 24 36 289 -106
351 -117 553 -102 115 8 146 18 188 61 16 18 49 43 72 56 55 33 166 157 158
177 -6 15 -9 14 -34 -2 -15 -9 -56 -48 -91 -86 -35 -38 -78 -76 -95 -85 -17
-9 -46 -32 -64 -52 l-32 -35 -153 -4 c-167 -4 -137 -10 -382 78 -33 12 -152
46 -265 75 -230 60 -264 71 -255 84 3 5 -3 12 -14 16 -11 3 -33 21 -50 40 -17
19 -33 35 -35 35 -3 0 -3 -15 1 -32 l6 -33 -22 19 c-28 26 -81 106 -81 124 0
7 -9 25 -20 39 -26 33 -26 87 1 165 23 70 55 113 189 254 191 201 279 302 333
381 62 90 102 198 93 245 -3 17 -2 36 3 42 5 6 11 22 13 36 2 21 8 24 31 22
34 -4 35 10 2 36 l-24 19 24 23 c14 13 25 27 25 32 0 16 -22 7 -51 -21 l-29
-30 -17 26 c-14 21 -22 24 -49 20 -26 -4 -41 0 -70 24 -20 16 -42 29 -49 29
-7 0 -24 11 -39 25 -30 28 -49 29 -119 10z m68 -35 c-3 -5 -13 -10 -21 -10 -8
0 -14 5 -14 10 0 6 9 10 21 10 11 0 17 -4 14 -10z m-91 -18 c3 -5 -10 -24 -29
-42 -19 -19 -35 -41 -35 -50 0 -9 -9 -33 -20 -55 -11 -21 -17 -41 -14 -44 3
-3 36 28 74 69 37 41 70 73 73 70 11 -10 -19 -98 -51 -146 -31 -49 -65 -74
-100 -74 -10 0 -35 -9 -57 -20 -48 -24 -45 -24 -45 0 0 11 18 31 46 50 50 35
53 51 5 26 -39 -20 -52 -20 -44 1 6 14 0 15 -48 9 -30 -4 -58 -11 -63 -17 -6
-5 -19 -9 -30 -9 -20 1 -20 2 3 21 14 11 30 30 36 42 5 12 28 28 49 36 35 13
40 13 51 -2 11 -15 16 -11 51 31 41 52 112 112 131 112 6 0 14 -4 17 -8z m186
-32 c0 -13 -20 -13 -40 0 -12 8 -9 10 13 10 15 0 27 -4 27 -10z m-3 -61 c-21
-11 -46 -34 -55 -50 -10 -16 -38 -60 -63 -97 -41 -61 -49 -67 -83 -70 -47 -4
-45 12 5 46 19 13 37 36 41 51 4 16 20 41 35 56 33 32 122 85 143 84 8 0 -2
-9 -23 -20z m128 -30 c4 -6 -2 -20 -12 -32 -11 -12 -41 -56 -68 -97 -63 -95
-84 -120 -106 -120 -9 0 -22 -7 -29 -15 -18 -22 -40 -18 -40 6 0 14 12 25 39
37 23 10 42 27 48 42 13 36 135 190 150 190 6 0 15 -5 18 -11z m-148 -91 c-58
-78 -94 -115 -103 -105 -11 11 47 95 97 142 28 26 53 45 56 42 2 -3 -20 -38
-50 -79z m153 -11 c0 -7 -18 -31 -40 -52 -48 -47 -54 -27 -9 28 31 38 49 47
49 24z m0 -96 c0 -17 -4 -32 -9 -35 -11 -7 -24 41 -16 54 12 20 25 9 25 -19z
m-631 -316 c0 -98 -3 -124 -10 -105 -13 31 -33 387 -23 409 12 27 33 -168 33
-304z m347 302 c-61 -39 -68 -49 -61 -83 5 -27 3 -34 -10 -34 -13 0 -15 9 -13
48 3 43 6 49 38 64 41 21 77 24 46 5z m-432 -87 c4 -44 3 -58 -3 -44 -13 30
-25 143 -12 124 5 -9 12 -45 15 -80z m235 18 c0 -39 -3 -48 -9 -33 -12 28 -12
85 0 85 6 0 10 -24 9 -52z m421 8 c0 -2 -7 -6 -15 -10 -8 -3 -15 -1 -15 4 0 6
7 10 15 10 8 0 15 -2 15 -4z m-123 -48 c-3 -8 -6 -5 -6 6 -1 11 2 17 5 13 3
-3 4 -12 1 -19z m-10 -75 c-3 -10 -5 -2 -5 17 0 19 2 27 5 18 2 -10 2 -26 0
-35z m-147 -121 c0 -37 4 -81 9 -99 7 -23 5 -37 -6 -52 -8 -12 -17 -21 -21
-21 -9 0 -15 205 -7 231 12 38 25 7 25 -59z m71 35 c-8 -8 -11 -7 -11 4 0 20
13 34 18 19 3 -7 -1 -17 -7 -23z m62 -23 c-3 -8 -9 -14 -13 -14 -14 0 -22 20
-16 37 5 12 9 13 21 3 7 -6 11 -18 8 -26z m-319 -75 c8 -73 -1 -152 -14 -128
-4 8 -11 46 -14 84 -4 39 -10 85 -13 103 -5 32 -4 33 15 21 15 -10 21 -28 26
-80z m266 31 c0 -25 -10 -50 -21 -50 -10 0 -12 63 -3 73 11 10 24 -3 24 -23z
m-183 -59 c-6 -64 3 -106 17 -82 10 16 26 4 26 -20 0 -24 -86 -119 -108 -119
-11 0 -13 9 -7 48 9 58 15 69 27 48 11 -19 38 -22 38 -3 0 6 -7 30 -15 52 -17
49 -19 127 -3 143 22 22 31 0 25 -67z m-115 -180 l14 -95 -35 -80 c-43 -96
-49 -186 -16 -246 16 -30 18 -54 16 -173 -3 -151 6 -270 20 -261 5 3 9 -36 9
-87 0 -137 20 -100 33 60 11 129 10 131 -11 151 -18 17 -22 32 -22 84 0 35 -3
85 -6 112 l-6 49 26 -30 c36 -42 61 -127 46 -156 -8 -14 -10 -49 -5 -109 7
-89 -4 -201 -30 -295 -8 -27 -19 -90 -24 -140 -9 -83 -8 -92 10 -111 20 -21
20 -22 0 -75 -29 -82 -33 -99 -22 -99 5 0 15 17 21 37 7 21 17 43 23 48 7 7 8
4 2 -10 -14 -39 -18 -102 -5 -110 7 -4 13 1 17 14 7 26 19 27 26 2 3 -15 -6
-27 -35 -48 -38 -26 -41 -26 -53 -9 -20 26 -35 11 -28 -29 3 -21 1 -35 -5 -35
-18 0 -19 59 0 117 23 73 36 213 20 213 -7 0 -15 -18 -18 -41 -6 -36 -26 -60
-40 -47 -8 8 31 140 56 187 19 39 20 44 6 60 -19 21 -20 61 -2 159 8 49 9 71
2 69 -6 -2 -15 -17 -20 -33 -20 -68 -26 -77 -41 -64 -16 14 -11 79 9 115 15
28 35 295 24 318 -5 10 -14 95 -20 190 -10 147 -9 186 4 267 14 82 14 99 2
123 -14 25 -13 27 6 27 18 0 20 7 21 68 1 82 11 56 31 -87z m132 -668 c4 -21
23 -91 42 -155 33 -108 37 -147 13 -133 -5 4 -9 17 -9 30 0 34 -32 135 -43
135 -5 0 -7 -10 -3 -22 13 -49 19 -165 8 -172 -14 -8 -31 53 -25 87 3 13 -2
35 -10 48 -8 13 -18 53 -22 89 l-6 65 21 -25 22 -25 -5 63 c-5 67 6 77 17 15z
m223 -25 c12 -20 20 -149 8 -145 -13 4 -61 93 -70 130 -7 25 -5 27 23 27 17 0
34 -6 39 -12z m-252 -286 c0 -18 -20 -15 -23 4 -3 10 1 15 10 12 7 -3 13 -10
13 -16z m85 -68 c0 -44 -12 -58 -24 -28 -8 21 -8 69 0 77 14 14 24 -6 24 -49z
m163 13 c14 -24 46 -62 71 -85 43 -40 60 -62 35 -47 -6 4 -16 -1 -24 -11 -13
-18 -14 -18 -41 6 -14 14 -35 43 -44 65 -18 40 -35 115 -26 115 2 0 15 -19 29
-43z m-86 -9 c39 -55 108 -206 99 -216 -18 -18 -146 194 -146 242 0 27 15 18
47 -26z m-173 -67 c-4 -17 -9 -30 -11 -27 -3 2 -2 19 2 36 9 41 17 33 9 -9z
m-170 21 c7 -11 -37 -104 -57 -121 -15 -12 -17 -9 -17 36 0 28 7 58 16 71 15
22 48 30 58 14z m226 -62 c4 0 11 7 14 16 5 13 9 14 21 4 25 -21 18 -47 -13
-52 -43 -6 -52 0 -52 36 0 41 14 57 18 22 2 -14 7 -26 12 -26z m-78 -103 c-19
-19 -42 -17 -42 4 0 6 12 21 28 36 l27 25 3 -22 c2 -13 -5 -31 -16 -43z m78
-17 c-1 -14 -7 -34 -15 -44 -8 -11 -15 -43 -16 -70 -1 -28 -4 -62 -8 -74 -6
-23 -7 -23 -23 -5 -19 21 -12 74 23 182 21 63 39 69 39 11z m-331 -32 c1 -16
-3 -28 -9 -28 -5 0 -10 21 -9 48 0 35 3 42 9 27 5 -11 9 -32 9 -47z m131 -147
c0 -16 -42 -71 -54 -71 -9 0 14 54 31 72 20 23 23 22 23 -1z m-640 -319 c0 -5
-11 -14 -25 -20 -28 -13 -35 1 -7 17 21 13 32 14 32 3z m-160 -56 c0 -3 -4 -8
-10 -11 -5 -3 -10 -1 -10 4 0 6 5 11 10 11 6 0 10 -2 10 -4z"/>
<path d="M6171 3553 c-22 -19 -141 -200 -141 -216 0 -24 29 6 61 64 20 35 55
85 78 111 22 25 41 49 41 52 0 11 -18 6 -39 -11z"/>
<path d="M4850 3520 c30 -42 85 -82 107 -78 14 3 7 11 -27 35 -25 17 -54 40
-64 52 -29 32 -40 25 -16 -9z"/>
<path d="M6502 3503 c-42 -53 -72 -105 -71 -123 0 -8 11 6 24 32 14 25 38 61
55 79 27 30 37 49 26 49 -2 0 -18 -17 -34 -37z"/>
<path d="M4010 3516 c-43 -14 -60 -24 -60 -37 0 -5 6 -9 14 -9 24 0 106 39
106 50 0 12 -14 11 -60 -4z"/>
<path d="M7488 3493 c-24 -27 -46 -75 -53 -115 -6 -31 -63 -108 -80 -108 -10
0 -4 50 10 83 18 44 18 47 1 47 -27 0 -41 -88 -38 -236 2 -119 -1 -150 -18
-198 -14 -41 -17 -63 -10 -76 7 -13 2 -35 -17 -81 -35 -88 -51 -149 -43 -179
8 -32 17 -16 30 51 6 29 21 77 35 107 14 30 25 70 25 89 0 35 73 257 93 281 9
11 12 10 19 -2 20 -37 27 -9 25 112 -2 122 -1 129 26 176 15 27 27 52 27 57 0
15 -16 10 -32 -8z m-58 -241 c0 -42 -3 -50 -29 -65 -35 -20 -41 -21 -41 -5 0
19 52 118 62 118 4 0 8 -22 8 -48z"/>
<path d="M8342 3445 c-12 -33 -40 -123 -63 -200 -22 -77 -43 -148 -46 -159 -4
-13 -2 -17 8 -14 8 3 37 83 72 204 57 198 72 283 29 169z"/>
<path d="M4042 3473 c3 -15 20 -19 107 -25 58 -5 107 -5 110 -2 11 10 -23 22
-96 33 -105 16 -125 15 -121 -6z"/>
<path d="M5351 3414 c-44 -66 -67 -125 -43 -110 9 5 112 171 112 180 0 21 -26
-5 -69 -70z"/>
<path d="M8410 3428 c0 -36 4 -35 14 5 4 16 2 27 -4 27 -5 0 -10 -14 -10 -32z"/>
<path d="M2942 3437 c-17 -22 -35 -84 -29 -101 4 -9 13 -16 20 -16 18 0 67 49
67 66 0 17 -12 18 -28 2 -18 -18 -27 -1 -14 27 12 26 1 43 -16 22z"/>
<path d="M5688 3342 c-127 -140 -149 -170 -142 -197 3 -14 -7 -42 -30 -81 -42
-73 -55 -114 -33 -114 9 0 20 18 28 48 7 26 48 99 93 166 45 65 87 130 95 145
8 14 29 42 47 63 36 40 59 78 47 78 -4 0 -52 -49 -105 -108z"/>
<path d="M4396 3399 c-7 -39 22 -139 41 -139 16 0 17 -4 -6 63 -21 61 -19 69
8 36 10 -12 23 -20 30 -18 12 4 -43 89 -59 89 -4 0 -10 -14 -14 -31z"/>
<path d="M6293 3418 c-6 -7 -18 -30 -28 -51 -10 -21 -35 -52 -56 -69 -21 -17
-41 -38 -44 -47 -5 -13 -4 -14 6 -3 23 22 28 13 13 -24 -27 -64 -7 -48 36 29
22 41 48 81 56 88 24 20 47 70 36 81 -5 5 -13 4 -19 -4z"/>
<path d="M4040 3405 c-43 -14 -110 -66 -110 -86 0 -14 11 -11 44 15 52 39 89
54 124 49 27 -5 32 -2 32 16 0 25 -23 27 -90 6z"/>
<path d="M5948 3354 c-53 -66 -98 -141 -98 -164 0 -21 18 0 45 52 15 29 47 77
72 106 25 28 43 57 41 64 -2 6 -29 -20 -60 -58z"/>
<path d="M7251 3392 c-19 -35 -42 -166 -36 -199 10 -57 25 -36 25 35 0 37 7
92 15 122 15 58 14 75 -4 42z"/>
<path d="M8233 3374 c-14 -25 -58 -195 -79 -306 -8 -45 -29 -117 -45 -162 -34
-93 -36 -110 -9 -77 23 26 60 146 83 266 9 44 28 122 42 174 27 96 30 146 8
105z"/>
<path d="M4941 3341 c-17 -59 -93 -138 -147 -154 l-44 -13 28 -27 c24 -23 32
-26 60 -18 29 9 37 6 80 -27 26 -20 72 -46 102 -58 41 -17 50 -24 37 -30 -16
-6 -107 8 -156 23 -10 3 -8 -2 7 -16 51 -44 180 -56 225 -20 25 19 112 187
103 197 -3 2 -23 -24 -45 -59 l-40 -63 -16 36 c-22 55 -20 62 35 85 28 12 50
25 50 30 0 18 -68 31 -110 22 -31 -7 -48 -6 -71 7 -46 23 -46 10 0 -34 64 -61
50 -85 -22 -36 -21 14 -41 23 -44 20 -11 -11 22 -39 67 -58 50 -21 70 -42 70
-71 0 -17 -5 -19 -39 -14 -51 6 -128 45 -152 76 -27 34 -23 58 16 121 22 33
35 67 35 87 0 45 -14 42 -29 -6z"/>
<path d="M4289 3293 c-29 -34 -70 -113 -64 -123 10 -17 24 -2 56 62 31 62 35
93 8 61z"/>
<path d="M7107 3268 c-21 -59 -28 -106 -17 -113 5 -3 14 11 20 32 14 50 24
123 17 123 -3 0 -12 -19 -20 -42z"/>
<path d="M8635 3290 c-24 -38 6 -270 35 -270 14 0 13 43 -2 77 -6 15 -14 69
-17 118 -4 63 -9 86 -16 75z"/>
<path d="M8051 3183 c-58 -213 -71 -267 -81 -323 -13 -74 -31 -138 -53 -192
-13 -31 -13 -38 -2 -38 18 0 62 132 85 260 11 58 31 141 44 185 13 44 27 95
31 113 10 46 -12 41 -24 -5z"/>
<path d="M8504 3195 c-7 -30 0 -160 11 -187 15 -39 20 -13 17 89 -4 109 -15
149 -28 98z"/>
<path d="M7126 3162 c-16 -47 -14 -82 5 -82 13 0 17 15 22 78 2 28 1 52 -4 52
-4 0 -15 -22 -23 -48z"/>
<path d="M6203 3102 c-78 -71 -185 -201 -177 -214 9 -15 46 14 84 68 19 26 68
83 109 126 86 90 75 105 -16 20z"/>
<path d="M4135 3120 c-15 -16 -16 -23 -6 -33 10 -9 15 -8 27 7 29 40 12 62
-21 26z"/>
<path d="M4640 3121 c0 -19 70 -63 108 -68 44 -6 82 10 82 34 0 11 -5 13 -22
8 -39 -13 -83 -8 -119 14 -38 23 -49 26 -49 12z"/>
<path d="M4529 3101 c6 -10 32 -38 58 -60 50 -45 88 -52 88 -16 0 15 -6 19
-25 17 -19 -1 -37 9 -65 38 -42 43 -74 55 -56 21z"/>
<path d="M8394 3085 c-3 -14 -5 -73 -2 -131 3 -78 7 -107 18 -114 25 -16 29
12 13 85 -9 43 -12 93 -9 128 6 58 -8 80 -20 32z"/>
<path d="M4031 3068 c-11 -18 -26 -41 -33 -50 -18 -25 -1 -35 21 -12 23 22 54
94 41 94 -4 0 -17 -15 -29 -32z"/>
<path d="M4512 3018 c14 -44 33 -62 53 -54 15 5 12 12 -16 45 -42 48 -51 51
-37 9z"/>
<path d="M5989 2950 c-63 -56 -132 -111 -153 -123 -44 -25 -58 -47 -29 -47 31
0 108 55 199 142 82 79 111 114 101 124 -2 3 -56 -41 -118 -96z"/>
<path d="M7190 3031 c-15 -29 -13 -81 4 -81 12 0 26 46 26 88 0 19 -18 14 -30
-7z"/>
<path d="M3939 3010 c-17 -20 -33 -28 -43 -24 -10 4 -29 -6 -51 -25 -20 -17
-40 -31 -45 -31 -10 0 -80 -112 -80 -129 0 -28 32 3 143 139 14 16 21 19 31
11 17 -14 60 18 81 60 21 39 -1 39 -36 -1z"/>
<path d="M7400 2983 c-6 -27 -23 -86 -37 -132 -17 -58 -21 -87 -14 -94 7 -7
13 -2 21 17 5 15 10 31 10 35 0 5 8 35 19 67 22 71 34 154 22 154 -5 0 -14
-21 -21 -47z"/>
<path d="M8289 2993 c-24 -29 -18 -177 10 -251 23 -60 36 -80 48 -69 3 3 -5
36 -18 74 -18 53 -23 90 -23 166 0 53 -1 97 -2 97 -1 0 -8 -7 -15 -17z"/>
<path d="M7872 2923 c-31 -82 -105 -309 -116 -355 -11 -49 12 -30 33 27 12 31
21 59 21 63 0 5 25 82 55 173 63 187 58 169 46 169 -5 0 -23 -35 -39 -77z"/>
<path d="M7221 2959 c-22 -36 -28 -94 -11 -104 5 -3 12 7 15 22 3 15 11 45 17
66 15 49 4 57 -21 16z"/>
<path d="M4360 2944 c18 -20 76 -44 109 -44 20 1 12 8 -38 30 -72 34 -89 37
-71 14z"/>
<path d="M4809 2928 c32 -29 33 -32 16 -44 -15 -11 -21 -10 -43 6 -37 30 -46
24 -22 -15 22 -35 20 -39 -12 -36 -13 2 -18 -5 -18 -26 0 -16 -7 -38 -15 -50
-14 -20 -17 -21 -43 -7 -46 24 -59 15 -22 -15 31 -26 34 -32 25 -58 -13 -34
-42 -40 -96 -19 -46 19 -51 6 -9 -25 35 -26 25 -49 -21 -49 -25 0 -29 -4 -29
-29 l0 -28 77 1 c66 1 78 4 81 19 3 13 -3 17 -28 17 -41 0 -30 16 22 32 30 9
43 19 50 40 14 39 46 37 60 -2 15 -45 33 -31 36 28 2 29 8 52 13 52 6 0 8 -9
4 -20 -4 -13 -1 -22 9 -26 8 -3 20 -21 26 -40 15 -45 39 -41 56 10 14 38 79
138 95 144 5 2 19 12 31 22 30 24 17 36 -16 15 -28 -19 -34 -10 -12 20 7 11
16 31 19 46 4 15 19 32 39 41 l33 17 -61 0 c-41 1 -65 -4 -73 -13 -24 -28 -78
-29 -138 -2 -71 33 -76 32 -34 -6z m-27 -140 c-7 -7 -12 -8 -12 -2 0 6 3 14 7
17 3 4 9 5 12 2 2 -3 -1 -11 -7 -17z m178 -12 c0 -7 -11 -23 -25 -36 l-25 -23
0 27 c0 15 5 36 11 47 8 16 13 18 25 8 8 -6 14 -17 14 -23z"/>
<path d="M5781 2915 c-35 -28 -53 -35 -88 -35 -24 0 -61 -9 -83 -20 -45 -23
-53 -12 -13 19 14 12 23 24 20 28 -4 3 -41 -17 -84 -46 -49 -32 -83 -49 -94
-46 -10 3 -35 -3 -56 -14 -48 -25 -120 -87 -112 -96 4 -3 23 8 42 24 59 53 66
35 11 -30 -41 -49 -31 -63 18 -26 18 14 56 36 83 50 28 14 90 45 140 70 49 25
93 43 97 41 14 -9 -4 -30 -62 -73 -34 -24 -58 -46 -56 -49 9 -9 90 29 123 59
19 16 44 29 57 29 23 0 176 114 176 132 0 14 -9 10 -71 -32 -63 -44 -82 -40
-24 4 32 25 45 46 28 46 -5 0 -28 -16 -52 -35z m-256 -115 c-3 -5 -13 -10 -21
-10 -8 0 -12 5 -9 10 3 6 13 10 21 10 8 0 12 -4 9 -10z"/>
<path d="M5275 2804 c-83 -68 -109 -84 -116 -73 -5 8 -9 20 -9 27 0 16 48 66
70 74 8 3 12 8 8 12 -9 11 -47 -11 -93 -54 -22 -20 -58 -42 -80 -48 -41 -12
-115 -76 -102 -89 4 -3 21 8 38 25 35 35 76 45 64 15 -15 -35 -18 -110 -5
-118 17 -11 30 13 30 56 0 37 32 90 46 77 4 -5 0 -16 -9 -26 -17 -19 -23 -42
-10 -42 3 0 15 8 26 18 22 19 22 20 1 -48 -12 -39 17 -19 52 36 20 30 73 94
120 141 72 73 96 103 80 103 -2 0 -52 -39 -111 -86z"/>
<path d="M7646 2743 c-24 -101 -36 -171 -36 -220 0 -104 16 -90 23 20 3 53 19
143 36 212 34 133 35 135 22 135 -5 0 -25 -66 -45 -147z"/>
<path d="M4254 2861 c15 -23 87 -52 123 -49 59 5 48 23 -19 35 -35 6 -74 14
-87 18 -17 6 -22 5 -17 -4z"/>
<path d="M4090 2801 c0 -15 54 -50 101 -66 45 -16 149 -20 149 -6 0 4 -35 14
-77 21 -43 6 -98 23 -122 36 -49 27 -51 28 -51 15z"/>
<path d="M8203 2698 c4 -57 16 -139 27 -183 26 -103 27 -190 3 -204 -16 -9
-20 1 -36 87 -10 53 -24 131 -30 172 -12 75 -29 99 -35 47 -2 -15 9 -84 24
-155 22 -104 26 -153 26 -267 0 -77 -5 -177 -12 -222 -20 -147 -16 -226 18
-368 46 -189 60 -242 81 -315 36 -121 41 -164 28 -211 -10 -34 -18 -43 -32
-41 -22 4 -35 -14 -35 -50 0 -16 -4 -28 -9 -28 -5 0 -7 9 -4 20 4 14 0 20 -11
20 -21 0 -32 -26 -17 -43 8 -10 6 -19 -10 -35 -25 -28 -25 -28 -44 8 -19 37
-39 29 -31 -13 5 -23 0 -38 -19 -63 -32 -42 -45 -43 -45 -3 0 42 -17 28 -25
-22 -4 -24 -19 -54 -36 -73 -27 -30 -28 -30 -29 -8 0 27 20 69 61 125 16 22
34 59 40 81 6 23 19 48 29 56 12 9 26 44 36 85 26 108 24 103 39 82 8 -12 11
-33 7 -59 -4 -32 -2 -40 9 -36 8 3 19 35 28 85 l13 81 -42 113 c-50 134 -77
189 -90 189 -17 0 -12 -22 25 -112 30 -75 33 -89 22 -112 -23 -49 -26 -42 -57
111 -11 55 -20 140 -20 187 0 82 -11 111 -24 64 -20 -75 9 -288 59 -431 22
-65 23 -73 10 -139 -7 -38 -15 -71 -16 -72 -2 -2 -14 0 -27 5 -21 8 -23 15
-22 66 2 79 2 78 -20 58 -19 -17 -20 -17 -20 0 0 9 7 44 16 77 17 69 13 84
-11 37 -27 -52 -37 -18 -30 106 7 113 31 394 41 478 9 64 -11 62 -25 -3 -6
-28 -11 -78 -11 -110 0 -33 -4 -60 -10 -60 -6 0 -10 67 -10 182 0 297 -14 192
-22 -160 -4 -180 -7 -336 -8 -347 0 -29 18 -183 27 -230 6 -30 13 -40 28 -40
16 0 22 -11 32 -55 20 -95 17 -106 -33 -160 -26 -28 -62 -59 -80 -71 -33 -20
-44 -44 -23 -51 17 -6 -59 -174 -87 -193 -31 -20 -30 -11 3 65 32 74 23 94
-29 67 -100 -52 -127 -77 -128 -119 0 -24 9 -23 39 6 22 21 101 61 101 52 0
-17 -58 -127 -78 -148 -33 -36 -43 -35 -35 4 10 48 -13 26 -32 -32 -17 -51
-50 -87 -121 -130 -94 -58 -201 -140 -214 -165 -9 -16 -33 -36 -57 -46 -51
-22 -56 -39 -11 -39 26 0 44 11 88 54 30 29 93 79 140 109 139 91 272 205 519
441 80 76 168 156 196 176 64 48 155 144 155 165 0 9 7 27 16 41 16 23 16 30
-1 102 -9 42 -25 104 -35 137 -11 33 -22 78 -26 100 -4 22 -13 58 -21 80 -22
60 -63 273 -63 325 1 25 7 90 15 145 8 55 15 132 15 171 0 62 4 76 30 115 29
42 30 48 29 147 -1 57 1 105 4 108 3 3 -8 42 -24 87 -16 45 -29 100 -29 122 0
51 -9 85 -23 85 -7 0 -8 -35 -4 -102z m-33 -1431 c0 -5 -4 -5 -10 -2 -5 3 -10
14 -10 23 0 15 2 15 10 2 5 -8 10 -19 10 -23z m-254 -551 c-9 -30 -23 -57 -32
-60 -25 -10 -27 -2 -10 39 9 21 16 46 16 56 0 19 33 44 38 29 2 -5 -4 -34 -12
-64z"/>
<path d="M4020 2771 c0 -14 88 -91 117 -102 47 -18 46 -4 -4 28 -26 17 -59 43
-72 57 -25 26 -41 33 -41 17z"/>
<path d="M3626 2709 c-48 -53 -59 -77 -28 -60 37 20 106 111 83 111 -5 0 -30
-23 -55 -51z"/>
<path d="M7566 2742 c-16 -26 -36 -134 -36 -194 0 -69 20 -138 39 -138 14 0
14 10 -4 60 -19 54 -19 110 0 201 14 67 15 93 1 71z"/>
<path d="M3880 2689 c0 -6 24 -35 53 -65 38 -40 57 -53 70 -49 24 10 21 22
-10 39 -16 8 -39 26 -53 41 -31 34 -60 50 -60 34z"/>
<path d="M3970 2691 c0 -36 134 -111 198 -111 32 0 72 25 72 46 0 18 -19 18
-44 -1 -38 -29 -116 -8 -182 48 -34 28 -44 33 -44 18z"/>
<path d="M5255 2660 c-3 -5 -1 -10 4 -10 6 0 11 5 11 10 0 6 -2 10 -4 10 -3 0
-8 -4 -11 -10z"/>
<path d="M3484 2574 c-30 -68 -26 -97 5 -36 33 65 42 92 30 92 -5 0 -21 -25
-35 -56z"/>
<path d="M3850 2622 c0 -13 109 -116 116 -110 10 11 -14 44 -60 81 -45 38 -56
43 -56 29z"/>
<path d="M3781 2544 c37 -39 108 -79 121 -66 7 7 -12 23 -59 51 -80 47 -96 51
-62 15z"/>
<path d="M4320 2547 c0 -8 21 -29 47 -46 46 -31 50 -32 148 -29 60 2 99 7 97
13 -1 6 -34 9 -81 6 -81 -3 -149 16 -193 56 -16 14 -18 14 -18 0z"/>
<path d="M7965 2484 c-34 -84 -32 -83 -46 -46 -13 32 -29 43 -29 20 0 -19 32
-132 41 -142 4 -5 13 11 19 35 6 24 19 70 27 102 19 67 10 88 -12 31z"/>
<path d="M4250 2502 c0 -12 39 -46 78 -68 17 -10 32 -22 32 -28 0 -15 -158 0
-185 18 -14 9 -26 12 -30 6 -10 -16 53 -47 122 -60 67 -13 75 -25 31 -49 -22
-13 -30 -12 -69 6 -60 29 -93 38 -85 24 4 -6 14 -11 22 -11 8 0 14 -4 14 -10
0 -13 -3 -13 -49 6 -59 23 -73 12 -23 -19 23 -15 42 -31 42 -36 0 -11 -112
-61 -135 -61 -10 0 -41 6 -69 14 -85 24 -170 46 -191 48 -38 5 -21 -27 23 -42
23 -8 42 -18 42 -22 0 -4 -29 -8 -65 -8 -49 0 -65 -3 -65 -14 0 -19 32 -26
130 -26 47 -1 103 -5 125 -9 26 -5 54 -3 79 6 49 17 57 16 50 -2 -10 -25 13
-42 66 -49 73 -10 120 -32 120 -57 0 -18 4 -20 23 -14 12 4 36 9 52 11 25 4
27 3 13 -6 -47 -29 4 -41 65 -15 47 20 96 19 103 0 11 -28 44 -38 63 -21 11
10 21 12 27 6 23 -23 114 -7 114 20 0 5 -24 10 -52 12 -49 3 -53 5 -53 28 0
17 -9 29 -30 39 -25 13 -27 16 -11 19 42 9 106 -9 123 -34 11 -17 19 -22 26
-15 18 18 -19 59 -59 67 -19 3 -84 4 -142 1 -112 -5 -185 -24 -208 -55 -12
-16 -14 -16 -28 3 -19 25 -19 27 -3 47 9 13 20 15 53 9 32 -6 49 -4 75 10 19
10 55 18 82 19 28 0 47 5 47 11 0 8 -21 10 -72 4 -40 -4 -125 -8 -188 -9 -63
-2 -131 -6 -150 -10 l-35 -7 25 21 c37 31 111 67 153 75 46 9 85 38 89 68 2
17 12 23 40 28 46 7 70 26 66 52 -3 17 -11 21 -54 22 -37 1 -68 11 -108 34
-31 17 -56 27 -56 23z m300 -408 c0 -2 -16 -4 -36 -4 -19 0 -33 4 -30 8 5 8
66 4 66 -4z m-110 -9 c-14 -8 -32 -14 -40 -14 -8 0 -1 7 15 14 39 18 57 18 25
0z"/>
<path d="M3700 2461 c0 -12 74 -41 105 -41 34 0 32 18 -2 26 -16 3 -41 10 -57
15 -36 11 -46 11 -46 0z"/>
<path d="M7267 2455 c-4 -8 -2 -17 3 -20 6 -4 10 -4 10 -1 0 2 3 11 6 20 3 9
2 16 -4 16 -5 0 -12 -7 -15 -15z"/>
<path d="M7156 2378 c-16 -133 35 -294 84 -268 15 8 19 2 29 -43 6 -29 22 -70
34 -92 13 -22 36 -81 52 -130 16 -50 38 -100 49 -111 12 -12 29 -34 40 -49 11
-16 21 -23 25 -16 10 15 126 -202 147 -274 13 -43 18 -96 18 -185 1 -117 -1
-132 -33 -228 l-34 -102 -117 -114 c-141 -138 -186 -163 -321 -181 -57 -8
-107 -20 -124 -31 -19 -12 -43 -17 -81 -15 -44 2 -64 -3 -115 -30 -33 -18 -76
-52 -95 -75 -20 -23 -46 -44 -62 -47 -30 -6 -65 -38 -130 -116 -43 -51 -44
-53 -35 -99 11 -63 32 -66 60 -8 15 30 42 59 80 87 32 24 95 78 139 121 84 80
101 88 161 72 20 -6 19 -8 -20 -28 -26 -13 -53 -39 -72 -67 -31 -48 -189 -209
-204 -209 -5 0 -12 11 -15 25 -8 32 -19 32 -46 -2 -31 -40 -23 -68 20 -68 27
0 37 -5 47 -26 22 -45 37 -52 72 -35 17 9 35 25 41 36 10 18 7 21 -20 26 -51
11 -41 47 33 118 34 34 80 83 102 109 l40 49 96 8 c97 8 164 31 156 53 -2 7
-17 11 -33 9 -16 -2 -53 -5 -81 -8 -32 -4 -53 -2 -53 4 0 12 35 22 81 22 41 0
79 23 64 39 -5 5 -30 11 -54 13 -25 2 -46 9 -49 16 -3 10 12 13 64 11 125 -3
180 23 330 156 122 107 177 188 221 325 13 41 31 85 39 97 8 12 14 40 14 63 0
22 4 40 10 40 9 0 18 -37 22 -100 5 -56 23 -36 26 30 2 48 -2 70 -24 117 -15
32 -32 61 -38 65 -15 10 -3 18 19 12 11 -3 30 -21 43 -40 23 -35 42 -44 42
-20 0 8 -14 44 -31 81 -26 54 -33 83 -37 156 -3 66 -8 87 -16 79 -12 -12 -14
-129 -3 -172 11 -43 -11 -33 -23 10 -5 20 -15 101 -22 180 -15 181 -34 190
-25 12 4 -71 4 -130 0 -130 -16 0 -53 113 -59 180 -6 57 -9 68 -20 59 -27 -22
-36 37 -31 199 2 83 3 152 1 152 -13 0 -27 -69 -32 -165 l-7 -110 -28 47 c-16
26 -32 62 -37 80 -13 46 -16 170 -6 253 l7 70 -24 -27 c-14 -14 -37 -59 -52
-100 -44 -116 -52 -117 -64 -7 -7 65 -6 81 15 138 25 67 25 83 -1 61 -14 -12
-15 -10 -10 13 5 17 3 27 -4 27 -13 0 -51 -147 -51 -202 0 -5 -4 -8 -9 -8 -19
0 -42 86 -48 176 -3 52 -9 94 -13 94 -4 0 -11 -24 -14 -52z m230 -354 c-3 -8
-12 -11 -22 -7 -18 7 -15 46 7 98 l14 30 3 -54 c2 -29 1 -60 -2 -67z m69 -248
c20 -66 20 -88 -1 -61 -14 18 -24 50 -38 120 -6 29 -6 29 9 10 9 -11 22 -42
30 -69z m45 -6 c0 -30 28 -80 45 -80 21 0 28 -19 14 -36 -18 -22 -46 8 -64 69
-18 60 -18 67 -5 67 6 0 10 -9 10 -20z"/>
<path d="M3650 2390 c0 -13 65 -31 84 -24 31 12 10 29 -37 30 -26 1 -47 -2
-47 -6z"/>
<path d="M8086 2363 c-10 -34 -36 -164 -36 -184 0 -24 16 -25 25 -1 7 18 35
169 35 190 0 18 -18 15 -24 -5z"/>
<path d="M7892 2239 c-6 -14 -13 -52 -17 -85 -6 -46 -5 -57 5 -47 17 16 38
114 30 138 -7 19 -8 18 -18 -6z"/>
<path d="M8118 2124 c-13 -20 -22 -230 -10 -238 7 -4 13 9 17 36 8 55 2 216
-7 202z"/>
<path d="M4780 2086 c0 -9 5 -16 10 -16 6 0 10 4 10 9 0 6 -4 13 -10 16 -5 3
-10 -1 -10 -9z"/>
<path d="M3490 2060 c0 -36 112 -75 195 -68 37 3 36 4 -20 11 -92 12 -101 15
-133 42 -32 27 -42 31 -42 15z"/>
<path d="M3096 2012 c-7 -12 -24 -119 -36 -227 -20 -192 -31 -239 -70 -325
-21 -47 -61 -139 -89 -206 -28 -67 -69 -161 -92 -210 -69 -149 -79 -174 -68
-174 6 0 41 64 79 143 38 78 76 153 83 167 8 14 20 48 26 75 15 62 56 157 92
212 37 56 36 51 58 274 11 107 23 214 27 237 6 39 2 53 -10 34z"/>
<path d="M3735 1990 c-4 -6 12 -10 42 -9 39 1 43 3 23 9 -36 11 -58 11 -65 0z"/>
<path d="M4555 1913 l-110 -75 -90 8 c-135 11 -182 7 -158 -17 13 -13 207 -32
245 -24 51 12 248 151 248 176 0 19 -29 4 -135 -68z"/>
<path d="M3632 1965 c2 -3 31 -10 64 -16 32 -5 110 -28 172 -50 63 -21 112
-34 110 -28 -5 15 -174 74 -252 88 -64 12 -102 14 -94 6z"/>
<path d="M11016 1913 c-13 -41 36 -144 59 -122 6 6 -33 117 -46 133 -4 4 -10
0 -13 -11z"/>
<path d="M3980 1911 c8 -5 35 -11 60 -14 l45 -6 -40 14 c-46 16 -89 20 -65 6z"/>
<path d="M10703 1846 c27 -69 288 -383 308 -370 17 10 9 24 -63 104 -40 44
-107 124 -148 177 -70 90 -112 129 -97 89z"/>
<path d="M7851 1702 c-19 -36 -33 -156 -26 -229 11 -116 25 -97 25 34 0 65 5
138 11 162 11 48 6 63 -10 33z"/>
<path d="M11105 1663 c13 -53 58 -143 71 -143 21 0 17 19 -21 98 -34 72 -64
98 -50 45z"/>
<path d="M11148 1495 c-3 -3 -2 -23 3 -43 5 -20 9 -52 9 -70 0 -34 47 -142 62
-142 15 0 8 45 -12 85 -11 22 -20 55 -20 75 -1 36 -31 106 -42 95z"/>
<path d="M7810 1350 c0 -21 26 -158 37 -194 5 -18 6 -18 15 -1 12 20 -5 155
-24 193 -14 28 -28 29 -28 2z"/>
<path d="M11190 1161 c0 -59 37 -121 54 -92 8 12 -23 97 -40 112 -12 9 -14 6
-14 -20z"/>
<path d="M7701 985 c-16 -35 -50 -90 -76 -121 -44 -54 -51 -73 -30 -77 17 -3
132 158 138 194 3 19 8 42 12 52 4 10 3 17 -4 17 -6 0 -24 -29 -40 -65z"/>
<path d="M7850 1025 c-18 -47 -22 -75 -12 -75 6 0 14 15 17 33 4 17 12 37 17
44 6 7 5 14 -2 18 -5 3 -14 -6 -20 -20z"/>
<path d="M11200 987 c0 -64 46 -164 66 -144 4 3 -5 36 -20 72 -14 36 -26 74
-26 85 0 11 -4 20 -10 20 -5 0 -10 -15 -10 -33z"/>
<path d="M11046 945 c-8 -23 4 -145 15 -145 11 0 11 131 0 148 -6 11 -10 10
-15 -3z"/>
<path d="M7824 896 c-8 -22 2 -46 21 -46 19 0 20 34 0 50 -12 10 -16 9 -21 -4z"/>
<path d="M2873 797 c-49 -73 -51 -160 -4 -180 14 -6 29 -16 32 -20 11 -16 49
13 55 41 3 15 10 42 14 60 11 42 -3 41 -29 -3 -25 -43 -35 -44 -51 -5 -12 29
-7 70 15 123 12 29 -9 19 -32 -16z"/>
<path d="M2599 686 c-96 -12 -103 -17 -156 -90 -21 -28 -70 -82 -109 -121 -73
-71 -105 -132 -90 -171 6 -16 8 -16 26 1 17 16 25 16 64 5 29 -8 72 -10 123
-6 43 4 98 7 121 6 31 0 59 8 97 30 67 38 78 52 79 100 1 49 -16 53 -27 7 -11
-45 -40 -71 -80 -73 -18 -1 -59 -9 -92 -18 -61 -17 -137 -14 -162 6 -7 6 -13
21 -13 34 0 24 -1 24 -30 9 -27 -14 -30 -14 -30 1 0 9 14 28 32 42 53 44 91
85 128 137 35 50 36 50 102 57 79 7 131 23 148 44 15 17 -4 17 -131 0z"/>
<path d="M2982 603 c-6 -10 -15 -36 -21 -59 -23 -84 -93 -154 -156 -154 -34 0
-55 -24 -36 -43 21 -21 94 5 143 51 61 57 69 71 84 150 11 61 4 90 -14 55z"/>
<path d="M784 576 c-21 -9 -85 -15 -205 -18 -116 -2 -182 -8 -197 -17 -35 -19
-24 -21 53 -10 39 6 166 10 283 11 117 0 212 2 210 4 -3 2 -22 8 -44 13 -67
16 110 13 184 -3 96 -21 95 -27 -12 -46 -33 -5 -62 -12 -64 -15 -14 -14 13
-16 75 -5 123 21 294 32 527 36 214 3 264 10 242 31 -15 16 -196 13 -391 -5
l-200 -18 -75 24 c-62 21 -99 26 -215 29 -105 2 -148 0 -171 -11z"/>
<path d="M9690 580 c0 -5 5 -10 10 -10 6 0 10 5 10 10 0 6 -4 10 -10 10 -5 0
-10 -4 -10 -10z"/>
<path d="M9775 582 c-20 -5 -26 -10 -17 -15 6 -5 17 -5 22 -2 6 4 25 3 43 -1
l32 -8 -50 -11 c-32 -7 -50 -16 -50 -26 0 -12 36 -14 222 -17 220 -2 222 -2
249 21 18 16 25 30 21 40 -5 14 -23 17 -114 17 -59 0 -157 2 -218 5 -60 2
-123 1 -140 -3z m115 -32 c0 -5 -4 -10 -9 -10 -6 0 -13 5 -16 10 -3 6 1 10 9
10 9 0 16 -4 16 -10z"/>
<path d="M11042 562 c-47 -29 -60 -58 -42 -92 16 -31 34 -19 38 24 3 29 10 41
33 54 16 10 29 23 29 30 0 17 -9 14 -58 -16z"/>
<path d="M7587 552 c-25 -27 -50 -93 -39 -104 12 -12 26 7 46 66 18 56 17 64
-7 38z"/>
<path d="M4635 550 c-14 -6 5 -9 58 -9 50 -1 76 3 72 9 -7 12 -102 12 -130 0z"/>
<path d="M5045 553 c-58 -8 -50 -23 11 -23 112 0 273 13 268 21 -5 9 -222 10
-279 2z"/>
<path d="M2676 515 c-25 -20 -46 -40 -46 -45 0 -20 18 -18 39 4 12 13 40 31
62 41 21 10 39 22 39 27 0 20 -51 5 -94 -27z"/>
<path d="M4480 543 c-51 -6 -62 -23 -14 -23 56 0 114 11 114 21 0 9 -34 9
-100 2z"/>
<path d="M8500 540 c-20 -6 -14 -8 28 -9 28 -1 52 3 52 9 0 12 -44 12 -80 0z"/>
<path d="M8695 540 c-4 -6 7 -10 25 -10 18 0 29 4 25 10 -3 6 -15 10 -25 10
-10 0 -22 -4 -25 -10z"/>
<path d="M8780 538 c0 -4 36 -8 80 -8 47 0 80 4 80 10 0 6 -32 9 -80 8 -44 0
-80 -5 -80 -10z"/>
<path d="M9105 540 c-3 -5 -1 -10 4 -10 6 0 11 5 11 10 0 6 -2 10 -4 10 -3 0
-8 -4 -11 -10z"/>
<path d="M9245 540 c-8 -13 105 -13 125 0 11 7 -5 10 -52 10 -37 0 -70 -4 -73
-10z"/>
<path d="M9423 543 c9 -2 23 -2 30 0 6 3 -1 5 -18 5 -16 0 -22 -2 -12 -5z"/>
<path d="M8378 528 c9 -9 15 -9 24 0 9 9 7 12 -12 12 -19 0 -21 -3 -12 -12z"/>
<path d="M8608 533 c6 -2 18 -2 25 0 6 3 1 5 -13 5 -14 0 -19 -2 -12 -5z"/>
<path d="M3780 500 c0 -5 5 -10 10 -10 6 0 10 5 10 10 0 6 -4 10 -10 10 -5 0
-10 -4 -10 -10z"/>
<path d="M3860 500 c19 -5 65 -12 103 -15 42 -4 73 -13 84 -23 20 -21 178 -31
196 -13 8 8 -3 11 -41 11 -28 0 -69 7 -89 15 -56 21 -148 35 -222 34 -58 -1
-62 -2 -31 -9z"/>
<path d="M3557 486 c-53 -12 -87 -29 -76 -40 3 -3 25 2 49 10 25 9 66 18 92
21 27 3 48 10 48 14 0 12 -43 10 -113 -5z"/>
<path d="M3718 493 c6 -2 18 -2 25 0 6 3 1 5 -13 5 -14 0 -19 -2 -12 -5z"/>
<path d="M815 469 c-84 -21 -130 -43 -120 -60 9 -13 73 -1 110 21 17 10 56 24
88 31 59 13 77 30 30 28 -16 -1 -64 -10 -108 -20z"/>
<path d="M1633 483 c-24 -2 -43 -9 -43 -15 0 -7 18 -9 53 -4 28 3 62 6 75 6
12 0 22 5 22 10 0 10 -22 10 -107 3z"/>
<path d="M7974 479 c-6 -10 94 -19 223 -19 70 0 124 4 128 10 4 6 -31 11 -97
11 -57 1 -136 2 -176 3 -41 1 -76 -2 -78 -5z"/>
<path d="M8348 473 c6 -2 18 -2 25 0 6 3 1 5 -13 5 -14 0 -19 -2 -12 -5z"/>
<path d="M1295 463 c-109 -9 -205 -26 -216 -39 -17 -20 10 -28 57 -15 59 15
229 41 273 41 22 0 43 5 46 10 6 10 -66 11 -160 3z"/>
<path d="M1528 463 c7 -3 16 -2 19 1 4 3 -2 6 -13 5 -11 0 -14 -3 -6 -6z"/>
<path d="M9470 460 c20 -13 60 -13 60 0 0 6 -17 10 -37 10 -28 0 -34 -3 -23
-10z"/>
<path d="M9628 459 c-8 -6 1 -9 25 -9 20 0 37 2 37 4 0 9 -50 12 -62 5z"/>
<path d="M9748 453 c12 -2 32 -2 45 0 12 2 2 4 -23 4 -25 0 -35 -2 -22 -4z"/>
<path d="M9823 454 c7 -7 219 -6 226 1 2 3 -49 5 -114 5 -65 0 -116 -3 -112
-6z"/>
<path d="M10060 450 c0 -5 9 -10 19 -10 11 0 23 5 26 10 4 6 -5 10 -19 10 -14
0 -26 -4 -26 -10z"/>
<path d="M10636 441 c-12 -13 -14 -21 -6 -26 12 -8 60 20 60 35 0 17 -36 11
-54 -9z"/>
<path d="M7480 415 c-15 -45 -7 -73 15 -55 16 14 21 90 6 90 -5 0 -15 -16 -21
-35z"/>
<path d="M5540 430 c-354 -18 -409 -39 -105 -41 202 -1 274 -11 160 -22 -38
-4 -106 -7 -150 -7 -44 0 -87 -5 -95 -11 -11 -8 77 -9 305 -5 318 5 390 2 363
-15 -7 -5 -31 -9 -54 -9 -22 0 -49 -7 -60 -15 -12 -9 -44 -15 -89 -15 -80 0
-355 -27 -363 -35 -17 -17 30 -17 201 -2 106 10 270 20 365 24 125 4 175 10
183 19 15 18 1 23 -76 26 -52 3 -60 6 -60 23 0 19 -9 20 -126 26 -111 6 -169
18 -169 36 0 11 323 -8 394 -23 61 -13 72 -13 85 0 13 13 11 16 -14 26 -32 12
-332 30 -465 28 -47 -1 -150 -4 -230 -8z"/>
<path d="M9120 410 l-75 -6 83 -2 c49 -1 82 2 82 8 0 6 -3 9 -7 8 -5 -1 -42
-4 -83 -8z"/>
<path d="M9310 410 c-13 -8 -12 -10 3 -10 9 0 17 5 17 10 0 12 -1 12 -20 0z"/>
<path d="M9385 410 c-3 -5 3 -10 15 -10 12 0 18 5 15 10 -3 6 -10 10 -15 10
-5 0 -12 -4 -15 -10z"/>
<path d="M9435 410 c-3 -5 1 -10 9 -10 8 0 18 5 21 10 3 6 -1 10 -9 10 -8 0
-18 -4 -21 -10z"/>
<path d="M9520 410 c0 -11 187 -7 197 4 4 3 -39 6 -95 6 -62 0 -102 -4 -102
-10z"/>
<path d="M9980 410 c-13 -8 -12 -10 3 -10 9 0 17 5 17 10 0 12 -1 12 -20 0z"/>
<path d="M4845 400 c-3 -5 1 -10 10 -10 9 0 13 5 10 10 -3 6 -8 10 -10 10 -2
0 -7 -4 -10 -10z"/>
<path d="M4890 400 c0 -6 7 -10 15 -10 8 0 15 2 15 4 0 2 -7 6 -15 10 -8 3
-15 1 -15 -4z"/>
<path d="M5035 400 c-7 -12 58 -12 95 0 19 6 12 8 -32 9 -31 1 -60 -3 -63 -9z"/>
<path d="M5160 406 c0 -9 40 -13 46 -5 3 5 -6 9 -20 9 -14 0 -26 -2 -26 -4z"/>
<path d="M8713 403 c9 -2 23 -2 30 0 6 3 -1 5 -18 5 -16 0 -22 -2 -12 -5z"/>
<path d="M4958 393 c12 -2 30 -2 40 0 9 3 -1 5 -23 4 -22 0 -30 -2 -17 -4z"/>
<path d="M4526 382 c5 -4 50 -5 99 -2 l90 7 -99 1 c-55 1 -96 -2 -90 -6z"/>
<path d="M4428 373 c12 -2 30 -2 40 0 9 3 -1 5 -23 4 -22 0 -30 -2 -17 -4z"/>
<path d="M7414 354 c-9 -35 10 -53 26 -24 12 23 7 50 -9 50 -6 0 -14 -12 -17
-26z"/>
<path d="M5298 343 c7 -3 16 -2 19 1 4 3 -2 6 -13 5 -11 0 -14 -3 -6 -6z"/>
<path d="M7277 280 c-54 -54 -58 -80 -6 -36 23 20 35 24 44 16 10 -8 19 -3 39
23 32 42 32 47 0 47 -19 0 -42 -15 -77 -50z"/>
<path d="M6963 239 c-34 -10 -73 -62 -73 -97 0 -25 31 -38 42 -18 5 8 23 34
41 58 57 75 57 76 -10 57z"/>
<path d="M7047 226 c-30 -33 -34 -46 -12 -46 18 0 49 44 43 62 -3 8 -14 3 -31
-16z"/>
<path d="M7070 127 c-25 -23 -58 -52 -75 -64 -27 -19 -28 -22 -11 -29 11 -4
35 1 62 15 25 11 57 21 73 21 15 0 36 9 46 20 18 20 18 21 -2 26 -23 6 -37 30
-27 45 15 25 -26 4 -66 -34z"/>
<path d="M6808 59 c-10 -5 -18 -18 -18 -29 0 -36 150 -40 164 -4 6 16 0 19
-54 28 -19 3 -44 8 -55 11 -11 3 -28 0 -37 -6z"/>
</g>
</svg>
