<?xml version="1.0" standalone="no"?>
<!DOCTYPE svg PUBLIC "-//W3C//DTD SVG 20010904//EN"
 "http://www.w3.org/TR/2001/REC-SVG-20010904/DTD/svg10.dtd">
<svg version="1.0" xmlns="http://www.w3.org/2000/svg"
 width="1094.000000pt" height="1280.000000pt" viewBox="0 0 1094.000000 1280.000000"
 preserveAspectRatio="xMidYMid meet">
<metadata>
Created by potrace 1.15, written by Peter Selinger 2001-2017
</metadata>
<g transform="translate(0.000000,1280.000000) scale(0.100000,-0.100000)"
fill="#03a9f4" stroke="none">
<path d="M230 12759 c-43 -42 -70 -92 -70 -131 0 -50 50 -128 142 -225 101
-105 153 -174 164 -216 11 -48 -26 -33 -122 49 -94 79 -200 105 -274 66 -63
-33 -88 -121 -56 -197 22 -52 65 -70 166 -70 77 0 90 3 135 30 44 26 59 30
125 30 41 0 87 -3 102 -7 28 -8 88 -54 88 -68 0 -5 -22 -22 -49 -38 -64 -40
-93 -81 -93 -135 -1 -60 23 -101 72 -121 52 -21 138 -21 190 0 27 11 52 14 78
9 97 -17 286 -137 389 -247 50 -53 113 -143 113 -160 0 -25 -48 1 -121 67 -46
41 -122 109 -169 151 -86 78 -164 124 -210 124 -57 0 -97 -57 -124 -174 -20
-83 -20 -139 -2 -174 25 -49 140 -150 177 -157 19 -4 95 0 169 8 74 8 138 13
143 10 4 -2 7 -32 7 -66 0 -86 14 -127 60 -179 36 -41 54 -52 115 -73 l20 -6
-20 -12 c-11 -6 -62 -30 -114 -54 -121 -54 -166 -87 -197 -138 -28 -49 -30
-86 -8 -151 21 -63 11 -81 -96 -157 -216 -155 -241 -196 -186 -305 13 -27 28
-66 32 -88 13 -72 103 -124 214 -124 25 0 51 -5 56 -10 7 -7 9 -40 6 -83 -4
-65 -1 -79 26 -140 44 -96 111 -194 142 -207 54 -22 228 19 299 71 49 35 62
36 87 8 30 -33 69 -49 119 -49 33 0 47 -5 52 -16 3 -9 -4 -76 -15 -148 -31
-189 -30 -241 9 -299 17 -26 59 -76 93 -111 52 -55 68 -65 106 -71 87 -13 247
45 188 68 -7 3 -41 2 -74 0 -81 -7 -126 2 -159 33 -22 21 -26 31 -23 67 l3 42
-46 -3 c-40 -3 -49 0 -63 19 -22 32 -20 42 10 78 21 26 25 38 20 64 -23 110
-18 136 40 218 46 63 100 98 180 114 60 13 114 44 114 65 0 4 -13 24 -29 44
-32 40 -57 123 -46 155 3 11 23 30 43 43 60 37 130 107 163 165 17 29 40 58
52 64 51 28 239 -15 287 -66 47 -50 45 -54 115 220 51 200 95 301 211 485 88
141 132 197 174 223 19 12 77 57 128 100 51 44 95 77 97 75 12 -13 47 -293 48
-388 1 -96 -2 -126 -22 -185 -33 -99 -109 -240 -157 -294 -38 -42 -46 -46 -88
-46 -85 0 -113 62 -64 140 14 22 46 88 72 146 26 58 69 145 96 192 80 143 90
199 21 119 -46 -53 -128 -205 -198 -365 -61 -139 -95 -192 -137 -214 -107 -54
-236 -219 -200 -256 13 -12 36 8 73 62 49 71 86 106 133 125 53 22 91 20 147
-10 34 -17 75 -28 130 -33 45 -5 87 -14 95 -20 7 -6 19 -31 26 -55 15 -55 43
-82 95 -89 50 -8 85 -45 85 -90 0 -71 -63 -223 -112 -269 -27 -25 -27 -27 -11
-43 13 -13 27 -16 61 -11 114 16 224 -58 246 -165 3 -15 22 -49 41 -77 41 -60
41 -66 16 -141 -11 -31 -23 -77 -26 -103 -10 -74 -68 -118 -158 -118 -35 0
-67 -16 -67 -34 0 -19 22 -26 78 -26 88 0 163 55 219 163 25 46 28 63 28 147
0 88 -2 98 -30 143 -63 101 -75 122 -75 130 0 17 38 4 104 -37 39 -24 89 -53
112 -64 63 -32 65 -39 42 -107 -14 -43 -22 -106 -29 -224 -5 -90 -15 -176 -22
-189 -6 -14 -42 -46 -79 -72 -63 -42 -97 -75 -98 -92 0 -17 36 -6 82 23 27 18
67 34 91 36 41 5 47 2 109 -51 62 -52 98 -69 98 -46 0 21 63 42 111 38 61 -6
72 -16 108 -92 45 -95 71 -184 78 -267 8 -101 -6 -141 -74 -205 -82 -80 -69
-92 108 -103 131 -8 161 -20 185 -76 8 -19 14 -50 14 -69 0 -23 11 -49 35 -82
19 -27 43 -60 52 -73 11 -15 18 -45 19 -82 1 -39 8 -69 23 -94 11 -20 21 -43
21 -51 0 -39 -63 -125 -120 -164 -16 -11 -25 -31 -31 -69 -10 -64 -51 -138
-85 -153 -19 -9 -33 -9 -57 1 -69 27 -85 30 -104 15 -17 -13 -17 -15 9 -38 31
-27 99 -42 147 -31 47 10 87 49 133 129 55 96 87 138 100 130 7 -4 8 -68 3
-193 -8 -213 -11 -196 85 -394 34 -71 59 -131 56 -134 -8 -8 -38 14 -154 111
-122 102 -183 136 -247 136 -61 0 -101 -18 -163 -73 -118 -105 -126 -92 -48
88 32 75 36 181 8 234 -32 64 -42 51 -42 -52 0 -57 -6 -111 -15 -136 -35 -99
-124 -183 -208 -196 -61 -9 -108 -25 -139 -46 -39 -28 -56 -24 -109 26 -26 25
-52 45 -57 45 -5 0 -17 -9 -27 -20 -46 -51 -112 3 -165 136 -41 101 -60 117
-60 52 0 -95 55 -207 121 -247 16 -10 55 -21 87 -24 31 -4 84 -15 116 -27 74
-25 90 -25 132 1 54 33 40 5 -40 -79 -40 -42 -75 -84 -78 -92 -3 -8 4 -37 15
-65 30 -74 47 -153 47 -216 0 -83 26 -115 215 -269 166 -135 303 -190 471
-191 98 0 111 2 217 33 38 11 71 17 74 14 3 -3 -18 -42 -46 -88 -28 -46 -60
-110 -71 -143 -28 -79 -36 -187 -20 -256 11 -47 23 -64 89 -129 42 -42 118
-111 169 -153 50 -43 92 -81 92 -86 0 -10 -123 -21 -232 -21 -153 0 -342 -45
-383 -90 -40 -45 -35 -180 11 -257 19 -32 34 -45 65 -54 44 -14 65 -38 98
-114 43 -97 95 -133 213 -146 99 -11 156 -31 235 -81 l64 -41 -91 -59 c-186
-122 -244 -261 -160 -383 45 -65 67 -127 81 -226 14 -96 6 -177 -18 -186 -21
-8 -58 36 -97 114 -76 151 -128 205 -164 169 -15 -14 -17 -41 -17 -214 l0
-197 -39 -100 c-52 -135 -126 -286 -137 -279 -5 3 -9 26 -9 52 0 136 -55 368
-130 556 -31 75 -61 173 -76 243 -13 65 -29 130 -35 145 -12 29 -37 38 -43 15
-18 -63 -48 -122 -106 -216 -135 -215 -200 -373 -220 -536 -17 -135 -2 -238
57 -384 18 -46 31 -86 28 -89 -9 -9 -94 86 -137 152 -53 81 -119 222 -153 324
-82 252 -380 455 -691 469 -142 7 -240 -12 -394 -77 -131 -55 -211 -80 -252
-80 -18 0 -31 -7 -35 -17 -14 -37 311 -312 412 -348 88 -31 358 -183 350 -196
-4 -5 -10 -9 -16 -9 -5 0 -55 -18 -110 -40 -135 -54 -212 -106 -281 -193 -32
-40 -102 -121 -157 -182 -55 -60 -98 -112 -96 -113 2 -2 61 -10 132 -18 70 -8
197 -28 280 -44 257 -50 436 -41 777 41 207 50 258 51 403 9 58 -17 113 -35
121 -39 9 -5 -43 -10 -124 -13 -153 -6 -212 -21 -313 -80 -76 -46 -188 -160
-308 -313 -103 -133 -222 -256 -326 -340 -39 -32 -55 -51 -49 -57 16 -16 218
-11 349 7 216 31 374 94 543 213 123 87 192 168 262 307 35 69 66 125 69 125
4 0 82 -49 174 -110 92 -60 171 -110 177 -110 23 0 158 -104 158 -122 0 -4
-16 -8 -36 -8 -48 0 -227 -71 -304 -121 -82 -53 -144 -116 -268 -276 -137
-175 -231 -274 -308 -324 -35 -23 -64 -43 -64 -44 0 -1 58 -8 130 -15 213 -20
415 10 568 86 97 47 181 131 301 299 153 213 171 226 315 226 79 0 121 -12
260 -73 144 -63 426 -214 426 -229 0 -4 -35 4 -77 18 -97 30 -215 39 -321 24
-154 -23 -220 -55 -537 -261 -192 -125 -288 -180 -314 -180 -20 0 -41 -19 -41
-36 0 -17 18 -22 115 -34 47 -6 138 -25 203 -42 103 -28 133 -32 247 -33 117
0 139 3 218 29 111 36 235 110 397 236 69 53 151 114 183 135 67 44 72 43 167
-30 56 -43 270 -262 270 -276 0 -4 -28 5 -62 18 -51 21 -79 25 -153 25 -120
-1 -200 -19 -447 -103 -114 -39 -281 -92 -371 -118 -90 -25 -164 -50 -164 -56
0 -17 157 -135 228 -170 104 -53 203 -69 388 -62 174 6 227 17 341 73 63 31
94 56 192 156 102 104 120 118 137 109 26 -14 44 -74 38 -126 -3 -30 -19 -64
-50 -109 -26 -36 -51 -75 -57 -87 -17 -31 4 -49 56 -49 112 0 194 -40 194 -94
0 -74 51 -27 167 153 95 150 227 330 389 533 163 202 168 208 187 208 9 0 62
-22 117 -50 233 -117 495 -147 767 -89 156 34 287 97 499 240 93 63 173 138
216 202 11 15 38 32 70 43 101 33 406 198 475 258 l28 24 -35 5 c-19 3 -100
10 -180 16 -180 12 -221 24 -505 153 -295 134 -375 160 -490 162 -103 1 -143
-10 -304 -85 -57 -27 -105 -48 -107 -46 -1 1 22 39 52 83 111 168 340 318 452
298 54 -10 68 -19 154 -101 61 -58 99 -84 171 -118 175 -83 414 -129 732 -140
231 -8 327 -21 386 -51 54 -27 107 -32 115 -10 3 8 -5 34 -17 58 -73 143 -322
385 -462 449 -15 7 -27 15 -27 19 0 4 32 20 72 36 102 41 233 131 310 212 117
124 359 518 329 536 -4 3 -46 -13 -93 -34 -95 -42 -244 -87 -500 -149 -292
-71 -375 -112 -567 -281 -69 -60 -127 -108 -129 -105 -2 2 32 46 77 97 118
135 184 273 212 442 19 120 8 220 -44 386 -25 80 -53 171 -62 203 -9 33 -21
57 -29 57 -11 0 -116 -205 -116 -225 0 -13 -100 -204 -133 -256 -20 -30 -74
-106 -121 -169 -102 -136 -181 -291 -232 -450 -20 -63 -43 -134 -51 -157 -32
-95 -200 -273 -274 -293 -59 -16 -122 -87 -199 -222 -76 -132 -122 -188 -156
-188 -31 0 -44 27 -44 89 0 69 6 79 64 105 75 33 200 139 261 220 118 158 168
307 200 604 29 259 91 480 173 618 49 83 47 100 -13 88 -43 -8 -155 -66 -217
-112 -149 -110 -335 -346 -442 -561 -128 -255 -168 -439 -141 -642 46 -340 50
-426 24 -523 -14 -51 -24 -38 -44 58 -35 170 -123 358 -236 504 -38 48 -89
113 -114 145 -51 66 -56 96 -30 181 17 57 20 112 5 121 -17 10 -11 117 11 201
25 98 49 152 100 230 21 33 39 67 39 74 0 7 -21 33 -46 56 -53 50 -53 50 73
57 126 7 143 34 102 169 -33 107 -25 156 51 321 36 79 73 146 87 157 30 23 48
17 132 -39 64 -44 111 -61 111 -41 0 7 -52 65 -116 129 -68 68 -123 133 -134
156 -9 22 -64 92 -120 155 -124 139 -153 194 -158 302 -9 171 74 435 164 522
46 45 88 64 180 81 160 31 153 58 -17 67 -126 6 -214 23 -323 60 -103 35 -134
55 -151 95 -8 20 -42 74 -75 120 -61 86 -110 172 -110 196 0 38 -36 124 -75
182 -25 36 -45 67 -45 68 0 2 13 4 29 4 35 0 94 42 122 87 18 28 19 42 14 133
-6 95 -5 105 15 138 30 48 153 153 209 178 38 17 66 21 156 21 140 0 163 -10
271 -116 176 -171 283 -380 301 -585 6 -79 21 -104 44 -77 10 13 13 45 11 126
-3 123 13 209 54 291 38 75 80 125 126 148 83 42 437 119 549 119 58 0 95 -15
102 -42 6 -21 -7 -71 -44 -181 l-23 -67 28 -85 c53 -163 29 -302 -75 -442 -50
-67 -113 -110 -197 -134 -89 -25 -183 -73 -223 -115 -47 -48 -28 -63 37 -28
112 61 292 104 428 104 83 0 190 -26 314 -75 159 -64 235 -142 298 -304 53
-139 54 -135 -46 -219 -47 -39 -103 -81 -126 -93 l-41 -22 -34 24 c-27 19 -46
24 -94 24 -51 0 -70 -6 -130 -39 -66 -37 -76 -40 -170 -44 -116 -5 -236 14
-310 49 -65 31 -144 112 -196 201 -69 119 -109 178 -120 178 -21 0 0 -80 51
-189 61 -132 70 -167 70 -262 0 -131 -49 -238 -211 -464 -108 -151 -169 -261
-169 -306 0 -48 16 -41 50 24 45 84 96 159 207 305 115 150 137 197 157 334 9
59 19 114 22 122 8 21 26 20 114 -8 177 -57 340 -59 488 -5 123 44 140 45 202
14 88 -44 130 -37 186 33 54 65 77 83 148 113 42 17 65 34 74 52 16 33 31 33
102 4 71 -30 285 -165 332 -211 l37 -36 -2 -97 c-2 -96 -1 -100 44 -204 59
-138 163 -320 216 -379 33 -37 43 -58 52 -105 13 -74 83 -219 143 -300 65 -88
330 -293 401 -310 28 -7 24 -16 59 125 21 89 16 279 -11 380 -32 120 -99 253
-166 330 -79 92 -86 108 -83 193 4 92 -14 122 -126 219 -94 81 -228 150 -326
168 -88 16 -171 56 -298 141 -172 116 -169 101 -35 133 136 34 157 49 237 170
70 105 100 166 121 246 24 90 55 149 126 243 33 43 71 102 85 129 34 67 64
188 64 258 0 80 17 162 52 249 52 131 52 250 3 457 -38 154 -37 222 2 304 17
36 59 99 93 140 81 99 120 151 120 162 0 55 -208 -170 -266 -289 -42 -84 -41
-193 3 -358 52 -194 52 -227 7 -383 l-16 -54 -73 71 c-111 108 -221 144 -321
106 -86 -33 -112 -127 -54 -197 50 -60 139 -98 261 -110 137 -13 149 -18 149
-62 0 -45 -25 -153 -50 -217 -38 -95 -135 -229 -167 -229 -7 0 -28 24 -46 53
-114 178 -411 230 -478 84 -23 -51 -24 -77 -3 -125 53 -128 212 -195 384 -162
69 13 81 4 69 -53 -15 -67 -95 -220 -145 -276 -26 -29 -64 -61 -85 -72 -60
-30 -196 -59 -279 -59 -128 1 -178 36 -213 151 -35 115 -138 226 -275 297
-108 56 -211 82 -329 82 -51 0 -93 2 -93 5 0 2 18 34 40 70 59 96 106 195 114
238 4 21 -1 103 -10 184 -16 139 -16 152 1 299 15 119 16 156 7 167 -18 21
-124 41 -184 33 -71 -8 -352 -55 -407 -67 -54 -12 -155 -82 -211 -146 -22 -27
-57 -83 -77 -125 -20 -42 -40 -75 -44 -72 -4 2 -15 27 -24 54 -39 117 -215
328 -329 395 -72 42 -167 65 -268 65 l-87 0 70 118 c83 138 138 251 169 346
33 102 73 164 200 316 79 94 127 166 168 252 42 86 77 115 237 193 127 62 237
102 401 145 95 25 155 57 133 71 -49 31 -318 -41 -524 -141 -185 -89 -216
-118 -321 -299 -30 -53 -86 -124 -146 -188 -53 -57 -118 -133 -144 -168 -26
-36 -49 -64 -50 -62 -1 1 -14 47 -29 101 -36 134 -42 215 -21 296 16 61 33
107 140 365 71 174 73 218 16 407 l-24 77 34 72 c47 102 51 182 17 311 -47
175 -111 330 -191 462 -20 33 -36 67 -36 77 0 10 50 51 128 104 247 171 356
321 399 548 19 100 14 248 -9 292 -9 17 -42 59 -73 95 -37 42 -75 102 -107
170 -28 58 -59 117 -69 132 -11 14 -67 59 -126 99 -139 94 -195 148 -243 229
-62 107 -88 115 -128 42 -32 -57 -31 -130 2 -212 38 -93 50 -167 36 -219 -19
-72 -50 -65 -106 25 -26 41 -130 124 -156 124 -26 0 -106 70 -163 143 -77 98
-160 167 -249 207 -115 53 -209 34 -191 -37 3 -15 31 -77 61 -138 30 -60 59
-134 64 -164 6 -29 10 -128 10 -220 1 -193 5 -210 79 -309 77 -104 84 -127 88
-277 3 -144 4 -144 -52 11 -55 153 -96 215 -188 287 -95 74 -162 159 -183 236
-59 216 -96 294 -180 375 -42 41 -141 96 -172 96 -44 0 -102 -128 -110 -242
-5 -92 8 -137 77 -258 63 -109 86 -178 111 -336 35 -216 87 -346 196 -491 112
-147 244 -235 466 -312 139 -47 204 -80 239 -118 36 -38 73 -115 93 -192 36
-143 203 -460 295 -563 56 -63 108 -89 196 -99 83 -9 106 -29 131 -116 29 -99
17 -162 -70 -370 -43 -101 -83 -213 -91 -250 -17 -81 -19 -271 -4 -414 6 -57
11 -153 12 -214 2 -102 0 -114 -26 -166 -30 -62 -101 -148 -112 -137 -4 4 -13
50 -21 104 -18 116 -40 184 -88 263 -46 75 -103 127 -157 141 -54 15 -158 113
-229 217 -43 62 -130 227 -130 247 0 13 23 5 56 -20 19 -15 40 -24 49 -20 21
8 55 83 55 122 0 16 6 39 14 49 13 18 15 18 39 2 14 -9 38 -39 53 -67 15 -28
31 -49 35 -48 4 2 26 27 49 56 48 62 67 64 93 10 26 -52 87 -301 87 -352 0
-23 -11 -70 -25 -104 -29 -70 -31 -91 -11 -117 13 -18 15 -18 39 -2 49 32 60
154 32 342 -27 176 -68 297 -131 384 -33 46 -64 151 -124 421 -63 287 -81 342
-128 415 -67 103 -139 161 -339 275 -62 35 -159 98 -215 141 l-103 78 -6 -57
c-16 -135 -31 -515 -26 -616 14 -243 60 -326 370 -662 144 -155 158 -187 76
-166 -81 21 -89 -5 -25 -77 24 -27 60 -83 80 -125 66 -138 247 -335 348 -380
106 -48 166 -143 191 -303 8 -51 11 -93 8 -93 -3 0 -38 16 -77 35 -40 20 -105
42 -145 51 -88 18 -128 37 -217 106 -90 69 -134 88 -208 88 -153 0 -410 -123
-587 -283 -43 -38 -79 -68 -81 -66 -2 2 -16 71 -30 152 -15 81 -33 165 -40
185 -72 204 -373 594 -540 699 -66 43 -145 26 -206 -43 -42 -48 -64 -96 -90
-192 -35 -128 -40 -124 -91 78 -54 215 -139 407 -199 452 -14 10 -51 23 -84
28 -32 5 -67 12 -78 16 -22 7 -22 3 7 129 23 97 15 194 -20 245 -14 20 -29 60
-34 88 -9 60 -46 119 -97 159 -35 26 -43 28 -137 28 -112 0 -112 0 -147 92
-21 57 -24 81 -12 99 14 22 68 42 142 53 180 29 275 73 375 175 53 54 82 94
118 166 79 159 73 186 -30 132 -83 -42 -115 -51 -237 -61 -133 -12 -196 -39
-309 -136 -42 -36 -77 -64 -77 -61 0 3 12 33 27 68 67 156 157 270 226 289
124 33 180 86 258 243 77 158 93 273 52 396 -20 58 -95 175 -123 190 -30 16
-50 -3 -50 -50 0 -50 -45 -136 -129 -246 -129 -170 -165 -260 -142 -362 7 -31
15 -81 18 -109 5 -48 2 -58 -37 -124 -23 -39 -44 -69 -46 -66 -3 2 -11 46 -19
98 -32 201 -136 325 -333 396 -35 13 -67 21 -70 18 -3 -3 2 -87 12 -186 9
-100 15 -184 12 -186 -7 -8 -94 28 -122 49 -13 11 -24 26 -24 34 0 8 14 61 31
119 17 58 29 116 25 128 -3 12 -19 44 -36 70 -23 37 -43 54 -84 72 -41 18 -57
32 -71 62 -10 21 -36 55 -58 75 l-40 38 22 51 c11 28 53 107 91 176 l70 124
-20 297 c-22 309 -38 437 -55 437 -5 0 -23 -22 -40 -50 -36 -59 -116 -141
-205 -210 -81 -63 -173 -169 -272 -314 l-77 -113 -6 39 c-43 257 -134 461
-295 661 -103 129 -134 187 -164 311 -14 57 -26 106 -26 107 0 2 -4 4 -10 4
-32 0 -174 -683 -206 -989 -4 -34 -11 -61 -15 -61 -5 0 -9 5 -9 11 0 28 -90
198 -110 209 -14 7 -39 9 -67 5 -79 -12 -157 45 -183 134 -5 18 -12 64 -16
104 -8 90 -25 122 -108 217 -70 79 -116 158 -116 198 0 13 9 37 20 52 11 16
22 41 25 57 2 15 7 45 10 65 3 22 21 55 42 80 124 147 175 477 102 649 -31 70
-88 119 -140 119 -56 0 -74 -11 -154 -95 -46 -48 -80 -76 -100 -80 -102 -21
-135 -68 -136 -197 -1 -118 38 -254 121 -418 17 -33 28 -60 26 -60 -3 0 -39
25 -82 55 -42 31 -116 76 -164 101 -129 66 -290 224 -290 283 0 12 20 43 45
70 57 60 75 105 75 180 0 140 -94 256 -193 237 -63 -12 -97 -69 -97 -165 0
-77 22 -148 81 -257 27 -50 46 -94 43 -97 -9 -9 -73 26 -131 72 -106 83 -149
179 -164 365 -6 67 -15 139 -20 160 -12 44 -102 146 -129 146 -10 0 -37 -18
-60 -41z m89 -38 c47 -47 68 -126 56 -207 -6 -44 -7 -45 -21 -26 -11 16 -21
20 -48 15 -29 -5 -37 -1 -53 23 -26 40 -26 163 1 193 24 26 40 27 65 2z m490
-245 c21 -22 28 -208 9 -245 -22 -42 -37 -36 -44 18 -7 52 -24 78 -45 66 -7
-5 -9 -22 -5 -49 l6 -41 -20 23 c-27 32 -40 85 -40 164 0 53 4 69 18 78 24 15
101 6 121 -14z m800 -61 c45 -38 65 -110 65 -230 -1 -124 -21 -211 -78 -330
-55 -116 -82 -139 -153 -132 -67 7 -97 28 -138 98 -69 118 -104 312 -73 404
17 51 42 55 92 16 21 -17 43 -28 48 -25 5 3 26 43 47 88 59 129 124 166 190
111z m-1344 -180 c31 -12 65 -47 65 -65 0 -53 -140 -105 -215 -80 -60 20 -93
92 -61 135 22 31 144 36 211 10z m468 -316 c47 -13 84 -46 69 -61 -8 -8 -25
-5 -59 10 -26 11 -51 18 -55 16 -17 -11 -6 -34 22 -49 51 -26 32 -63 -37 -72
-53 -7 -108 18 -128 57 -15 29 -15 33 0 57 31 47 108 65 188 42z m248 -139
c86 -36 197 -99 256 -146 75 -61 204 -254 169 -254 -8 0 -58 47 -111 104 -108
117 -207 202 -275 236 -94 46 -153 90 -121 90 4 0 41 -14 82 -30z m-76 -194
c45 -19 121 -90 157 -145 21 -33 28 -57 28 -92 0 -98 -28 -119 -156 -119 -63
0 -76 3 -103 25 -58 49 -99 140 -80 176 5 11 16 19 23 19 18 0 26 22 26 75 0
70 34 90 105 61z m1475 -271 c14 -28 55 -75 111 -126 92 -84 129 -132 129
-165 0 -11 16 -53 36 -94 65 -136 122 -390 111 -494 -3 -29 -25 -94 -51 -152
-50 -110 -55 -141 -30 -184 32 -53 -11 -83 -54 -37 -39 41 -66 117 -66 187 0
76 21 118 65 127 62 12 65 58 4 58 l-39 0 -12 80 c-6 44 -28 122 -48 174 -22
54 -41 124 -46 165 -10 87 -18 108 -39 104 -24 -5 -25 -67 -2 -145 38 -129 53
-239 85 -660 l5 -63 -62 0 c-102 1 -202 58 -241 139 -17 37 -29 48 -66 62 -64
24 -75 45 -49 94 23 43 58 85 71 85 4 0 8 -16 8 -35 0 -61 90 -255 129 -280
27 -16 21 35 -17 129 -118 295 -133 479 -66 798 42 199 79 299 104 283 5 -3
18 -25 30 -50z m-1176 -1 c22 -21 20 -41 -4 -54 -49 -26 -82 23 -38 54 27 19
23 19 42 0z m332 -50 c64 -31 143 -152 144 -219 0 -42 -25 -73 -63 -79 -146
-21 -229 -26 -265 -17 -52 14 -91 46 -109 88 -12 31 -12 38 4 71 24 48 68 80
91 66 9 -6 18 -23 20 -37 4 -31 28 -55 43 -40 5 5 14 38 20 74 7 48 16 70 35
87 30 26 36 27 80 6z m4981 -266 c71 -35 149 -103 212 -186 64 -85 110 -126
179 -161 95 -48 183 -176 202 -295 13 -83 25 -115 92 -250 39 -79 58 -131 58
-155 0 -21 -14 -77 -31 -127 -23 -67 -32 -112 -35 -184 -5 -99 3 -132 38 -154
30 -18 39 3 28 63 -12 66 -1 152 41 301 20 72 29 123 25 142 -3 17 -30 71 -60
122 -83 139 -99 180 -93 240 3 29 25 94 51 152 25 56 46 116 46 133 0 17 -20
72 -46 122 -48 96 -54 137 -19 131 25 -5 54 -26 245 -186 153 -128 209 -186
210 -217 0 -32 61 -136 120 -204 107 -125 121 -184 80 -340 -60 -226 -188
-387 -437 -551 -63 -41 -117 -82 -120 -90 -3 -9 4 -33 16 -55 l23 -39 -29 -24
c-15 -14 -41 -36 -58 -49 l-30 -25 21 -29 c12 -15 32 -34 46 -42 23 -13 28
-12 60 12 39 30 60 34 77 14 15 -19 61 -144 61 -167 0 -11 -19 -41 -42 -66
-32 -35 -39 -47 -29 -57 10 -9 23 -6 62 15 46 27 49 27 49 8 0 -20 -11 -32
-64 -77 -50 -42 -21 -63 42 -30 23 11 45 17 49 13 5 -4 8 -47 7 -96 0 -75 -5
-96 -28 -145 -32 -65 -73 -95 -129 -95 -50 0 -82 18 -138 77 -98 102 -210 309
-269 498 -49 158 -77 218 -123 265 -55 55 -89 72 -238 115 -155 45 -231 81
-322 155 -128 104 -197 189 -197 244 0 21 16 56 45 100 25 38 45 73 45 77 0
20 -30 6 -85 -41 -94 -79 -98 -69 -20 49 53 80 66 111 46 111 -5 0 -31 -25
-56 -55 -26 -30 -52 -55 -57 -55 -19 0 -39 75 -49 183 -13 151 -27 193 -104
322 -77 130 -100 197 -91 267 9 62 33 127 58 153 18 20 19 20 73 -9 60 -31
114 -85 143 -143 11 -21 38 -100 61 -176 61 -204 91 -252 203 -328 106 -73
180 -188 180 -282 -1 -57 20 -107 89 -209 84 -126 298 -313 325 -285 12 12
-38 74 -122 151 -48 45 -93 95 -101 114 -9 23 -17 98 -22 217 -10 208 -18 235
-99 339 -27 34 -54 71 -59 81 -20 38 -23 101 -14 243 12 177 6 212 -60 346
-58 117 -59 142 -7 131 18 -4 52 -16 75 -27z m-4909 -109 c39 -13 50 -44 26
-70 -22 -24 -39 -24 -80 2 -43 26 -62 58 -43 70 19 12 60 11 97 -2z m-80 -139
c29 -21 42 -37 42 -54 0 -54 -56 -33 -90 34 -11 22 -20 42 -20 45 0 13 31 2
68 -25z m-124 -32 c18 -21 41 -64 51 -96 51 -172 56 -182 79 -163 8 7 31 55
51 106 39 99 89 169 130 179 14 4 41 0 61 -9 49 -20 77 -19 121 5 21 11 43 20
50 20 25 0 50 -38 57 -83 6 -38 15 -53 49 -81 40 -33 42 -38 41 -88 -1 -65
-18 -100 -89 -176 -83 -90 -76 -102 56 -102 44 0 89 -5 100 -10 11 -6 24 -30
30 -56 7 -26 25 -60 42 -77 26 -27 29 -35 25 -82 -5 -58 -30 -100 -85 -143
-31 -23 -48 -28 -115 -31 -43 -2 -78 -6 -78 -10 0 -4 10 -15 21 -25 18 -15 20
-25 15 -62 -8 -65 -62 -186 -95 -218 -26 -25 -36 -28 -95 -27 -105 1 -145 31
-186 141 -12 33 -26 60 -30 60 -4 0 -20 -30 -35 -67 -14 -37 -36 -80 -47 -96
-32 -45 -99 -70 -190 -71 -68 -1 -79 2 -103 24 -23 22 -26 30 -20 71 6 45 5
49 -40 99 -51 57 -50 52 -8 154 13 32 22 64 20 71 -4 8 -43 14 -118 19 -62 4
-127 13 -145 21 -41 17 -66 54 -68 104 -1 22 -7 45 -13 53 -25 31 -19 99 13
137 21 25 34 31 64 31 31 0 48 8 87 41 52 46 99 69 137 69 14 0 28 4 31 10 3
5 -9 42 -26 82 -20 44 -34 96 -37 130 -4 50 -2 59 21 82 15 15 43 28 67 32 28
5 57 20 86 45 52 45 71 43 118 -13z m3076 -658 c-29 -150 -85 -298 -152 -403
-41 -63 -66 -77 -89 -48 -46 57 -25 179 51 293 38 57 202 260 206 255 2 -1 -5
-45 -16 -97z m81 -42 c27 -100 -51 -316 -149 -412 -53 -52 -80 -71 -89 -62 -5
5 7 26 92 160 56 88 105 222 112 309 7 75 15 76 34 5z m-728 -295 c111 -58
141 -93 161 -184 21 -97 35 -183 30 -188 -2 -2 -14 9 -26 25 -13 16 -35 42
-50 59 l-27 30 6 -42 c7 -53 -6 -56 -65 -13 -48 35 -83 97 -112 201 -25 91
-27 149 -4 149 9 0 48 -17 87 -37z m-1741 -127 c13 -31 4 -56 -21 -56 -21 0
-31 18 -31 56 0 33 36 33 52 0z m2548 -356 c-23 -44 -190 -206 -234 -228 -90
-45 -277 -66 -284 -32 -1 9 20 45 48 80 56 73 63 95 25 88 -33 -7 -22 8 34 43
74 47 162 65 329 68 90 1 92 0 82 -19z m1620 -220 c178 -91 344 -204 435 -296
81 -83 121 -161 151 -296 13 -62 38 -167 54 -233 37 -148 48 -227 42 -282 -2
-27 3 -62 14 -93 21 -57 12 -80 -24 -61 -31 16 -99 126 -107 170 -9 54 -27 68
-60 47 -29 -19 -31 -33 -9 -64 9 -13 16 -38 17 -56 1 -37 -42 -158 -54 -154
-18 6 -293 284 -343 347 -161 202 -220 404 -196 677 12 138 33 314 37 314 2 0
22 -9 43 -20z m-1007 -1422 c49 -39 235 -251 323 -368 90 -119 163 -266 175
-355 6 -38 21 -118 35 -176 29 -129 30 -143 3 -181 -12 -16 -24 -51 -27 -76
l-5 -47 23 20 c12 11 45 54 73 95 159 236 425 403 642 404 98 0 132 -14 218
-87 59 -50 73 -57 156 -76 163 -37 291 -111 307 -178 12 -45 -13 -96 -87 -178
-39 -44 -77 -93 -84 -110 -7 -16 -16 -75 -20 -130 -8 -106 -22 -147 -58 -167
-13 -7 -79 -15 -163 -18 l-140 -5 -100 -49 c-85 -42 -110 -49 -175 -54 -61 -3
-84 -1 -120 15 -62 28 -92 34 -109 22 -13 -8 -10 -14 16 -37 46 -40 57 -67 49
-118 -7 -52 0 -84 21 -84 17 0 30 29 39 82 12 77 49 54 39 -24 -5 -39 -4 -49
10 -54 25 -10 38 8 44 61 7 64 26 68 74 16 22 -23 43 -39 49 -36 5 4 9 22 9
41 0 27 10 45 42 80 69 75 151 105 213 79 74 -30 194 -173 195 -230 0 -30 45
-121 94 -189 59 -83 87 -141 100 -205 10 -45 17 -58 41 -71 26 -14 30 -23 33
-66 3 -53 -20 -120 -60 -176 -30 -43 -110 -78 -179 -78 -73 0 -139 24 -337
120 -241 118 -217 115 -364 41 -68 -33 -135 -61 -150 -61 -46 0 -131 44 -174
91 -84 92 -127 227 -145 452 -6 78 -15 152 -21 166 -18 48 -28 0 -28 -134 0
-130 14 -248 44 -360 44 -165 -2 -322 -129 -444 -72 -69 -101 -80 -153 -57
-20 8 -73 23 -117 32 -126 25 -194 74 -238 173 -17 38 -19 59 -14 135 3 50 15
119 26 154 10 34 15 62 11 62 -14 0 -69 -76 -91 -125 -14 -31 -21 -71 -22
-116 -1 -38 -5 -69 -9 -69 -4 0 -39 37 -77 81 -83 96 -111 160 -111 253 0 130
51 225 198 372 51 50 92 97 92 103 0 15 -19 11 -180 -34 -175 -50 -226 -59
-340 -59 -153 -1 -226 26 -365 138 -38 31 -90 64 -115 73 -94 35 -122 87 -118
221 l3 89 -37 48 c-53 68 -51 93 14 161 29 31 85 78 126 105 71 47 76 49 143
49 81 0 95 6 166 71 67 60 111 76 166 59 51 -15 130 -65 222 -140 138 -112
237 -170 290 -170 41 0 31 28 -56 150 -140 197 -178 308 -165 482 11 156 57
303 96 303 9 0 23 -31 40 -85 36 -114 80 -199 155 -295 82 -105 199 -283 241
-367 43 -86 44 -126 3 -173 -42 -47 -34 -67 24 -59 32 5 56 1 95 -16 94 -41
105 -1 17 60 -28 19 -47 41 -51 58 -23 106 -38 152 -66 201 -50 88 -121 191
-206 298 -43 54 -87 114 -99 133 -55 91 -67 222 -33 353 28 105 78 217 97 217
3 0 23 -14 46 -32z m-148 -20 c-4 -13 -21 -56 -38 -97 -31 -72 -57 -102 -57
-64 1 22 42 124 64 158 21 31 40 33 31 3z m5177 -1318 c54 -15 130 -71 150
-110 28 -55 10 -65 -115 -64 -81 0 -111 4 -149 21 -69 31 -99 103 -61 145 19
21 112 25 175 8z m-257 -605 c58 -25 99 -64 126 -117 47 -92 10 -132 -121
-132 -59 0 -87 6 -130 26 -152 70 -172 216 -35 246 52 12 98 5 160 -23z
m-2642 -496 c31 -12 58 -27 61 -34 2 -7 -11 -34 -30 -60 -39 -56 -84 -167
-122 -303 -23 -85 -26 -113 -24 -230 2 -159 12 -188 95 -279 32 -33 57 -66 57
-72 0 -32 -246 -91 -410 -98 -137 -7 -190 3 -317 57 -108 46 -123 48 -123 18
0 -13 -11 -59 -25 -103 -29 -93 -30 -129 -10 -205 16 -61 19 -186 6 -330 -13
-137 -2 -181 83 -359 78 -162 101 -229 91 -260 -13 -42 -153 -107 -205 -96
-45 10 -433 414 -469 488 -39 81 -27 230 30 356 45 100 36 119 -24 52 -44 -49
-73 -126 -87 -234 -19 -141 -5 -170 198 -397 223 -250 307 -320 386 -320 28 0
106 19 184 46 21 7 68 -50 82 -101 12 -43 11 -47 -15 -85 -22 -31 -29 -55 -33
-110 -2 -38 -6 -70 -8 -70 -2 0 -40 27 -84 59 -84 62 -179 106 -211 96 -34
-11 -24 -52 17 -71 48 -23 93 -85 159 -219 99 -202 155 -401 155 -550 l-1 -80
-47 91 c-59 113 -97 164 -123 164 -23 0 -39 -35 -39 -84 0 -47 -29 -79 -116
-126 -168 -94 -364 -266 -436 -385 -20 -33 -49 -102 -64 -152 -16 -51 -32 -93
-37 -93 -19 0 -137 102 -137 119 0 4 33 30 74 59 111 78 164 144 216 275 42
106 63 209 64 322 1 113 -8 137 -124 345 -88 156 -91 167 -101 391 -8 197 -17
249 -42 249 -7 0 -36 -27 -65 -60 -30 -34 -114 -104 -195 -162 -268 -193 -403
-364 -469 -595 -27 -95 -31 -287 -9 -430 8 -51 12 -95 9 -99 -8 -8 -251 104
-337 155 -38 22 -82 56 -100 76 -48 55 -46 87 14 211 24 50 51 117 60 149 26
100 15 202 -15 145 -6 -11 -21 -62 -34 -114 -25 -95 -46 -147 -74 -178 -30
-35 -39 -21 -74 117 -16 66 -19 102 -15 205 6 152 24 224 114 448 76 192 119
351 130 488 l8 99 71 -105 c39 -58 84 -130 101 -160 79 -139 115 -343 94 -538
-25 -240 -71 -335 -288 -591 -116 -136 -23 -92 117 56 43 45 94 108 113 140
82 134 113 311 104 578 -6 175 -17 242 -53 319 l-24 51 68 5 c73 6 91 13 167
70 90 67 109 73 196 66 67 -6 83 -4 118 14 132 67 339 346 329 444 l-3 31 -26
-40 c-15 -22 -48 -78 -75 -125 -55 -96 -200 -250 -250 -267 -23 -8 -40 -7 -70
4 -91 34 -105 30 -219 -62 -157 -128 -189 -110 -178 103 6 135 2 153 -69 247
-25 33 -50 74 -56 92 -27 81 57 202 182 263 35 17 140 49 246 74 102 25 205
52 230 61 74 26 101 65 45 65 -13 0 -79 -13 -147 -30 -183 -45 -224 -40 -403
46 -87 41 -108 48 -160 47 -49 -1 -71 4 -117 29 -69 37 -80 49 -121 129 -22
45 -45 73 -77 96 -99 71 -103 75 -108 136 -2 31 -1 68 2 83 l7 27 40 -42 c84
-87 180 -116 389 -116 171 0 211 8 352 71 42 19 107 41 145 50 89 20 126 39
189 97 67 61 118 139 152 228 14 39 32 74 41 77 16 6 91 -71 91 -94 0 -8 -16
-31 -35 -53 -19 -21 -35 -41 -35 -45 0 -3 19 -6 42 -6 36 0 47 6 84 44 34 36
57 49 121 70 44 13 121 29 172 35 121 13 122 14 56 50 l-40 22 56 -5 c66 -5
104 -23 160 -73 47 -43 50 -74 16 -174 -28 -83 -72 -154 -174 -286 -46 -58
-83 -111 -83 -119 0 -50 97 36 189 167 63 89 98 155 118 223 16 56 47 96 74
96 10 0 57 -9 106 -21 204 -49 364 2 424 136 10 22 19 58 19 80 0 22 5 57 11
78 9 33 13 37 44 37 18 0 58 -10 88 -21z m-2118 -470 c66 -6 124 -15 128 -19
13 -11 -98 -76 -172 -102 -56 -19 -86 -23 -191 -22 -132 1 -220 16 -311 55
-100 43 -79 82 52 99 89 11 330 6 494 -11z m5020 -178 c183 -71 361 -241 302
-289 -7 -6 -46 -14 -87 -19 l-75 -8 -1 -45 c-1 -25 -2 -48 -2 -52 -1 -4 -25 1
-52 12 -62 24 -88 25 -112 3 -26 -23 -43 -11 -94 65 -81 122 -125 324 -79 359
28 20 107 10 200 -26z m-2754 -460 c28 -74 27 -124 -6 -202 -31 -73 -96 -189
-106 -189 -4 0 -10 21 -14 48 -4 26 -21 74 -38 107 -38 71 -130 173 -163 181
-54 14 -28 30 151 95 148 54 139 56 176 -40z m3048 34 c25 -74 -23 -393 -82
-536 l-13 -33 -33 79 c-19 44 -44 116 -57 160 -23 80 -64 274 -64 302 0 9 27
-10 65 -46 81 -76 118 -97 135 -76 9 11 7 30 -9 88 -29 102 -28 109 12 105 27
-3 34 -9 46 -43z m-3813 -35 c56 -18 133 -33 194 -39 127 -12 203 -45 277
-120 91 -93 120 -176 142 -396 6 -55 18 -121 27 -148 9 -26 14 -53 11 -61 -3
-7 -29 -16 -59 -20 -65 -9 -118 -32 -195 -84 -109 -73 -162 -90 -210 -64 -12
7 -65 17 -120 23 -148 16 -189 50 -214 176 -17 86 -17 377 1 496 10 74 18 97
51 146 61 92 52 104 -32 41 -30 -22 -57 -40 -61 -40 -14 0 -8 75 8 98 21 31
66 29 180 -8z m3982 -113 c61 -65 123 -279 124 -432 1 -109 -12 -170 -41 -207
l-20 -23 -35 34 c-62 60 -70 88 -63 225 3 67 2 129 -2 140 -7 17 -8 17 -24 2
-23 -24 -47 -110 -47 -172 0 -62 -11 -74 -35 -37 -26 39 -31 144 -11 222 26
103 103 271 124 271 5 0 18 -10 30 -23z m-1651 -692 c28 -145 6 -327 -54 -453
-32 -66 -206 -247 -317 -329 -86 -64 -214 -138 -223 -129 -4 3 34 65 83 136
49 72 131 191 182 265 50 74 92 144 92 156 0 19 -2 20 -16 8 -9 -7 -90 -110
-179 -229 -90 -118 -173 -226 -184 -240 -80 -101 14 210 116 382 26 43 79 116
118 162 100 119 161 227 275 481 l22 50 35 -90 c19 -49 42 -126 50 -170z
m-4792 161 c22 -33 119 -312 149 -428 50 -194 57 -353 20 -479 -36 -123 -166
-324 -209 -324 -17 0 -20 8 -23 55 -2 30 5 98 14 150 38 202 0 560 -60 560
-32 0 -30 -25 15 -230 16 -76 7 -322 -14 -372 -9 -21 -22 -38 -30 -38 -37 0
-122 230 -154 415 -15 91 -16 115 -5 192 24 167 109 369 198 471 50 57 75 64
99 28z m4015 -87 c0 -6 -22 -78 -50 -160 -53 -160 -81 -289 -105 -494 -32
-266 -111 -470 -229 -588 -96 -97 -236 -169 -236 -121 0 8 33 86 74 172 82
175 118 279 136 395 13 87 9 109 -10 50 -25 -77 -93 -242 -168 -408 l-76 -170
-9 45 c-4 25 -6 113 -4 195 5 170 24 252 97 414 92 203 192 352 343 508 117
121 237 203 237 162z m-5043 -71 c102 -31 176 -75 269 -161 88 -82 129 -142
143 -209 6 -28 27 -86 46 -130 58 -131 47 -138 -59 -39 -41 37 -103 87 -138
110 -95 63 -288 154 -423 200 -126 42 -300 85 -319 77 -16 -6 99 -57 234 -104
157 -55 204 -74 312 -128 88 -44 288 -170 288 -182 0 -11 -368 8 -423 23 -114
30 -395 179 -544 289 -69 51 -143 121 -143 136 0 15 129 86 198 109 99 34 157
40 322 37 129 -3 169 -8 237 -28z m3939 -180 c-3 -29 -24 -114 -47 -188 -85
-279 -94 -332 -60 -362 20 -17 20 -24 -9 -128 -7 -27 -9 -67 -5 -105 5 -50 2
-72 -15 -116 -32 -84 -47 -168 -65 -369 -18 -202 -37 -325 -61 -392 -9 -24
-17 -74 -18 -113 -2 -41 -15 -108 -30 -159 -25 -80 -27 -100 -21 -175 5 -76 2
-100 -25 -206 -30 -118 -38 -199 -22 -209 10 -6 41 26 101 107 78 103 248 253
267 234 9 -8 -20 -47 -176 -238 -74 -91 -165 -203 -201 -250 -41 -52 -80 -92
-105 -104 -36 -19 -40 -25 -49 -79 -14 -82 -29 -87 -140 -51 -47 15 -85 31
-85 35 0 4 34 78 76 166 105 218 123 275 134 417 8 94 15 129 36 174 26 55 27
58 20 194 -7 147 -5 156 42 150 17 -2 22 3 24 21 4 76 -19 161 -104 371 -56
140 -71 199 -37 146 9 -13 37 -72 63 -131 52 -116 73 -143 104 -133 81 25 46
307 -89 702 -27 79 -49 146 -49 149 0 3 33 -35 74 -85 l74 -90 4 104 c2 57 7
107 12 112 4 4 15 -2 23 -14 9 -13 23 -23 32 -23 52 0 53 69 5 205 -52 145
-72 208 -100 315 -35 138 -40 129 64 114 142 -22 187 -18 272 21 41 19 79 35
84 35 5 0 6 -24 2 -52z m2834 -148 c0 -16 -36 -84 -92 -175 -182 -294 -444
-461 -688 -440 -95 8 -235 43 -262 65 -42 33 -9 51 269 148 231 81 293 106
293 121 0 18 -21 13 -244 -59 -119 -38 -239 -72 -268 -76 l-53 -7 30 32 c39
42 133 109 217 155 89 49 204 87 458 151 118 29 238 62 265 73 59 23 75 26 75
12z m-4200 -327 c-1 -163 -48 -419 -94 -511 -38 -76 -103 -145 -216 -233 -58
-44 -132 -104 -165 -133 -151 -130 -162 -128 -100 23 64 156 176 339 306 499
84 104 96 147 22 84 -101 -87 -254 -299 -356 -496 l-78 -151 6 80 c32 434 148
617 553 871 120 75 122 74 122 -33z m-2280 -34 c57 -7 99 -18 127 -35 48 -28
66 -30 83 -9 7 8 18 15 26 15 26 0 164 -154 220 -246 11 -18 13 -18 38 5 32
30 45 21 53 -38 7 -52 4 -52 -123 0 -124 50 -295 103 -403 123 -140 27 -316
15 -328 -21 -6 -16 33 -23 127 -23 98 0 250 -21 365 -51 82 -21 206 -76 212
-94 2 -6 -26 -11 -70 -11 -39 -1 -128 -14 -197 -28 -274 -59 -283 -60 -535
-61 -213 0 -252 3 -350 23 -154 32 -185 41 -185 54 0 22 115 184 170 239 86
87 209 141 358 159 101 11 317 11 412 -1z m5302 -188 c24 -10 54 -24 68 -29
22 -9 18 -11 -30 -11 -60 -1 -169 -29 -327 -85 -123 -44 -193 -56 -193 -34 0
23 22 37 86 54 33 8 93 34 134 56 41 23 104 57 140 75 62 33 64 33 72 13 4
-11 27 -29 50 -39z m-4352 -16 c-18 -77 -11 -182 25 -359 19 -96 35 -184 35
-196 0 -20 -1 -20 -22 -5 -51 35 -268 230 -268 240 0 31 223 375 235 363 2 -2
0 -21 -5 -43z m4739 -124 c195 -41 338 -124 460 -265 52 -60 104 -136 98 -142
-6 -6 -464 22 -597 37 -288 31 -496 95 -598 184 -50 44 -53 72 -7 95 23 11 67
14 185 13 176 -1 279 -13 429 -49 74 -19 106 -23 114 -15 22 22 -20 42 -136
66 -176 36 -371 58 -469 53 -89 -4 -106 2 -67 23 42 22 117 28 304 24 140 -3
215 -9 284 -24z m-3314 -33 c79 -93 144 -269 145 -394 0 -67 -33 -194 -70
-270 -42 -87 -211 -264 -252 -264 -18 0 -4 53 87 331 52 159 95 293 95 299 0
26 -21 5 -53 -52 -74 -134 -144 -345 -176 -528 -10 -58 -21 -98 -24 -90 -4 8
-15 50 -26 93 -44 169 -36 318 21 437 17 35 57 136 89 223 78 210 99 257 114
257 8 0 30 -19 50 -42z m1308 -50 c102 -122 170 -254 214 -414 23 -84 27 -118
27 -229 -1 -134 -6 -160 -56 -273 l-21 -47 -17 80 c-30 145 -101 350 -136 398
-16 21 -16 20 -11 -28 3 -27 28 -135 56 -239 48 -178 61 -256 44 -256 -5 0
-16 19 -26 43 -10 23 -52 83 -93 132 -100 118 -108 136 -108 215 0 57 7 80 58
194 55 121 79 206 60 206 -4 0 -34 -28 -66 -62 -67 -73 -78 -70 -78 27 0 151
48 305 95 305 7 0 33 -24 58 -52z m-3158 -168 c10 -16 -13 -39 -69 -67 -58
-29 -87 -50 -206 -147 -98 -80 -197 -173 -211 -199 -10 -17 -9 -17 21 -2 17 9
77 53 133 99 173 139 239 186 315 222 61 30 72 39 72 60 0 22 4 25 28 22 25
-3 27 -6 26 -48 0 -31 -12 -70 -38 -124 -68 -141 -266 -316 -458 -406 -104
-49 -438 -112 -438 -83 0 12 55 90 184 263 181 242 315 356 471 401 68 20 161
24 170 9z m1585 -116 c0 -3 -16 -42 -35 -86 -68 -154 -80 -261 -45 -406 24
-98 23 -92 8 -92 -16 -1 -368 172 -368 180 0 3 23 43 51 88 34 56 63 91 90
108 22 14 86 62 142 108 119 96 157 121 157 100z m2702 -38 c90 -18 146 -38
368 -136 226 -100 362 -146 485 -165 54 -8 99 -16 101 -18 7 -7 -163 -111
-231 -142 -112 -52 -162 -60 -350 -59 -369 1 -597 83 -830 299 l-50 46 105 -5
c58 -3 186 -20 285 -37 255 -44 355 -57 360 -48 10 16 -107 48 -331 92 -243
48 -287 61 -282 86 6 32 182 98 270 100 14 1 59 -5 100 -13z m-1274 -115 c-4
-31 -35 -36 -52 -8 -9 14 -7 21 7 32 27 19 49 8 45 -24z m-491 -65 c30 -34 88
-160 99 -215 6 -30 6 -30 -31 -24 -42 7 -54 -5 -55 -52 -1 -103 -136 -226
-310 -285 -47 -16 -99 -23 -190 -27 -147 -7 -148 -16 9 120 93 80 182 143 358
252 40 24 44 30 27 33 -47 7 -188 -73 -376 -214 -105 -78 -135 -91 -122 -51 4
12 13 43 19 69 17 61 38 90 136 182 96 90 186 156 283 208 89 47 115 48 153 4z
m1196 -30 c18 -7 74 -48 126 -90 205 -168 331 -217 704 -276 181 -29 255 -48
197 -51 -117 -6 -358 24 -520 66 -232 59 -574 73 -705 27 -33 -11 -62 -19 -64
-17 -4 5 59 155 100 236 28 57 88 119 115 119 8 0 29 -6 47 -14z m-2957 -147
c104 -18 105 -18 -22 -70 -177 -73 -272 -124 -367 -195 -99 -74 -194 -184
-159 -184 14 0 74 41 139 96 157 133 423 275 423 226 0 -15 -108 -182 -160
-247 -90 -114 -188 -179 -345 -230 -168 -55 -346 -72 -353 -34 -2 9 29 51 67
93 39 42 115 137 171 211 127 169 224 251 360 305 98 39 155 46 246 29z m2224
-15 c0 -27 39 -92 91 -151 71 -81 99 -139 99 -207 0 -48 -4 -60 -32 -92 -61
-69 -291 -244 -304 -231 -3 3 -1 22 5 44 7 21 23 133 36 250 27 237 49 357 71
391 16 24 34 22 34 -4z m1075 -218 c44 -8 116 -23 160 -35 120 -30 260 -51
355 -52 47 0 93 -4 103 -8 17 -6 16 -8 -5 -27 -64 -57 -343 -207 -450 -243
-212 -69 -562 -80 -697 -20 -51 22 -251 150 -251 161 0 9 52 25 120 38 30 6
186 17 346 25 159 8 301 18 314 23 24 9 24 9 -6 16 -16 4 -178 5 -360 1 -214
-5 -337 -4 -349 2 -16 9 -14 13 17 36 66 51 155 82 293 101 59 9 331 -3 410
-18z m-1505 -207 c-7 -15 -18 -30 -25 -33 -15 -5 -21 -39 -35 -190 -10 -113
-29 -201 -59 -282 l-18 -47 -52 77 c-77 114 -189 243 -286 329 -48 43 -80 79
-73 81 7 2 48 9 90 15 105 15 210 57 348 140 l115 69 3 -66 c2 -36 -2 -78 -8
-93z m-942 12 c23 -12 40 -25 38 -30 -3 -5 -25 -11 -48 -14 -62 -9 -249 -85
-433 -176 -160 -79 -204 -105 -195 -114 9 -9 118 32 279 105 201 91 315 134
399 151 37 8 68 13 70 12 5 -4 -92 -94 -176 -164 -193 -162 -312 -204 -577
-205 -151 0 -219 11 -314 50 -30 12 -32 16 -20 31 40 48 457 300 554 333 156
55 340 64 423 21z m492 -426 c17 -9 30 -19 30 -23 0 -4 -46 -24 -103 -46 -110
-42 -431 -193 -469 -221 l-23 -17 32 6 c18 3 131 42 250 87 273 102 342 122
360 108 31 -26 -68 -138 -183 -205 -167 -98 -474 -122 -662 -52 -31 12 -73 39
-100 64 -57 55 -54 60 83 104 55 18 167 59 249 92 128 51 263 93 356 111 59
11 152 6 180 -8z"/>
<path d="M1395 12000 c-21 -40 -16 -94 8 -98 24 -5 51 60 39 96 -12 37 -28 38
-47 2z"/>
<path d="M1393 11855 c-28 -20 -29 -42 -3 -50 29 -9 62 12 58 38 -4 27 -26 32
-55 12z"/>
<path d="M218 12159 c-28 -16 -21 -29 15 -29 31 0 57 14 57 32 0 11 -52 9 -72
-3z"/>
<path d="M910 11339 c0 -42 20 -79 43 -79 15 0 5 48 -18 85 l-24 40 -1 -46z"/>
<path d="M980 11355 c0 -14 7 -42 15 -63 13 -29 18 -34 25 -22 11 17 13 70 4
94 -3 9 -15 16 -25 16 -14 0 -19 -7 -19 -25z"/>
<path d="M2604 10686 c-10 -26 1 -71 18 -74 20 -4 32 29 24 64 -7 26 -33 33
-42 10z"/>
<path d="M2627 10563 c-12 -12 -7 -43 6 -43 14 0 47 31 47 43 0 9 -45 9 -53 0z"/>
<path d="M6741 10521 c-25 -25 -26 -52 -5 -185 14 -91 35 -156 50 -156 3 0 19
15 36 33 l30 32 -6 -29 c-17 -70 -18 -86 -8 -86 18 0 42 43 42 76 0 44 -30 68
-75 61 -40 -7 -42 -2 -15 33 24 30 25 54 4 111 -8 24 -14 62 -12 83 4 46 -12
56 -41 27z"/>
<path d="M7421 10457 c-13 -35 3 -111 22 -104 18 6 20 88 3 112 -14 20 -15 19
-25 -8z"/>
<path d="M7456 10280 c-36 -32 -47 -60 -23 -60 27 1 92 46 92 65 0 31 -30 29
-69 -5z"/>
<path d="M7473 10200 c-51 -31 -68 -74 -33 -83 17 -4 19 -11 14 -31 -7 -31 9
-34 46 -9 25 17 59 53 60 63 0 3 -10 10 -22 15 -13 6 -22 16 -20 23 1 7 3 17
5 23 4 20 -17 20 -50 -1z"/>
<path d="M6884 10096 c-48 -47 -55 -66 -25 -66 21 0 91 73 91 95 0 26 -21 17
-66 -29z"/>
<path d="M6088 10108 c-36 -29 -74 -118 -50 -118 5 0 20 12 34 28 56 59 68
130 16 90z"/>
<path d="M7493 10028 c-30 -33 -54 -84 -74 -158 -9 -36 -27 -96 -39 -135 -34
-112 -36 -125 -12 -125 37 0 119 148 129 233 3 29 16 73 29 98 32 64 35 103 9
107 -12 2 -30 -7 -42 -20z"/>
<path d="M6890 9974 c-36 -42 -34 -51 11 -35 18 6 34 9 36 8 2 -2 -6 -24 -17
-48 -20 -46 -28 -149 -10 -149 15 0 50 42 57 68 8 35 -4 161 -18 178 -17 20
-23 18 -59 -22z"/>
<path d="M6212 9780 c-40 -24 -61 -65 -43 -83 17 -17 41 1 69 51 27 48 18 58
-26 32z"/>
<path d="M6260 9705 c-6 -8 -13 -29 -13 -47 -3 -48 29 -51 48 -4 22 53 -3 90
-35 51z"/>
<path d="M6997 9693 c-12 -12 -7 -43 6 -43 18 0 49 34 40 43 -8 9 -38 9 -46 0z"/>
<path d="M6326 9638 c-18 -25 -22 -118 -5 -118 14 0 51 86 47 112 -4 30 -23
33 -42 6z"/>
<path d="M6380 9555 c-24 -29 24 -125 63 -125 34 0 27 81 -10 122 -20 22 -37
23 -53 3z"/>
<path d="M7356 8986 c-41 -38 -46 -56 -15 -56 24 0 79 51 79 74 0 26 -26 18
-64 -18z"/>
<path d="M7395 8906 c-56 -24 -73 -76 -26 -76 21 0 91 62 91 80 0 14 -29 12
-65 -4z"/>
<path d="M7440 8613 c1 -37 38 -103 59 -103 26 0 37 50 19 87 -16 35 -78 47
-78 16z"/>
<path d="M1290 10518 c0 -7 5 -30 11 -50 7 -27 15 -38 29 -38 25 0 27 45 4 78
-16 24 -44 30 -44 10z"/>
<path d="M1394 10515 c-4 -8 -3 -26 0 -40 9 -35 56 -36 56 -2 0 22 -27 57 -44
57 -3 0 -9 -7 -12 -15z"/>
<path d="M1620 10495 c0 -19 5 -35 10 -35 6 0 10 16 10 35 0 19 -4 35 -10 35
-5 0 -10 -16 -10 -35z"/>
<path d="M1230 10417 c0 -25 28 -57 48 -57 18 0 14 24 -9 54 -25 32 -39 33
-39 3z"/>
<path d="M1668 10374 c-4 -3 5 -38 19 -77 32 -92 31 -218 -3 -264 -34 -47 -89
-68 -175 -68 -88 1 -123 17 -145 70 -18 45 -18 151 1 205 19 53 19 70 1 70
-19 0 -60 -55 -75 -99 -28 -84 0 -214 58 -265 26 -24 27 -51 1 -118 -28 -73
-26 -98 4 -98 34 0 85 46 106 94 l17 41 7 -58 c8 -60 26 -81 49 -58 7 7 14 44
17 84 l6 72 28 -62 c16 -35 32 -63 37 -63 5 0 16 16 24 36 l15 37 50 -7 50 -7
0 30 c0 36 18 40 151 31 52 -3 95 -6 97 -5 1 1 -30 22 -70 46 -39 24 -73 49
-75 56 -2 6 12 16 31 23 34 11 51 33 40 51 -3 5 -39 9 -80 9 -59 0 -74 3 -74
15 0 8 12 17 28 21 60 13 60 15 14 88 -14 22 -25 51 -26 65 -2 36 -12 49 -64
82 -48 30 -55 33 -64 23z"/>
<path d="M1467 10213 c-4 -3 -7 -20 -7 -36 0 -58 61 -124 105 -113 36 9 95 70
95 98 0 52 -39 62 -82 21 l-29 -28 -25 33 c-25 31 -43 39 -57 25z"/>
<path d="M6614 8607 c-34 -20 -77 -57 -72 -62 2 -3 29 2 59 9 30 8 55 13 57
12 1 -2 -21 -18 -50 -37 -29 -19 -52 -38 -50 -44 5 -16 64 -7 92 14 31 22 36
51 15 90 -17 34 -21 36 -51 18z"/>
<path d="M6673 8424 c-34 -17 -49 -42 -34 -57 14 -14 101 41 101 65 0 13 -32
9 -67 -8z"/>
<path d="M6684 8321 c-46 -21 -61 -38 -47 -52 19 -19 121 40 107 62 -7 12 -13
11 -60 -10z"/>
<path d="M6724 8240 c-30 -12 -36 -24 -20 -45 15 -21 51 -13 66 15 13 24 -15
42 -46 30z"/>
<path d="M6750 8143 c-20 -7 -50 -34 -50 -45 0 -15 42 -8 81 14 22 12 39 25
39 30 0 9 -46 10 -70 1z"/>
<path d="M6754 8055 c-44 -44 -10 -73 39 -35 33 26 36 60 7 60 -12 0 -32 -11
-46 -25z"/>
<path d="M5054 6936 c-10 -26 4 -48 28 -44 17 2 23 10 23 28 0 18 -6 26 -23
28 -13 2 -25 -3 -28 -12z"/>
<path d="M5046 6837 c-22 -16 -16 -47 9 -47 26 0 77 30 72 43 -5 18 -59 20
-81 4z"/>
<path d="M5112 6774 c-26 -18 -29 -44 -6 -44 20 0 94 41 94 52 0 14 -65 9 -88
-8z"/>
<path d="M5143 6670 c-33 -19 -42 -43 -23 -55 10 -6 65 19 92 43 40 34 -17 44
-69 12z"/>
<path d="M5218 6593 c-36 -6 -54 -28 -38 -47 6 -8 19 -12 28 -9 30 9 82 37 82
44 0 7 -28 20 -38 18 -4 -1 -19 -4 -34 -6z"/>
<path d="M5272 6507 c-27 -28 -28 -58 -4 -79 25 -22 77 -31 102 -18 18 10 19
14 9 27 -10 11 -25 14 -56 10 l-43 -5 26 24 c27 26 29 57 3 62 -8 1 -25 -8
-37 -21z"/>
<path d="M6250 6411 c-19 -36 -9 -91 17 -91 22 0 46 66 33 90 -14 25 -36 26
-50 1z"/>
<path d="M6343 6414 c-10 -27 14 -40 37 -19 11 10 20 22 20 27 0 15 -50 8 -57
-8z"/>
<path d="M6120 6349 c-14 -25 -6 -65 15 -73 24 -9 48 36 36 68 -13 31 -36 34
-51 5z"/>
<path d="M6006 6303 c-20 -20 13 -118 37 -110 17 5 21 44 7 77 -12 29 -33 44
-44 33z"/>
<path d="M5236 6245 c-66 -67 -90 -115 -82 -163 9 -58 57 -144 108 -195 26
-26 48 -53 48 -59 0 -6 -25 -37 -55 -70 -54 -58 -93 -118 -77 -118 14 0 56 32
110 84 46 44 53 48 48 26 -3 -14 -12 -54 -20 -90 -8 -36 -13 -66 -11 -68 1 -2
17 21 34 51 32 56 40 104 20 124 -22 22 3 33 74 33 82 0 186 -15 200 -29 5 -5
3 -31 -7 -65 -24 -80 -4 -105 34 -43 16 24 20 46 18 92 -2 59 -1 61 42 106 50
51 98 137 107 192 11 69 -19 44 -100 -83 -53 -82 -102 -110 -193 -110 -118 0
-226 57 -291 154 -44 65 -43 97 8 171 22 33 47 72 55 88 25 47 -9 33 -70 -28z"/>
<path d="M5938 6264 c-3 -5 -9 -28 -13 -51 -9 -55 -18 -59 -49 -28 -15 14 -31
23 -36 20 -15 -9 -12 -52 6 -69 42 -43 124 -4 124 58 -1 34 -24 84 -32 70z"/>
<path d="M4995 6247 c-25 -19 -10 -37 31 -37 27 0 34 4 34 19 0 17 -18 31 -39
31 -4 0 -15 -6 -26 -13z"/>
<path d="M5407 6220 c-33 -26 -67 -97 -67 -141 0 -95 106 -156 203 -115 45 19
64 44 76 98 18 79 -25 167 -49 103 -5 -14 -10 -45 -10 -69 0 -57 -17 -78 -64
-78 -47 0 -86 33 -86 74 0 16 11 49 25 72 14 25 23 50 19 60 -8 21 -16 20 -47
-4z"/>
<path d="M5003 6150 c-36 -22 -52 -62 -33 -85 16 -19 99 -20 125 -1 16 12 17
16 6 30 -7 9 -26 16 -41 16 -44 0 -43 13 2 37 l43 22 -35 1 c-19 0 -50 -9 -67
-20z"/>
<path d="M5045 5991 c-78 -21 -85 -26 -85 -64 0 -54 12 -62 84 -61 109 1 127
43 23 54 l-52 5 60 20 c47 16 60 24 60 40 0 25 -16 26 -90 6z"/>
<path d="M5876 5889 c-59 -46 -73 -129 -21 -129 19 0 26 7 31 28 3 15 12 48
19 75 14 52 10 57 -29 26z"/>
<path d="M5982 5855 c-21 -26 -45 -90 -57 -154 -9 -45 12 -38 41 13 22 39 51
152 42 162 -3 3 -15 -7 -26 -21z"/>
<path d="M6060 5771 c-12 -24 -13 -101 -1 -101 14 0 55 86 48 103 -9 23 -34
21 -47 -2z"/>
<path d="M5547 5742 c-38 -42 -59 -137 -38 -171 21 -33 57 29 66 116 8 65 -2
84 -28 55z"/>
<path d="M5461 5734 c-29 -21 -71 -109 -71 -151 0 -64 31 -32 75 76 32 77 31
99 -4 75z"/>
<path d="M6250 4895 c-16 -19 3 -45 32 -45 36 0 83 34 72 52 -9 14 -91 9 -104
-7z"/>
<path d="M6320 4812 c-31 -5 -60 -30 -60 -52 0 -9 -9 -25 -20 -35 -25 -22 -26
-35 -2 -35 30 0 76 36 100 78 24 43 21 50 -18 44z"/>
<path d="M5952 4778 c-33 -9 -41 -25 -20 -46 17 -17 49 -15 76 4 46 32 11 59
-56 42z"/>
<path d="M7138 4693 c-22 -26 -28 -59 -14 -79 11 -15 15 -14 35 12 36 45 16
109 -21 67z"/>
<path d="M5732 4677 c-19 -23 18 -77 141 -204 65 -68 116 -127 113 -132 -3 -5
-38 -12 -78 -16 -74 -8 -118 -34 -118 -70 0 -21 6 -19 46 11 19 15 37 25 39
22 3 -3 0 -29 -6 -58 -18 -83 -8 -207 22 -266 21 -42 33 -53 89 -81 39 -20 96
-37 142 -44 74 -12 78 -12 131 15 60 29 192 145 202 177 16 50 -20 31 -127
-67 -78 -72 -96 -79 -176 -71 -78 8 -159 52 -197 105 -28 40 -30 50 -30 126 0
75 2 86 28 120 16 20 51 54 77 74 27 20 49 39 49 42 0 3 -25 25 -57 50 -108
86 -214 194 -233 238 -18 42 -38 53 -57 29z"/>
<path d="M5996 4674 c-21 -20 -20 -31 3 -43 26 -15 78 24 60 45 -15 19 -44 18
-63 -2z"/>
<path d="M7032 4678 c-7 -7 -12 -25 -12 -41 0 -24 4 -28 22 -25 29 4 49 55 28
68 -20 13 -24 12 -38 -2z"/>
<path d="M6897 4644 c-13 -13 -7 -61 8 -74 23 -19 47 6 43 44 -2 22 -9 32 -23
34 -12 2 -24 0 -28 -4z"/>
<path d="M6183 4605 c-3 -9 -3 -19 1 -22 10 -10 79 10 84 25 6 19 -77 16 -85
-3z"/>
<path d="M6024 4575 c-9 -23 3 -45 25 -45 25 0 34 14 26 40 -7 23 -43 27 -51
5z"/>
<path d="M6786 4554 c-18 -39 -10 -62 18 -51 11 4 16 19 16 47 0 50 -11 51
-34 4z"/>
<path d="M6670 4465 c0 -28 4 -44 10 -40 6 3 10 21 10 40 0 19 -4 37 -10 40
-6 4 -10 -12 -10 -40z"/>
<path d="M6539 4463 c-17 -46 8 -123 41 -123 15 0 23 67 13 107 -11 48 -39 56
-54 16z"/>
<path d="M5336 4427 c-35 -38 -72 -105 -62 -115 9 -9 70 54 95 98 29 52 10 62
-33 17z"/>
<path d="M5152 4418 c-18 -18 -14 -38 6 -38 21 0 56 33 45 43 -10 11 -38 8
-51 -5z"/>
<path d="M5442 4417 c-41 -49 -32 -106 19 -132 43 -23 70 -9 99 50 38 78 -14
84 -62 7 -25 -41 -31 -37 -17 11 16 60 -9 101 -39 64z"/>
<path d="M6450 4385 c-10 -12 -10 -21 0 -45 7 -16 18 -30 25 -30 18 0 28 46
15 70 -13 24 -23 25 -40 5z"/>
<path d="M5648 4367 c-34 -28 -48 -58 -48 -98 l0 -32 23 21 c34 32 73 110 61
122 -6 6 -18 2 -36 -13z"/>
<path d="M5706 4325 c-31 -47 -38 -75 -19 -82 23 -9 63 40 63 78 0 36 -22 38
-44 4z"/>
<path d="M6165 4218 c-32 -19 -44 -41 -45 -82 0 -32 6 -45 36 -72 20 -19 46
-34 59 -34 27 0 115 40 115 52 0 4 -17 10 -37 14 -119 20 -132 34 -85 93 l33
41 -28 0 c-15 0 -37 -6 -48 -12z"/>
<path d="M5764 3896 c-7 -17 16 -68 33 -73 17 -6 27 55 13 72 -16 19 -39 19
-46 1z"/>
<path d="M5658 3808 c-3 -32 -4 -33 -45 -31 -48 2 -53 -7 -23 -37 25 -25 31
-25 81 0 51 26 58 45 29 76 -31 32 -38 30 -42 -8z"/>
<path d="M6283 3788 c-40 -24 -42 -38 -7 -38 39 0 83 28 84 53 0 14 -45 5 -77
-15z"/>
<path d="M5507 3713 c-16 -15 -5 -53 20 -73 30 -24 47 -22 51 6 5 37 -50 89
-71 67z"/>
<path d="M6262 3680 c-30 -28 -28 -40 6 -40 26 0 72 34 72 53 0 16 -58 6 -78
-13z"/>
<path d="M5410 3641 c0 -13 56 -71 69 -71 18 0 12 39 -9 60 -20 20 -60 28 -60
11z"/>
<path d="M6270 3600 c-25 -25 -18 -40 19 -40 34 0 77 32 67 48 -12 19 -64 14
-86 -8z"/>
<path d="M5340 3555 c0 -20 45 -65 65 -65 22 0 18 23 -10 54 -27 29 -55 34
-55 11z"/>
<path d="M6257 3484 c-12 -12 4 -24 34 -24 31 0 39 14 13 24 -20 8 -39 8 -47
0z"/>
<path d="M5283 3445 c-9 -24 9 -70 27 -70 23 0 21 79 -3 83 -9 2 -20 -4 -24
-13z"/>
<path d="M6342 3414 c-27 -19 -28 -41 -2 -49 42 -13 85 43 44 59 -20 8 -16 9
-42 -10z"/>
<path d="M6363 3323 c-19 -7 -16 -21 7 -33 26 -14 90 5 90 26 0 10 -12 14 -42
13 -24 0 -49 -3 -55 -6z"/>
<path d="M6700 3934 c-17 -15 -37 -39 -46 -55 -13 -27 -13 -29 4 -29 23 0 92
70 92 93 0 24 -13 21 -50 -9z"/>
<path d="M6769 3871 c-22 -21 -39 -48 -39 -60 0 -24 3 -25 32 -10 20 11 21 10
15 -47 l-7 -59 30 35 c30 35 39 73 19 86 -7 4 -9 22 -4 50 3 24 3 44 -1 44 -3
0 -24 -17 -45 -39z"/>
<path d="M6855 3698 c-68 -68 -60 -108 10 -47 45 40 61 67 46 82 -7 7 -24 -3
-56 -35z"/>
<path d="M6932 3638 c-14 -14 -16 -54 -3 -62 27 -17 70 41 48 63 -14 14 -30
14 -45 -1z"/>
<path d="M7007 3562 c-24 -26 -21 -34 11 -30 19 2 27 9 27 22 0 27 -18 30 -38
8z"/>
<path d="M7016 2889 c-27 -21 -36 -59 -13 -59 19 0 70 57 63 69 -10 16 -20 14
-50 -10z"/>
<path d="M6960 2715 c-10 -12 -8 -16 15 -25 35 -13 72 4 54 26 -15 18 -53 18
-69 -1z"/>
<path d="M6977 2202 c-52 -53 -54 -57 -31 -66 37 -14 94 43 94 94 0 30 -11 25
-63 -28z"/>
<path d="M6942 2044 c-30 -21 -28 -36 6 -32 19 2 28 9 30 26 4 26 -5 28 -36 6z"/>
<path d="M6714 418 c-40 -43 -46 -53 -31 -56 50 -10 97 33 97 88 0 31 -13 25
-66 -32z"/>
<path d="M3347 10642 c-24 -26 -21 -34 11 -30 19 2 28 9 30 26 4 27 -18 29
-41 4z"/>
<path d="M3249 10461 c-20 -16 -21 -21 -10 -35 18 -21 33 -20 60 5 17 16 20
24 10 35 -16 19 -32 18 -60 -5z"/>
<path d="M3210 10365 c-18 -21 4 -45 41 -45 37 0 44 15 19 40 -24 24 -43 26
-60 5z"/>
<path d="M3147 10274 c-14 -15 -6 -43 14 -49 36 -12 71 3 67 28 -2 17 -11 23
-38 25 -20 2 -39 0 -43 -4z"/>
<path d="M2837 9743 c-18 -17 1 -73 24 -73 10 0 20 46 13 64 -6 16 -26 21 -37
9z"/>
<path d="M2686 9714 c-7 -19 10 -44 29 -44 19 0 36 25 29 44 -3 9 -16 16 -29
16 -13 0 -26 -7 -29 -16z"/>
<path d="M2594 9676 c-9 -38 -1 -61 23 -64 43 -6 42 78 0 86 -10 2 -19 -6 -23
-22z"/>
<path d="M2494 9609 c-14 -16 -27 -20 -51 -16 -39 7 -63 -14 -43 -38 16 -19
40 -19 90 1 41 17 66 46 55 64 -10 16 -31 12 -51 -11z"/>
<path d="M2304 9525 c-15 -37 30 -65 63 -39 17 13 17 15 -6 34 -28 24 -49 26
-57 5z"/>
<path d="M3152 9503 c-105 -57 -167 -135 -177 -222 -10 -84 -39 -137 -91 -167
-38 -23 -54 -26 -108 -22 -110 7 -177 74 -190 191 -7 56 -9 60 -22 43 -55 -76
9 -231 118 -287 48 -24 68 -66 68 -142 0 -62 17 -120 34 -114 6 2 20 30 31 63
15 45 20 53 23 34 5 -42 24 -80 39 -80 24 0 27 30 11 114 -9 45 -15 82 -14 83
0 1 21 -23 46 -52 25 -29 53 -57 62 -64 30 -19 29 5 -2 50 -16 24 -30 47 -30
52 0 18 42 4 70 -23 35 -34 70 -40 70 -11 0 26 19 39 70 46 77 11 77 17 5 36
-178 49 -175 48 -175 72 0 12 7 32 15 44 19 27 97 76 158 98 55 21 61 35 13
35 -40 0 -56 16 -53 55 2 28 0 30 -33 27 l-35 -3 73 68 c88 83 99 116 24 76z"/>
<path d="M2790 9455 c-9 -11 -10 -19 -2 -27 16 -16 96 -22 122 -8 l24 13 -23
18 c-29 24 -103 26 -121 4z"/>
<path d="M2246 9401 c-8 -12 42 -71 60 -71 22 0 17 34 -9 58 -25 23 -42 28
-51 13z"/>
<path d="M2856 9359 c-3 -8 -7 -36 -8 -64 l-3 -50 -72 -5 c-81 -6 -101 -17
-84 -48 23 -43 106 -50 173 -16 51 26 63 139 18 179 -16 14 -21 15 -24 4z"/>
<path d="M3071 9133 c-20 -17 -21 -20 -8 -32 18 -14 131 -33 153 -24 19 7 18
16 -4 43 -26 32 -108 40 -141 13z"/>
<path d="M9352 9019 c-40 -5 -101 -20 -135 -35 -34 -14 -81 -31 -104 -37 -39
-9 -46 -8 -79 15 -47 34 -69 26 -166 -56 -94 -80 -143 -137 -177 -206 -38 -75
-49 -125 -56 -265 -4 -70 -17 -165 -32 -227 -33 -144 -19 -218 26 -130 36 71
54 178 53 319 -1 146 12 215 56 297 68 126 185 200 339 216 89 10 124 18 265
60 l77 24 173 -56 c95 -31 196 -59 223 -63 80 -10 79 -9 49 -62 -64 -113 -157
-244 -201 -283 -45 -40 -153 -100 -180 -100 -33 0 -111 -46 -164 -97 -33 -31
-90 -102 -128 -157 -38 -56 -94 -132 -125 -169 -57 -70 -68 -97 -40 -97 39 0
68 33 227 252 88 121 140 170 206 194 25 9 100 42 166 73 118 55 121 56 210
56 76 -1 104 -6 180 -33 83 -30 97 -32 200 -30 86 2 122 -1 162 -15 65 -23
116 -68 111 -99 -3 -21 -8 -23 -62 -23 -48 1 -61 5 -76 23 -23 28 -30 28 -30
-1 0 -55 -58 -78 -70 -27 -4 18 -13 25 -30 25 -19 0 -26 -7 -31 -33 -10 -48
-71 -133 -164 -228 -95 -97 -123 -112 -218 -123 -104 -12 -167 -51 -167 -103
0 -17 2 -17 30 -3 72 37 417 96 579 98 84 2 103 -1 156 -25 33 -15 112 -36
175 -48 63 -12 121 -27 129 -33 21 -18 7 -83 -31 -139 -111 -165 -530 -337
-866 -355 -119 -7 -142 4 -142 64 0 22 -6 36 -16 40 -26 10 -45 -25 -42 -77
l3 -45 -51 2 c-53 2 -168 37 -263 80 -31 14 -101 42 -156 64 l-100 38 2 42 2
42 -24 -23 c-21 -20 -31 -22 -75 -17 -45 5 -50 4 -50 -13 0 -25 58 -59 180
-105 134 -50 170 -66 211 -91 76 -47 124 -56 299 -55 251 0 492 28 637 72 189
58 418 204 508 323 35 46 77 155 71 181 -8 29 -19 33 -140 46 -97 11 -182 32
-311 79 -51 19 -76 21 -165 19 -128 -5 -131 1 -60 87 64 79 132 115 270 144
144 30 170 42 170 77 0 21 -16 43 -68 93 -73 72 -115 90 -210 90 -71 0 -205
25 -291 55 -86 29 -131 31 -191 10 -50 -18 -56 -15 -39 17 21 40 138 206 180
254 37 43 39 48 26 68 -26 39 -75 59 -166 67 -61 5 -107 17 -157 38 -39 17
-97 33 -130 36 -32 4 -68 8 -79 9 -11 2 -53 -1 -93 -5z"/>
<path d="M2234 8829 c-13 -25 -15 -51 -12 -113 6 -112 44 -195 107 -238 25
-17 67 -53 92 -80 l46 -49 138 2 c160 3 165 0 165 -87 0 -62 -13 -79 -68 -87
-62 -10 -121 -82 -196 -237 l-62 -129 -85 87 c-122 125 -200 212 -222 250 -11
19 -27 32 -39 32 -19 0 -20 -4 -15 -53 5 -36 1 -78 -13 -135 -43 -182 -9 -348
106 -509 25 -35 44 -66 42 -68 -7 -6 -237 -54 -311 -64 -43 -6 -116 -11 -161
-11 -114 0 -176 -9 -176 -27 0 -19 37 -31 124 -39 42 -4 76 -10 76 -13 0 -14
-75 -55 -123 -68 -106 -27 -237 -8 -357 52 l-72 36 103 61 c158 92 215 112
329 112 80 1 107 -4 171 -27 80 -30 134 -33 134 -7 0 46 -190 95 -345 88 -108
-4 -71 11 -380 -149 -58 -30 -129 -62 -158 -72 -39 -14 -52 -23 -50 -35 3 -13
19 -18 73 -23 43 -4 125 -25 210 -54 223 -76 341 -73 455 10 94 68 213 114
364 140 95 16 212 20 220 7 2 -4 -17 -16 -42 -26 -116 -47 -218 -150 -309
-311 -34 -61 -83 -139 -108 -175 l-46 -65 26 -3 c29 -4 212 88 339 172 181
118 259 207 272 312 4 27 10 55 14 62 8 17 71 -109 94 -190 14 -50 22 -61 61
-83 24 -15 74 -31 110 -37 80 -13 86 -23 115 -163 24 -124 41 -151 121 -198
90 -52 175 -77 268 -77 109 0 169 31 222 113 41 63 50 113 24 123 -21 8 -45
-14 -45 -41 0 -35 -43 -79 -102 -106 -41 -18 -71 -23 -134 -24 -78 0 -84 2
-122 32 -24 19 -62 37 -91 44 -42 9 -51 15 -60 41 -6 17 -11 53 -11 80 0 52
-22 118 -39 118 -21 0 -11 24 30 73 33 39 39 51 28 58 -8 5 -66 9 -129 9 -139
0 -159 8 -177 69 -7 25 -22 54 -33 66 -11 12 -20 31 -20 44 0 80 218 251 321
251 47 0 54 9 27 37 -26 28 -47 29 -122 2 l-59 -20 -26 24 c-14 14 -47 35 -72
46 -90 42 -148 124 -149 209 0 55 21 95 65 122 46 29 58 52 44 84 -10 20 -9
30 5 50 26 40 69 56 169 64 109 8 115 16 66 95 -64 104 -46 167 60 214 81 36
141 41 186 14 74 -44 98 -26 130 99 9 36 21 70 27 77 6 8 31 10 76 6 62 -5 71
-3 107 21 30 21 47 26 69 22 43 -9 75 -33 87 -64 13 -34 38 -62 55 -62 22 0
26 38 9 74 -42 88 -206 150 -252 96 -14 -16 -30 -20 -82 -20 -61 0 -65 -2 -95
-36 -103 -120 -109 -124 -172 -124 -32 0 -91 -9 -132 -21 -69 -19 -75 -19 -92
-4 -17 16 -21 14 -69 -23 -65 -52 -107 -65 -208 -66 -93 -1 -103 4 -118 67
-10 40 -12 42 -54 48 -82 11 -125 94 -126 243 0 89 -14 107 -41 55z m-19 -863
c69 -49 130 -128 180 -231 50 -104 59 -145 49 -223 l-7 -57 -42 90 c-44 95
-68 126 -86 108 -7 -7 -4 -29 10 -68 19 -53 33 -78 87 -152 16 -23 16 -23 -30
-23 -42 0 -52 5 -96 46 -119 111 -200 368 -158 505 14 49 30 49 93 5z m409
-419 c85 -46 89 -58 41 -107 -73 -74 -175 -89 -175 -24 0 25 27 141 36 156 9
15 39 7 98 -25z m-226 -299 c28 -28 14 -74 -39 -132 -70 -77 -318 -240 -336
-222 -10 10 40 119 82 175 93 126 250 222 293 179z"/>
<path d="M9482 8543 c2 -20 9 -29 26 -31 26 -4 28 5 6 36 -21 30 -36 28 -32
-5z"/>
<path d="M9357 8494 c-10 -11 -9 -42 3 -49 20 -12 51 6 48 28 -3 22 -36 35
-51 21z"/>
<path d="M9254 8456 c-10 -25 0 -61 18 -64 21 -4 32 31 18 58 -13 23 -28 26
-36 6z"/>
<path d="M9154 8355 c-7 -17 12 -45 31 -45 19 0 36 25 29 44 -8 20 -53 21 -60
1z"/>
<path d="M3697 8333 c-12 -12 -7 -43 6 -43 14 0 47 31 47 43 0 9 -45 9 -53 0z"/>
<path d="M3560 8265 c0 -19 5 -35 10 -35 6 0 10 16 10 35 0 19 -4 35 -10 35
-5 0 -10 -16 -10 -35z"/>
<path d="M9104 8265 c-8 -19 10 -41 37 -48 31 -8 37 22 10 45 -28 22 -40 23
-47 3z"/>
<path d="M3467 8264 c-11 -11 -8 -64 3 -64 14 0 24 50 13 61 -5 5 -12 6 -16 3z"/>
<path d="M3790 8228 c0 -32 3 -39 10 -28 13 20 13 70 0 70 -5 0 -10 -19 -10
-42z"/>
<path d="M10018 8231 c-48 -30 -88 -78 -88 -105 0 -26 18 -18 71 31 101 94
110 133 17 74z"/>
<path d="M3353 8243 c-18 -6 -16 -44 3 -72 13 -18 18 -20 25 -10 22 35 2 93
-28 82z"/>
<path d="M3235 8210 c-7 -23 10 -60 29 -60 8 0 19 7 26 15 10 12 9 20 -4 40
-20 30 -42 32 -51 5z"/>
<path d="M9033 8193 c-11 -29 19 -68 52 -68 41 0 46 35 9 64 -32 25 -52 27
-61 4z"/>
<path d="M3142 8153 c2 -20 9 -29 26 -31 27 -4 29 18 4 41 -26 24 -34 21 -30
-10z"/>
<path d="M8933 8094 c-9 -23 30 -69 58 -69 33 0 37 37 8 64 -27 25 -57 27 -66
5z"/>
<path d="M3060 8084 c-18 -20 1 -39 55 -53 30 -8 41 -8 47 2 12 19 10 24 -18
46 -32 25 -67 27 -84 5z"/>
<path d="M9876 8042 c-3 -6 3 -21 13 -33 16 -20 22 -22 33 -11 9 9 10 17 2 30
-13 20 -39 27 -48 14z"/>
<path d="M3908 8015 c-26 -14 -49 -29 -52 -33 -3 -5 13 -14 34 -21 22 -6 40
-15 40 -19 0 -4 -9 -20 -20 -37 -25 -38 -25 -45 1 -45 51 0 105 103 80 156
-13 30 -24 30 -83 -1z"/>
<path d="M9684 8006 c-15 -12 -17 -17 -6 -28 16 -16 87 -15 108 3 14 12 14 14
-2 26 -24 17 -75 17 -100 -1z"/>
<path d="M3003 7983 c-21 -8 -15 -31 12 -49 20 -13 28 -14 40 -4 36 30 -6 72
-52 53z"/>
<path d="M9561 7954 c-21 -27 -29 -84 -12 -84 14 0 81 79 81 95 0 25 -46 18
-69 -11z"/>
<path d="M3494 7935 c-7 -17 12 -45 31 -45 19 0 36 25 29 44 -8 20 -53 21 -60
1z"/>
<path d="M3349 7878 c-20 -21 -29 -39 -27 -57 2 -20 -2 -26 -22 -31 -36 -8
-36 -55 0 -55 17 0 26 6 29 20 2 11 23 46 47 78 24 33 44 63 44 68 0 21 -44 7
-71 -23z"/>
<path d="M9425 7880 c-7 -12 21 -50 37 -50 5 0 8 12 6 27 -3 29 -31 43 -43 23z"/>
<path d="M3727 7874 c-8 -9 3 -35 33 -74 51 -66 60 -122 35 -208 -45 -150
-208 -242 -325 -182 -64 32 -72 54 -64 155 l7 87 -22 -12 c-13 -6 -32 -32 -43
-57 -28 -62 -18 -119 29 -175 62 -75 69 -125 13 -113 -23 5 -35 1 -54 -18 -70
-70 -25 -124 64 -79 27 13 39 29 55 72 l21 55 59 8 c33 4 78 12 99 16 56 13
78 -1 136 -85 48 -69 78 -93 99 -79 14 8 4 30 -41 98 -56 83 -72 125 -59 154
14 31 61 31 147 -2 72 -27 128 -33 122 -12 -2 6 -39 32 -81 56 -43 24 -76 45
-75 46 2 2 26 -1 53 -5 28 -5 76 -9 108 -9 45 -1 57 2 57 15 0 20 -49 39 -161
62 -52 11 -87 22 -79 25 8 2 55 14 104 26 89 20 136 42 136 62 0 8 -32 10
-100 7 -55 -2 -100 -2 -100 -1 0 1 24 15 53 29 61 31 87 52 87 71 0 18 -61 17
-107 -2 -52 -22 -64 -19 -127 30 -59 45 -68 50 -79 39z"/>
<path d="M2932 7848 c-6 -8 -8 -18 -4 -24 7 -11 45 -34 56 -34 11 0 24 36 18
47 -12 19 -57 26 -70 11z"/>
<path d="M2897 7732 c-24 -26 -21 -34 11 -30 19 2 28 9 30 26 4 27 -18 29 -41
4z"/>
<path d="M3702 7709 c-12 -12 -22 -27 -22 -31 0 -5 -7 -25 -15 -46 l-16 -37
-43 48 c-44 47 -60 55 -71 37 -10 -17 15 -79 38 -95 50 -35 139 -7 163 50 17
43 18 56 1 79 -13 18 -15 18 -35 -5z"/>
<path d="M8620 7610 c-21 -21 -27 -55 -11 -64 8 -5 121 69 121 80 0 2 -20 4
-45 4 -32 0 -51 -6 -65 -20z"/>
<path d="M10391 7616 c-15 -18 -4 -46 19 -46 28 0 45 27 30 45 -16 19 -34 19
-49 1z"/>
<path d="M9131 7581 c-15 -28 -14 -51 4 -57 23 -9 46 16 43 45 -4 32 -33 39
-47 12z"/>
<path d="M8527 7572 c-22 -25 -23 -91 -1 -99 23 -8 44 22 44 63 0 43 -21 60
-43 36z"/>
<path d="M8705 7495 c-169 -83 -311 -140 -409 -165 -110 -28 -156 -15 -156 44
0 18 -6 40 -13 50 -20 27 -35 2 -44 -74 -8 -63 -9 -64 -23 -40 -8 14 -14 52
-15 88 0 46 -3 62 -13 60 -16 -4 -39 -43 -47 -82 -6 -28 -7 -29 -63 -23 -31 3
-68 9 -82 13 -21 5 -18 -1 20 -35 76 -68 111 -81 229 -81 56 0 135 7 176 15
250 52 585 211 585 279 0 9 -3 16 -7 15 -5 0 -66 -29 -138 -64z"/>
<path d="M9230 7531 c-13 -26 -13 -68 2 -77 17 -10 48 33 48 67 0 22 -5 29
-20 29 -10 0 -24 -9 -30 -19z"/>
<path d="M8414 7506 c-8 -35 4 -66 26 -66 38 0 40 83 3 88 -17 3 -24 -3 -29
-22z"/>
<path d="M10256 7514 c-9 -23 4 -70 15 -52 11 17 11 55 0 62 -5 3 -12 -1 -15
-10z"/>
<path d="M9325 7486 c-16 -37 -11 -66 10 -66 35 0 56 91 22 98 -12 2 -22 -7
-32 -32z"/>
<path d="M9966 7476 c-21 -32 -22 -86 -1 -86 35 0 67 101 34 108 -9 1 -24 -8
-33 -22z"/>
<path d="M10076 7484 c-15 -14 -23 -64 -10 -64 3 0 12 7 20 15 9 8 33 15 54
15 45 0 57 12 34 34 -20 21 -78 21 -98 0z"/>
<path d="M8336 7468 c-9 -12 -16 -29 -16 -38 1 -19 24 -50 37 -50 13 0 23 61
16 89 -7 27 -18 27 -37 -1z"/>
<path d="M9431 7477 c-19 -24 -23 -71 -7 -92 14 -19 16 -19 31 -4 10 10 17 32
17 52 0 54 -17 72 -41 44z"/>
<path d="M8230 7455 c-28 -33 -3 -130 29 -111 16 10 23 68 12 99 -12 30 -23
34 -41 12z"/>
<path d="M9736 7458 c-29 -92 -31 -118 -6 -118 18 0 51 64 48 95 -3 31 -34 48
-42 23z"/>
<path d="M9526 7438 c-19 -26 -21 -74 -4 -84 18 -11 49 35 46 69 -4 38 -22 45
-42 15z"/>
<path d="M9864 7452 c-31 -20 -43 -102 -15 -102 12 0 38 33 44 57 6 26 -13 56
-29 45z"/>
<path d="M7037 7433 c-4 -3 -7 -25 -7 -48 0 -28 -7 -52 -21 -70 -18 -22 -20
-29 -8 -36 8 -5 18 -9 23 -9 5 0 6 -18 3 -40 -4 -29 -1 -40 8 -40 24 0 38 29
32 69 -4 30 0 42 14 55 26 22 25 80 -1 106 -21 21 -32 24 -43 13z"/>
<path d="M3790 7411 c0 -32 143 -146 175 -139 13 2 10 11 -19 45 -55 64 -156
125 -156 94z"/>
<path d="M3265 7340 c-9 -17 -24 -30 -34 -30 -41 0 -191 -132 -191 -168 0 -50
196 65 265 155 43 57 44 73 5 73 -23 0 -33 -7 -45 -30z"/>
<path d="M3670 7302 c0 -41 36 -136 64 -169 22 -26 46 -25 46 1 0 20 -78 172
-95 186 -13 11 -15 8 -15 -18z"/>
<path d="M3504 7234 c-19 -27 -9 -49 18 -39 17 7 40 50 31 59 -13 13 -33 5
-49 -20z"/>
<path d="M7250 5970 c-46 -46 -50 -75 -10 -75 20 0 30 10 49 48 34 69 16 82
-39 27z"/>
<path d="M7315 5888 c-35 -53 -46 -93 -22 -86 17 6 77 99 77 120 0 31 -18 20
-55 -34z"/>
<path d="M8428 5909 c-22 -12 -23 -32 -3 -49 12 -10 20 -9 40 4 28 19 33 41 9
50 -21 8 -26 7 -46 -5z"/>
<path d="M7438 5873 c-24 -28 -58 -100 -58 -124 0 -22 0 -22 21 -3 22 19 69
109 69 132 0 17 -14 15 -32 -5z"/>
<path d="M8384 5806 c-10 -26 4 -48 28 -44 17 2 23 10 23 28 0 18 -6 26 -23
28 -13 2 -25 -3 -28 -12z"/>
<path d="M7498 5762 c-24 -27 -49 -82 -43 -92 19 -31 75 22 75 71 0 35 -13 44
-32 21z"/>
<path d="M7591 5683 c-41 -50 -39 -74 12 -127 48 -51 91 -67 114 -43 13 12 13
21 3 51 -14 43 -38 58 -79 50 -28 -6 -31 -4 -31 19 0 14 5 38 10 53 16 40 6
39 -29 -3z"/>
<path d="M8271 5621 c-8 -5 -11 -16 -8 -24 8 -21 -12 -37 -45 -37 -40 0 -35
-14 17 -41 41 -22 46 -22 61 -8 22 23 31 98 13 110 -17 11 -21 11 -38 0z"/>
<path d="M7776 5484 c-25 -24 -13 -62 30 -100 35 -30 36 -33 34 -90 -5 -99 -2
-112 34 -152 l35 -37 -2 111 c-2 99 0 114 18 134 29 33 93 60 146 60 48 0 87
20 75 38 -4 7 -33 12 -69 12 -70 0 -135 -25 -179 -67 -22 -21 -28 -23 -28 -10
0 9 5 28 12 42 16 37 4 41 -35 11 -44 -33 -48 -33 -35 5 8 24 8 34 -4 46 -13
13 -17 12 -32 -3z"/>
<path d="M8055 5306 c-38 -17 -95 -81 -95 -106 0 -11 15 -37 34 -58 32 -34 39
-37 90 -37 47 0 59 4 85 29 70 67 41 164 -55 181 -16 3 -43 -1 -59 -9z m83
-48 c17 -17 15 -64 -4 -82 -28 -28 -94 -18 -94 14 0 21 55 80 74 80 6 0 17 -5
24 -12z"/>
<path d="M8339 5203 c-21 -3 -29 -14 -43 -59 -10 -31 -15 -58 -12 -61 3 -3 19
6 36 21 36 29 55 34 46 10 -3 -9 -9 -28 -12 -42 -5 -26 -5 -26 25 8 44 51 67
98 55 110 -12 12 -61 19 -95 13z"/>
<path d="M8460 5145 c-6 -8 -13 -29 -13 -47 -3 -46 28 -51 47 -7 22 53 -2 92
-34 54z"/>
<path d="M8556 5138 c-9 -12 -16 -35 -16 -50 0 -39 33 -38 50 1 22 55 -4 93
-34 49z"/>
<path d="M8657 5112 c-21 -23 -22 -75 -2 -92 21 -18 35 -2 42 47 6 49 -15 73
-40 45z"/>
<path d="M8751 5079 c-24 -25 -27 -44 -9 -55 13 -8 61 42 55 59 -6 20 -25 18
-46 -4z"/>
<path d="M8834 5046 c-9 -37 2 -58 27 -54 49 7 50 69 1 76 -16 2 -23 -3 -28
-22z"/>
<path d="M7833 5003 c-9 -21 -16 -63 -17 -93 -1 -48 1 -55 19 -55 31 0 65 60
65 114 0 77 -40 97 -67 34z"/>
<path d="M7801 4797 c-24 -30 -40 -84 -29 -95 15 -15 65 -16 73 -2 8 12 -15
110 -26 110 -3 0 -12 -6 -18 -13z"/>
<path d="M7785 4650 c-12 -4 -27 -15 -35 -25 -12 -14 -12 -18 1 -26 23 -14 44
-11 74 13 26 20 27 22 9 35 -20 15 -21 15 -49 3z"/>
<path d="M7780 4523 l-24 -17 29 -8 c32 -8 81 15 70 32 -10 15 -48 12 -75 -7z"/>
<path d="M7783 4423 c-25 -10 -12 -23 22 -23 19 0 35 5 35 10 0 6 -4 10 -9 10
-5 0 -15 2 -23 4 -7 3 -19 2 -25 -1z"/>
<path d="M7747 4272 c-24 -26 -21 -34 11 -30 19 2 28 9 30 26 4 27 -18 29 -41
4z"/>
</g>
</svg>
