<?xml version="1.0" standalone="no"?>
<!DOCTYPE svg PUBLIC "-//W3C//DTD SVG 20010904//EN"
 "http://www.w3.org/TR/2001/REC-SVG-20010904/DTD/svg10.dtd">
<svg version="1.0" xmlns="http://www.w3.org/2000/svg"
 width="976.000000pt" height="1280.000000pt" viewBox="0 0 976.000000 1280.000000"
 preserveAspectRatio="xMidYMid meet">
<metadata>
Created by potrace 1.15, written by Peter Selinger 2001-2017
</metadata>
<g transform="translate(0.000000,1280.000000) scale(0.100000,-0.100000)"
fill="#03a9f4" stroke="none">
<path d="M4540 12780 c-194 -35 -567 -142 -667 -190 -98 -48 -320 -208 -341
-246 -4 -8 -68 -41 -141 -74 -150 -67 -178 -83 -272 -152 -37 -26 -71 -48 -77
-48 -17 0 -119 -118 -179 -207 -61 -90 -64 -113 -11 -113 18 0 69 -7 113 -15
44 -8 99 -14 123 -15 35 0 42 -3 42 -19 0 -27 31 -46 123 -77 97 -32 165 -85
216 -168 36 -59 36 -60 36 -170 0 -105 -2 -115 -32 -176 -19 -37 -79 -119
-142 -193 -123 -145 -243 -313 -357 -502 -79 -133 -158 -290 -170 -341 -4 -16
-26 -79 -50 -141 -47 -119 -53 -153 -29 -173 20 -17 19 -35 -7 -169 l-22 -114
24 -19 c13 -11 35 -18 49 -16 24 3 27 9 38 78 7 41 17 85 23 98 15 33 12 44
-8 38 -16 -5 -17 3 -17 107 0 124 1 127 76 224 36 48 49 74 54 110 18 150 32
191 119 336 81 135 308 429 398 515 l35 33 84 -39 c46 -22 120 -68 164 -101
86 -65 221 -137 322 -170 161 -53 478 -3 842 133 67 25 160 57 208 71 47 13
94 32 105 41 61 56 -44 80 -164 38 -47 -16 -48 -8 -3 57 19 28 35 58 35 65 0
30 33 64 78 81 33 12 73 17 137 17 151 -2 218 -33 249 -117 15 -40 39 -244 31
-258 -3 -3 -24 -9 -47 -13 -50 -8 -88 -30 -88 -51 0 -8 16 -35 35 -61 19 -25
35 -52 35 -60 0 -8 0 -17 0 -21 1 -5 -16 -10 -37 -13 l-38 -5 0 -55 c0 -69 26
-109 90 -140 42 -20 119 -100 96 -100 -6 0 -28 7 -50 16 -49 19 -110 15 -125
-9 -8 -13 -7 -24 7 -48 9 -17 17 -45 17 -63 0 -49 31 -76 88 -76 26 0 66 -9
90 -20 38 -17 42 -22 32 -39 -5 -11 -26 -25 -45 -32 -46 -17 -42 -36 15 -69
44 -26 45 -27 45 -80 0 -52 1 -54 32 -62 36 -9 48 -26 69 -98 16 -55 44 -80
88 -80 28 0 28 1 22 39 -3 22 -9 47 -13 57 -5 12 -3 15 6 9 29 -17 93 -134
137 -248 48 -125 70 -157 108 -157 38 0 64 -28 159 -173 100 -151 117 -171
158 -180 18 -5 44 -33 87 -97 34 -50 62 -94 62 -99 0 -5 11 -22 24 -38 25 -31
88 -168 216 -478 46 -110 90 -208 99 -218 23 -27 53 -17 76 25 11 21 22 38 25
38 3 0 16 -35 29 -77 13 -42 39 -106 57 -142 38 -74 41 -93 19 -111 -36 -30
-11 -103 40 -120 31 -10 41 -22 62 -67 34 -74 42 -170 18 -223 -17 -38 -17
-39 13 -127 16 -48 28 -91 25 -96 -14 -22 -82 44 -83 81 0 32 -16 27 -29 -9
-17 -48 -13 -87 10 -110 17 -17 28 -19 59 -14 33 6 40 3 50 -15 11 -20 13 -21
30 -5 10 9 22 31 25 49 15 75 31 90 37 35 4 -38 31 -60 50 -41 20 20 16 133
-5 165 -19 29 -55 36 -62 12 -3 -8 -7 -22 -10 -31 -4 -13 -8 -14 -19 -5 -30
25 -30 270 -1 273 12 1 90 -142 107 -195 6 -22 23 -46 36 -55 56 -39 105 -88
124 -125 l20 -40 -25 7 c-15 3 -27 1 -29 -6 -4 -12 9 -145 17 -166 8 -21 42 4
64 45 l18 37 13 -24 c24 -44 28 -74 13 -103 -8 -15 -17 -57 -20 -93 -6 -65 -6
-66 -23 -44 l-17 23 -17 -25 c-15 -23 -28 -92 -42 -234 -8 -70 13 -124 46
-124 30 0 40 31 40 129 0 75 3 91 15 91 27 0 65 -47 65 -79 0 -42 17 -81 35
-81 21 0 44 39 54 94 5 26 13 52 19 58 32 32 162 -270 237 -556 41 -153 41
-156 15 -156 -11 0 -20 -4 -20 -8 0 -4 16 -64 36 -132 37 -129 94 -371 94
-403 0 -17 -1 -17 -16 -3 -20 20 -53 20 -61 0 -3 -8 6 -43 21 -77 30 -69 59
-217 54 -275 l-3 -37 -18 33 c-10 18 -24 31 -30 29 -31 -10 -31 -306 0 -420
17 -63 12 -134 -22 -282 -26 -115 -45 -126 -52 -33 -10 128 -31 126 -44 -2 -4
-48 -15 -93 -25 -108 -15 -23 -18 -57 -20 -242 -2 -184 -6 -233 -27 -335 -14
-66 -28 -140 -32 -165 -21 -143 -134 -421 -216 -534 -28 -38 -55 -78 -60 -90
-6 -11 -25 -28 -42 -36 -37 -17 -91 -102 -100 -155 -6 -35 -43 -81 -187 -238
-50 -54 -106 -95 -116 -84 -2 2 2 19 10 38 8 19 21 74 31 123 9 49 25 112 36
140 24 63 24 66 0 66 -37 0 -82 -100 -106 -234 -13 -69 -54 -166 -72 -166 -3
0 -3 27 1 60 5 40 3 73 -6 96 -11 31 -10 43 15 112 32 91 34 115 10 110 -47
-8 -116 -227 -111 -349 l3 -74 43 3 c23 2 42 0 42 -5 0 -21 -43 -75 -77 -96
-21 -14 -47 -34 -57 -46 -11 -11 -23 -21 -28 -21 -13 0 -9 41 8 87 17 43 17
44 -7 69 -23 25 -23 25 -6 73 21 60 21 61 -1 61 -24 0 -42 -21 -83 -100 -59
-112 -280 -309 -319 -285 -17 11 -11 51 13 86 20 29 28 34 58 31 47 -3 119 56
119 97 0 36 -41 116 -60 116 -8 0 -27 -26 -42 -58 -31 -64 -170 -213 -225
-241 -28 -14 -36 -14 -74 -1 -38 14 -44 14 -60 -1 -14 -12 -22 -13 -38 -4 -18
9 -19 14 -9 30 9 13 9 27 2 47 -8 23 -17 29 -49 33 -38 5 -40 7 -45 45 -7 55
-33 59 -57 8 -26 -54 -43 -48 -63 22 -10 33 -24 75 -31 93 -12 28 -11 36 6 68
22 42 56 67 77 59 8 -3 25 -31 38 -62 16 -38 43 -76 85 -117 34 -34 78 -87 98
-118 37 -59 91 -98 109 -80 11 11 -3 45 -35 80 -26 28 -18 28 28 0 48 -28 57
-14 49 72 -9 84 -18 108 -45 112 -14 2 -25 13 -29 28 -4 14 -15 51 -24 83 -9
31 -14 62 -11 68 12 18 35 -11 51 -67 17 -58 39 -71 50 -29 10 39 0 193 -13
206 -9 9 -21 1 -52 -32 -33 -36 -41 -41 -47 -26 -4 11 -17 17 -35 17 -35 0
-54 26 -69 95 -23 108 -43 128 -78 78 -32 -46 -34 -68 -12 -140 28 -92 42
-110 89 -118 22 -4 45 -13 51 -20 19 -23 24 -117 7 -140 -14 -18 -15 -18 -36
15 -12 19 -24 52 -28 73 -5 35 -8 38 -30 32 -47 -11 -133 64 -148 130 -13 58
-16 65 -30 65 -17 0 -31 -46 -40 -125 -4 -33 -20 -90 -37 -128 -30 -64 -31
-71 -20 -118 15 -65 15 -142 0 -157 -22 -22 -31 -12 -25 29 l5 41 -45 -4 c-39
-3 -48 1 -64 22 -10 14 -22 40 -25 58 -6 28 -4 32 15 32 11 0 30 9 41 20 11
11 27 20 36 20 12 0 15 9 12 37 -2 32 1 39 22 50 18 9 27 24 32 50 6 35 -3
108 -16 120 -12 13 -35 -8 -41 -39 -15 -69 -75 -132 -75 -78 0 11 -9 29 -20
40 -17 17 -24 18 -41 9 -22 -11 -22 -28 -4 -101 8 -31 -16 -78 -39 -78 -8 0
-24 21 -36 47 -12 27 -33 62 -46 80 -22 30 -31 72 -18 85 3 4 19 -1 35 -10 29
-16 31 -16 49 6 10 12 33 25 52 29 18 3 43 13 55 21 14 8 33 12 48 8 14 -4 25
-2 25 3 0 6 -34 75 -75 155 -41 80 -75 157 -75 171 0 14 -11 36 -24 48 -13 12
-31 37 -40 55 -23 44 -46 42 -46 -4 0 -31 4 -37 30 -47 35 -13 36 -21 16 -175
-9 -63 -20 -110 -30 -121 -9 -9 -19 -32 -22 -49 -4 -18 -10 -32 -14 -32 -17 0
-60 122 -80 225 -28 149 -33 168 -47 172 -19 7 -25 -52 -21 -199 l3 -136 36
-53 c52 -76 59 -93 59 -136 0 -42 -13 -69 -28 -59 -5 3 -18 41 -27 83 -10 43
-22 86 -27 97 -30 56 -39 -73 -14 -201 13 -71 12 -123 -4 -123 -11 0 -16 18
-35 114 -20 110 -49 148 -84 113 -10 -10 -15 -8 -27 7 -21 30 -17 71 11 104
14 17 25 36 25 44 0 21 -33 48 -57 48 -28 0 -33 -27 -24 -135 4 -49 6 -92 4
-94 -5 -7 -79 67 -93 93 -9 19 -9 32 4 70 23 68 20 109 -9 144 -42 50 -28 82
36 82 52 0 59 18 21 51 -37 33 -39 39 -13 39 30 0 32 13 11 75 -11 32 -20 80
-20 107 0 26 -4 48 -10 48 -5 0 -22 -19 -37 -41 -24 -37 -28 -53 -31 -143 -2
-55 -9 -107 -15 -114 -6 -8 -7 -49 -3 -113 6 -80 4 -100 -6 -97 -12 4 -19 23
-33 91 -8 38 -29 29 -33 -13 -7 -70 57 -309 96 -359 15 -18 34 -43 42 -54 l15
-21 -35 19 c-19 11 -62 47 -95 80 -47 46 -66 74 -83 122 -19 53 -26 62 -50 65
-25 3 -28 8 -34 57 -3 32 -15 65 -27 80 -37 46 -45 69 -31 86 7 8 21 15 31 15
29 0 32 35 6 87 -13 26 -31 73 -41 104 -9 31 -23 65 -31 75 -13 18 -14 17 -21
-10 -10 -42 3 -345 16 -384 7 -18 21 -37 32 -43 47 -25 102 -223 68 -244 -20
-12 -45 25 -79 118 -46 123 -73 170 -104 185 -36 17 -44 38 -23 61 22 25 20
62 -7 102 -37 54 -52 45 -52 -31 0 -51 -3 -65 -15 -65 -9 0 -16 11 -18 30 -8
95 -36 263 -58 347 -13 53 -24 105 -24 115 0 68 -56 153 -100 153 -19 0 -22
-4 -17 -32 2 -18 16 -60 30 -93 l26 -60 -20 -70 c-30 -109 -50 -242 -43 -283
4 -20 22 -86 40 -145 35 -113 41 -147 24 -147 -11 0 -35 35 -113 171 -31 52
-63 102 -73 110 -20 17 -64 106 -64 132 0 13 6 17 22 15 17 -2 24 -13 33 -52
11 -54 31 -71 39 -34 3 13 7 66 9 118 5 113 16 142 55 138 36 -4 40 23 13 99
-11 32 -23 84 -26 115 -7 65 -29 94 -39 53 -4 -14 -4 -67 0 -118 4 -51 4 -90
1 -87 -3 3 -31 68 -63 145 -71 177 -91 215 -109 215 -8 0 -15 -5 -15 -11 0
-26 53 -216 66 -236 26 -42 63 -246 45 -257 -9 -6 -24 44 -42 147 -15 87 -29
95 -29 17 0 -51 -3 -61 -15 -56 -17 6 -34 -20 -32 -49 2 -23 -27 -32 -48 -15
-24 20 -45 101 -61 234 -8 71 -17 133 -20 138 -10 16 -24 -3 -24 -33 0 -16 -4
-29 -8 -29 -5 0 -28 36 -52 79 -23 44 -53 89 -65 101 l-23 22 -17 -26 c-16
-24 -16 -29 1 -78 20 -62 40 -97 68 -120 18 -15 21 -28 21 -105 1 -48 5 -108
9 -133 8 -39 7 -43 -6 -33 -19 16 -53 93 -72 163 -8 30 -29 77 -46 103 -31 49
-31 49 -56 32 -35 -23 -49 -15 -84 52 -16 32 -39 69 -50 83 -11 14 -24 49 -29
77 -5 36 -17 63 -39 88 -18 20 -32 43 -32 51 0 25 -25 10 -28 -17 -1 -13 6
-51 18 -83 21 -63 26 -116 10 -116 -14 0 -40 55 -40 84 0 64 -33 76 -56 19
-27 -64 2 -150 60 -181 18 -9 52 -30 76 -45 42 -29 42 -29 36 -77 -7 -53 8
-170 27 -210 17 -35 43 -37 60 -3 15 28 15 28 22 -32 10 -91 22 -128 55 -173
36 -49 36 -52 10 -75 -11 -9 -20 -26 -20 -38 0 -12 -5 -19 -12 -17 -13 5 -27
38 -47 116 -15 54 -65 112 -97 112 -30 0 -87 50 -109 96 -12 26 -15 47 -10 73
9 49 6 178 -6 209 -9 24 -11 24 -27 8 -11 -11 -17 -34 -18 -67 0 -37 -5 -54
-17 -61 -14 -7 -17 -24 -17 -86 l0 -77 -20 25 c-11 14 -23 35 -26 48 -8 30
-38 25 -42 -7 -3 -15 4 -30 16 -40 19 -16 47 -81 34 -81 -23 1 -102 124 -102
159 0 10 -16 38 -35 62 -45 52 -34 66 29 38 37 -16 50 -18 62 -9 20 18 17 56
-6 78 -13 12 -18 25 -14 36 7 19 -14 76 -29 76 -6 0 -19 -7 -28 -16 -17 -16
-19 -15 -30 12 -6 16 -12 87 -13 157 -3 119 -13 164 -32 144 -4 -4 -11 -50
-14 -102 -7 -92 -19 -125 -45 -125 -6 0 -20 -9 -30 -20 -26 -28 -16 -81 38
-197 25 -54 50 -114 55 -133 16 -56 24 -110 15 -110 -15 1 -41 46 -53 91 -7
25 -28 62 -50 85 -30 32 -41 56 -54 112 -9 39 -16 84 -16 99 0 15 -4 34 -9 42
-11 17 -31 5 -31 -19 0 -47 -22 -21 -65 78 -26 59 -55 127 -65 152 -23 59 -66
280 -54 280 7 0 78 -81 91 -104 6 -11 11 -57 11 -101 0 -89 26 -182 64 -222
28 -29 42 -29 66 2 25 32 30 32 24 -1 -4 -21 -1 -25 14 -22 24 5 22 54 -7 151
-19 65 -41 99 -70 109 -10 3 -16 35 -21 109 -5 77 -15 127 -38 194 -17 50 -40
126 -51 170 -11 46 -36 107 -59 146 -22 37 -42 85 -46 107 -5 32 -11 42 -28
44 -13 2 -22 11 -24 26 -6 39 33 26 87 -30 41 -43 51 -49 57 -35 3 10 -3 41
-15 70 -20 49 -21 55 -6 83 8 16 15 52 15 79 0 59 -25 162 -44 185 -26 30 -36
59 -56 176 -32 183 -52 181 -51 -7 0 -107 3 -126 26 -176 26 -57 59 -216 53
-256 -3 -21 -6 -19 -46 18 -37 35 -43 47 -49 92 -3 29 -10 53 -15 53 -12 0
-35 -57 -50 -120 -10 -45 -9 -57 15 -129 32 -93 34 -114 10 -109 -35 6 -140
385 -115 410 16 16 48 -15 62 -58 16 -47 26 -43 34 12 9 71 7 272 -3 279 -12
7 -28 -44 -37 -114 -8 -66 -17 -51 -33 54 -22 145 -22 146 -47 155 -17 7 -24
20 -29 54 -9 56 1 86 26 86 11 0 22 7 26 15 3 9 -9 74 -26 146 -19 76 -36 179
-41 247 -5 64 -10 118 -10 118 0 1 -9 4 -19 7 -28 7 -34 76 -30 335 4 187 7
222 22 245 22 33 21 57 -2 175 -28 139 -45 349 -36 440 11 116 10 213 -4 362
-14 146 -9 390 10 465 6 24 20 52 30 61 18 17 21 16 63 -4 24 -12 53 -22 65
-22 28 0 38 26 18 48 -23 27 -27 52 -19 131 8 67 7 74 -10 79 -16 4 -18 16
-17 121 1 154 5 165 54 171 l40 5 12 80 c15 103 16 158 3 150 -6 -4 -22 -29
-35 -56 -14 -27 -27 -49 -28 -49 -4 0 19 160 24 163 2 2 16 8 32 15 34 15 42
35 67 174 21 119 26 193 11 184 -5 -3 -30 -65 -56 -136 -27 -72 -52 -133 -57
-136 -11 -7 -4 22 38 165 19 62 34 127 34 143 0 16 6 41 14 56 7 15 21 61 29
102 9 41 29 114 46 162 17 47 31 92 31 98 0 18 -73 3 -174 -37 -73 -29 -93
-33 -108 -24 -15 9 -30 5 -85 -29 -37 -22 -72 -40 -80 -40 -7 0 -17 -8 -22
-19 -6 -10 -39 -29 -74 -41 -79 -28 -165 -85 -192 -127 -11 -17 -29 -34 -40
-37 -11 -3 -89 -57 -173 -121 -85 -63 -181 -134 -215 -157 -245 -164 -758
-694 -994 -1027 -125 -177 -177 -275 -283 -536 -56 -137 -113 -267 -127 -287
-23 -34 -24 -41 -13 -67 13 -33 12 -45 -30 -261 -16 -80 -33 -195 -39 -256 -6
-64 -21 -144 -35 -190 -32 -98 -32 -100 0 -259 14 -71 29 -172 34 -223 7 -76
14 -101 35 -132 15 -21 33 -64 42 -97 8 -32 20 -64 26 -71 18 -22 142 -11 201
17 97 48 220 185 347 386 63 100 73 131 39 120 -36 -12 -23 20 95 227 55 96
392 542 489 646 17 19 46 40 63 47 49 21 106 67 93 75 -7 4 -2 13 15 24 14 9
24 23 23 30 -5 22 62 97 103 115 22 10 36 20 33 24 -3 3 14 23 37 44 23 21 67
61 98 89 31 27 69 58 85 68 25 16 28 16 23 2 -4 -9 -3 -16 2 -16 13 0 51 46
51 62 0 28 74 79 191 132 50 23 67 57 45 91 -9 14 -12 25 -6 25 5 0 17 14 25
31 9 17 19 28 22 25 3 -3 12 -356 19 -785 14 -843 24 -1083 53 -1261 11 -63
22 -162 26 -220 10 -178 35 -410 55 -510 10 -52 24 -167 30 -255 11 -172 25
-239 59 -297 32 -54 62 -164 64 -239 2 -50 5 -66 16 -65 10 1 18 -14 23 -44 4
-25 24 -92 44 -149 l35 -103 -21 -51 c-35 -80 -18 -141 67 -246 55 -68 88
-132 98 -191 4 -25 14 -58 23 -75 18 -36 274 -434 337 -523 53 -76 89 -179 81
-237 -7 -50 4 -65 80 -108 51 -29 59 -37 57 -60 -1 -22 2 -27 22 -27 16 0 44
-22 90 -72 80 -87 96 -116 131 -243 42 -152 96 -193 197 -150 53 22 74 19 160
-24 42 -21 98 -42 123 -46 48 -7 64 -26 43 -51 -17 -20 -173 -112 -286 -168
-94 -47 -312 -136 -332 -136 -7 0 -81 -27 -166 -60 -85 -33 -162 -60 -172 -60
-35 0 -163 -69 -207 -112 -24 -24 -62 -60 -84 -80 -55 -49 -103 -146 -110
-221 l-5 -58 33 3 c41 4 69 39 77 96 6 46 12 50 49 26 20 -13 68 -18 241 -25
241 -10 299 -18 368 -50 55 -26 63 -40 41 -71 -23 -32 -21 -95 3 -108 22 -11
121 -13 170 -4 39 8 86 56 114 116 17 38 28 49 52 54 16 3 86 19 155 34 201
46 252 53 388 48 94 -4 138 -10 167 -23 22 -10 60 -21 85 -24 43 -6 45 -8 63
-56 32 -87 87 -130 179 -141 67 -7 87 7 99 70 5 30 20 61 38 82 35 40 81 175
81 238 0 24 -22 135 -49 247 -28 111 -48 206 -45 211 12 20 424 2 515 -23 39
-10 56 -10 115 6 45 12 107 19 179 19 l110 1 6 40 c3 22 7 34 8 26 1 -10 10
-12 31 -7 32 6 39 -4 15 -24 -13 -11 -22 -60 -11 -60 2 0 23 9 47 19 38 17
225 61 258 61 15 0 14 -138 -1 -197 -17 -70 -64 -110 -198 -168 -62 -28 -150
-74 -194 -103 -45 -30 -97 -62 -116 -72 -32 -16 -85 -67 -119 -112 -7 -9 -23
-59 -36 -111 -25 -101 -58 -175 -101 -226 l-27 -33 27 -26 c35 -36 109 -37
178 -4 27 12 128 51 225 86 98 36 228 85 288 111 92 38 119 45 165 43 l55 -3
7 -97 c10 -144 42 -255 86 -297 32 -30 40 -33 82 -29 53 5 122 47 139 84 6 14
11 47 11 73 0 34 6 56 21 74 11 15 23 42 26 61 7 46 21 56 128 99 121 47 159
57 232 57 69 0 93 -6 93 -25 0 -7 20 -37 45 -67 47 -58 69 -107 80 -183 4 -25
15 -55 24 -65 14 -17 19 -18 41 -7 83 42 135 256 95 393 -25 87 -53 132 -90
144 -35 11 -154 126 -170 162 -5 13 -36 54 -68 93 -32 38 -68 92 -81 120 -13
27 -31 66 -40 85 -9 19 -26 50 -38 69 -21 33 -21 37 -9 135 7 56 20 112 28
126 29 45 197 211 240 236 47 28 188 172 205 209 6 14 8 28 5 32 -9 9 -54 -13
-98 -48 -20 -16 -39 -29 -43 -29 -10 0 6 33 43 89 25 39 47 59 77 73 40 17 43
22 54 72 8 42 22 67 61 111 27 31 49 61 49 66 0 6 16 29 35 51 39 46 112 189
122 240 3 18 24 65 45 104 21 38 45 104 54 145 9 41 23 82 31 91 11 12 39 18
101 23 48 3 99 10 114 15 17 6 45 4 80 -6 29 -7 56 -14 61 -14 16 0 5 30 -18
48 -14 11 -25 23 -25 26 0 3 28 6 62 6 48 0 59 -3 50 -12 -23 -23 -11 -28 61
-22 l72 6 -40 -24 c-22 -13 -41 -32 -43 -42 -4 -17 1 -18 38 -12 23 4 83 23
134 42 89 35 93 36 196 30 414 -23 459 -20 590 40 67 32 82 35 145 32 40 -2
72 1 75 7 3 6 -13 19 -35 30 -64 31 -149 25 -275 -19 -79 -28 -127 -39 -195
-43 -100 -6 -338 9 -545 34 -190 23 -263 22 -325 -6 -27 -12 -88 -28 -135 -35
-47 -8 -97 -18 -112 -25 -26 -10 -28 -9 -28 13 0 30 32 121 58 166 23 40 35
97 57 269 21 165 51 310 81 396 32 90 48 255 41 414 -5 97 -3 128 8 145 19 29
45 155 45 217 0 28 -4 92 -10 142 -5 51 -14 198 -20 327 -10 218 -15 268 -34
328 -6 17 -3 22 10 22 14 0 15 6 9 43 -4 23 -10 67 -14 97 -4 31 -17 72 -29
91 -25 41 -47 133 -57 234 -4 41 -17 92 -32 125 -62 135 -134 363 -118 378 5
6 45 -30 112 -98 18 -19 48 -62 65 -95 17 -33 76 -139 131 -235 56 -96 113
-204 127 -240 15 -36 45 -94 66 -130 22 -36 61 -117 88 -180 68 -158 235 -504
338 -696 47 -87 132 -249 189 -358 116 -222 180 -306 233 -306 39 0 106 69
106 109 0 16 -22 75 -49 132 -26 57 -53 127 -59 154 -23 105 -424 1206 -517
1417 -23 53 -61 125 -82 160 -54 85 -157 269 -298 533 -64 121 -130 234 -145
250 -16 17 -52 75 -81 130 -29 55 -102 174 -162 265 -124 187 -191 315 -207
398 -6 31 -27 102 -47 157 -20 55 -60 172 -88 260 -30 91 -98 260 -158 390
-57 127 -107 242 -111 256 -3 15 -30 58 -59 95 -30 38 -58 80 -62 94 -13 43
-211 430 -263 515 -27 44 -93 149 -146 233 -54 85 -124 202 -155 261 -67 124
-207 351 -255 414 -18 24 -39 59 -45 79 -6 19 -78 167 -159 329 -82 162 -159
327 -171 366 -16 49 -61 134 -136 255 -61 101 -118 201 -125 223 -37 116 -126
240 -296 410 -143 144 -213 195 -268 195 -10 0 -53 16 -95 35 -90 40 -167 59
-346 86 -159 23 -229 23 -365 -1z m180 -106 c-46 -13 -120 -28 -165 -34 -50
-7 -84 -17 -92 -27 -7 -8 -33 -19 -59 -24 -27 -5 -78 -27 -114 -49 -36 -22
-72 -40 -80 -40 -7 0 -41 -16 -75 -35 l-62 -34 -54 35 c-52 34 -62 36 -116 19
-13 -4 -23 -3 -23 3 0 13 73 43 215 87 66 20 137 46 157 56 28 14 59 19 123
19 61 0 95 5 118 17 50 26 84 31 202 31 l110 0 -85 -24z m238 19 c-16 -2 -40
-2 -55 0 -16 2 -3 4 27 4 30 0 43 -2 28 -4z m-702 -308 c-26 -19 -42 -19 -26
0 7 8 20 15 29 15 13 -1 13 -3 -3 -15z m1424 -127 c0 -5 -4 -8 -8 -8 -12 0
-32 46 -24 54 6 6 31 -31 32 -46z m-854 12 c90 -51 118 -134 74 -219 -38 -75
-97 -98 -181 -70 -70 24 -118 96 -119 177 0 123 111 178 226 112z m-968 3 c-5
-25 -28 -28 -28 -4 0 12 6 21 16 21 9 0 14 -7 12 -17z m-135 -27 c3 -8 3 -23
0 -35 -6 -23 -23 -27 -140 -35 -91 -6 -159 -33 -322 -130 -132 -79 -201 -104
-201 -72 0 9 6 16 14 16 8 0 45 24 82 54 83 64 127 88 148 80 9 -3 16 -1 16 5
0 16 90 55 223 96 122 37 172 43 180 21z m370 -136 c64 -5 126 -14 137 -20 23
-12 34 -43 25 -70 -6 -18 -15 -20 -88 -19 -129 2 -268 -15 -447 -54 -347 -76
-556 -114 -566 -104 -18 18 128 125 215 158 98 37 521 129 566 123 22 -3 93
-9 158 -14z m-91 -251 c11 -6 54 -11 95 -10 68 1 80 -2 139 -35 50 -28 80 -38
130 -42 47 -3 62 -8 54 -16 -6 -6 -81 -10 -208 -11 -179 0 -200 2 -231 20 -43
25 -76 69 -68 89 7 19 58 21 89 5z m-322 -79 c0 -5 -9 -10 -20 -10 -11 0 -20
5 -20 10 0 6 9 10 20 10 11 0 20 -4 20 -10z m805 -130 c15 -6 9 -9 -25 -9 -34
0 -40 3 -25 9 11 5 22 9 25 9 3 0 14 -4 25 -9z m1225 -750 c16 -38 6 -71 -14
-49 -18 18 -37 79 -30 91 8 13 30 -7 44 -42z m1240 -918 c-15 -5 -50 27 -50
46 0 11 9 7 30 -13 17 -17 26 -31 20 -33z m-812 -155 c17 -20 23 -61 12 -77
-9 -13 -15 -9 -40 20 -37 43 -39 70 -6 70 13 0 28 -6 34 -13z m500 -288 c74
-72 83 -85 78 -110 -4 -23 1 -33 32 -61 52 -47 133 -143 245 -288 127 -167
178 -223 204 -225 13 -1 38 -23 65 -57 24 -31 68 -89 100 -130 31 -40 87 -127
124 -193 118 -211 192 -331 238 -386 24 -30 70 -99 101 -154 32 -55 72 -118
90 -140 59 -74 92 -129 200 -330 60 -110 148 -263 196 -341 201 -324 390 -677
404 -756 16 -87 -27 -30 -139 185 -91 174 -165 295 -246 402 -37 50 -107 162
-155 250 -107 195 -159 277 -217 341 -43 49 -99 140 -219 353 -35 63 -78 128
-95 145 -17 17 -57 76 -88 131 -32 55 -77 125 -100 155 -23 30 -86 120 -138
200 -53 80 -165 233 -249 340 -84 107 -221 290 -304 405 -83 116 -177 245
-208 289 -31 43 -57 82 -57 88 0 15 49 -24 138 -113z m-4108 -164 c0 -14 -4
-25 -10 -25 -5 0 -10 11 -10 25 0 14 5 25 10 25 6 0 10 -11 10 -25z m-116
-1118 c13 -21 -15 -53 -38 -44 -26 10 -31 38 -11 54 22 16 35 13 49 -10z
m-159 -177 c-16 -16 -31 -28 -33 -25 -7 7 39 55 52 55 5 0 -3 -13 -19 -30z
m5355 -141 c12 -23 19 -43 16 -46 -6 -7 -46 58 -46 75 0 22 9 13 30 -29z m166
-281 c8 -16 13 -32 10 -35 -5 -6 -46 56 -46 70 0 15 20 -4 36 -35z m120 -190
c14 -22 23 -42 20 -45 -5 -6 -66 76 -66 89 0 16 20 -3 46 -44z m-312 -51 c26
-34 34 -67 17 -67 -13 0 -71 72 -71 87 0 24 29 13 54 -20z m376 -58 c12 -22 8
-35 -8 -25 -13 8 -22 46 -11 46 4 0 13 -9 19 -21z m-204 -230 c8 -17 13 -36
11 -42 -3 -10 -47 62 -47 78 0 13 21 -8 36 -36z m43 -330 c14 -39 15 -67 2
-53 -13 13 -31 84 -21 84 4 0 13 -14 19 -31z m-5159 -2240 c4 -8 13 -25 20
-39 36 -66 42 -84 47 -137 8 -70 -5 -65 -47 18 -52 103 -70 155 -57 168 14 14
28 10 37 -10z m120 -224 c0 -25 -4 -45 -10 -45 -5 0 -10 20 -10 45 0 25 5 45
10 45 6 0 10 -20 10 -45z m5321 -288 c-8 -8 -11 -3 -11 19 1 25 2 27 11 11 8
-14 8 -22 0 -30z m-5166 -282 c19 -33 15 -59 -5 -39 -14 14 -31 74 -21 74 4 0
16 -16 26 -35z m705 -496 c0 -10 -4 -19 -10 -19 -5 0 -10 12 -10 26 0 14 4 23
10 19 6 -3 10 -15 10 -26z m135 -43 c21 -15 31 -99 18 -159 l-8 -38 -42 70
c-50 83 -62 119 -42 132 21 13 53 11 74 -5z m-290 -261 c82 -95 125 -151 121
-161 -3 -8 2 -32 10 -54 9 -22 13 -48 9 -57 -14 -38 -75 67 -75 131 0 32 -66
86 -105 86 -43 0 -51 13 -35 61 13 37 12 40 -24 83 -33 41 -42 56 -32 56 2 0
61 -65 131 -145z m384 113 c8 -20 10 -21 16 -5 13 32 22 17 17 -31 -3 -36 0
-51 12 -61 14 -12 16 -11 16 6 0 11 11 29 25 41 14 12 25 30 25 40 0 41 15 28
35 -31 35 -98 52 -126 93 -145 35 -16 70 -64 87 -120 6 -21 4 -23 -13 -17 -16
4 -25 -1 -38 -20 -14 -21 -16 -40 -10 -110 4 -52 3 -85 -2 -85 -6 0 -12 7 -16
15 -3 8 -21 23 -41 32 -40 19 -44 28 -16 36 39 10 50 119 15 148 -8 6 -14 24
-14 40 0 16 -5 29 -10 29 -6 0 -17 15 -25 33 -12 28 -14 29 -15 9 0 -13 -5
-32 -11 -43 -14 -27 -39 -7 -39 30 0 48 -52 72 -65 30 -17 -54 -55 46 -55 145
0 58 14 74 29 34z m291 -36 c0 -20 -3 -22 -14 -13 -15 13 -27 57 -17 66 9 10
31 -27 31 -53z m-893 -4 c18 -18 42 -55 54 -83 43 -101 88 -137 120 -99 12 14
14 14 20 -3 11 -27 11 -171 0 -178 -13 -7 -47 40 -106 145 -27 47 -65 103 -86
125 -37 39 -69 99 -69 130 0 21 25 7 67 -37z m1246 -34 c7 -44 -11 -150 -28
-164 -24 -20 -38 25 -33 104 5 81 22 123 42 106 8 -5 16 -26 19 -46z m-923
-73 c0 -11 -3 -11 -16 -1 -8 8 -20 22 -26 33 -10 19 -10 19 16 1 14 -11 26
-25 26 -33z m253 -144 c12 -13 34 -47 49 -75 19 -34 34 -52 47 -52 12 0 20 -9
24 -27 4 -17 18 -35 37 -45 46 -26 92 -144 69 -178 -13 -21 -42 18 -75 103
-15 37 -33 72 -41 78 -30 25 -59 -37 -43 -92 5 -16 7 -29 5 -29 -3 0 -26 20
-52 45 -26 25 -60 52 -75 61 -28 15 -128 147 -128 169 0 7 13 15 30 18 16 4
39 16 50 27 27 27 75 26 103 -3z m166 -48 c6 -18 11 -44 10 -58 l-1 -26 -10
27 c-6 18 -20 30 -39 35 -28 8 -29 9 -14 31 22 31 41 28 54 -9z m501 -20 c0
-39 0 -40 22 -25 12 9 30 16 38 16 34 0 100 -97 100 -146 0 -9 -7 -22 -17 -29
-20 -15 -11 -45 15 -45 22 0 47 -25 56 -57 10 -31 -10 -37 -43 -14 -36 26 -41
26 -41 0 0 -12 14 -37 31 -56 24 -28 29 -41 24 -62 -9 -35 -23 -51 -41 -44
-21 8 -18 -4 26 -79 42 -73 47 -88 29 -88 -20 0 -69 58 -69 83 0 13 -9 36 -20
50 l-20 25 27 20 28 20 -18 49 c-9 26 -20 79 -24 116 -3 37 -12 75 -18 84 -11
15 -16 16 -38 4 -14 -7 -30 -11 -35 -7 -17 10 -42 97 -49 164 -6 59 -5 62 16
62 18 0 21 -6 21 -41z m-220 -28 c0 -13 -26 -32 -41 -29 -40 8 48 -188 116
-261 24 -25 50 -64 59 -85 9 -22 25 -46 36 -53 11 -8 20 -21 20 -29 0 -12 -6
-11 -29 5 -40 29 -67 27 -84 -6 l-15 -27 -22 45 c-13 24 -47 105 -77 178 -53
133 -71 206 -56 227 24 32 93 58 93 35z m1474 -30 c7 -10 -22 -37 -30 -28 -9
8 3 37 15 37 5 0 12 -4 15 -9z m-2156 -62 c17 -27 5 -40 -14 -15 -8 11 -14 23
-14 28 0 15 15 8 28 -13z m117 -39 c8 -16 15 -35 15 -42 0 -18 -36 22 -45 50
-9 32 12 27 30 -8z m705 -49 c-1 -13 -3 -13 -15 3 -19 26 -19 42 0 26 8 -7 15
-20 15 -29z m-654 -50 c-8 -13 -36 -15 -36 -3 0 4 5 13 12 20 14 14 34 0 24
-17z m1394 0 c12 -24 13 -88 1 -95 -9 -6 -31 59 -31 93 0 26 16 27 30 2z
m-1388 -108 c34 -38 62 -83 51 -83 -17 0 -93 76 -93 93 0 24 13 21 42 -10z
m797 -33 c5 -17 6 -30 1 -30 -13 0 -32 39 -25 50 9 15 12 13 24 -20z m-470
-34 c9 -10 8 -15 -3 -19 -16 -6 -40 16 -29 26 10 11 19 8 32 -7z m141 -36 c25
-49 25 -50 -4 -50 -27 0 -36 16 -36 66 0 43 13 37 40 -16z m1399 11 c11 -21
27 -41 36 -45 17 -6 61 -94 52 -103 -10 -10 -117 156 -117 182 0 14 12 1 29
-34z m1737 4 c-11 -8 -27 -15 -35 -15 -13 1 -12 4 3 15 11 8 27 15 35 15 13
-1 12 -4 -3 -15z m-2492 -30 c14 -13 26 -31 26 -38 0 -20 -30 -30 -47 -15 -14
11 -43 61 -43 73 0 14 40 2 64 -20z m-954 -15 c12 -16 17 -30 11 -30 -5 0 -19
14 -31 30 -12 17 -17 30 -11 30 5 0 19 -13 31 -30z m1646 -21 c32 -20 124
-131 124 -151 0 -21 -26 0 -44 36 l-18 37 -25 -22 c-13 -13 -29 -43 -35 -66
-13 -52 -36 -68 -66 -47 -26 18 -28 36 -6 69 13 20 15 39 9 95 -8 80 0 87 61
49z m-553 -21 c18 -21 24 -68 7 -68 -9 0 -70 82 -70 95 0 12 45 -7 63 -27z
m-1230 -33 c41 -13 41 -29 0 -33 -34 -3 -63 25 -63 63 1 20 1 20 15 0 9 -10
30 -24 48 -30z m1483 13 c21 -41 54 -78 70 -78 16 0 64 -57 64 -76 0 -21 -18
-17 -30 7 -9 16 -14 18 -26 8 -9 -7 -12 -20 -8 -32 10 -33 -13 -11 -57 54 -22
33 -46 58 -52 56 -7 -2 -14 -23 -17 -48 -6 -54 -24 -58 -28 -6 -2 28 -8 37
-21 37 -24 0 -71 48 -71 71 0 26 10 24 53 -12 47 -39 68 -33 60 15 -5 34 -4
36 20 36 20 0 31 -8 43 -32z m-1046 -23 c17 -9 30 -18 30 -20 0 -13 -40 -3
-61 15 -29 23 -10 26 31 5z m2663 -56 c-19 -34 -78 -89 -93 -89 -24 0 -6 32
41 74 60 54 78 59 52 15z m-1078 -19 c10 -11 15 -23 12 -26 -10 -10 -35 3 -47
25 -15 28 10 29 35 1z m-1205 -33 c0 -31 -25 -65 -39 -52 -6 7 -5 21 4 43 16
37 35 42 35 9z m370 -12 c7 -9 10 -18 7 -21 -10 -11 -37 5 -37 21 0 19 14 19
30 0z m1159 -70 c0 -18 -1 -17 -14 5 -8 14 -14 36 -14 50 1 24 1 24 14 -5 8
-16 14 -39 14 -50z m-232 -31 c8 -22 -15 -43 -27 -24 -5 8 -10 21 -10 28 0 17
30 15 37 -4z m-129 -51 c3 -32 -12 -73 -26 -73 -10 0 -31 98 -23 105 3 3 14 5
26 3 14 -2 21 -12 23 -35z m617 17 c0 -18 -43 -26 -57 -12 -16 16 2 33 30 30
16 -2 27 -9 27 -18z m541 -26 c13 -3 24 -10 24 -14 0 -14 -51 -21 -66 -9 -20
16 -18 43 2 35 9 -3 27 -9 40 -12z m-1743 -11 c10 -10 -13 -33 -34 -33 -21 0
-33 15 -24 30 7 11 48 14 58 3z m-743 -18 c23 -8 57 -15 74 -15 44 0 119 -50
136 -89 11 -28 10 -34 -6 -52 -11 -12 -44 -34 -75 -49 -31 -16 -82 -45 -115
-64 -32 -20 -76 -41 -96 -46 -38 -11 -114 -77 -156 -137 -28 -40 -8 -46 27 -9
30 32 88 59 108 52 22 -9 76 10 146 51 32 20 75 39 94 45 21 6 37 18 43 32 10
27 46 52 102 72 47 16 58 12 35 -14 -10 -10 -17 -26 -17 -35 0 -19 46 -57 70
-57 22 0 46 -28 54 -65 23 -96 91 -102 102 -8 7 57 -21 107 -66 113 -31 4 -35
9 -38 40 -2 20 -16 48 -33 68 -35 39 -27 59 23 64 75 7 24 49 -77 62 -27 4
-63 9 -80 13 l-30 6 25 9 c28 10 147 2 197 -13 18 -6 34 -18 37 -27 3 -9 9
-35 15 -57 6 -22 27 -67 46 -100 44 -73 71 -151 80 -231 9 -73 -2 -88 -69 -97
-25 -4 -78 -23 -117 -42 l-71 -36 -106 32 c-100 30 -120 33 -307 39 -161 5
-207 10 -233 24 -23 12 -44 15 -65 11 -88 -19 -207 -117 -253 -207 -45 -89
-156 -180 -185 -151 -16 16 1 41 46 67 23 14 45 32 48 40 8 19 -41 93 -91 138
-80 72 -182 108 -308 108 -76 0 -123 -17 -147 -53 -28 -42 -72 -60 -139 -55
-56 4 -106 28 -115 55 -5 15 83 47 187 68 94 19 130 36 130 64 0 29 23 41 107
56 102 19 123 18 123 0 0 -19 42 -20 105 -3 35 9 55 9 93 0 36 -10 56 -10 77
-2 36 14 45 26 45 63 0 25 3 27 43 28 56 0 107 19 121 44 17 31 27 35 94 35
55 0 62 2 62 20 0 28 -43 52 -93 52 l-42 0 54 25 c46 22 67 25 150 24 53 0
101 3 107 7 6 4 19 23 29 42 21 42 35 60 45 60 4 0 27 -7 50 -15z m2234 -24
c7 -10 -22 -37 -30 -28 -9 8 3 37 15 37 5 0 12 -4 15 -9z m-154 -48 c0 -21 -3
-24 -9 -14 -5 8 -7 20 -4 28 8 21 13 15 13 -14z m-1750 -23 c0 -5 -12 -10 -26
-10 -14 0 -23 4 -19 10 3 6 15 10 26 10 10 0 19 -4 19 -10z m2255 -21 c32 -38
81 -134 106 -206 10 -29 40 -82 68 -119 53 -69 58 -85 41 -129 -11 -28 4 -69
34 -94 27 -23 18 -31 -34 -31 -44 0 -50 3 -50 20 0 12 -11 43 -25 70 -14 27
-25 58 -25 68 0 10 -15 34 -33 53 -41 42 -111 178 -128 244 -6 28 -20 67 -30
87 -28 55 -25 68 15 68 26 0 41 -8 61 -31z m-208 -18 c48 -35 103 -174 103
-260 0 -68 -9 -91 -33 -88 -22 2 -35 -23 -57 -110 l-11 -43 -95 0 c-73 0 -101
-4 -121 -17 -25 -17 -27 -17 -20 -1 16 43 -40 27 -138 -41 -33 -22 -68 -41
-77 -41 -29 0 -48 12 -48 29 0 17 79 101 95 101 5 0 4 -5 -3 -12 -18 -18 -14
-38 7 -38 27 0 133 82 185 144 49 56 102 159 86 164 -6 2 -24 -8 -41 -22 -17
-14 -43 -29 -57 -32 -46 -11 -85 -35 -140 -85 -31 -28 -63 -49 -76 -49 -49 0
-146 -105 -146 -157 0 -13 -4 -23 -10 -23 -15 0 -149 130 -155 152 -4 12 0 27
10 38 24 27 150 70 198 69 58 -3 100 22 135 80 34 54 78 92 136 116 30 13 57
15 125 10 76 -6 89 -5 110 12 24 20 22 43 -4 43 -7 0 -19 16 -25 35 -6 19 -16
35 -21 35 -6 0 -7 5 -4 11 9 13 62 2 92 -20z m-2938 -70 c20 -13 5 -29 -33
-37 -38 -7 -79 3 -71 17 6 8 57 26 80 28 6 0 16 -3 24 -8z m-241 -83 c-6 -16
-66 -58 -84 -58 -21 0 -7 23 29 47 36 24 61 29 55 11z m132 -18 c0 -12 -40
-33 -48 -25 -4 4 2 13 12 21 23 16 36 18 36 4z m3278 -240 c27 -41 28 -60 2
-93 -23 -29 -120 -92 -120 -77 0 20 39 211 45 221 10 14 45 -10 73 -51z
m-2049 -82 c7 -18 14 -65 18 -105 5 -58 3 -77 -11 -98 -23 -35 -39 -32 -91 16
-34 31 -45 49 -45 71 0 62 57 148 99 148 13 0 23 -11 30 -32z m991 -49 c51
-30 90 -70 90 -91 0 -18 -46 -48 -74 -48 -8 0 -67 -27 -131 -60 -107 -55 -145
-69 -145 -54 0 13 69 104 122 161 32 34 58 71 58 81 0 38 28 42 80 11z m1472
-34 c42 -28 78 -97 77 -146 0 -38 3 -42 -36 53 -17 40 -59 85 -70 75 -9 -9
-33 12 -33 29 0 21 21 17 62 -11z m-740 -25 c21 -6 40 -15 43 -20 3 -4 -4 -46
-15 -92 -12 -49 -20 -120 -21 -173 0 -49 -4 -99 -8 -109 -7 -17 -9 -17 -29 9
-34 43 -63 150 -69 256 -8 136 6 154 99 129z"/>
<path d="M4695 12195 c-35 -35 -33 -76 6 -109 53 -45 77 -45 121 2 23 25 38
51 38 66 0 62 -116 91 -165 41z"/>
<path d="M3781 2702 c-40 -20 -52 -42 -23 -42 12 0 24 -11 32 -30 13 -33 44
-55 60 -45 20 12 -2 124 -26 132 -5 2 -24 -5 -43 -15z"/>
<path d="M4522 2615 c6 -14 15 -25 20 -25 11 0 10 7 -2 31 -16 28 -32 23 -18
-6z"/>
<path d="M2951 9954 c-43 -66 -47 -85 -25 -101 12 -9 21 -10 28 -3 11 11 37
141 30 149 -1 2 -17 -18 -33 -45z"/>
<path d="M3056 9772 c-8 -15 -22 -57 -31 -92 -20 -78 -35 -107 -70 -140 -15
-14 -40 -52 -56 -85 -16 -33 -36 -63 -44 -68 -36 -19 -121 -232 -150 -373 -14
-70 -14 -79 0 -93 23 -23 48 -3 57 45 3 21 18 69 32 107 14 37 26 86 26 108 0
55 19 126 38 141 8 7 38 13 66 13 56 0 58 4 35 63 -19 45 2 83 55 97 21 6 42
18 46 26 9 15 30 194 30 250 0 37 -15 37 -34 1z"/>
<path d="M3131 9501 c-26 -49 -55 -166 -47 -186 8 -21 82 -21 90 1 8 20 8 172
0 202 -9 32 -21 27 -43 -17z"/>
<path d="M3216 9152 c-8 -16 -18 -55 -21 -89 -9 -75 3 -103 46 -103 38 0 47
22 20 56 -18 23 -20 35 -15 95 7 75 -4 91 -30 41z"/>
<path d="M3240 8918 c0 -7 12 -29 26 -49 47 -68 51 -234 7 -281 -12 -13 -37
-58 -57 -100 -27 -60 -40 -78 -55 -78 -14 0 -23 9 -28 28 -11 37 -7 140 6 155
14 17 25 110 17 142 -6 23 -9 25 -22 14 -40 -33 -82 -166 -90 -289 -6 -87 11
-133 61 -160 18 -10 39 -35 52 -63 40 -83 83 -49 83 65 0 54 24 172 47 226 8
19 28 47 45 62 28 26 31 36 36 102 9 142 -30 238 -98 238 -17 0 -30 -5 -30
-12z"/>
<path d="M2854 8885 c-28 -44 -64 -154 -64 -198 0 -61 37 -91 59 -48 10 18 41
205 41 248 0 30 -15 29 -36 -2z"/>
<path d="M3440 8856 c-5 -14 -14 -63 -20 -108 -6 -46 -19 -117 -30 -158 -21
-81 -15 -106 19 -76 49 44 92 232 74 320 -10 47 -29 57 -43 22z"/>
<path d="M2680 8701 c-13 -26 -13 -54 2 -69 35 -35 82 14 60 63 -14 30 -47 33
-62 6z"/>
<path d="M2596 8658 c-9 -12 -16 -29 -16 -38 0 -8 -16 -51 -35 -95 -42 -96
-50 -131 -36 -168 22 -57 61 -10 61 73 0 21 8 48 18 61 27 35 42 85 42 140 0
53 -10 61 -34 27z"/>
<path d="M2876 8533 c-22 -64 -21 -93 4 -93 24 0 40 28 40 74 0 77 -21 86 -44
19z"/>
<path d="M2662 8447 c-17 -20 -35 -115 -27 -145 9 -37 44 -72 72 -72 28 0 29
14 4 71 -11 25 -19 65 -19 92 1 53 -12 76 -30 54z"/>
<path d="M2810 8311 c-34 -48 -51 -111 -52 -191 0 -106 16 -154 68 -197 24
-19 46 -43 49 -54 9 -26 51 -25 66 2 14 26 25 251 15 303 -15 81 -51 4 -62
-136 -4 -43 -10 -78 -14 -78 -4 0 -17 22 -29 49 -29 68 -38 199 -18 274 17 63
9 72 -23 28z"/>
<path d="M2570 8123 c-17 -56 -9 -163 12 -177 24 -15 31 -3 36 64 9 125 -23
199 -48 113z"/>
<path d="M2437 7979 c-52 -39 -58 -64 -58 -244 1 -166 7 -205 36 -205 19 0 19
7 20 220 0 166 1 177 23 213 26 42 20 46 -21 16z"/>
<path d="M2509 7848 c-7 -13 -15 -73 -17 -138 -4 -105 -2 -117 16 -140 17 -21
23 -23 34 -12 27 27 19 300 -9 309 -6 2 -17 -6 -24 -19z"/>
<path d="M3031 7776 c-30 -78 -41 -249 -18 -281 18 -24 37 -11 37 26 0 18 9
37 25 50 l24 22 -19 38 c-14 26 -20 58 -20 104 0 67 -13 85 -29 41z"/>
<path d="M2650 7746 c-30 -79 -52 -293 -35 -345 19 -60 145 -16 145 51 0 9
-13 38 -30 65 -24 39 -31 63 -36 128 -7 100 -12 125 -24 125 -6 0 -15 -11 -20
-24z"/>
<path d="M4086 7718 c-2 -7 -8 -51 -13 -98 -8 -67 -17 -95 -41 -135 -58 -93
-67 -186 -17 -177 26 5 14 -45 -35 -142 -22 -43 -40 -86 -40 -95 0 -34 41 -51
84 -35 13 5 15 16 10 53 -5 39 1 62 36 151 23 58 50 114 60 125 30 35 33 45
10 45 -11 0 -32 -11 -46 -25 -14 -14 -29 -25 -34 -25 -10 0 -5 16 39 140 42
118 42 230 -1 230 -5 0 -10 -6 -12 -12z"/>
<path d="M2926 7581 c-9 -15 4 -40 25 -46 20 -7 39 1 39 15 0 14 -58 41 -64
31z"/>
<path d="M7175 7476 c-18 -27 -7 -69 20 -80 22 -8 34 0 46 31 11 29 -11 73
-36 73 -8 0 -22 -11 -30 -24z"/>
<path d="M2853 7424 c-9 -23 13 -40 32 -24 12 10 13 16 4 26 -15 18 -28 18
-36 -2z"/>
<path d="M2475 7400 c-9 -15 14 -188 31 -228 20 -48 81 -67 120 -37 18 15 18
16 -19 48 -29 25 -41 46 -53 92 -18 67 -50 135 -64 135 -5 0 -12 -5 -15 -10z"/>
<path d="M4141 7196 c-19 -48 -64 -377 -54 -387 28 -28 62 29 82 136 16 87 14
237 -3 261 -14 18 -15 18 -25 -10z"/>
<path d="M2802 7160 c-31 -75 -47 -166 -33 -184 20 -23 50 -7 61 33 12 44 13
188 1 195 -5 3 -18 -17 -29 -44z"/>
<path d="M2379 7103 c-6 -21 -13 -92 -16 -158 -4 -109 -2 -123 17 -153 37 -60
45 -38 43 119 -4 219 -17 278 -44 192z"/>
<path d="M2474 7109 c-5 -8 -9 -59 -9 -114 0 -55 -4 -164 -9 -242 -10 -162 -7
-173 54 -173 45 0 54 15 28 51 -21 28 -36 178 -24 243 7 36 7 36 46 30 35 -6
40 -4 40 13 0 27 -53 130 -88 172 -23 28 -30 32 -38 20z"/>
<path d="M2989 7066 c-16 -33 -3 -109 21 -131 19 -17 21 -17 38 -2 26 24 30
22 34 -15 2 -18 8 -31 13 -28 19 10 7 58 -29 110 -20 29 -36 61 -36 71 0 27
-28 23 -41 -5z"/>
<path d="M7440 7035 c-5 -14 -10 -41 -10 -58 0 -18 -13 -59 -30 -92 -40 -82
-42 -163 -4 -198 25 -24 27 -31 35 -178 8 -152 5 -219 -12 -219 -15 0 -26 32
-53 151 -38 171 -41 176 -56 107 -7 -32 -16 -58 -19 -58 -3 0 -19 23 -36 50
-16 28 -33 50 -37 50 -4 0 -8 -15 -8 -32 0 -38 34 -118 49 -118 21 0 41 -48
61 -145 28 -138 52 -157 91 -71 18 40 19 40 19 11 0 -16 9 -46 20 -65 53 -97
58 -115 70 -255 7 -82 20 -163 31 -195 19 -54 24 -90 14 -90 -3 0 -17 12 -30
28 l-23 27 -26 -24 c-14 -13 -28 -35 -31 -50 -3 -14 -17 -34 -30 -43 l-23 -18
4 78 c3 42 7 105 10 139 l6 62 23 -15 c21 -13 24 -13 40 2 26 27 16 108 -18
140 -16 15 -33 47 -42 82 -30 112 -56 135 -67 62 -12 -81 -39 -514 -36 -581 3
-60 5 -64 28 -68 30 -4 40 -17 40 -52 0 -32 21 -52 52 -47 22 3 23 6 20 76 -2
39 0 72 4 72 4 0 30 -19 57 -41 45 -39 50 -40 65 -25 35 35 26 470 -13 616
-15 55 -15 55 10 73 23 17 25 25 25 95 0 110 -24 136 -51 54 -30 -95 -59 -69
-59 52 0 101 23 212 51 250 20 27 21 35 14 135 -5 58 -10 138 -11 176 -1 39
-3 73 -3 76 -1 4 -15 12 -31 19 -20 8 -33 22 -38 43 -10 40 -29 45 -42 12z
m60 -165 c0 -10 -4 -22 -10 -25 -6 -4 -10 7 -10 25 0 18 4 29 10 25 6 -3 10
-15 10 -25z"/>
<path d="M3163 7005 c-13 -37 16 -123 38 -109 10 6 12 84 3 108 -8 20 -33 21
-41 1z"/>
<path d="M7219 6935 c-21 -54 -23 -119 -4 -138 21 -22 44 -22 52 0 7 17 -13
127 -27 153 -7 12 -11 9 -21 -15z"/>
<path d="M4202 6933 c-28 -53 -44 -259 -23 -292 13 -20 81 -20 94 1 9 13 6 26
-11 56 -18 33 -22 55 -22 130 0 92 -5 122 -21 122 -4 0 -12 -8 -17 -17z"/>
<path d="M2836 6874 c-8 -20 -8 -122 0 -151 7 -27 32 -37 51 -21 16 13 13 44
-13 136 -15 53 -27 65 -38 36z"/>
<path d="M2956 6844 c-19 -50 7 -96 77 -133 33 -19 38 -19 44 -5 10 28 -16 91
-52 123 -40 34 -60 39 -69 15z"/>
<path d="M3221 6748 c4 -74 29 -136 49 -123 26 16 -8 183 -39 193 -11 4 -13
-10 -10 -70z"/>
<path d="M2603 6743 c-4 -21 -7 -85 -8 -143 l0 -105 28 -3 27 -3 -1 98 c-1
118 -10 185 -26 190 -7 3 -15 -11 -20 -34z"/>
<path d="M3367 6729 c-72 -101 -100 -424 -47 -534 21 -44 104 -120 120 -110
11 7 21 311 12 365 -4 25 -11 44 -17 44 -12 -2 -31 -60 -42 -128 -4 -28 -14
-52 -22 -54 -12 -4 -13 23 -8 164 3 93 11 189 17 213 14 56 9 72 -13 40z"/>
<path d="M3903 6663 c10 -159 35 -200 132 -222 30 -7 55 -15 55 -19 0 -4 -9
-41 -20 -82 -27 -102 -26 -146 2 -161 18 -10 24 -8 39 10 19 24 33 132 27 221
-3 54 -4 55 -53 86 -74 47 -91 68 -131 165 -20 49 -41 89 -47 89 -6 0 -8 -32
-4 -87z"/>
<path d="M2747 6672 c-9 -9 -33 -67 -53 -127 -32 -97 -37 -125 -41 -235 -4
-104 -2 -128 11 -145 29 -37 38 -2 33 133 -6 139 -2 162 23 162 28 0 36 19 49
119 14 98 7 126 -22 93z"/>
<path d="M4426 6682 c-5 -9 -26 -155 -26 -188 0 -35 26 -30 39 8 16 45 25 132
17 162 -6 25 -20 34 -30 18z"/>
<path d="M4506 6648 c-14 -44 -15 -78 -6 -157 11 -102 26 -143 49 -139 14 3
16 22 15 128 -1 69 -7 137 -13 153 -11 28 -39 37 -45 15z"/>
<path d="M3116 6642 c-9 -15 13 -78 34 -97 45 -40 52 24 9 78 -21 28 -34 33
-43 19z"/>
<path d="M2991 6607 c-34 -34 8 -213 48 -205 13 3 16 15 13 67 -4 111 -30 169
-61 138z"/>
<path d="M3642 6549 c-15 -23 -16 -42 -2 -34 16 10 31 43 22 49 -4 2 -13 -4
-20 -15z"/>
<path d="M2363 6534 c-10 -25 22 -291 37 -309 20 -24 30 0 30 75 0 63 -23 221
-35 240 -9 15 -25 12 -32 -6z"/>
<path d="M2476 6478 c-3 -18 -10 -103 -15 -188 -11 -206 -2 -275 31 -218 14
25 25 368 14 413 -9 35 -23 31 -30 -7z"/>
<path d="M2811 6447 c-14 -18 -27 -90 -42 -239 -12 -128 -10 -148 19 -148 41
0 47 25 51 208 3 171 -3 209 -28 179z"/>
<path d="M3600 6424 c-16 -48 -8 -103 30 -193 45 -110 46 -130 11 -272 -36
-145 -37 -159 -14 -202 22 -44 31 -146 21 -245 -9 -94 -20 -122 -48 -122 -24
0 -26 -34 -6 -127 15 -69 29 -93 56 -93 50 0 62 23 34 65 -14 21 -14 26 0 47
15 23 26 100 46 334 5 67 19 150 30 185 24 80 49 220 56 319 5 68 4 73 -10 56
-8 -10 -29 -76 -46 -147 -32 -139 -55 -205 -76 -229 -25 -26 -17 43 16 142 44
132 42 190 -11 294 -27 54 -44 105 -51 153 -6 39 -14 71 -18 71 -5 0 -14 -16
-20 -36z"/>
<path d="M7735 6357 c-8 -13 -19 -45 -24 -71 -14 -74 2 -116 45 -116 27 0 36
23 38 103 2 98 -25 136 -59 84z"/>
<path d="M2995 6197 c-9 -33 10 -131 35 -182 28 -59 100 -96 114 -60 3 10 19
15 46 15 35 0 40 3 40 23 0 28 -70 157 -93 171 -26 17 -37 -9 -31 -74 5 -55 5
-55 -13 -32 -10 13 -29 53 -43 90 -27 71 -46 87 -55 49z"/>
<path d="M4347 6204 c-10 -11 -8 -63 3 -85 6 -10 19 -19 30 -19 42 0 36 102
-6 108 -11 2 -23 0 -27 -4z"/>
<path d="M2595 6183 c-5 -10 -10 -79 -13 -154 -5 -154 2 -182 45 -177 42 5 51
31 25 76 -17 31 -22 56 -22 109 0 84 -10 163 -20 163 -4 0 -11 -8 -15 -17z"/>
<path d="M7687 6089 c-32 -98 -10 -439 28 -439 20 0 30 206 16 350 -6 65 -11
123 -11 129 0 28 -19 6 -33 -40z"/>
<path d="M3480 5945 c-13 -14 -19 -25 -13 -25 5 0 20 11 33 25 13 14 19 25 13
25 -5 0 -20 -11 -33 -25z"/>
<path d="M2439 5894 c-17 -21 -18 -99 -1 -115 20 -21 34 4 35 60 1 59 -13 81
-34 55z"/>
<path d="M3443 5799 l-17 -61 -22 27 c-15 18 -28 26 -45 23 -42 -6 -36 -48 20
-146 27 -48 59 -110 71 -139 22 -52 52 -75 72 -55 6 6 4 47 -6 114 -9 58 -16
137 -16 176 0 73 -12 122 -30 122 -5 0 -18 -28 -27 -61z"/>
<path d="M2761 5783 c-6 -21 -11 -63 -11 -93 0 -137 66 -220 175 -220 68 0
186 -22 191 -35 3 -6 -2 -70 -12 -141 -26 -211 -28 -256 -9 -356 19 -107 47
-178 69 -178 27 0 29 46 7 112 -12 35 -25 100 -28 146 -5 72 -4 85 13 103 38
42 29 341 -12 404 -7 11 -17 45 -21 75 -5 29 -14 55 -21 58 -7 2 -20 -16 -32
-42 -33 -79 -49 -62 -60 65 -4 49 -10 93 -14 97 -19 19 -46 -57 -61 -171 l-6
-48 -32 27 c-56 47 -84 97 -92 169 -8 75 -28 87 -44 28z"/>
<path d="M3250 5751 c-16 -31 -13 -177 6 -212 32 -63 58 -5 49 111 -8 96 -14
120 -31 120 -7 0 -18 -9 -24 -19z"/>
<path d="M2497 5663 c-32 -52 4 -312 49 -358 21 -20 31 -19 44 5 8 15 7 25 -4
43 -9 12 -26 85 -39 160 -22 127 -37 172 -50 150z"/>
<path d="M3380 5485 c-5 -14 -10 -40 -10 -56 0 -21 -11 -40 -35 -65 -19 -19
-35 -39 -35 -45 0 -6 -11 -24 -25 -41 -20 -24 -25 -40 -25 -86 0 -58 12 -115
30 -142 9 -13 12 -13 24 3 7 9 16 35 20 56 3 22 13 46 21 55 10 10 15 35 15
82 0 64 1 66 18 51 52 -47 77 22 51 142 -13 64 -35 84 -49 46z"/>
<path d="M7186 5459 c-8 -19 -21 -104 -30 -189 -9 -85 -28 -208 -43 -273 -22
-95 -24 -122 -15 -138 15 -23 16 -94 1 -120 -16 -30 -29 -13 -18 24 5 17 9 33
9 35 0 1 -11 -5 -25 -14 -37 -24 -41 -51 -11 -83 l25 -26 -24 -54 c-14 -29
-25 -61 -25 -72 0 -16 4 -17 28 -8 82 31 131 150 138 334 2 61 9 219 16 353 8
181 8 246 0 254 -9 9 -15 3 -26 -23z"/>
<path d="M2742 5428 c-15 -15 -16 -102 -1 -129 5 -11 13 -52 16 -92 6 -79 16
-107 38 -107 21 0 28 19 26 69 -3 90 -43 271 -59 271 -5 0 -13 -5 -20 -12z"/>
<path d="M2996 5368 c-10 -39 -7 -208 5 -229 8 -16 13 -18 25 -8 10 9 14 38
14 119 0 60 -3 115 -6 124 -9 23 -31 19 -38 -6z"/>
<path d="M7330 5360 c-19 -27 -24 -46 -24 -103 -1 -54 3 -72 16 -80 12 -8 21
-7 32 2 12 10 16 31 15 90 -1 42 -4 87 -8 101 l-7 24 -24 -34z"/>
<path d="M3991 5324 c-27 -34 -43 -94 -39 -147 3 -37 6 -42 28 -42 23 0 26 5
38 80 18 106 19 127 6 132 -7 2 -21 -8 -33 -23z"/>
<path d="M7525 5327 c-8 -14 -20 -40 -25 -58 -14 -49 -24 -182 -16 -215 7 -28
8 -28 23 -9 20 28 103 191 119 237 14 41 9 46 -22 23 -26 -19 -34 -19 -34 4 0
10 -6 24 -14 30 -12 10 -18 8 -31 -12z"/>
<path d="M2919 5293 c-6 -16 -11 -66 -11 -111 -1 -67 3 -89 18 -109 11 -14 24
-25 29 -24 11 2 13 201 2 244 -9 35 -25 35 -38 0z"/>
<path d="M3756 5198 c-24 -34 -20 -102 7 -134 14 -16 29 -24 35 -20 15 9 16
114 2 150 -12 32 -24 33 -44 4z"/>
<path d="M4175 5090 c-10 -17 37 -220 57 -244 18 -21 18 -21 34 -1 24 30 14
186 -13 224 -21 27 -66 40 -78 21z"/>
<path d="M7371 5008 c-7 -35 -15 -112 -18 -171 -7 -117 -3 -127 45 -127 25 0
27 -14 7 -50 -32 -56 -4 -78 59 -45 15 8 29 15 30 15 0 0 2 -27 3 -60 1 -33 4
-86 5 -117 2 -47 -4 -77 -35 -155 -46 -122 -55 -169 -33 -187 20 -17 32 -8 67
47 25 40 29 43 29 21 0 -14 5 -30 12 -37 13 -13 68 -17 68 -4 0 4 9 61 20 127
11 66 20 126 20 133 0 24 -17 11 -51 -38 -19 -27 -36 -50 -39 -50 -3 0 -2 33
3 73 6 40 6 117 2 171 -6 86 -10 100 -31 119 -22 19 -24 29 -24 101 0 144 -21
163 -68 65 l-30 -62 5 109 c5 109 -3 174 -24 181 -6 2 -16 -22 -22 -59z"/>
<path d="M3472 4898 c5 -166 17 -223 41 -199 8 8 12 60 12 154 0 116 -4 148
-18 175 -34 63 -40 41 -35 -130z"/>
<path d="M3940 5036 c0 -8 7 -48 15 -90 17 -91 50 -169 67 -164 31 11 11 186
-28 245 -16 25 -54 31 -54 9z"/>
<path d="M6851 4993 c-18 -47 -41 -156 -41 -200 0 -36 3 -43 20 -43 26 0 39
48 47 173 6 99 -3 125 -26 70z"/>
<path d="M2888 4986 c-8 -20 -7 -40 8 -95 10 -39 15 -74 11 -77 -4 -4 -22 1
-42 11 -19 11 -37 16 -41 12 -13 -13 -5 -77 20 -148 32 -92 50 -119 81 -119
33 0 32 22 0 102 -14 34 -25 62 -25 63 0 1 14 17 31 35 31 32 31 35 26 100 -6
71 -29 140 -47 140 -6 0 -15 -11 -22 -24z"/>
<path d="M3601 4905 c-31 -83 -48 -232 -32 -284 27 -93 49 -35 63 167 12 176
3 209 -31 117z"/>
<path d="M6982 4935 c-27 -33 -102 -207 -109 -250 -4 -27 -2 -35 10 -35 33 0
99 104 123 195 25 93 13 138 -24 90z"/>
<path d="M7306 4932 c-2 -4 -19 -64 -36 -132 -35 -139 -55 -194 -69 -186 -5 3
-14 -1 -21 -9 -10 -13 -10 -23 -1 -53 10 -31 9 -44 -5 -82 -25 -67 -33 -416
-10 -445 l16 -20 16 20 c12 16 14 39 10 120 -3 55 -7 118 -8 140 -4 68 36 232
61 252 26 22 46 123 57 291 6 102 4 126 -10 104z"/>
<path d="M3264 4823 c-12 -78 2 -258 22 -292 17 -29 17 -36 0 -158 -25 -178
-32 -397 -14 -447 13 -39 44 -61 67 -47 9 6 4 27 -17 82 -17 41 -28 77 -25 82
8 13 40 -12 62 -48 26 -44 64 -64 86 -45 9 7 13 20 10 28 -3 8 -14 67 -25 131
-30 169 -49 202 -70 119 -23 -91 -30 -83 -23 27 11 175 9 260 -5 278 -12 14
-22 88 -38 270 -3 37 -9 67 -14 67 -5 0 -12 -21 -16 -47z"/>
<path d="M6669 4813 c-9 -10 -14 -42 -14 -85 0 -58 3 -72 20 -84 35 -26 50
-14 48 41 -2 53 -21 132 -33 140 -4 3 -14 -3 -21 -12z"/>
<path d="M2997 4793 c-14 -13 -7 -140 8 -153 23 -19 35 -2 35 49 0 73 -22 126
-43 104z"/>
<path d="M3400 4762 c0 -10 5 -23 12 -30 7 -7 20 -12 30 -12 24 0 23 36 -1 50
-29 15 -41 12 -41 -8z"/>
<path d="M4481 4682 c-18 -42 -10 -102 14 -118 37 -24 48 -4 38 72 -9 78 -31
97 -52 46z"/>
<path d="M6432 4648 c-21 -69 -22 -86 -6 -102 18 -19 28 -20 55 -6 25 14 24
46 -1 60 -14 8 -20 21 -20 45 0 44 -15 45 -28 3z"/>
<path d="M3403 4608 c-24 -46 -20 -142 10 -263 14 -55 35 -165 47 -245 12 -80
30 -183 41 -229 26 -113 44 -134 73 -88 13 19 13 30 1 87 -53 241 -65 310 -80
435 -26 224 -47 335 -65 335 -5 0 -17 -15 -27 -32z"/>
<path d="M3146 4604 c-22 -21 -20 -80 4 -132 22 -48 45 -62 67 -40 13 14 12
20 -6 54 -12 21 -21 53 -21 71 0 60 -15 76 -44 47z"/>
<path d="M4269 4553 c-11 -31 -15 -302 -4 -345 5 -20 13 -28 30 -28 46 0 47 8
14 293 -6 53 -15 100 -20 103 -5 3 -14 -7 -20 -23z"/>
<path d="M2813 4510 c8 -68 37 -134 67 -150 50 -27 48 20 -5 138 -23 48 -39
72 -51 72 -15 0 -16 -8 -11 -60z"/>
<path d="M4685 4546 c-22 -22 -45 -81 -45 -118 0 -10 9 -27 21 -39 29 -29 45
-12 52 55 3 30 13 66 22 80 31 46 -8 64 -50 22z"/>
<path d="M3035 4515 c10 -71 32 -114 70 -137 27 -15 35 -27 35 -48 0 -15 -6
-33 -13 -39 -18 -14 -39 9 -68 74 -24 57 -48 87 -60 79 -5 -3 -9 -31 -9 -62 0
-79 32 -143 80 -158 39 -13 44 -23 58 -119 11 -69 27 -95 60 -95 12 0 13 11 8
58 -4 31 -11 109 -14 173 l-8 115 -64 102 c-36 56 -69 102 -74 102 -4 0 -5
-20 -1 -45z"/>
<path d="M3666 4528 c-29 -41 -13 -152 30 -199 14 -16 84 -29 84 -15 0 2 -12
30 -27 62 -15 33 -32 83 -38 113 -12 62 -26 72 -49 39z"/>
<path d="M4840 4475 c-16 -20 -16 -90 0 -110 7 -8 20 -15 30 -15 23 0 35 -15
57 -75 20 -55 47 -70 59 -33 11 34 6 76 -16 125 -15 35 -24 43 -45 43 -20 0
-29 8 -40 34 -18 43 -29 50 -45 31z"/>
<path d="M4441 4445 c-32 -76 -55 -395 -29 -411 42 -26 67 135 51 332 -8 100
-10 107 -22 79z"/>
<path d="M3910 4425 c-18 -47 -46 -340 -36 -373 4 -11 24 -27 45 -35 21 -9 41
-23 44 -31 10 -25 43 -19 56 10 41 91 41 438 -1 396 -6 -6 -14 -62 -18 -125
-8 -112 -25 -174 -45 -166 -6 2 -10 60 -10 144 0 174 -2 205 -15 205 -6 0 -15
-11 -20 -25z"/>
<path d="M7306 4418 c-27 -39 -17 -193 13 -193 38 0 57 206 19 213 -9 2 -23
-7 -32 -20z"/>
<path d="M3554 4394 c-9 -34 2 -152 30 -316 27 -156 56 -229 96 -238 17 -4 35
-23 57 -60 62 -106 77 -118 113 -85 16 14 18 13 24 -24 4 -26 13 -44 27 -51
47 -26 99 12 66 48 -10 11 -22 48 -28 83 -20 125 -44 233 -55 250 -7 12 -31 0
-38 -17 -3 -9 1 -57 9 -107 17 -106 19 -137 6 -137 -12 0 -39 69 -57 146 -8
35 -19 75 -24 90 -10 25 -11 25 -35 10 -23 -15 -25 -15 -35 4 -6 11 -19 20
-29 20 -28 0 -31 9 -13 40 16 27 15 32 -22 127 -49 127 -67 192 -60 220 5 17
2 23 -10 23 -8 0 -19 -12 -22 -26z"/>
<path d="M6996 4385 c-23 -23 -19 -103 6 -119 24 -15 38 2 45 50 4 29 0 45
-14 63 -18 22 -20 23 -37 6z"/>
<path d="M4564 4335 c-37 -66 -72 -251 -54 -285 11 -20 13 -21 30 -5 23 20 43
152 38 245 -2 54 -5 62 -14 45z"/>
<path d="M5526 4321 c-9 -16 -16 -46 -16 -66 0 -47 26 -47 46 1 28 68 1 126
-30 65z"/>
<path d="M6280 4330 c-6 -10 -13 -40 -16 -65 -6 -40 -5 -45 13 -45 27 0 43 20
50 64 9 54 -25 87 -47 46z"/>
<path d="M4190 4305 c-8 -20 -8 -48 -1 -94 11 -70 24 -92 42 -74 18 18 7 159
-13 180 -16 15 -18 15 -28 -12z"/>
<path d="M4675 4318 c-42 -131 -57 -246 -35 -273 25 -31 42 6 51 112 5 54 11
108 14 120 9 38 -18 75 -30 41z"/>
<path d="M3740 4243 c1 -66 56 -161 80 -137 19 19 -40 174 -67 174 -8 0 -13
-13 -13 -37z"/>
<path d="M6840 4265 c-30 -36 -5 -127 41 -150 62 -33 76 -16 54 63 -28 95 -62
127 -95 87z"/>
<path d="M7737 4254 c-14 -14 -28 -38 -32 -53 -3 -15 -30 -68 -60 -117 -58
-94 -64 -114 -41 -133 34 -28 76 31 76 105 0 19 3 34 7 34 3 0 19 -15 35 -32
27 -32 28 -32 43 -14 11 15 15 46 15 122 0 57 -4 105 -9 108 -5 3 -20 -6 -34
-20z"/>
<path d="M2944 4218 c-4 -7 -9 -48 -11 -93 -5 -93 9 -132 45 -127 22 3 26 -1
36 -50 4 -15 16 -36 28 -48 55 -51 65 67 12 158 -46 81 -63 116 -69 145 -6 28
-28 36 -41 15z"/>
<path d="M5150 4205 c-12 -33 -27 -211 -20 -249 6 -35 19 -41 45 -22 17 12 20
29 23 128 4 110 -6 168 -28 168 -6 0 -15 -11 -20 -25z"/>
<path d="M5772 4205 c-18 -38 -15 -114 3 -121 27 -11 45 16 45 66 0 80 -24
107 -48 55z"/>
<path d="M5644 4184 c-8 -30 6 -80 21 -76 26 7 25 102 -1 102 -7 0 -17 -12
-20 -26z"/>
<path d="M4955 4156 c-20 -48 -37 -163 -29 -200 9 -47 32 -76 58 -76 28 0 40
24 26 50 -6 10 -10 66 -10 124 0 106 -5 136 -22 136 -5 0 -15 -15 -23 -34z"/>
<path d="M4116 4147 c-21 -32 -31 -133 -17 -183 12 -47 51 -87 78 -82 24 4 28
42 9 83 -9 18 -16 53 -17 77 0 64 -12 121 -26 125 -6 2 -19 -6 -27 -20z"/>
<path d="M6019 4153 c-20 -23 -18 -108 3 -129 14 -14 20 -15 32 -4 28 23 17
150 -13 150 -5 0 -15 -7 -22 -17z"/>
<path d="M6174 4105 c-13 -20 -19 -47 -19 -90 0 -54 2 -60 21 -63 17 -2 24 5
33 29 15 44 14 111 -3 134 -13 18 -14 17 -32 -10z"/>
<path d="M7028 4090 c-21 -45 -48 -176 -48 -233 0 -24 7 -52 15 -63 15 -18 15
-18 29 -1 18 23 28 134 24 247 l-3 85 -17 -35z"/>
<path d="M6389 4083 c-10 -11 -15 -58 -18 -168 -3 -166 4 -199 42 -193 22 3
22 6 21 163 -1 205 -9 242 -45 198z"/>
<path d="M6575 4059 c-47 -90 -60 -302 -17 -275 14 8 62 216 62 266 0 50 -22
54 -45 9z"/>
<path d="M5905 3995 c-21 -47 -17 -70 15 -70 29 0 47 38 36 79 -9 36 -31 33
-51 -9z"/>
<path d="M7269 3983 c-31 -73 -61 -189 -57 -226 4 -45 37 -44 60 3 20 40 53
233 44 255 -10 27 -26 16 -47 -32z"/>
<path d="M6751 3986 c-16 -20 -1 -120 20 -124 9 -1 21 8 27 23 30 66 -8 149
-47 101z"/>
<path d="M7761 3964 c-44 -56 -68 -210 -34 -221 30 -10 93 167 79 222 -8 32
-19 32 -45 -1z"/>
<path d="M4280 3925 c-16 -19 -7 -69 25 -137 20 -43 24 -62 19 -101 -9 -63 17
-134 52 -143 14 -4 27 -4 30 -1 5 5 -20 199 -36 282 -12 58 -43 115 -64 115
-7 0 -19 -7 -26 -15z"/>
<path d="M3170 3905 c0 -9 15 -55 34 -103 40 -104 56 -174 56 -246 0 -58 18
-93 43 -83 41 16 29 176 -23 300 -41 99 -110 181 -110 132z"/>
<path d="M7410 3870 c-24 -47 -70 -213 -70 -252 0 -44 27 -34 54 21 29 57 66
190 66 238 0 46 -25 43 -50 -7z"/>
<path d="M6153 3843 c8 -64 24 -115 42 -138 15 -20 15 -20 31 0 12 15 14 34
10 74 -6 62 -32 104 -66 109 -22 4 -23 2 -17 -45z"/>
<path d="M8505 3885 c-5 -2 -41 -13 -80 -24 -84 -26 -150 -61 -150 -81 0 -19
23 -16 102 15 35 14 84 30 110 36 61 13 197 13 223 -1 22 -12 27 -49 8 -68
-20 -20 -4 -22 47 -6 28 8 132 21 233 28 101 8 186 17 189 20 18 17 -28 29
-163 42 -82 7 -192 21 -244 29 -84 13 -248 19 -275 10z"/>
<path d="M4540 3840 c0 -18 7 -72 16 -121 14 -75 20 -89 36 -89 62 0 34 229
-30 238 -19 3 -22 -1 -22 -28z"/>
<path d="M5500 3850 c-6 -12 -10 -35 -8 -53 4 -41 38 -45 52 -6 19 56 -19 106
-44 59z"/>
<path d="M5093 3764 c-9 -23 6 -330 17 -359 12 -31 38 -32 49 -2 27 73 18 291
-14 341 -21 31 -44 40 -52 20z"/>
<path d="M4010 3716 c0 -75 6 -86 46 -86 39 0 40 3 15 38 -10 15 -26 44 -34
65 -9 20 -18 37 -21 37 -4 0 -6 -24 -6 -54z"/>
<path d="M7561 3706 c-25 -39 -61 -140 -61 -168 0 -11 -20 -71 -45 -135 -48
-121 -55 -170 -29 -180 24 -9 44 19 65 88 10 35 43 137 74 227 30 89 55 169
55 176 0 11 -20 26 -35 26 -2 0 -13 -15 -24 -34z"/>
<path d="M6762 3706 c-18 -39 -34 -145 -27 -177 4 -16 15 -34 25 -39 27 -14
116 -12 128 3 6 7 14 53 17 102 6 74 4 94 -9 110 -16 20 -16 20 -36 -4 -13
-15 -20 -38 -20 -66 0 -47 -17 -105 -31 -105 -5 0 -9 31 -9 69 0 75 -8 131
-20 131 -4 0 -12 -11 -18 -24z"/>
<path d="M4994 3706 c-11 -28 5 -213 21 -252 16 -39 45 -46 46 -11 4 102 -19
240 -45 265 -14 14 -16 14 -22 -2z"/>
<path d="M3580 3686 c0 -61 113 -172 147 -145 18 16 2 42 -65 112 -61 62 -82
70 -82 33z"/>
<path d="M5825 3604 c-21 -45 -15 -108 13 -137 32 -31 45 -13 37 52 -15 134
-21 145 -50 85z"/>
<path d="M5311 3552 c-6 -21 -16 -73 -22 -116 -15 -113 2 -162 35 -98 31 61
46 195 26 233 -16 29 -28 23 -39 -19z"/>
<path d="M7377 3533 c-48 -51 -73 -143 -45 -171 22 -22 47 6 68 78 11 38 28
73 37 78 21 12 10 42 -15 42 -10 0 -30 -12 -45 -27z"/>
<path d="M7645 3478 c-45 -101 -42 -173 7 -151 21 9 26 22 36 89 16 102 15
114 -4 114 -9 0 -25 -22 -39 -52z"/>
<path d="M5641 3491 c-24 -43 1 -169 31 -159 20 7 32 82 22 130 -10 48 -36 62
-53 29z"/>
<path d="M4516 3456 c-14 -74 16 -166 54 -166 29 0 24 47 -16 158 -19 51 -30
53 -38 8z"/>
<path d="M4021 3452 c-14 -26 -14 -97 -1 -123 12 -22 43 -25 59 -5 9 11 7 23
-9 52 -11 21 -20 46 -20 54 0 8 -4 21 -9 29 -7 11 -11 10 -20 -7z"/>
<path d="M6260 3411 c-19 -37 -12 -100 15 -126 22 -23 65 -34 65 -18 0 21 -53
163 -60 163 -5 0 -14 -9 -20 -19z"/>
<path d="M6598 3413 c-39 -45 -62 -123 -39 -137 17 -11 70 45 82 84 19 62 -7
93 -43 53z"/>
<path d="M4743 3412 c-37 -23 -34 -105 6 -161 26 -36 46 -39 61 -11 8 15 6 29
-10 59 -11 22 -20 53 -20 69 0 33 -19 55 -37 44z"/>
<path d="M5360 3344 c-14 -36 -12 -87 3 -109 30 -40 56 26 37 94 -12 47 -26
52 -40 15z"/>
<path d="M6877 3332 c-39 -43 -30 -112 14 -112 28 0 42 36 34 86 -7 48 -22 55
-48 26z"/>
<path d="M4927 3323 c-14 -14 -6 -53 13 -63 17 -9 20 -21 20 -70 0 -62 17 -94
45 -84 19 8 19 25 0 115 -19 88 -51 130 -78 102z"/>
<path d="M3468 3258 c-4 -73 15 -117 46 -105 20 8 20 47 2 92 -17 40 -45 47
-48 13z"/>
<path d="M7130 3259 c-7 -13 -30 -43 -51 -65 -20 -23 -42 -58 -47 -78 -12 -42
-2 -91 18 -91 18 0 40 42 40 77 0 33 13 43 30 23 17 -21 57 -19 69 4 12 21
-11 116 -34 140 -11 11 -15 10 -25 -10z"/>
<path d="M2355 3259 c-38 -5 -108 -22 -155 -37 -68 -22 -100 -26 -164 -24 -53
2 -96 -3 -130 -14 -73 -23 -259 -121 -304 -159 -39 -34 -97 -127 -85 -139 15
-15 34 -4 47 27 32 78 185 167 354 207 l102 24 20 -22 c12 -12 27 -22 34 -22
7 0 49 -27 92 -61 l79 -61 61 5 c66 5 112 23 97 38 -5 5 -36 13 -69 17 l-59 7
38 22 c36 21 51 53 25 53 -7 0 -35 -7 -62 -15 -38 -12 -58 -13 -82 -5 -59 20
-60 35 -5 59 27 11 63 21 80 21 21 0 31 5 31 15 0 12 14 14 88 9 69 -5 95 -3
127 10 55 23 135 23 152 1 7 -10 14 -23 16 -29 4 -12 170 -16 182 -4 12 12 -6
48 -33 66 -22 14 -55 17 -217 19 -104 1 -221 -3 -260 -8z"/>
<path d="M5884 3225 c-22 -53 -16 -90 16 -90 20 0 26 6 30 30 7 39 -2 87 -18
93 -7 2 -19 -13 -28 -33z"/>
<path d="M4597 3233 c-28 -28 43 -253 79 -253 24 0 27 27 10 101 -27 121 -62
180 -89 152z"/>
<path d="M6776 3195 c-9 -9 -16 -32 -16 -51 0 -27 5 -37 25 -46 38 -17 57 4
53 61 -2 38 -7 47 -24 49 -12 2 -29 -4 -38 -13z"/>
<path d="M2534 3159 c-3 -6 -1 -16 5 -22 9 -9 14 -8 21 3 5 8 10 18 10 23 0
11 -28 8 -36 -4z"/>
<path d="M7504 3131 c-52 -80 -98 -257 -74 -286 29 -35 70 -6 70 48 0 24 18
83 58 196 11 30 18 60 15 68 -10 25 -43 13 -69 -26z"/>
<path d="M8810 3131 c-52 -9 -46 -35 9 -39 50 -4 101 14 101 34 0 15 -44 17
-110 5z"/>
<path d="M6140 3110 c-11 -11 -20 -33 -20 -49 0 -35 31 -77 49 -67 33 21 37
118 6 130 -9 3 -24 -3 -35 -14z"/>
<path d="M6485 3116 c-38 -28 -11 -126 35 -126 43 0 55 69 19 114 -24 30 -28
31 -54 12z"/>
<path d="M6937 3112 c-33 -36 -12 -124 27 -109 20 8 22 84 3 111 -12 16 -14
16 -30 -2z"/>
<path d="M6650 3094 c-15 -38 -12 -62 10 -84 22 -22 37 -25 59 -11 11 7 11 15
2 42 -15 42 -39 79 -51 79 -6 0 -15 -12 -20 -26z"/>
<path d="M5284 3065 c-4 -21 -4 -77 -2 -125 8 -140 60 -219 86 -132 18 59 15
91 -13 138 -14 23 -28 66 -32 95 -10 63 -29 75 -39 24z"/>
<path d="M7374 3075 c-25 -25 -64 -105 -64 -131 0 -23 34 -16 63 14 30 32 71
118 62 132 -11 17 -35 11 -61 -15z"/>
<path d="M4926 3053 c-3 -15 -8 -75 -12 -133 -4 -58 -13 -122 -21 -143 -15
-36 -14 -40 9 -85 16 -32 31 -47 44 -47 17 0 19 9 24 97 4 77 9 100 25 118 19
21 19 22 1 68 -10 26 -23 69 -30 96 -14 57 -32 70 -40 29z"/>
<path d="M5960 3070 c0 -29 42 -90 66 -96 14 -4 28 -4 31 -1 8 9 -15 61 -38
86 -21 22 -59 29 -59 11z"/>
<path d="M7150 3033 c-43 -68 -39 -124 9 -108 13 4 22 22 30 62 21 107 9 122
-39 46z"/>
<path d="M8437 3043 c-26 -7 -16 -24 27 -46 73 -38 256 -32 256 8 0 17 -15 22
-105 35 -72 10 -146 11 -178 3z"/>
<path d="M7635 2974 c-16 -17 -45 -62 -64 -100 -19 -38 -38 -77 -43 -86 -16
-33 23 -20 59 20 48 52 85 127 81 165 l-3 32 -30 -31z"/>
<path d="M6224 2982 c-20 -13 -34 -50 -34 -87 0 -29 3 -36 17 -33 23 4 43 44
43 85 0 34 -9 46 -26 35z"/>
<path d="M9069 2975 c-189 -35 -317 -98 -442 -219 -63 -60 -78 -98 -29 -72 15
8 60 40 101 71 158 120 307 164 387 114 38 -23 48 -15 42 37 -3 28 -1 29 35
26 27 -3 39 1 43 13 15 38 -35 48 -137 30z"/>
<path d="M5515 2958 c-13 -34 -1 -82 25 -95 49 -24 52 25 6 82 -21 25 -26 27
-31 13z"/>
<path d="M6839 2951 c-19 -15 -24 -29 -24 -65 0 -56 23 -87 45 -61 17 20 26
130 12 139 -5 3 -21 -3 -33 -13z"/>
<path d="M6091 2880 c-17 -22 -37 -39 -43 -37 -35 7 -56 -169 -24 -201 20 -20
46 -8 46 22 0 25 3 29 49 65 20 15 25 29 29 79 5 64 -3 112 -17 112 -4 0 -22
-18 -40 -40z"/>
<path d="M6451 2903 c-17 -34 -48 -148 -55 -205 -7 -51 -5 -57 16 -72 23 -16
104 -22 124 -8 6 4 17 38 23 75 12 71 6 97 -25 97 -18 0 -34 32 -34 69 0 57
-28 83 -49 44z"/>
<path d="M5881 2873 c-15 -51 -12 -200 3 -242 16 -44 33 -50 42 -16 8 32 -1
253 -11 278 -11 27 -23 20 -34 -20z"/>
<path d="M2490 2887 c-23 -8 -35 -18 -34 -30 1 -11 -7 -19 -25 -22 -14 -3 -74
-21 -133 -40 -59 -19 -117 -35 -128 -35 -28 0 -90 -33 -115 -60 l-20 -23 63 6
c35 4 69 10 75 14 6 4 30 6 52 4 32 -2 48 4 78 28 60 47 128 66 239 66 92 0
99 -1 124 -27 l27 -26 27 19 c23 17 30 18 53 8 15 -7 27 -18 27 -25 0 -14 -18
-20 -89 -28 -90 -10 -79 -41 19 -57 138 -22 390 34 390 87 0 12 -8 14 -37 8
-21 -4 -48 -11 -61 -15 -27 -10 -113 -12 -137 -3 -8 4 -29 26 -46 50 -16 24
-49 55 -72 68 -72 42 -206 57 -277 33z"/>
<path d="M6634 2864 c-10 -37 3 -163 17 -181 11 -13 14 -13 26 3 16 22 17 129
2 173 -13 38 -36 40 -45 5z"/>
<path d="M7214 2859 c-27 -29 -27 -136 -1 -153 15 -9 24 -4 57 31 45 48 50 70
18 75 -15 2 -24 13 -30 36 -10 38 -18 40 -44 11z"/>
<path d="M6957 2829 c-11 -15 -17 -43 -17 -76 0 -52 0 -53 30 -53 18 0 33 6
36 15 9 22 -4 99 -20 120 -12 17 -14 16 -29 -6z"/>
<path d="M6875 2781 c-9 -18 -37 -85 -62 -149 -25 -64 -58 -143 -74 -174 -33
-65 -36 -99 -13 -122 36 -37 60 -15 66 59 5 67 43 165 64 165 13 0 34 -30 34
-49 0 -5 -18 -31 -40 -56 -42 -48 -49 -80 -30 -129 13 -35 33 -33 67 8 30 37
96 156 108 194 6 20 3 22 -26 22 l-31 0 4 55 c3 31 1 58 -5 62 -5 3 -22 -4
-38 -16 -34 -25 -35 -22 -10 68 21 77 13 114 -14 62z"/>
<path d="M1805 2736 c-22 -7 -76 -30 -120 -51 -114 -54 -133 -58 -148 -34 -15
25 -37 24 -37 -1 0 -14 -7 -20 -23 -20 -13 0 -31 -6 -42 -13 -30 -23 1 -32
102 -31 62 1 101 7 124 18 22 11 44 14 63 10 26 -6 29 -5 18 8 -15 19 -5 28
52 52 56 23 112 21 119 -4 4 -14 13 -20 34 -20 68 1 68 39 0 73 -49 25 -95 29
-142 13z"/>
<path d="M7445 2719 c-77 -68 -105 -179 -44 -179 45 0 59 18 59 75 0 42 5 60
25 83 48 58 19 72 -40 21z"/>
<path d="M2391 2677 c-7 -9 -11 -24 -9 -34 3 -16 5 -15 17 5 15 29 10 50 -8
29z"/>
<path d="M1801 2651 c-18 -11 -5 -31 20 -31 28 0 61 19 54 31 -8 11 -55 12
-74 0z"/>
<path d="M1371 2632 c-6 -11 -8 -22 -5 -25 10 -9 34 4 34 18 0 23 -18 27 -29
7z"/>
<path d="M1220 2631 c0 -12 26 -21 60 -21 33 0 48 15 24 24 -24 9 -84 7 -84
-3z"/>
<path d="M2058 2551 c-119 -31 -232 -66 -251 -76 -34 -18 -36 -18 -62 -1 -26
17 -28 17 -48 -2 -12 -11 -46 -27 -75 -34 -29 -7 -53 -18 -52 -23 2 -15 47 -8
106 16 45 19 58 21 79 11 14 -7 44 -12 66 -12 51 0 219 42 284 71 57 25 178
30 230 10 108 -43 364 -56 452 -23 26 10 56 17 66 14 17 -4 18 -2 2 28 -9 17
-27 36 -41 42 -21 10 -34 7 -87 -20 -95 -49 -186 -41 -349 28 -38 17 -77 30
-87 29 -9 -1 -114 -27 -233 -58z"/>
<path d="M8692 2563 c-45 -14 -57 -14 -79 -2 -23 12 -30 11 -72 -14 -84 -50
-185 -96 -246 -113 -92 -24 -284 -29 -370 -9 -132 30 -125 30 -125 2 0 -22 8
-28 53 -44 43 -14 85 -18 239 -18 104 0 188 -3 188 -7 0 -9 -89 -36 -145 -45
-48 -7 -65 -19 -65 -45 0 -17 6 -19 48 -17 43 3 47 1 46 -19 -1 -30 16 -28
133 12 199 69 224 80 234 98 14 27 5 33 -43 29 -64 -4 -34 22 49 44 137 35
234 68 257 86 31 25 24 54 -16 68 -17 6 -31 11 -32 10 -1 0 -25 -8 -54 -16z
m38 -53 c-22 -14 -163 -61 -168 -56 -6 7 58 38 118 57 55 17 78 16 50 -1z"/>
<path d="M6560 2554 c-10 -11 -11 -23 -4 -42 11 -31 40 -39 68 -19 17 13 17
15 2 45 -18 35 -46 42 -66 16z"/>
<path d="M9260 2474 c-87 -13 -145 -30 -220 -66 -72 -34 -99 -55 -175 -132
-96 -98 -135 -161 -135 -219 0 -76 -23 -87 -65 -32 -21 29 -30 34 -41 24 -8
-6 -14 -22 -14 -35 0 -30 -5 -32 -107 -50 -49 -8 -117 -24 -153 -36 -89 -28
-229 -101 -276 -144 l-39 -35 40 5 c22 3 77 8 123 12 45 3 85 11 88 16 10 15
-16 28 -58 28 -21 0 -38 4 -38 9 0 16 61 31 121 31 55 0 59 1 59 24 0 13 6 28
13 33 6 6 95 13 197 16 210 7 244 15 259 58 9 26 13 29 30 20 27 -15 204 -30
252 -21 22 4 46 13 52 19 18 18 -8 29 -83 36 -36 3 -88 10 -117 16 -53 10
-120 47 -116 64 2 6 31 12 65 15 108 9 119 40 15 40 l-62 1 35 27 c19 15 68
55 110 88 126 102 108 98 400 99 245 2 303 8 334 35 11 10 -113 37 -229 50
-87 9 -213 11 -265 4z m-244 -132 c-10 -16 -86 -65 -92 -59 -3 3 13 19 37 36
40 30 66 40 55 23z"/>
<path d="M6614 2455 c-46 -32 -102 -236 -74 -270 20 -24 46 -1 65 57 10 29 26
67 36 84 19 31 25 97 13 128 -8 20 -14 20 -40 1z"/>
<path d="M1388 2414 c-26 -13 -38 -34 -20 -34 23 1 97 29 100 38 5 17 -47 14
-80 -4z"/>
<path d="M1293 2385 c-3 -9 -3 -18 0 -21 9 -9 27 6 27 22 0 19 -19 18 -27 -1z"/>
<path d="M8200 1730 c-8 -6 -61 -10 -117 -10 -104 0 -164 -13 -147 -30 31 -31
222 -16 267 20 24 20 21 35 -3 20z"/>
<path d="M2536 843 c-3 -4 8 -22 26 -41 l33 -34 -110 3 c-96 4 -110 2 -113
-13 -6 -32 44 -52 132 -53 64 -1 94 -7 143 -28 34 -15 67 -27 73 -27 22 0 8
30 -32 70 -31 30 -37 40 -22 36 51 -15 162 -36 190 -36 16 0 39 6 49 14 18 13
18 14 -3 25 -11 6 -29 11 -39 11 -10 0 -80 18 -156 40 -144 42 -159 45 -171
33z"/>
<path d="M1904 816 c-65 -19 -184 -76 -184 -88 0 -6 10 -8 23 -6 136 30 206
39 343 47 89 5 170 13 180 19 17 10 16 12 -11 22 -48 19 -290 23 -351 6z"/>
<path d="M3500 625 c-8 -2 -40 -6 -70 -10 -58 -6 -89 -19 -77 -31 4 -4 70 -11
145 -14 l138 -6 79 -47 c87 -52 105 -56 105 -28 0 22 -67 84 -124 113 -36 19
-158 33 -196 23z"/>
<path d="M4090 245 c-7 -8 -10 -21 -7 -29 6 -15 66 -36 105 -36 34 0 28 36
-10 60 -39 24 -71 26 -88 5z"/>
<path d="M4463 206 c-78 -36 -223 -147 -223 -172 0 -21 34 -17 55 6 12 13 25
18 40 14 16 -4 36 4 65 25 37 26 52 31 102 31 39 0 72 -7 98 -20 75 -38 106
-23 58 28 l-33 35 61 -6 c81 -7 143 -35 174 -79 l24 -36 56 43 c87 68 90 68
178 50 163 -34 161 -33 169 -77 3 -22 12 -42 20 -45 16 -6 164 16 183 27 25
15 -8 39 -72 51 -33 7 -65 17 -72 24 -24 24 -76 45 -161 65 -121 28 -161 26
-218 -10 -26 -17 -54 -30 -62 -30 -9 0 -39 13 -68 29 -62 35 -131 50 -252 57
-66 3 -98 1 -122 -10z"/>
</g>
</svg>
